<?xml version="1.0" encoding="UTF-8"?>
<svg xmlns="http://www.w3.org/2000/svg" xmlns:xlink="http://www.w3.org/1999/xlink" width="100px" height="100px" viewBox="0 0 100 100" version="1.1">
<g id="surface1">
<path style=" stroke:none;fill-rule:nonzero;fill:rgb(72.54902%,73.333333%,75.686275%);fill-opacity:1;" d="M 37.5 17.96875 C 34.855469 17.96875 32.488281 19.644531 31.605469 22.136719 C 31.320312 22.949219 31.746094 23.84375 32.558594 24.128906 C 33.09375 24.320312 33.652344 24.175781 34.0625 23.835938 L 40.625 31.71875 L 40.625 33.59375 C 40.625 34.457031 41.324219 35.15625 42.1875 35.15625 C 43.050781 35.15625 43.75 34.457031 43.75 33.59375 L 43.75 24.21875 C 43.75 20.773438 40.945312 17.96875 37.5 17.96875 Z M 37.5 17.96875 "/>
<path style=" stroke:none;fill-rule:nonzero;fill:rgb(54.509804%,53.72549%,58.823529%);fill-opacity:1;" d="M 32.8125 21.09375 C 29.949219 21.09375 27.242188 22.191406 25.132812 24.253906 L 5.097656 46.125 L 7.402344 48.234375 L 7.945312 47.644531 L 40.625 56.601562 L 40.625 57.03125 C 40.625 57.894531 41.324219 58.59375 42.1875 58.59375 C 43.050781 58.59375 43.75 57.894531 43.75 57.03125 L 43.75 32.03125 C 43.75 26 38.84375 21.09375 32.8125 21.09375 Z M 32.8125 21.09375 "/>
<path style=" stroke:none;fill-rule:nonzero;fill:rgb(72.54902%,73.333333%,75.686275%);fill-opacity:1;" d="M 62.5 17.96875 C 65.144531 17.96875 67.511719 19.644531 68.394531 22.136719 C 68.679688 22.949219 68.253906 23.84375 67.441406 24.128906 C 66.90625 24.320312 66.347656 24.175781 65.9375 23.835938 L 59.375 31.71875 L 59.375 33.59375 C 59.375 34.457031 58.675781 35.15625 57.8125 35.15625 C 56.949219 35.15625 56.25 34.457031 56.25 33.59375 L 56.25 24.21875 C 56.25 20.773438 59.054688 17.96875 62.5 17.96875 Z M 62.5 17.96875 "/>
<path style=" stroke:none;fill-rule:nonzero;fill:rgb(54.509804%,53.72549%,58.823529%);fill-opacity:1;" d="M 67.1875 21.09375 C 70.050781 21.09375 72.757812 22.191406 74.867188 24.253906 L 94.902344 46.125 L 92.597656 48.234375 L 92.054688 47.644531 L 59.375 56.601562 L 59.375 57.03125 C 59.375 57.894531 58.675781 58.59375 57.8125 58.59375 C 56.949219 58.59375 56.25 57.894531 56.25 57.03125 L 56.25 32.03125 C 56.25 26 61.15625 21.09375 67.1875 21.09375 Z M 67.1875 21.09375 "/>
<path style=" stroke:none;fill-rule:nonzero;fill:rgb(32.54902%,86.27451%,100%);fill-opacity:1;" d="M 39.0625 60.15625 C 39.0625 69.648438 31.367188 77.34375 21.875 77.34375 C 12.382812 77.34375 4.6875 69.648438 4.6875 60.15625 C 4.6875 50.664062 12.382812 42.96875 21.875 42.96875 C 31.367188 42.96875 39.0625 50.664062 39.0625 60.15625 Z M 39.0625 60.15625 "/>
<path style=" stroke:none;fill-rule:nonzero;fill:rgb(36.078431%,32.941176%,41.568627%);fill-opacity:1;" d="M 21.875 38.28125 C 9.8125 38.28125 0 48.09375 0 60.15625 C 0 72.21875 9.8125 82.03125 21.875 82.03125 C 33.9375 82.03125 43.75 72.21875 43.75 60.15625 C 43.75 48.09375 33.9375 38.28125 21.875 38.28125 Z M 21.875 75.78125 C 13.257812 75.78125 6.25 68.773438 6.25 60.15625 C 6.25 51.539062 13.257812 44.53125 21.875 44.53125 C 30.492188 44.53125 37.5 51.539062 37.5 60.15625 C 37.5 68.773438 30.492188 75.78125 21.875 75.78125 Z M 21.875 75.78125 "/>
<path style=" stroke:none;fill-rule:nonzero;fill:rgb(36.078431%,32.941176%,41.568627%);fill-opacity:1;" d="M 37.5 39.84375 L 62.5 39.84375 L 62.742188 39.839844 C 59.699219 42.820312 57.8125 46.96875 57.8125 51.5625 L 57.8125 57.03125 L 42.1875 57.03125 L 42.1875 51.5625 C 42.1875 46.96875 40.300781 42.820312 37.257812 39.839844 "/>
<path style=" stroke:none;fill-rule:nonzero;fill:rgb(100%,100%,100%);fill-opacity:1;" d="M 31.25 57.03125 C 31.25 60.484375 28.453125 63.28125 25 63.28125 C 21.546875 63.28125 18.75 60.484375 18.75 57.03125 C 18.75 53.578125 21.546875 50.78125 25 50.78125 C 28.453125 50.78125 31.25 53.578125 31.25 57.03125 Z M 31.25 57.03125 "/>
<path style=" stroke:none;fill-rule:nonzero;fill:rgb(32.54902%,86.27451%,100%);fill-opacity:1;" d="M 95.3125 60.15625 C 95.3125 69.648438 87.617188 77.34375 78.125 77.34375 C 68.632812 77.34375 60.9375 69.648438 60.9375 60.15625 C 60.9375 50.664062 68.632812 42.96875 78.125 42.96875 C 87.617188 42.96875 95.3125 50.664062 95.3125 60.15625 Z M 95.3125 60.15625 "/>
<path style=" stroke:none;fill-rule:nonzero;fill:rgb(36.078431%,32.941176%,41.568627%);fill-opacity:1;" d="M 78.125 38.28125 C 66.0625 38.28125 56.25 48.09375 56.25 60.15625 C 56.25 72.21875 66.0625 82.03125 78.125 82.03125 C 90.1875 82.03125 100 72.21875 100 60.15625 C 100 48.09375 90.1875 38.28125 78.125 38.28125 Z M 78.125 75.78125 C 69.507812 75.78125 62.5 68.773438 62.5 60.15625 C 62.5 51.539062 69.507812 44.53125 78.125 44.53125 C 86.742188 44.53125 93.75 51.539062 93.75 60.15625 C 93.75 68.773438 86.742188 75.78125 78.125 75.78125 Z M 78.125 75.78125 "/>
<path style=" stroke:none;fill-rule:nonzero;fill:rgb(100%,100%,100%);fill-opacity:1;" d="M 87.5 57.03125 C 87.5 60.484375 84.703125 63.28125 81.25 63.28125 C 77.796875 63.28125 75 60.484375 75 57.03125 C 75 53.578125 77.796875 50.78125 81.25 50.78125 C 84.703125 50.78125 87.5 53.578125 87.5 57.03125 Z M 87.5 57.03125 "/>
<path style=" stroke:none;fill-rule:nonzero;fill:rgb(54.509804%,53.72549%,58.823529%);fill-opacity:1;" d="M 37.5 36.71875 L 62.5 36.71875 L 62.5 39.84375 L 37.5 39.84375 Z M 37.5 36.71875 "/>
</g>
</svg>
<!-- iconic normalized -->