<?xml version="1.0" encoding="UTF-8"?>
<svg xmlns="http://www.w3.org/2000/svg" xmlns:xlink="http://www.w3.org/1999/xlink" width="100px" height="100px" viewBox="0 0 100 100" version="1.1">
<g id="surface1">
<path style=" stroke:none;fill-rule:nonzero;fill:rgb(36.078431%,32.941176%,41.568627%);fill-opacity:1;" d="M 40.628906 93.429688 C 39.515625 93.429688 38.398438 93.160156 37.367188 92.621094 L 19.457031 83.257812 C 16.613281 81.773438 14.84375 78.851562 14.84375 75.644531 L 14.84375 67.042969 C 14.84375 65.746094 15.894531 64.699219 17.1875 64.699219 C 18.480469 64.699219 19.53125 65.746094 19.53125 67.042969 L 19.53125 75.644531 C 19.53125 77.101562 20.335938 78.429688 21.628906 79.105469 L 39.539062 88.46875 C 40.597656 89.019531 41.5 88.597656 41.839844 88.394531 C 42.179688 88.1875 42.96875 87.582031 42.96875 86.390625 L 42.96875 81.105469 C 42.96875 79.808594 44.019531 78.761719 45.3125 78.761719 C 46.605469 78.761719 47.65625 79.808594 47.65625 81.105469 L 47.65625 86.390625 C 47.65625 88.871094 46.390625 91.117188 44.265625 92.40625 C 43.140625 93.085938 41.886719 93.429688 40.628906 93.429688 Z M 40.628906 93.429688 "/>
<path style=" stroke:none;fill-rule:nonzero;fill:rgb(72.54902%,73.333333%,75.686275%);fill-opacity:1;" d="M 69.617188 7.253906 C 68.199219 6.394531 66.480469 6.34375 65.015625 7.109375 L 1.679688 40.21875 C 0.640625 40.757812 0 41.820312 0 42.988281 L 0 56.71875 C 0 57.886719 0.640625 58.949219 1.679688 59.488281 L 65.015625 92.597656 C 65.703125 92.957031 66.449219 93.136719 67.1875 93.136719 C 68.027344 93.136719 68.867188 92.90625 69.617188 92.453125 C 71.03125 91.597656 71.875 90.097656 71.875 88.445312 L 71.875 11.265625 C 71.875 9.609375 71.03125 8.109375 69.617188 7.253906 Z M 69.617188 7.253906 "/>
<path style=" stroke:none;fill-rule:nonzero;fill:rgb(54.509804%,53.72549%,58.823529%);fill-opacity:1;" d="M 0 50.320312 L 0 56.71875 C 0 57.886719 0.640625 58.949219 1.679688 59.488281 L 65.015625 92.597656 C 65.703125 92.957031 66.449219 93.136719 67.1875 93.136719 C 68.027344 93.136719 68.867188 92.90625 69.617188 92.453125 C 71.03125 91.597656 71.875 90.097656 71.875 88.445312 L 71.875 50.320312 Z M 0 50.320312 "/>
<path style=" stroke:none;fill-rule:nonzero;fill:rgb(72.54902%,73.333333%,75.686275%);fill-opacity:1;" d="M 79.152344 60.253906 C 78.753906 60.253906 78.351562 60.101562 78.046875 59.796875 C 77.4375 59.1875 77.4375 58.199219 78.046875 57.585938 C 82.308594 53.324219 82.308594 46.382812 78.046875 42.121094 C 77.4375 41.507812 77.4375 40.519531 78.046875 39.910156 C 78.65625 39.300781 79.644531 39.300781 80.257812 39.910156 C 85.738281 45.394531 85.738281 54.3125 80.257812 59.796875 C 79.953125 60.101562 79.550781 60.253906 79.152344 60.253906 Z M 79.152344 60.253906 "/>
<path style=" stroke:none;fill-rule:nonzero;fill:rgb(72.54902%,73.333333%,75.686275%);fill-opacity:1;" d="M 84.675781 65.78125 C 84.277344 65.78125 83.875 65.625 83.570312 65.320312 C 82.960938 64.710938 82.960938 63.722656 83.570312 63.113281 C 87.113281 59.570312 89.0625 54.863281 89.0625 49.855469 C 89.0625 44.84375 87.113281 40.136719 83.570312 36.59375 C 82.960938 35.984375 82.960938 34.996094 83.570312 34.386719 C 84.179688 33.777344 85.171875 33.777344 85.78125 34.386719 C 89.914062 38.515625 92.1875 44.011719 92.1875 49.855469 C 92.1875 55.695312 89.914062 61.191406 85.78125 65.320312 C 85.476562 65.625 85.074219 65.78125 84.675781 65.78125 Z M 84.675781 65.78125 "/>
<path style=" stroke:none;fill-rule:nonzero;fill:rgb(72.54902%,73.333333%,75.686275%);fill-opacity:1;" d="M 90.199219 71.304688 C 89.800781 71.304688 89.398438 71.152344 89.09375 70.84375 C 88.484375 70.234375 88.484375 69.246094 89.09375 68.636719 C 94.113281 63.617188 96.875 56.949219 96.875 49.851562 C 96.875 42.757812 94.113281 36.089844 89.09375 31.070312 C 88.484375 30.460938 88.484375 29.472656 89.09375 28.863281 C 89.703125 28.25 90.695312 28.25 91.304688 28.863281 C 96.910156 34.46875 100 41.921875 100 49.851562 C 100 57.785156 96.910156 65.238281 91.304688 70.84375 C 91 71.152344 90.597656 71.304688 90.199219 71.304688 Z M 90.199219 71.304688 "/>
</g>
</svg>
<!-- iconic normalized -->