<?xml version="1.0" encoding="UTF-8"?>
<svg xmlns="http://www.w3.org/2000/svg" xmlns:xlink="http://www.w3.org/1999/xlink" width="100px" height="100px" viewBox="0 0 100 100" version="1.1">
<g id="surface1">
<path style=" stroke:none;fill-rule:nonzero;fill:rgb(54.509804%,53.72549%,58.823529%);fill-opacity:1;" d="M 58.730469 4.761719 L 68.253906 4.761719 L 68.253906 19.046875 L 58.730469 19.046875 Z M 58.730469 4.761719 "/>
<path style=" stroke:none;fill-rule:nonzero;fill:rgb(36.078431%,32.941176%,41.568627%);fill-opacity:1;" d="M 63.492188 68.253906 C 60.863281 68.253906 58.730469 66.121094 58.730469 63.492188 L 58.730469 55.753906 C 58.730469 55.644531 58.820312 55.554688 58.929688 55.554688 L 68.054688 55.554688 C 68.164062 55.554688 68.253906 55.644531 68.253906 55.753906 L 68.253906 63.492188 C 68.253906 66.121094 66.121094 68.253906 63.492188 68.253906 Z M 63.492188 68.253906 "/>
<path style=" stroke:none;fill-rule:nonzero;fill:rgb(54.509804%,53.72549%,58.823529%);fill-opacity:1;" d="M 42.855469 82.539062 L 58.730469 82.539062 L 58.730469 98.414062 L 42.855469 98.414062 Z M 42.855469 82.539062 "/>
<path style=" stroke:none;fill-rule:nonzero;fill:rgb(36.078431%,32.941176%,41.568627%);fill-opacity:1;" d="M 77.777344 100 L 23.808594 100 C 22.933594 100 22.222656 99.289062 22.222656 98.414062 C 22.222656 97.535156 22.933594 96.824219 23.808594 96.824219 L 77.777344 96.824219 C 78.65625 96.824219 79.363281 97.535156 79.363281 98.414062 C 79.363281 99.289062 78.65625 100 77.777344 100 Z M 77.777344 100 "/>
<path style=" stroke:none;fill-rule:nonzero;fill:rgb(72.54902%,73.333333%,75.686275%);fill-opacity:1;" d="M 69.839844 15.871094 L 57.144531 15.871094 C 55.394531 15.871094 53.96875 17.296875 53.96875 19.046875 L 53.96875 30.160156 C 53.96875 31.035156 54.679688 31.746094 55.554688 31.746094 L 55.554688 47.617188 C 54.679688 47.617188 53.96875 48.328125 53.96875 49.207031 L 53.96875 55.554688 C 53.96875 57.304688 55.394531 58.730469 57.144531 58.730469 L 69.839844 58.730469 C 71.589844 58.730469 73.015625 57.304688 73.015625 55.554688 L 73.015625 19.046875 C 73.015625 17.296875 71.589844 15.871094 69.839844 15.871094 Z M 69.839844 15.871094 "/>
<path style=" stroke:none;fill-rule:nonzero;fill:rgb(36.078431%,32.941176%,41.568627%);fill-opacity:1;" d="M 68.253906 6.347656 L 58.730469 6.347656 C 57.855469 6.347656 57.144531 5.636719 57.144531 4.761719 L 57.144531 1.585938 C 57.144531 0.710938 57.855469 0 58.730469 0 L 68.253906 0 C 69.128906 0 69.839844 0.710938 69.839844 1.585938 L 69.839844 4.761719 C 69.839844 5.636719 69.128906 6.347656 68.253906 6.347656 Z M 68.253906 6.347656 "/>
<path style=" stroke:none;fill-rule:nonzero;fill:rgb(36.078431%,32.941176%,41.568627%);fill-opacity:1;" d="M 63.492188 76.191406 L 74.601562 76.191406 C 75.480469 76.191406 76.191406 75.480469 76.191406 74.601562 C 76.191406 73.726562 75.480469 73.015625 74.601562 73.015625 L 46.574219 73.015625 C 38.761719 73.015625 32.261719 67.160156 31.777344 59.683594 C 31.519531 55.679688 32.878906 51.875 35.605469 48.964844 C 38.339844 46.046875 42.039062 44.445312 46.03125 44.445312 C 46.910156 44.445312 47.617188 43.734375 47.617188 42.855469 C 47.617188 41.980469 46.910156 41.269531 46.03125 41.269531 L 46.03125 36.507812 C 46.910156 36.507812 47.617188 35.796875 47.617188 34.921875 C 47.617188 34.042969 46.910156 33.332031 46.03125 33.332031 C 39.019531 33.332031 32.492188 36.128906 27.652344 41.203125 C 22.816406 46.273438 20.332031 52.933594 20.664062 59.957031 C 21.300781 73.507812 32.738281 84.128906 46.703125 84.128906 L 58.730469 84.128906 C 61.355469 84.128906 63.492188 81.992188 63.492188 79.363281 Z M 63.492188 76.191406 "/>
<path style=" stroke:none;fill-rule:nonzero;fill:rgb(54.509804%,53.72549%,58.823529%);fill-opacity:1;" d="M 66.667969 39.683594 C 66.667969 45.820312 61.691406 50.792969 55.554688 50.792969 C 49.417969 50.792969 44.445312 45.820312 44.445312 39.683594 C 44.445312 33.546875 49.417969 28.570312 55.554688 28.570312 C 61.691406 28.570312 66.667969 33.546875 66.667969 39.683594 Z M 66.667969 39.683594 "/>
<path style=" stroke:none;fill-rule:nonzero;fill:rgb(36.078431%,32.941176%,41.568627%);fill-opacity:1;" d="M 61.90625 39.683594 C 61.90625 43.1875 59.0625 46.03125 55.554688 46.03125 C 52.050781 46.03125 49.207031 43.1875 49.207031 39.683594 C 49.207031 36.175781 52.050781 33.332031 55.554688 33.332031 C 59.0625 33.332031 61.90625 36.175781 61.90625 39.683594 Z M 61.90625 39.683594 "/>
</g>
</svg>
<!-- iconic normalized -->