<?xml version="1.0" encoding="UTF-8"?>
<svg xmlns="http://www.w3.org/2000/svg" xmlns:xlink="http://www.w3.org/1999/xlink" width="100px" height="100px" viewBox="0 0 100 100" version="1.1">
<g id="surface1">
<path style=" stroke:none;fill-rule:nonzero;fill:rgb(42.745098%,42.745098%,42.745098%);fill-opacity:1;" d="M 97.742188 9.671875 L 57.902344 9.671875 C 56.613281 9.671875 55.484375 9.671875 54.195312 11.609375 L 52.097656 14.511719 L 5 14.511719 C 2.257812 14.511719 0 17.089844 0 19.832031 L 0 83.21875 C 0 85.960938 2.257812 88.703125 5 88.703125 L 95 88.703125 C 97.742188 88.703125 100 85.960938 100 83.21875 L 100 11.609375 C 100 10.480469 99.03125 9.671875 97.742188 9.671875 Z M 97.742188 9.671875 "/>
<path style=" stroke:none;fill-rule:nonzero;fill:rgb(33.72549%,33.72549%,33.72549%);fill-opacity:1;" d="M 97.902344 74.832031 C 99.195312 73.867188 100 72.414062 100 70.800781 L 100 11.609375 C 100 10.480469 99.03125 9.671875 97.742188 9.671875 L 57.902344 9.671875 C 56.613281 9.671875 55.484375 9.671875 54.195312 11.609375 L 52.097656 14.511719 L 5 14.511719 C 2.417969 14.511719 0.324219 16.609375 0 19.027344 Z M 97.902344 74.832031 "/>
<path style=" stroke:none;fill-rule:nonzero;fill:rgb(14.901961%,14.509804%,13.72549%);fill-opacity:1;" d="M 3.386719 20.960938 L 97.902344 74.511719 C 99.195312 73.542969 100 72.414062 100 70.800781 L 100 25.15625 L 93.871094 20.960938 Z M 3.386719 20.960938 "/>
<path style=" stroke:none;fill-rule:nonzero;fill:rgb(100%,100%,100%);fill-opacity:1;" d="M 8.066406 20.960938 L 91.933594 20.960938 L 91.933594 82.253906 L 8.066406 82.253906 Z M 8.066406 20.960938 "/>
<path style=" stroke:none;fill-rule:nonzero;fill:rgb(93.72549%,93.72549%,93.72549%);fill-opacity:1;" d="M 51.613281 20.960938 L 91.933594 20.960938 L 91.933594 82.253906 L 51.613281 82.253906 Z M 51.613281 20.960938 "/>
<path style=" stroke:none;fill-rule:nonzero;fill:rgb(93.72549%,93.72549%,93.72549%);fill-opacity:1;" d="M 79.03125 41.929688 L 20.96875 41.929688 C 19.675781 41.929688 18.546875 40.800781 18.546875 39.511719 C 18.546875 38.21875 19.675781 37.089844 20.96875 37.089844 L 79.03125 37.089844 C 80.324219 37.089844 81.453125 38.21875 81.453125 39.511719 C 81.453125 40.800781 80.324219 41.929688 79.03125 41.929688 Z M 79.03125 41.929688 "/>
<path style=" stroke:none;fill-rule:nonzero;fill:rgb(93.72549%,93.72549%,93.72549%);fill-opacity:1;" d="M 79.03125 54.832031 L 20.96875 54.832031 C 19.675781 54.832031 18.546875 53.703125 18.546875 52.414062 C 18.546875 51.125 19.675781 49.996094 20.96875 49.996094 L 79.03125 49.996094 C 80.324219 49.996094 81.453125 51.125 81.453125 52.414062 C 81.453125 53.703125 80.324219 54.832031 79.03125 54.832031 Z M 79.03125 54.832031 "/>
<path style=" stroke:none;fill-rule:nonzero;fill:rgb(69.411765%,72.941176%,72.54902%);fill-opacity:1;" d="M 79.03125 38.703125 L 20.96875 38.703125 C 19.675781 38.703125 18.546875 37.574219 18.546875 36.285156 C 18.546875 34.996094 19.675781 33.867188 20.96875 33.867188 L 79.03125 33.867188 C 80.324219 33.867188 81.453125 34.996094 81.453125 36.285156 C 81.453125 37.574219 80.324219 38.703125 79.03125 38.703125 Z M 79.03125 38.703125 "/>
<path style=" stroke:none;fill-rule:nonzero;fill:rgb(69.411765%,72.941176%,72.54902%);fill-opacity:1;" d="M 79.03125 51.609375 L 20.96875 51.609375 C 19.675781 51.609375 18.546875 50.480469 18.546875 49.1875 C 18.546875 47.898438 19.675781 46.769531 20.96875 46.769531 L 79.03125 46.769531 C 80.324219 46.769531 81.453125 47.898438 81.453125 49.1875 C 81.453125 50.480469 80.324219 51.609375 79.03125 51.609375 Z M 79.03125 51.609375 "/>
<path style=" stroke:none;fill-rule:nonzero;fill:rgb(64.705882%,64.705882%,64.705882%);fill-opacity:1;" d="M 100 85.480469 C 100 88.21875 97.742188 90.316406 95 90.316406 L 5 90.316406 C 2.257812 90.316406 0 88.21875 0 85.480469 L 1.613281 66.125 C 1.613281 63.382812 3.871094 61.285156 6.613281 61.285156 L 93.546875 61.285156 C 96.289062 61.285156 98.546875 63.382812 98.546875 66.125 Z M 100 85.480469 "/>
<path style=" stroke:none;fill-rule:nonzero;fill:rgb(71.764706%,71.764706%,71.764706%);fill-opacity:1;" d="M 99.195312 88.21875 L 51.613281 61.285156 L 6.613281 61.285156 C 3.871094 61.285156 1.613281 63.382812 1.613281 66.125 L 0 85.480469 C 0 88.21875 2.257812 90.316406 5 90.316406 L 95 90.316406 C 97.097656 90.480469 98.871094 88.703125 99.195312 88.21875 Z M 99.195312 88.21875 "/>
</g>
</svg>
<!-- iconic normalized -->