<?xml version="1.0" encoding="UTF-8"?>
<svg xmlns="http://www.w3.org/2000/svg" xmlns:xlink="http://www.w3.org/1999/xlink" width="100px" height="100px" viewBox="0 0 100 100" version="1.1">
<g id="surface1">
<path style=" stroke:none;fill-rule:nonzero;fill:rgb(42.745098%,42.745098%,42.745098%);fill-opacity:1;" d="M 97.742188 9.597656 L 57.902344 9.597656 C 56.613281 9.597656 55.484375 9.917969 54.195312 11.855469 L 52.097656 15.082031 L 5 15.082031 C 2.257812 15.082031 0 17.339844 0 20.082031 L 0 83.46875 C 0 86.210938 2.257812 88.46875 5 88.46875 L 95 88.46875 C 97.742188 88.46875 100 86.210938 100 83.46875 L 100 11.695312 C 100 10.566406 99.03125 9.597656 97.742188 9.597656 Z M 97.742188 9.597656 "/>
<path style=" stroke:none;fill-rule:nonzero;fill:rgb(33.72549%,33.72549%,33.72549%);fill-opacity:1;" d="M 97.902344 74.917969 C 99.195312 73.953125 100 72.5 100 70.886719 L 100 11.695312 C 100 10.402344 99.03125 9.433594 97.742188 9.433594 L 57.902344 9.433594 C 56.613281 9.433594 55.484375 9.757812 54.195312 11.695312 L 52.097656 14.917969 L 5 14.917969 C 2.417969 14.917969 0.324219 16.855469 0 19.273438 Z M 97.902344 74.917969 "/>
<path style=" stroke:none;fill-rule:nonzero;fill:rgb(14.901961%,14.509804%,13.72549%);fill-opacity:1;" d="M 4.195312 21.695312 L 97.902344 74.917969 C 99.195312 73.953125 100 72.5 100 70.886719 L 100 25.242188 L 93.871094 21.695312 C 93.871094 21.695312 4.195312 21.695312 4.195312 21.695312 Z M 4.195312 21.695312 "/>
<path style=" stroke:none;fill-rule:nonzero;fill:rgb(100%,100%,100%);fill-opacity:1;" d="M 7.257812 21.210938 L 92.742188 21.210938 L 92.742188 81.695312 L 7.257812 81.695312 Z M 7.257812 21.210938 "/>
<path style=" stroke:none;fill-rule:nonzero;fill:rgb(93.72549%,93.72549%,93.72549%);fill-opacity:1;" d="M 52.097656 21.210938 L 92.742188 21.210938 L 92.742188 81.695312 L 52.097656 81.695312 Z M 52.097656 21.210938 "/>
<path style=" stroke:none;fill-rule:nonzero;fill:rgb(52.156863%,26.27451%,81.960784%);fill-opacity:1;" d="M 100 85.566406 C 100 88.304688 97.742188 90.566406 95 90.566406 L 5 90.566406 C 2.257812 90.566406 0 88.46875 0 85.566406 L 1.613281 34.757812 C 1.613281 32.015625 3.871094 29.757812 6.613281 29.757812 L 93.546875 29.757812 C 96.289062 29.757812 98.546875 32.015625 98.546875 34.757812 Z M 100 85.566406 "/>
<path style=" stroke:none;fill-rule:nonzero;fill:rgb(64.705882%,35.294118%,87.843137%);fill-opacity:1;" d="M 99.355469 88.144531 L 1.933594 32.824219 C 1.773438 33.46875 1.613281 34.113281 1.613281 34.757812 L 0 85.566406 C 0 88.304688 2.257812 90.566406 5 90.566406 L 95 90.566406 C 96.773438 90.566406 98.386719 89.597656 99.355469 88.144531 Z M 99.355469 88.144531 "/>
<path style=" stroke:none;fill-rule:nonzero;fill:rgb(52.156863%,26.27451%,81.960784%);fill-opacity:1;" d="M 38.226562 75.566406 C 38.066406 75.566406 37.902344 75.566406 37.742188 75.402344 C 30.96875 68.628906 30.96875 57.339844 37.742188 50.566406 C 44.675781 43.789062 55.804688 43.789062 62.582031 50.566406 C 62.902344 50.886719 62.902344 51.371094 62.582031 51.695312 C 62.257812 52.015625 61.773438 52.015625 61.453125 51.695312 C 55.160156 45.402344 45 45.402344 38.871094 51.695312 C 32.582031 57.984375 32.582031 68.144531 38.871094 74.273438 C 39.195312 74.597656 39.195312 75.082031 38.871094 75.402344 C 38.546875 75.566406 38.386719 75.566406 38.226562 75.566406 Z M 38.226562 75.566406 "/>
<path style=" stroke:none;fill-rule:nonzero;fill:rgb(52.156863%,26.27451%,81.960784%);fill-opacity:1;" d="M 42.097656 80.402344 L 38.871094 80.402344 C 37.582031 80.402344 36.453125 79.273438 36.453125 77.984375 L 36.453125 74.757812 C 36.453125 73.46875 37.582031 72.339844 38.871094 72.339844 L 42.097656 72.339844 C 43.386719 72.339844 44.515625 73.46875 44.515625 74.757812 L 44.515625 77.984375 C 44.355469 79.273438 43.386719 80.402344 42.097656 80.402344 Z M 42.097656 80.402344 "/>
<path style=" stroke:none;fill-rule:nonzero;fill:rgb(52.156863%,26.27451%,81.960784%);fill-opacity:1;" d="M 65.160156 57.339844 L 61.933594 57.339844 C 60.644531 57.339844 59.515625 56.210938 59.515625 54.917969 L 59.515625 51.695312 C 59.515625 50.402344 60.644531 49.273438 61.933594 49.273438 L 65.160156 49.273438 C 66.453125 49.273438 67.582031 50.402344 67.582031 51.695312 L 67.582031 54.917969 C 67.582031 56.210938 66.453125 57.339844 65.160156 57.339844 Z M 65.160156 57.339844 "/>
<path style=" stroke:none;fill-rule:nonzero;fill:rgb(52.156863%,26.27451%,81.960784%);fill-opacity:1;" d="M 39.675781 54.917969 L 36.453125 54.917969 C 35.160156 54.917969 34.03125 53.789062 34.03125 52.5 L 34.03125 49.273438 C 34.03125 47.984375 35.160156 46.855469 36.453125 46.855469 L 39.675781 46.855469 C 40.96875 46.855469 42.097656 47.984375 42.097656 49.273438 L 42.097656 52.5 C 42.097656 53.953125 40.96875 54.917969 39.675781 54.917969 Z M 39.675781 54.917969 "/>
<path style=" stroke:none;fill-rule:nonzero;fill:rgb(100%,100%,100%);fill-opacity:1;" d="M 38.226562 72.5 C 38.066406 72.5 37.902344 72.5 37.742188 72.339844 C 30.96875 65.566406 30.96875 54.273438 37.742188 47.5 C 44.675781 40.726562 55.804688 40.726562 62.582031 47.5 C 62.902344 47.824219 62.902344 48.304688 62.582031 48.628906 C 62.257812 48.953125 61.773438 48.953125 61.453125 48.628906 C 55.160156 42.339844 45 42.339844 38.871094 48.628906 C 32.582031 54.917969 32.582031 65.082031 38.871094 71.210938 C 39.195312 71.53125 39.195312 72.015625 38.871094 72.339844 C 38.546875 72.339844 38.386719 72.5 38.226562 72.5 Z M 38.226562 72.5 "/>
<path style=" stroke:none;fill-rule:nonzero;fill:rgb(100%,100%,100%);fill-opacity:1;" d="M 42.097656 77.175781 L 38.871094 77.175781 C 37.582031 77.175781 36.453125 76.046875 36.453125 74.757812 L 36.453125 71.53125 C 36.453125 70.242188 37.582031 69.113281 38.871094 69.113281 L 42.097656 69.113281 C 43.386719 69.113281 44.515625 70.242188 44.515625 71.53125 L 44.515625 74.757812 C 44.355469 76.210938 43.386719 77.175781 42.097656 77.175781 Z M 42.097656 77.175781 "/>
<path style=" stroke:none;fill-rule:nonzero;fill:rgb(100%,100%,100%);fill-opacity:1;" d="M 65.160156 54.113281 L 61.933594 54.113281 C 60.644531 54.113281 59.515625 52.984375 59.515625 51.695312 L 59.515625 48.46875 C 59.515625 47.175781 60.644531 46.046875 61.933594 46.046875 L 65.160156 46.046875 C 66.453125 46.046875 67.582031 47.175781 67.582031 48.46875 L 67.582031 51.695312 C 67.582031 53.144531 66.453125 54.113281 65.160156 54.113281 Z M 65.160156 54.113281 "/>
<path style=" stroke:none;fill-rule:nonzero;fill:rgb(100%,100%,100%);fill-opacity:1;" d="M 39.675781 51.855469 L 36.453125 51.855469 C 35.160156 51.855469 34.03125 50.726562 34.03125 49.433594 L 34.03125 46.210938 C 34.03125 44.917969 35.160156 43.789062 36.453125 43.789062 L 39.675781 43.789062 C 40.96875 43.789062 42.097656 44.917969 42.097656 46.210938 L 42.097656 49.433594 C 42.097656 50.726562 40.96875 51.855469 39.675781 51.855469 Z M 39.675781 51.855469 "/>
</g>
</svg>
<!-- iconic normalized -->