<?xml version="1.0" encoding="UTF-8"?>
<svg xmlns="http://www.w3.org/2000/svg" xmlns:xlink="http://www.w3.org/1999/xlink" width="100px" height="100px" viewBox="0 0 100 100" version="1.1">
<g id="surface1">
<path style=" stroke:none;fill-rule:nonzero;fill:rgb(100%,81.176471%,42.745098%);fill-opacity:1;" d="M 13.125 0 C 5.886719 0 0 5.886719 0 13.125 L 0 86.875 C 0 94.113281 5.886719 100 13.125 100 L 49.183594 100 L 49.183594 0 Z M 13.125 0 "/>
<path style=" stroke:none;fill-rule:nonzero;fill:rgb(100%,81.176471%,42.745098%);fill-opacity:1;" d="M 86.875 0 L 49.183594 0 L 49.183594 100 L 86.875 100 C 94.113281 100 100 94.113281 100 86.875 L 100 13.125 C 100 5.886719 94.113281 0 86.875 0 Z M 86.875 0 "/>
<path style=" stroke:none;fill-rule:nonzero;fill:rgb(91.764706%,70.196078%,32.54902%);fill-opacity:1;" d="M 86.875 0 L 49.183594 0 L 49.183594 100 L 86.875 100 C 94.113281 100 100 94.113281 100 86.875 L 100 13.125 C 100 5.886719 94.113281 0 86.875 0 Z M 86.875 0 "/>
<path style=" stroke:none;fill-rule:nonzero;fill:rgb(97.254902%,43.137255%,31.764706%);fill-opacity:1;" d="M 14.730469 17.699219 L 32.363281 17.699219 C 34.003906 17.699219 35.335938 16.371094 35.335938 14.730469 C 35.335938 13.085938 34.003906 11.757812 32.363281 11.757812 L 14.730469 11.757812 C 13.085938 11.757812 11.757812 13.085938 11.757812 14.730469 C 11.757812 16.371094 13.085938 17.699219 14.730469 17.699219 Z M 14.730469 17.699219 "/>
<path style=" stroke:none;fill-rule:nonzero;fill:rgb(97.254902%,43.137255%,31.764706%);fill-opacity:1;" d="M 35.335938 26.484375 C 35.335938 24.84375 34.007812 23.515625 32.363281 23.515625 L 14.730469 23.515625 C 13.085938 23.515625 11.757812 24.84375 11.757812 26.484375 C 11.757812 28.128906 13.085938 29.457031 14.730469 29.457031 L 32.363281 29.457031 C 34.003906 29.457031 35.335938 28.128906 35.335938 26.484375 Z M 35.335938 26.484375 "/>
<path style=" stroke:none;fill-rule:nonzero;fill:rgb(82.745098%,42.352941%,11.764706%);fill-opacity:1;" d="M 64.664062 73.515625 C 64.664062 75.15625 65.992188 76.484375 67.636719 76.484375 L 85.269531 76.484375 C 86.914062 76.484375 88.242188 75.15625 88.242188 73.515625 C 88.242188 71.871094 86.914062 70.542969 85.269531 70.542969 L 67.636719 70.542969 C 65.996094 70.542969 64.664062 71.871094 64.664062 73.515625 Z M 64.664062 73.515625 "/>
<path style=" stroke:none;fill-rule:nonzero;fill:rgb(82.745098%,42.352941%,11.764706%);fill-opacity:1;" d="M 85.269531 82.300781 L 67.636719 82.300781 C 65.996094 82.300781 64.664062 83.628906 64.664062 85.269531 C 64.664062 86.914062 65.996094 88.242188 67.636719 88.242188 L 85.269531 88.242188 C 86.914062 88.242188 88.242188 86.914062 88.242188 85.269531 C 88.242188 83.628906 86.914062 82.300781 85.269531 82.300781 Z M 85.269531 82.300781 "/>
<path style=" stroke:none;fill-rule:nonzero;fill:rgb(97.254902%,43.137255%,31.764706%);fill-opacity:1;" d="M 48.058594 70.417969 C 48.554688 63.398438 48.34375 42.277344 48.34375 42.277344 L 67.28125 36.359375 C 68.519531 35.972656 69.367188 34.820312 69.367188 33.523438 L 69.367188 16.242188 C 69.367188 15.3125 68.929688 14.4375 68.191406 13.875 C 67.449219 13.3125 66.488281 13.128906 65.59375 13.378906 L 44.574219 19.257812 C 43.289062 19.617188 42.402344 20.789062 42.402344 22.121094 L 42.402344 60.011719 C 38.464844 58.148438 33.136719 58.363281 28.363281 61 C 25.054688 62.824219 22.460938 65.546875 21.058594 68.660156 C 19.550781 72.015625 19.589844 75.582031 21.167969 78.4375 C 22.746094 81.296875 25.742188 83.230469 29.386719 83.738281 C 30.050781 83.832031 30.722656 83.878906 31.40625 83.878906 C 34.199219 83.878906 37.101562 83.109375 39.757812 81.640625 C 44.488281 79.03125 47.753906 74.726562 48.058594 70.417969 Z M 48.058594 70.417969 "/>
<path style=" stroke:none;fill-rule:nonzero;fill:rgb(82.745098%,42.352941%,11.764706%);fill-opacity:1;" d="M 68.191406 13.875 C 67.449219 13.3125 66.488281 13.128906 65.59375 13.382812 L 49.183594 17.96875 L 49.183594 42.011719 L 67.28125 36.359375 C 68.519531 35.972656 69.363281 34.820312 69.363281 33.523438 L 69.363281 16.242188 C 69.367188 15.3125 68.929688 14.4375 68.191406 13.875 Z M 68.191406 13.875 "/>
</g>
</svg>
<!-- iconic normalized -->