<?xml version="1.0" encoding="UTF-8"?>
<svg xmlns="http://www.w3.org/2000/svg" xmlns:xlink="http://www.w3.org/1999/xlink" width="100px" height="100px" viewBox="0 0 100 100" version="1.1">
<g id="surface1">
<path style=" stroke:none;fill-rule:nonzero;fill:rgb(60%,50.980392%,44.705882%);fill-opacity:1;" d="M 59.554688 46.660156 L 97.328125 84.4375 C 100.890625 87.996094 100.890625 93.769531 97.328125 97.328125 C 93.769531 100.890625 87.996094 100.890625 84.4375 97.328125 L 46.660156 59.554688 "/>
<path style=" stroke:none;fill-rule:nonzero;fill:rgb(36.862745%,27.058824%,20.392157%);fill-opacity:1;" d="M 69.125 56.230469 L 73.96875 61.074219 L 61.074219 73.96875 L 56.230469 69.125 Z M 69.125 56.230469 "/>
<path style=" stroke:none;fill-rule:nonzero;fill:rgb(79.607843%,89.019608%,89.019608%);fill-opacity:1;" d="M 11.476562 11.480469 C 0.101562 22.855469 0.101562 41.300781 11.476562 52.675781 C 17.132812 58.328125 24.535156 61.171875 31.945312 61.203125 L 31.945312 2.949219 C 24.535156 2.984375 17.132812 5.824219 11.476562 11.480469 Z M 11.476562 11.480469 "/>
<path style=" stroke:none;fill-rule:nonzero;fill:rgb(79.607843%,89.019608%,89.019608%);fill-opacity:1;" d="M 52.675781 11.476562 C 46.953125 5.757812 39.445312 2.917969 31.945312 2.949219 L 31.945312 61.203125 C 39.445312 61.238281 46.953125 58.394531 52.675781 52.675781 C 64.050781 41.296875 64.050781 22.855469 52.675781 11.476562 Z M 52.675781 11.476562 "/>
<path style=" stroke:none;fill-rule:nonzero;fill:rgb(36.862745%,27.058824%,20.392157%);fill-opacity:1;" d="M 54.757812 9.394531 C 48.699219 3.335938 40.644531 0 32.078125 0 C 32.035156 0 31.992188 0.00390625 31.945312 0.00390625 L 31.945312 5.894531 C 31.992188 5.894531 32.035156 5.894531 32.078125 5.894531 C 39.070312 5.894531 45.644531 8.617188 50.589844 13.5625 C 55.535156 18.507812 58.261719 25.082031 58.261719 32.078125 C 58.261719 39.070312 55.535156 45.644531 50.589844 50.589844 C 45.644531 55.535156 39.070312 58.261719 32.078125 58.261719 C 32.035156 58.261719 31.992188 58.257812 31.945312 58.257812 L 31.945312 64.152344 C 31.992188 64.152344 32.035156 64.152344 32.078125 64.152344 C 40.644531 64.152344 48.699219 60.816406 54.757812 54.757812 C 60.816406 48.699219 64.152344 40.644531 64.152344 32.078125 C 64.152344 23.507812 60.816406 15.453125 54.757812 9.394531 Z M 54.757812 9.394531 "/>
<path style=" stroke:none;fill-rule:nonzero;fill:rgb(36.862745%,27.058824%,20.392157%);fill-opacity:1;" d="M 13.5625 50.589844 C 8.617188 45.644531 5.894531 39.070312 5.894531 32.078125 C 5.894531 25.082031 8.617188 18.507812 13.5625 13.5625 C 18.476562 8.648438 25 5.929688 31.945312 5.894531 L 31.945312 0.00390625 C 23.425781 0.0351562 15.421875 3.367188 9.394531 9.394531 C 3.335938 15.453125 0 23.507812 0 32.078125 C 0 40.644531 3.335938 48.699219 9.394531 54.757812 C 15.421875 60.785156 23.425781 64.117188 31.945312 64.148438 L 31.945312 58.257812 C 25 58.222656 18.476562 55.507812 13.5625 50.589844 Z M 13.5625 50.589844 "/>
<path style=" stroke:none;fill-rule:nonzero;fill:rgb(66.666667%,80%,79.215686%);fill-opacity:1;" d="M 52.675781 11.476562 C 46.953125 5.757812 39.445312 2.917969 31.945312 2.949219 L 31.945312 61.203125 C 39.445312 61.238281 46.953125 58.394531 52.675781 52.675781 C 64.050781 41.296875 64.050781 22.855469 52.675781 11.476562 Z M 52.675781 11.476562 "/>
<path style=" stroke:none;fill-rule:nonzero;fill:rgb(28.627451%,20.392157%,14.901961%);fill-opacity:1;" d="M 54.757812 9.394531 C 48.699219 3.335938 40.644531 0 32.078125 0 C 32.035156 0 31.992188 0.00390625 31.945312 0.00390625 L 31.945312 5.894531 C 31.992188 5.894531 32.035156 5.894531 32.078125 5.894531 C 39.070312 5.894531 45.644531 8.617188 50.589844 13.5625 C 55.535156 18.507812 58.261719 25.082031 58.261719 32.078125 C 58.261719 39.070312 55.535156 45.644531 50.589844 50.589844 C 45.644531 55.535156 39.070312 58.261719 32.078125 58.261719 C 32.035156 58.261719 31.992188 58.257812 31.945312 58.257812 L 31.945312 64.152344 C 31.992188 64.152344 32.035156 64.152344 32.078125 64.152344 C 40.644531 64.152344 48.699219 60.816406 54.757812 54.757812 C 60.816406 48.699219 64.152344 40.644531 64.152344 32.078125 C 64.152344 23.507812 60.816406 15.453125 54.757812 9.394531 Z M 54.757812 9.394531 "/>
<path style=" stroke:none;fill-rule:nonzero;fill:rgb(60%,50.980392%,44.705882%);fill-opacity:1;" d="M 43.167969 35.023438 L 20.984375 35.023438 C 19.355469 35.023438 18.039062 33.703125 18.039062 32.078125 C 18.039062 30.449219 19.355469 29.128906 20.984375 29.128906 L 43.167969 29.128906 C 44.796875 29.128906 46.117188 30.449219 46.117188 32.078125 C 46.117188 33.703125 44.796875 35.023438 43.167969 35.023438 Z M 43.167969 35.023438 "/>
<path style=" stroke:none;fill-rule:nonzero;fill:rgb(36.862745%,27.058824%,20.392157%);fill-opacity:1;" d="M 43.167969 29.128906 L 31.945312 29.128906 L 31.945312 35.023438 L 43.167969 35.023438 C 44.796875 35.023438 46.117188 33.703125 46.117188 32.078125 C 46.117188 30.449219 44.796875 29.128906 43.167969 29.128906 Z M 43.167969 29.128906 "/>
</g>
</svg>
<!-- iconic normalized -->