<?xml version="1.0" encoding="UTF-8"?>
<svg xmlns="http://www.w3.org/2000/svg" xmlns:xlink="http://www.w3.org/1999/xlink" width="100px" height="100px" viewBox="0 0 100 100" version="1.1">
<defs>
<filter id="alpha" filterUnits="objectBoundingBox" x="0%" y="0%" width="100%" height="100%">
  <feColorMatrix type="matrix" in="SourceGraphic" values="0 0 0 0 1 0 0 0 0 1 0 0 0 0 1 0 0 0 1 0"/>
</filter>
<mask id="mask0">
  <g filter="url(#alpha)">
<rect x="0" y="0" width="100" height="100" style="fill:rgb(0%,0%,0%);fill-opacity:0.231373;stroke:none;"/>
  </g>
</mask>
<clipPath id="clip1">
  <rect width="100" height="100"/>
</clipPath>
<g id="surface1" clip-path="url(#clip1)">
<path style=" stroke:none;fill-rule:nonzero;fill:rgb(94.901961%,94.901961%,94.901961%);fill-opacity:1;" d="M 97.992188 18.457031 L 97.992188 78.953125 C 97.992188 81.003906 96.332031 82.664062 94.28125 82.664062 L 42.066406 82.664062 L 77.410156 14.746094 L 94.28125 14.746094 C 96.332031 14.746094 97.992188 16.40625 97.992188 18.457031 Z M 97.992188 18.457031 "/>
</g>
<mask id="mask1">
  <g filter="url(#alpha)">
<rect x="0" y="0" width="100" height="100" style="fill:rgb(0%,0%,0%);fill-opacity:0.231373;stroke:none;"/>
  </g>
</mask>
<clipPath id="clip2">
  <rect width="100" height="100"/>
</clipPath>
<g id="surface1" clip-path="url(#clip2)">
<path style=" stroke:none;fill-rule:nonzero;fill:rgb(94.901961%,94.901961%,94.901961%);fill-opacity:1;" d="M 25.832031 14.746094 L 20.960938 24.101562 L 18.410156 29.007812 L 12.804688 39.777344 L 10.132812 44.917969 L 4.964844 54.84375 L 0 64.386719 L 0 18.457031 C 0 16.40625 1.660156 14.746094 3.710938 14.746094 Z M 25.832031 14.746094 "/>
</g>
</defs>
<g id="surface1">
<path style=" stroke:none;fill-rule:nonzero;fill:rgb(80%,80%,80%);fill-opacity:1;" d="M 96.289062 17.335938 L 5.71875 17.335938 C 3.667969 17.335938 2.007812 18.996094 2.007812 21.046875 L 2.007812 81.542969 C 2.007812 83.59375 3.667969 85.253906 5.71875 85.253906 L 96.289062 85.253906 C 98.339844 85.253906 100 83.59375 100 81.542969 L 100 21.046875 C 100 18.996094 98.339844 17.335938 96.289062 17.335938 Z M 96.289062 17.335938 "/>
<path style=" stroke:none;fill-rule:nonzero;fill:rgb(94.901961%,94.901961%,94.901961%);fill-opacity:1;" d="M 97.992188 24.101562 L 97.992188 78.953125 C 97.992188 81.003906 96.332031 82.664062 94.28125 82.664062 L 3.710938 82.664062 C 1.660156 82.664062 0 81.003906 0 78.953125 L 0 24.101562 Z M 97.992188 24.101562 "/>
<path style=" stroke:none;fill-rule:nonzero;fill:rgb(53.333333%,77.254902%,98.823529%);fill-opacity:1;" d="M 97.992188 18.457031 L 97.992188 24.101562 L 0 24.101562 L 0 18.457031 C 0 16.40625 1.660156 14.746094 3.710938 14.746094 L 94.28125 14.746094 C 96.332031 14.746094 97.992188 16.40625 97.992188 18.457031 Z M 97.992188 18.457031 "/>
<path style=" stroke:none;fill-rule:nonzero;fill:rgb(94.901961%,94.901961%,94.901961%);fill-opacity:1;" d="M 56.117188 21.042969 L 15.539062 21.042969 C 14.644531 21.042969 13.921875 20.316406 13.921875 19.421875 C 13.921875 18.527344 14.644531 17.804688 15.539062 17.804688 L 56.117188 17.804688 C 57.011719 17.804688 57.738281 18.527344 57.738281 19.421875 C 57.738281 20.316406 57.011719 21.042969 56.117188 21.042969 Z M 56.117188 21.042969 "/>
<path style=" stroke:none;fill-rule:nonzero;fill:rgb(30.196078%,30.196078%,30.196078%);fill-opacity:1;" d="M 10.144531 21.039062 C 9.71875 21.039062 9.300781 20.867188 9 20.566406 C 8.699219 20.265625 8.527344 19.847656 8.527344 19.421875 C 8.527344 18.996094 8.699219 18.578125 9 18.277344 C 9.300781 17.976562 9.71875 17.804688 10.144531 17.804688 C 10.570312 17.804688 10.988281 17.976562 11.289062 18.277344 C 11.589844 18.578125 11.761719 18.996094 11.761719 19.421875 C 11.761719 19.847656 11.589844 20.265625 11.289062 20.566406 C 10.988281 20.867188 10.570312 21.039062 10.144531 21.039062 Z M 10.144531 21.039062 "/>
<path style=" stroke:none;fill-rule:nonzero;fill:rgb(97.647059%,63.137255%,54.117647%);fill-opacity:1;" d="M 4.964844 21.039062 C 4.535156 21.039062 4.121094 20.867188 3.816406 20.566406 C 3.519531 20.265625 3.34375 19.847656 3.34375 19.421875 C 3.34375 18.996094 3.519531 18.578125 3.816406 18.277344 C 4.121094 17.976562 4.535156 17.804688 4.964844 17.804688 C 5.390625 17.804688 5.804688 17.976562 6.109375 18.277344 C 6.410156 18.578125 6.582031 18.996094 6.582031 19.421875 C 6.582031 19.847656 6.410156 20.265625 6.109375 20.566406 C 5.804688 20.867188 5.390625 21.039062 4.964844 21.039062 Z M 4.964844 21.039062 "/>
<path style=" stroke:none;fill-rule:nonzero;fill:rgb(40%,40%,40%);fill-opacity:1;" d="M 37.820312 66.023438 L 24.472656 52.15625 L 37.820312 38.289062 L 40.15625 40.535156 L 28.964844 52.15625 L 40.15625 63.777344 Z M 37.820312 66.023438 "/>
<path style=" stroke:none;fill-rule:nonzero;fill:rgb(40%,40%,40%);fill-opacity:1;" d="M 60.167969 66.023438 L 57.835938 63.777344 L 69.027344 52.15625 L 57.835938 40.535156 L 60.167969 38.289062 L 73.519531 52.15625 Z M 60.167969 66.023438 "/>
<path style=" stroke:none;fill-rule:nonzero;fill:rgb(40%,40%,40%);fill-opacity:1;" d="M 45.859375 68.992188 L 42.742188 68.125 L 52.128906 34.457031 L 55.25 35.328125 Z M 45.859375 68.992188 "/>
<use xlink:href="#surface1" mask="url(#mask0)"/>
<use xlink:href="#surface1" mask="url(#mask1)"/>
</g>
</svg>
<!-- iconic normalized -->