<?xml version="1.0" encoding="UTF-8"?>
<svg xmlns="http://www.w3.org/2000/svg" xmlns:xlink="http://www.w3.org/1999/xlink" width="100px" height="100px" viewBox="0 0 100 100" version="1.1">
<defs>
<filter id="alpha" filterUnits="objectBoundingBox" x="0%" y="0%" width="100%" height="100%">
  <feColorMatrix type="matrix" in="SourceGraphic" values="0 0 0 0 1 0 0 0 0 1 0 0 0 0 1 0 0 0 1 0"/>
</filter>
<mask id="mask0">
  <g filter="url(#alpha)">
<rect x="0" y="0" width="100" height="100" style="fill:rgb(0%,0%,0%);fill-opacity:0.231373;stroke:none;"/>
  </g>
</mask>
<clipPath id="clip1">
  <rect width="100" height="100"/>
</clipPath>
<g id="surface1" clip-path="url(#clip1)">
<path style=" stroke:none;fill-rule:nonzero;fill:rgb(94.901961%,94.901961%,94.901961%);fill-opacity:1;" d="M 100 89.871094 C 100 92.359375 98.902344 94.589844 97.164062 96.105469 L 70.347656 96.105469 L 73.589844 89.871094 Z M 100 89.871094 "/>
</g>
<mask id="mask1">
  <g filter="url(#alpha)">
<rect x="0" y="0" width="100" height="100" style="fill:rgb(0%,0%,0%);fill-opacity:0.231373;stroke:none;"/>
  </g>
</mask>
<clipPath id="clip2">
  <rect width="100" height="100"/>
</clipPath>
<g id="surface1" clip-path="url(#clip2)">
<path style=" stroke:none;fill-rule:nonzero;fill:rgb(94.901961%,94.901961%,94.901961%);fill-opacity:1;" d="M 94.011719 39.636719 L 94.011719 89.871094 L 52.582031 89.871094 L 55.222656 84.796875 L 78.183594 40.679688 L 80.824219 35.605469 L 89.980469 35.605469 C 92.207031 35.605469 94.011719 37.410156 94.011719 39.636719 Z M 94.011719 39.636719 "/>
</g>
<mask id="mask2">
  <g filter="url(#alpha)">
<rect x="0" y="0" width="100" height="100" style="fill:rgb(0%,0%,0%);fill-opacity:0.231373;stroke:none;"/>
  </g>
</mask>
<clipPath id="clip3">
  <rect width="100" height="100"/>
</clipPath>
<g id="surface1" clip-path="url(#clip3)">
<path style=" stroke:none;fill-rule:nonzero;fill:rgb(94.901961%,94.901961%,94.901961%);fill-opacity:1;" d="M 25.871094 35.605469 L 25.871094 39.914062 L 25.472656 40.679688 L 23.890625 43.714844 L 21.28125 48.730469 L 15.554688 59.734375 L 12.824219 64.988281 L 11.0625 68.367188 L 7.542969 75.136719 L 5.992188 78.113281 L 5.992188 39.636719 C 5.992188 37.410156 7.796875 35.605469 10.023438 35.605469 Z M 25.871094 35.605469 "/>
</g>
<mask id="mask3">
  <g filter="url(#alpha)">
<rect x="0" y="0" width="100" height="100" style="fill:rgb(0%,0%,0%);fill-opacity:0.231373;stroke:none;"/>
  </g>
</mask>
<clipPath id="clip4">
  <rect width="100" height="100"/>
</clipPath>
<g id="surface1" clip-path="url(#clip4)">
<path style=" stroke:none;fill-rule:nonzero;fill:rgb(50.196078%,50.196078%,50.196078%);fill-opacity:1;" d="M 80.054688 35.605469 L 19.949219 35.605469 L 25.871094 63.417969 L 74.132812 63.417969 Z M 80.054688 35.605469 "/>
</g>
<mask id="mask4">
  <g filter="url(#alpha)">
<rect x="0" y="0" width="100" height="100" style="fill:rgb(0%,0%,0%);fill-opacity:0.231373;stroke:none;"/>
  </g>
</mask>
<clipPath id="clip5">
  <rect width="100" height="100"/>
</clipPath>
<g id="surface1" clip-path="url(#clip5)">
<path style=" stroke:none;fill-rule:nonzero;fill:rgb(90.196078%,90.196078%,90.196078%);fill-opacity:1;" d="M 74.132812 12.792969 L 63.191406 12.792969 L 63.191406 1.855469 Z M 74.132812 12.792969 "/>
</g>
<mask id="mask5">
  <g filter="url(#alpha)">
<rect x="0" y="0" width="100" height="100" style="fill:rgb(0%,0%,0%);fill-opacity:0.231373;stroke:none;"/>
  </g>
</mask>
<clipPath id="clip6">
  <rect width="100" height="100"/>
</clipPath>
<g id="surface1" clip-path="url(#clip6)">
<path style=" stroke:none;fill-rule:nonzero;fill:rgb(50.196078%,50.196078%,50.196078%);fill-opacity:1;" d="M 64.558594 12.792969 L 64.558594 16.089844 L 74.132812 12.792969 Z M 64.558594 12.792969 "/>
</g>
</defs>
<g id="surface1">
<path style=" stroke:none;fill-rule:nonzero;fill:rgb(94.901961%,94.901961%,94.901961%);fill-opacity:1;" d="M 88.9375 40.679688 L 88.9375 84.796875 L 11.0625 84.796875 L 11.0625 40.679688 L 25.871094 40.679688 L 25.871094 63.417969 L 74.132812 63.417969 L 74.132812 40.679688 Z M 88.9375 40.679688 "/>
<path style=" stroke:none;fill-rule:nonzero;fill:rgb(43.921569%,69.411765%,87.843137%);fill-opacity:1;" d="M 94.011719 89.871094 L 100 89.871094 C 100 94.441406 96.296875 98.144531 91.726562 98.144531 L 8.273438 98.144531 C 5.988281 98.144531 3.917969 97.21875 2.421875 95.722656 C 0.925781 94.222656 0 92.15625 0 89.871094 Z M 94.011719 89.871094 "/>
<path style=" stroke:none;fill-rule:nonzero;fill:rgb(53.333333%,77.254902%,98.823529%);fill-opacity:1;" d="M 94.011719 39.636719 L 94.011719 89.871094 L 5.992188 89.871094 L 5.992188 39.636719 C 5.992188 37.410156 7.796875 35.605469 10.023438 35.605469 L 25.871094 35.605469 L 25.871094 40.679688 L 11.0625 40.679688 L 11.0625 84.796875 L 88.9375 84.796875 L 88.9375 40.679688 L 74.132812 40.679688 L 74.132812 35.605469 L 89.980469 35.605469 C 92.207031 35.605469 94.011719 37.410156 94.011719 39.636719 Z M 94.011719 39.636719 "/>
<path style=" stroke:none;fill-rule:nonzero;fill:rgb(30.196078%,30.196078%,30.196078%);fill-opacity:1;" d="M 21.523438 69.253906 L 78.476562 69.253906 L 78.476562 72.5625 L 21.523438 72.5625 Z M 21.523438 69.253906 "/>
<path style=" stroke:none;fill-rule:nonzero;fill:rgb(30.196078%,30.196078%,30.196078%);fill-opacity:1;" d="M 21.523438 75.414062 L 78.476562 75.414062 L 78.476562 78.722656 L 21.523438 78.722656 Z M 21.523438 75.414062 "/>
<use xlink:href="#surface1" mask="url(#mask0)"/>
<use xlink:href="#surface1" mask="url(#mask1)"/>
<use xlink:href="#surface1" mask="url(#mask2)"/>
<use xlink:href="#surface1" mask="url(#mask3)"/>
<use xlink:href="#surface1" mask="url(#mask4)"/>
<path style=" stroke:none;fill-rule:nonzero;fill:rgb(90.196078%,90.196078%,90.196078%);fill-opacity:1;" d="M 74.132812 40.679688 L 74.132812 63.417969 L 25.871094 63.417969 L 25.871094 1.855469 L 63.191406 1.855469 L 63.191406 12.792969 L 74.132812 12.792969 Z M 74.132812 40.679688 "/>
<path style=" stroke:none;fill-rule:nonzero;fill:rgb(30.196078%,30.196078%,30.196078%);fill-opacity:1;" d="M 36.601562 27.867188 L 63.398438 27.867188 L 63.398438 31.175781 L 36.601562 31.175781 Z M 36.601562 27.867188 "/>
<path style=" stroke:none;fill-rule:nonzero;fill:rgb(30.196078%,30.196078%,30.196078%);fill-opacity:1;" d="M 36.601562 21.707031 L 63.398438 21.707031 L 63.398438 25.015625 L 36.601562 25.015625 Z M 36.601562 21.707031 "/>
<path style=" stroke:none;fill-rule:nonzero;fill:rgb(30.196078%,30.196078%,30.196078%);fill-opacity:1;" d="M 36.601562 34.027344 L 63.398438 34.027344 L 63.398438 37.335938 L 36.601562 37.335938 Z M 36.601562 34.027344 "/>
<path style=" stroke:none;fill-rule:nonzero;fill:rgb(30.196078%,30.196078%,30.196078%);fill-opacity:1;" d="M 36.601562 40.1875 L 63.398438 40.1875 L 63.398438 43.496094 L 36.601562 43.496094 Z M 36.601562 40.1875 "/>
<path style=" stroke:none;fill-rule:nonzero;fill:rgb(30.196078%,30.196078%,30.196078%);fill-opacity:1;" d="M 36.601562 46.347656 L 63.398438 46.347656 L 63.398438 49.65625 L 36.601562 49.65625 Z M 36.601562 46.347656 "/>
<use xlink:href="#surface1" mask="url(#mask5)"/>
</g>
</svg>
<!-- iconic normalized -->