<?xml version="1.0" encoding="UTF-8"?>
<svg xmlns="http://www.w3.org/2000/svg" xmlns:xlink="http://www.w3.org/1999/xlink" width="100px" height="100px" viewBox="0 0 100 100" version="1.1">
<defs>
<filter id="alpha" filterUnits="objectBoundingBox" x="0%" y="0%" width="100%" height="100%">
  <feColorMatrix type="matrix" in="SourceGraphic" values="0 0 0 0 1 0 0 0 0 1 0 0 0 0 1 0 0 0 1 0"/>
</filter>
<mask id="mask0">
  <g filter="url(#alpha)">
<rect x="0" y="0" width="100" height="100" style="fill:rgb(0%,0%,0%);fill-opacity:0.231373;stroke:none;"/>
  </g>
</mask>
<clipPath id="clip1">
  <rect width="100" height="100"/>
</clipPath>
<g id="surface1" clip-path="url(#clip1)">
<path style=" stroke:none;fill-rule:nonzero;fill:rgb(94.901961%,94.901961%,94.901961%);fill-opacity:1;" d="M 70.105469 17.410156 L 70.105469 92.789062 C 70.105469 96.769531 66.875 100 62.890625 100 L 27.125 100 L 31.4375 91.714844 L 33.222656 88.285156 L 63.878906 29.371094 Z M 70.105469 17.410156 "/>
</g>
<mask id="mask1">
  <g filter="url(#alpha)">
<rect x="0" y="0" width="100" height="100" style="fill:rgb(0%,0%,0%);fill-opacity:0.231373;stroke:none;"/>
  </g>
</mask>
<clipPath id="clip2">
  <rect width="100" height="100"/>
</clipPath>
<g id="surface1" clip-path="url(#clip2)">
<path style=" stroke:none;fill-rule:nonzero;fill:rgb(94.901961%,94.901961%,94.901961%);fill-opacity:1;" d="M 37.824219 0 L 32.816406 9.695312 L 31.773438 11.714844 L 29.292969 16.519531 L 25.140625 24.5625 L 22.65625 29.371094 L 9.789062 54.296875 L 9.265625 55.308594 L 9.265625 7.210938 C 9.265625 3.230469 12.492188 0 16.476562 0 Z M 37.824219 0 "/>
</g>
<mask id="mask2">
  <g filter="url(#alpha)">
<rect x="0" y="0" width="100" height="100" style="fill:rgb(0%,0%,0%);fill-opacity:0.231373;stroke:none;"/>
  </g>
</mask>
<clipPath id="clip3">
  <rect width="100" height="100"/>
</clipPath>
<g id="surface1" clip-path="url(#clip3)">
<path style=" stroke:none;fill-rule:nonzero;fill:rgb(94.901961%,94.901961%,94.901961%);fill-opacity:1;" d="M 90.734375 9.652344 L 90.734375 35.789062 C 90.734375 37.746094 89.148438 39.335938 87.1875 39.335938 L 64.839844 39.335938 L 65.390625 38.285156 L 68.710938 31.902344 L 78.535156 13.023438 L 82.136719 6.101562 L 87.1875 6.101562 C 89.148438 6.101562 90.734375 7.691406 90.734375 9.652344 Z M 90.734375 9.652344 "/>
</g>
</defs>
<g id="surface1">
<path style=" stroke:none;fill-rule:nonzero;fill:rgb(68.627451%,85.490196%,97.647059%);fill-opacity:1;" d="M 45.554688 71.921875 L 45.554688 79.1875 C 45.554688 80.421875 44.554688 81.421875 43.320312 81.421875 L 36.050781 81.421875 C 34.820312 81.421875 33.820312 80.421875 33.820312 79.1875 L 33.820312 71.921875 C 33.820312 70.6875 34.820312 69.6875 36.050781 69.6875 L 43.320312 69.6875 C 44.554688 69.6875 45.554688 70.6875 45.554688 71.921875 Z M 45.554688 71.921875 "/>
<path style=" stroke:none;fill-rule:nonzero;fill:rgb(70.196078%,70.196078%,70.196078%);fill-opacity:1;" d="M 63.597656 54.886719 L 63.597656 62.152344 C 63.597656 63.386719 62.597656 64.386719 61.367188 64.386719 L 54.097656 64.386719 C 52.867188 64.386719 51.867188 63.386719 51.867188 62.152344 L 51.867188 54.886719 C 51.867188 53.652344 52.867188 52.652344 54.097656 52.652344 L 61.367188 52.652344 C 62.597656 52.652344 63.597656 53.652344 63.597656 54.886719 Z M 63.597656 54.886719 "/>
<path style=" stroke:none;fill-rule:nonzero;fill:rgb(97.647059%,86.666667%,32.54902%);fill-opacity:1;" d="M 27.507812 54.886719 L 27.507812 62.152344 C 27.507812 63.386719 26.507812 64.386719 25.273438 64.386719 L 18.007812 64.386719 C 16.773438 64.386719 15.773438 63.386719 15.773438 62.152344 L 15.773438 54.886719 C 15.773438 53.652344 16.773438 52.652344 18.007812 52.652344 L 25.273438 52.652344 C 26.507812 52.652344 27.507812 53.652344 27.507812 54.886719 Z M 27.507812 54.886719 "/>
<path style=" stroke:none;fill-rule:nonzero;fill:rgb(53.333333%,77.254902%,98.823529%);fill-opacity:1;" d="M 45.554688 37.851562 L 45.554688 45.117188 C 45.554688 46.347656 44.554688 47.347656 43.320312 47.347656 L 36.050781 47.347656 C 34.820312 47.347656 33.820312 46.347656 33.820312 45.117188 L 33.820312 37.851562 C 33.820312 36.617188 34.820312 35.617188 36.050781 35.617188 L 43.320312 35.617188 C 44.554688 35.617188 45.554688 36.617188 45.554688 37.851562 Z M 45.554688 37.851562 "/>
<path style=" stroke:none;fill-rule:nonzero;fill:rgb(53.333333%,77.254902%,98.823529%);fill-opacity:1;" d="M 57.5 18.578125 L 57.5 30.3125 L 54.097656 30.3125 C 52.863281 30.3125 51.863281 29.3125 51.863281 28.082031 L 51.863281 20.8125 C 51.863281 19.578125 52.863281 18.578125 54.097656 18.578125 Z M 57.5 18.578125 "/>
<path style=" stroke:none;fill-rule:nonzero;fill:rgb(70.196078%,70.196078%,70.196078%);fill-opacity:1;" d="M 27.507812 37.851562 L 27.507812 45.117188 C 27.507812 46.347656 26.507812 47.347656 25.273438 47.347656 L 18.007812 47.347656 C 16.773438 47.347656 15.773438 46.347656 15.773438 45.117188 L 15.773438 37.851562 C 15.773438 36.617188 16.773438 35.617188 18.007812 35.617188 L 25.273438 35.617188 C 26.507812 35.617188 27.507812 36.617188 27.507812 37.851562 Z M 27.507812 37.851562 "/>
<path style=" stroke:none;fill-rule:nonzero;fill:rgb(97.647059%,86.666667%,32.54902%);fill-opacity:1;" d="M 63.597656 71.921875 L 63.597656 79.1875 C 63.597656 80.421875 62.597656 81.421875 61.367188 81.421875 L 54.097656 81.421875 C 52.867188 81.421875 51.867188 80.421875 51.867188 79.1875 L 51.867188 71.921875 C 51.867188 70.6875 52.867188 69.6875 54.097656 69.6875 L 61.367188 69.6875 C 62.597656 69.6875 63.597656 70.6875 63.597656 71.921875 Z M 63.597656 71.921875 "/>
<path style=" stroke:none;fill-rule:nonzero;fill:rgb(97.647059%,63.137255%,54.117647%);fill-opacity:1;" d="M 45.554688 54.886719 L 45.554688 62.152344 C 45.554688 63.386719 44.554688 64.386719 43.320312 64.386719 L 36.050781 64.386719 C 34.820312 64.386719 33.820312 63.386719 33.820312 62.152344 L 33.820312 54.886719 C 33.820312 53.652344 34.820312 52.652344 36.050781 52.652344 L 43.320312 52.652344 C 44.554688 52.652344 45.554688 53.652344 45.554688 54.886719 Z M 45.554688 54.886719 "/>
<path style=" stroke:none;fill-rule:nonzero;fill:rgb(40%,40%,40%);fill-opacity:1;" d="M 70.105469 88.289062 L 70.105469 92.789062 C 70.105469 96.769531 66.875 100 62.890625 100 L 16.476562 100 C 12.492188 100 9.265625 96.769531 9.265625 92.789062 L 9.265625 88.285156 L 70.105469 88.285156 Z M 41.433594 94.40625 C 41.433594 93.945312 41.246094 93.496094 40.921875 93.167969 C 40.597656 92.847656 40.148438 92.65625 39.6875 92.65625 C 39.226562 92.65625 38.773438 92.847656 38.449219 93.167969 C 38.125 93.496094 37.9375 93.945312 37.9375 94.40625 C 37.9375 94.867188 38.125 95.316406 38.449219 95.644531 C 38.773438 95.96875 39.226562 96.152344 39.6875 96.152344 C 40.144531 96.152344 40.597656 95.96875 40.921875 95.644531 C 41.246094 95.316406 41.433594 94.867188 41.433594 94.40625 Z M 41.433594 94.40625 "/>
<path style=" stroke:none;fill-rule:nonzero;fill:rgb(94.901961%,94.901961%,94.901961%);fill-opacity:1;" d="M 70.105469 39.335938 L 70.105469 88.285156 L 9.265625 88.285156 L 9.265625 11.714844 L 57.5 11.714844 L 57.5 18.578125 L 54.097656 18.578125 C 52.863281 18.578125 51.863281 19.578125 51.863281 20.8125 L 51.863281 28.082031 C 51.863281 29.3125 52.863281 30.3125 54.097656 30.3125 L 57.5 30.3125 L 57.5 35.617188 L 54.097656 35.617188 C 52.863281 35.617188 51.863281 36.613281 51.863281 37.847656 L 51.863281 45.117188 C 51.863281 46.347656 52.863281 47.347656 54.097656 47.347656 L 61.367188 47.347656 C 62.597656 47.347656 63.597656 46.347656 63.597656 45.117188 L 63.597656 39.335938 Z M 63.597656 79.1875 L 63.597656 71.921875 C 63.597656 70.6875 62.597656 69.6875 61.367188 69.6875 L 54.097656 69.6875 C 52.867188 69.6875 51.867188 70.6875 51.867188 71.921875 L 51.867188 79.1875 C 51.867188 80.421875 52.867188 81.421875 54.097656 81.421875 L 61.367188 81.421875 C 62.597656 81.421875 63.597656 80.421875 63.597656 79.1875 Z M 63.597656 62.152344 L 63.597656 54.886719 C 63.597656 53.652344 62.597656 52.652344 61.367188 52.652344 L 54.097656 52.652344 C 52.867188 52.652344 51.867188 53.652344 51.867188 54.886719 L 51.867188 62.152344 C 51.867188 63.386719 52.867188 64.386719 54.097656 64.386719 L 61.367188 64.386719 C 62.597656 64.386719 63.597656 63.386719 63.597656 62.152344 Z M 45.554688 79.1875 L 45.554688 71.921875 C 45.554688 70.6875 44.554688 69.6875 43.320312 69.6875 L 36.050781 69.6875 C 34.820312 69.6875 33.820312 70.6875 33.820312 71.921875 L 33.820312 79.1875 C 33.820312 80.421875 34.820312 81.421875 36.050781 81.421875 L 43.320312 81.421875 C 44.554688 81.421875 45.554688 80.421875 45.554688 79.1875 Z M 45.554688 62.152344 L 45.554688 54.886719 C 45.554688 53.652344 44.554688 52.652344 43.320312 52.652344 L 36.050781 52.652344 C 34.820312 52.652344 33.820312 53.652344 33.820312 54.886719 L 33.820312 62.152344 C 33.820312 63.386719 34.820312 64.386719 36.050781 64.386719 L 43.320312 64.386719 C 44.554688 64.386719 45.554688 63.386719 45.554688 62.152344 Z M 45.554688 45.117188 L 45.554688 37.851562 C 45.554688 36.617188 44.554688 35.617188 43.320312 35.617188 L 36.050781 35.617188 C 34.820312 35.617188 33.820312 36.617188 33.820312 37.851562 L 33.820312 45.117188 C 33.820312 46.347656 34.820312 47.347656 36.050781 47.347656 L 43.320312 47.347656 C 44.554688 47.347656 45.554688 46.347656 45.554688 45.117188 Z M 45.554688 28.082031 L 45.554688 20.816406 C 45.554688 19.578125 44.554688 18.582031 43.320312 18.582031 L 36.050781 18.582031 C 34.820312 18.582031 33.820312 19.578125 33.820312 20.816406 L 33.820312 28.082031 C 33.820312 29.3125 34.820312 30.3125 36.050781 30.3125 L 43.320312 30.3125 C 44.554688 30.3125 45.554688 29.3125 45.554688 28.082031 Z M 27.507812 79.1875 L 27.507812 71.921875 C 27.507812 70.6875 26.507812 69.6875 25.273438 69.6875 L 18.007812 69.6875 C 16.773438 69.6875 15.773438 70.6875 15.773438 71.921875 L 15.773438 79.1875 C 15.773438 80.421875 16.773438 81.421875 18.007812 81.421875 L 25.273438 81.421875 C 26.507812 81.421875 27.507812 80.421875 27.507812 79.1875 Z M 27.507812 62.152344 L 27.507812 54.886719 C 27.507812 53.652344 26.507812 52.652344 25.273438 52.652344 L 18.007812 52.652344 C 16.773438 52.652344 15.773438 53.652344 15.773438 54.886719 L 15.773438 62.152344 C 15.773438 63.386719 16.773438 64.386719 18.007812 64.386719 L 25.273438 64.386719 C 26.507812 64.386719 27.507812 63.386719 27.507812 62.152344 Z M 27.507812 45.117188 L 27.507812 37.851562 C 27.507812 36.617188 26.507812 35.617188 25.273438 35.617188 L 18.007812 35.617188 C 16.773438 35.617188 15.773438 36.617188 15.773438 37.851562 L 15.773438 45.117188 C 15.773438 46.347656 16.773438 47.347656 18.007812 47.347656 L 25.273438 47.347656 C 26.507812 47.347656 27.507812 46.347656 27.507812 45.117188 Z M 27.507812 28.082031 L 27.507812 20.816406 C 27.507812 19.578125 26.507812 18.582031 25.273438 18.582031 L 18.007812 18.582031 C 16.773438 18.582031 15.773438 19.578125 15.773438 20.816406 L 15.773438 28.082031 C 15.773438 29.3125 16.773438 30.3125 18.007812 30.3125 L 25.273438 30.3125 C 26.507812 30.3125 27.507812 29.3125 27.507812 28.082031 Z M 27.507812 28.082031 "/>
<path style=" stroke:none;fill-rule:nonzero;fill:rgb(40%,40%,40%);fill-opacity:1;" d="M 70.019531 6.101562 L 61.046875 6.101562 C 59.089844 6.101562 57.5 7.691406 57.5 9.652344 L 57.5 11.714844 L 9.265625 11.714844 L 9.265625 7.210938 C 9.265625 3.230469 12.492188 0 16.476562 0 L 62.890625 0 C 66.5 0 69.488281 2.644531 70.019531 6.101562 Z M 48.253906 6.019531 C 48.253906 5.054688 47.46875 4.273438 46.503906 4.273438 L 32.867188 4.273438 C 31.902344 4.273438 31.121094 5.054688 31.121094 6.019531 C 31.121094 6.988281 31.902344 7.769531 32.867188 7.769531 L 46.503906 7.769531 C 47.46875 7.769531 48.253906 6.988281 48.253906 6.019531 Z M 48.253906 6.019531 "/>
<path style=" stroke:none;fill-rule:nonzero;fill:rgb(97.647059%,63.137255%,54.117647%);fill-opacity:1;" d="M 63.597656 39.335938 L 63.597656 45.117188 C 63.597656 46.347656 62.597656 47.347656 61.367188 47.347656 L 54.097656 47.347656 C 52.863281 47.347656 51.863281 46.347656 51.863281 45.117188 L 51.863281 37.847656 C 51.863281 36.613281 52.863281 35.617188 54.097656 35.617188 L 57.5 35.617188 L 57.5 35.789062 C 57.5 37.746094 59.089844 39.335938 61.046875 39.335938 Z M 63.597656 39.335938 "/>
<path style=" stroke:none;fill-rule:nonzero;fill:rgb(30.196078%,30.196078%,30.196078%);fill-opacity:1;" d="M 46.503906 4.273438 C 47.46875 4.273438 48.253906 5.054688 48.253906 6.019531 C 48.253906 6.988281 47.46875 7.769531 46.503906 7.769531 L 32.867188 7.769531 C 31.902344 7.769531 31.121094 6.988281 31.121094 6.019531 C 31.121094 5.054688 31.902344 4.273438 32.867188 4.273438 C 32.867188 4.273438 46.503906 4.273438 46.503906 4.273438 Z M 46.503906 4.273438 "/>
<path style=" stroke:none;fill-rule:nonzero;fill:rgb(97.647059%,86.666667%,32.54902%);fill-opacity:1;" d="M 45.554688 20.816406 L 45.554688 28.082031 C 45.554688 29.3125 44.554688 30.3125 43.320312 30.3125 L 36.050781 30.3125 C 34.820312 30.3125 33.820312 29.3125 33.820312 28.082031 L 33.820312 20.816406 C 33.820312 19.578125 34.820312 18.582031 36.050781 18.582031 L 43.320312 18.582031 C 44.554688 18.582031 45.554688 19.578125 45.554688 20.816406 Z M 45.554688 20.816406 "/>
<path style=" stroke:none;fill-rule:nonzero;fill:rgb(30.196078%,30.196078%,30.196078%);fill-opacity:1;" d="M 40.921875 93.167969 C 41.246094 93.496094 41.433594 93.945312 41.433594 94.40625 C 41.433594 94.867188 41.246094 95.316406 40.921875 95.644531 C 40.597656 95.96875 40.144531 96.152344 39.6875 96.152344 C 39.226562 96.152344 38.773438 95.96875 38.449219 95.644531 C 38.125 95.316406 37.9375 94.867188 37.9375 94.40625 C 37.9375 93.945312 38.125 93.496094 38.449219 93.167969 C 38.773438 92.847656 39.226562 92.65625 39.6875 92.65625 C 40.148438 92.65625 40.597656 92.847656 40.921875 93.167969 Z M 40.921875 93.167969 "/>
<path style=" stroke:none;fill-rule:nonzero;fill:rgb(97.647059%,63.137255%,54.117647%);fill-opacity:1;" d="M 27.507812 71.921875 L 27.507812 79.1875 C 27.507812 80.421875 26.507812 81.421875 25.273438 81.421875 L 18.007812 81.421875 C 16.773438 81.421875 15.773438 80.421875 15.773438 79.1875 L 15.773438 71.921875 C 15.773438 70.6875 16.773438 69.6875 18.007812 69.6875 L 25.273438 69.6875 C 26.507812 69.6875 27.507812 70.6875 27.507812 71.921875 Z M 27.507812 71.921875 "/>
<path style=" stroke:none;fill-rule:nonzero;fill:rgb(97.647059%,63.137255%,54.117647%);fill-opacity:1;" d="M 27.507812 20.816406 L 27.507812 28.082031 C 27.507812 29.3125 26.507812 30.3125 25.273438 30.3125 L 18.007812 30.3125 C 16.773438 30.3125 15.773438 29.3125 15.773438 28.082031 L 15.773438 20.816406 C 15.773438 19.578125 16.773438 18.582031 18.007812 18.582031 L 25.273438 18.582031 C 26.507812 18.582031 27.507812 19.578125 27.507812 20.816406 Z M 27.507812 20.816406 "/>
<use xlink:href="#surface1" mask="url(#mask0)"/>
<use xlink:href="#surface1" mask="url(#mask1)"/>
<path style=" stroke:none;fill-rule:nonzero;fill:rgb(90.196078%,90.196078%,90.196078%);fill-opacity:1;" d="M 87.1875 6.101562 L 61.046875 6.101562 C 59.089844 6.101562 57.5 7.691406 57.5 9.652344 L 57.5 35.789062 C 57.5 37.746094 59.089844 39.335938 61.046875 39.335938 L 87.1875 39.335938 C 89.148438 39.335938 90.734375 37.746094 90.734375 35.789062 L 90.734375 9.652344 C 90.734375 7.691406 89.148438 6.101562 87.1875 6.101562 Z M 74.117188 33.375 C 72.144531 33.375 70.296875 32.839844 68.710938 31.902344 C 65.566406 30.046875 63.464844 26.628906 63.464844 22.71875 C 63.464844 16.835938 68.234375 12.0625 74.117188 12.0625 C 75.695312 12.0625 77.191406 12.40625 78.535156 13.023438 C 82.21875 14.699219 84.773438 18.410156 84.773438 22.71875 C 84.773438 28.605469 80.003906 33.375 74.117188 33.375 Z M 74.117188 33.375 "/>
<path style=" stroke:none;fill-rule:nonzero;fill:rgb(53.333333%,77.254902%,98.823529%);fill-opacity:1;" d="M 74.117188 12.0625 C 80.003906 12.0625 84.773438 16.835938 84.773438 22.71875 C 84.773438 28.605469 80.003906 33.375 74.117188 33.375 C 68.234375 33.375 63.464844 28.605469 63.464844 22.71875 C 63.464844 16.835938 68.234375 12.0625 74.117188 12.0625 Z M 79.242188 18.09375 C 79.390625 17.664062 79.449219 17.386719 79.449219 17.386719 C 79.449219 17.386719 79.175781 17.445312 78.742188 17.597656 C 78.527344 17.671875 78.273438 17.773438 77.988281 17.894531 C 77.703125 18.015625 77.394531 18.167969 77.066406 18.335938 C 76.742188 18.515625 76.394531 18.707031 76.042969 18.929688 C 75.695312 19.148438 75.335938 19.398438 74.976562 19.664062 C 74.257812 20.195312 73.550781 20.816406 72.882812 21.484375 C 72.214844 22.152344 71.597656 22.863281 71.066406 23.582031 C 70.53125 24.296875 70.085938 25.015625 69.738281 25.671875 C 69.394531 26.324219 69.148438 26.914062 68.996094 27.347656 C 68.84375 27.777344 68.785156 28.050781 68.785156 28.050781 C 68.785156 28.050781 69.058594 27.996094 69.492188 27.839844 C 69.921875 27.6875 70.511719 27.445312 71.164062 27.097656 C 71.820312 26.75 72.539062 26.304688 73.257812 25.773438 C 73.972656 25.242188 74.683594 24.617188 75.355469 23.957031 C 76.019531 23.289062 76.640625 22.578125 77.175781 21.859375 C 77.441406 21.503906 77.683594 21.144531 77.910156 20.792969 C 78.128906 20.445312 78.324219 20.09375 78.5 19.769531 C 78.671875 19.441406 78.820312 19.132812 78.945312 18.847656 C 79.066406 18.566406 79.164062 18.3125 79.242188 18.09375 Z M 79.242188 18.09375 "/>
<path style=" stroke:none;fill-rule:nonzero;fill:rgb(100%,100%,100%);fill-opacity:1;" d="M 79.449219 17.386719 C 79.449219 17.386719 79.390625 17.664062 79.242188 18.09375 C 79.164062 18.3125 79.066406 18.566406 78.945312 18.847656 C 78.820312 19.132812 78.671875 19.441406 78.5 19.769531 C 78.324219 20.09375 78.128906 20.445312 77.910156 20.792969 C 77.683594 21.144531 77.441406 21.503906 77.175781 21.859375 C 76.640625 22.578125 76.019531 23.289062 75.355469 23.957031 C 75.339844 23.972656 75.324219 23.988281 75.308594 24.003906 C 74.652344 24.648438 73.957031 25.253906 73.257812 25.773438 C 72.539062 26.304688 71.820312 26.75 71.164062 27.097656 C 70.511719 27.445312 69.921875 27.6875 69.492188 27.839844 C 69.058594 27.996094 68.785156 28.050781 68.785156 28.050781 C 68.785156 28.050781 68.84375 27.777344 68.996094 27.347656 C 69.148438 26.914062 69.394531 26.324219 69.738281 25.671875 C 70.085938 25.015625 70.53125 24.296875 71.066406 23.582031 C 71.585938 22.878906 72.1875 22.183594 72.835938 21.53125 C 72.851562 21.515625 72.863281 21.5 72.882812 21.484375 C 73.550781 20.816406 74.257812 20.195312 74.976562 19.664062 C 75.335938 19.398438 75.695312 19.148438 76.042969 18.929688 C 76.394531 18.707031 76.742188 18.515625 77.066406 18.335938 C 77.394531 18.167969 77.703125 18.015625 77.988281 17.894531 C 78.273438 17.773438 78.527344 17.671875 78.742188 17.597656 C 79.175781 17.445312 79.449219 17.386719 79.449219 17.386719 Z M 79.449219 17.386719 "/>
<path style=" stroke:none;fill-rule:nonzero;fill:rgb(93.72549%,34.509804%,28.235294%);fill-opacity:1;" d="M 79.449219 17.386719 C 79.449219 17.386719 79.390625 17.664062 79.242188 18.09375 C 79.164062 18.3125 79.066406 18.566406 78.945312 18.847656 C 78.820312 19.132812 78.671875 19.441406 78.5 19.769531 C 78.324219 20.09375 78.128906 20.445312 77.910156 20.792969 C 77.683594 21.144531 77.441406 21.503906 77.175781 21.859375 C 76.640625 22.578125 76.019531 23.289062 75.355469 23.957031 C 75.339844 23.972656 75.324219 23.988281 75.308594 24.003906 L 72.835938 21.53125 C 72.851562 21.515625 72.863281 21.5 72.882812 21.484375 C 73.550781 20.816406 74.257812 20.195312 74.976562 19.664062 C 75.335938 19.398438 75.695312 19.148438 76.042969 18.929688 C 76.394531 18.707031 76.742188 18.515625 77.066406 18.335938 C 77.394531 18.167969 77.703125 18.015625 77.988281 17.894531 C 78.273438 17.773438 78.527344 17.671875 78.742188 17.597656 C 79.175781 17.445312 79.449219 17.386719 79.449219 17.386719 Z M 79.449219 17.386719 "/>
<use xlink:href="#surface1" mask="url(#mask2)"/>
</g>
</svg>
<!-- iconic normalized -->