<?xml version="1.0" encoding="UTF-8"?>
<svg xmlns="http://www.w3.org/2000/svg" xmlns:xlink="http://www.w3.org/1999/xlink" width="100px" height="100px" viewBox="0 0 100 100" version="1.1">
<g id="surface1">
<path style=" stroke:none;fill-rule:nonzero;fill:rgb(20.392157%,31.372549%,39.607843%);fill-opacity:1;" d="M 100 50 C 100 77.613281 77.613281 100 50 100 C 22.386719 100 0 77.613281 0 50 C 0 22.386719 22.386719 0 50 0 C 77.613281 0 100 22.386719 100 50 Z M 100 50 "/>
<path style=" stroke:none;fill-rule:nonzero;fill:rgb(13.333333%,24.705882%,31.764706%);fill-opacity:1;" d="M 100 50 C 100 47.089844 99.75 44.238281 99.269531 41.460938 L 69.6875 11.878906 L 30.386719 88.191406 L 41.464844 99.269531 C 44.238281 99.75 47.089844 100 50 100 C 77.613281 100 100 77.613281 100 50 Z M 100 50 "/>
<path style=" stroke:none;fill-rule:nonzero;fill:rgb(95.294118%,95.294118%,91.372549%);fill-opacity:1;" d="M 33.554688 89.457031 L 66.445312 89.457031 C 68.984375 89.457031 71.042969 87.398438 71.042969 84.859375 L 71.042969 15.140625 C 71.042969 12.601562 68.984375 10.542969 66.445312 10.542969 L 33.554688 10.542969 C 31.015625 10.542969 28.957031 12.601562 28.957031 15.140625 L 28.957031 84.859375 C 28.957031 87.398438 31.015625 89.457031 33.554688 89.457031 Z M 33.554688 89.457031 "/>
<path style=" stroke:none;fill-rule:nonzero;fill:rgb(81.568627%,83.529412%,85.098039%);fill-opacity:1;" d="M 66.445312 10.542969 L 49.886719 10.542969 L 49.886719 89.457031 L 66.445312 89.457031 C 68.984375 89.457031 71.042969 87.398438 71.042969 84.859375 L 71.042969 15.140625 C 71.042969 12.601562 68.984375 10.542969 66.445312 10.542969 Z M 66.445312 10.542969 "/>
<path style=" stroke:none;fill-rule:nonzero;fill:rgb(20.392157%,31.372549%,39.607843%);fill-opacity:1;" d="M 35.972656 14.925781 C 35.972656 15.894531 35.1875 16.679688 34.21875 16.679688 C 33.25 16.679688 32.464844 15.894531 32.464844 14.925781 C 32.464844 13.957031 33.25 13.171875 34.21875 13.171875 C 35.1875 13.171875 35.972656 13.957031 35.972656 14.925781 Z M 35.972656 14.925781 "/>
<path style=" stroke:none;fill-rule:nonzero;fill:rgb(20.392157%,31.372549%,39.607843%);fill-opacity:1;" d="M 35.972656 85.074219 C 35.972656 86.042969 35.1875 86.828125 34.21875 86.828125 C 33.25 86.828125 32.464844 86.042969 32.464844 85.074219 C 32.464844 84.105469 33.25 83.320312 34.21875 83.320312 C 35.1875 83.320312 35.972656 84.105469 35.972656 85.074219 Z M 35.972656 85.074219 "/>
<path style=" stroke:none;fill-rule:nonzero;fill:rgb(20.392157%,31.372549%,39.607843%);fill-opacity:1;" d="M 67.695312 14.925781 C 67.695312 15.894531 66.910156 16.679688 65.941406 16.679688 C 64.972656 16.679688 64.1875 15.894531 64.1875 14.925781 C 64.1875 13.957031 64.972656 13.171875 65.941406 13.171875 C 66.910156 13.171875 67.695312 13.957031 67.695312 14.925781 Z M 67.695312 14.925781 "/>
<path style=" stroke:none;fill-rule:nonzero;fill:rgb(20.392157%,31.372549%,39.607843%);fill-opacity:1;" d="M 67.695312 85.074219 C 67.695312 86.042969 66.910156 86.828125 65.941406 86.828125 C 64.972656 86.828125 64.1875 86.042969 64.1875 85.074219 C 64.1875 84.105469 64.972656 83.320312 65.941406 83.320312 C 66.910156 83.320312 67.695312 84.105469 67.695312 85.074219 Z M 67.695312 85.074219 "/>
<path style=" stroke:none;fill-rule:nonzero;fill:rgb(36.470588%,45.490196%,52.54902%);fill-opacity:1;" d="M 65.78125 65.78125 C 65.78125 74.5 58.714844 81.566406 50 81.566406 C 41.285156 81.566406 34.21875 74.5 34.21875 65.78125 C 34.21875 57.066406 41.285156 50 50 50 C 58.714844 50 65.78125 57.066406 65.78125 65.78125 Z M 65.78125 65.78125 "/>
<path style=" stroke:none;fill-rule:nonzero;fill:rgb(36.470588%,45.490196%,52.54902%);fill-opacity:1;" d="M 60.523438 28.957031 C 60.523438 34.765625 55.8125 39.476562 50 39.476562 C 44.1875 39.476562 39.476562 34.765625 39.476562 28.957031 C 39.476562 23.144531 44.1875 18.433594 50 18.433594 C 55.8125 18.433594 60.523438 23.144531 60.523438 28.957031 Z M 60.523438 28.957031 "/>
<path style=" stroke:none;fill-rule:nonzero;fill:rgb(31.764706%,39.607843%,44.705882%);fill-opacity:1;" d="M 50 50 C 49.960938 50 49.925781 50.003906 49.886719 50.003906 L 49.886719 81.5625 C 49.925781 81.5625 49.960938 81.566406 50 81.566406 C 58.714844 81.566406 65.78125 74.5 65.78125 65.78125 C 65.78125 57.066406 58.714844 50 50 50 Z M 50 50 "/>
<path style=" stroke:none;fill-rule:nonzero;fill:rgb(31.764706%,39.607843%,44.705882%);fill-opacity:1;" d="M 50 18.433594 C 49.960938 18.433594 49.925781 18.4375 49.886719 18.4375 L 49.886719 39.476562 C 49.925781 39.476562 49.960938 39.476562 50 39.476562 C 55.8125 39.476562 60.523438 34.765625 60.523438 28.957031 C 60.523438 23.144531 55.8125 18.433594 50 18.433594 Z M 50 18.433594 "/>
<path style=" stroke:none;fill-rule:nonzero;fill:rgb(20.392157%,31.372549%,39.607843%);fill-opacity:1;" d="M 55.261719 65.78125 C 55.261719 68.6875 52.90625 71.042969 50 71.042969 C 47.09375 71.042969 44.738281 68.6875 44.738281 65.78125 C 44.738281 62.878906 47.09375 60.523438 50 60.523438 C 52.90625 60.523438 55.261719 62.878906 55.261719 65.78125 Z M 55.261719 65.78125 "/>
<path style=" stroke:none;fill-rule:nonzero;fill:rgb(20.392157%,31.372549%,39.607843%);fill-opacity:1;" d="M 53.507812 28.957031 C 53.507812 30.894531 51.9375 32.464844 50 32.464844 C 48.0625 32.464844 46.492188 30.894531 46.492188 28.957031 C 46.492188 27.019531 48.0625 25.449219 50 25.449219 C 51.9375 25.449219 53.507812 27.019531 53.507812 28.957031 Z M 53.507812 28.957031 "/>
<path style=" stroke:none;fill-rule:nonzero;fill:rgb(14.117647%,25.098039%,31.764706%);fill-opacity:1;" d="M 50 60.523438 C 49.960938 60.523438 49.925781 60.527344 49.886719 60.527344 L 49.886719 71.039062 C 49.925781 71.039062 49.960938 71.042969 50 71.042969 C 52.90625 71.042969 55.261719 68.6875 55.261719 65.78125 C 55.261719 62.878906 52.90625 60.523438 50 60.523438 Z M 50 60.523438 "/>
<path style=" stroke:none;fill-rule:nonzero;fill:rgb(14.117647%,25.098039%,31.764706%);fill-opacity:1;" d="M 50 25.449219 C 49.960938 25.449219 49.925781 25.453125 49.886719 25.453125 L 49.886719 32.457031 C 49.925781 32.460938 49.960938 32.464844 50 32.464844 C 51.9375 32.464844 53.507812 30.894531 53.507812 28.957031 C 53.507812 27.019531 51.9375 25.449219 50 25.449219 Z M 50 25.449219 "/>
</g>
</svg>
<!-- iconic normalized -->