<?xml version="1.0" encoding="UTF-8"?>
<svg xmlns="http://www.w3.org/2000/svg" xmlns:xlink="http://www.w3.org/1999/xlink" width="100px" height="100px" viewBox="0 0 100 100" version="1.1">
<g id="surface1">
<path style=" stroke:none;fill-rule:nonzero;fill:rgb(100%,80.392157%,0.784314%);fill-opacity:1;" d="M 100 50 C 100 77.613281 77.613281 100 50 100 C 22.386719 100 0 77.613281 0 50 C 0 22.386719 22.386719 0 50 0 C 77.613281 0 100 22.386719 100 50 Z M 100 50 "/>
<path style=" stroke:none;fill-rule:nonzero;fill:rgb(72.941176%,59.215686%,0.784314%);fill-opacity:1;" d="M 100 50 C 100 49.21875 99.980469 48.4375 99.945312 47.664062 L 81.929688 29.515625 L 17.945312 75.683594 L 41.484375 99.273438 C 44.253906 99.75 47.097656 100 50 100 C 77.613281 100 100 77.613281 100 50 Z M 100 50 "/>
<path style=" stroke:none;fill-rule:nonzero;fill:rgb(28.627451%,30.588235%,31.764706%);fill-opacity:1;" d="M 47.902344 30.984375 C 47.066406 31.570312 45.910156 31.367188 45.324219 30.53125 L 36.828125 18.394531 C 36.242188 17.558594 36.445312 16.402344 37.28125 15.816406 C 38.121094 15.230469 39.273438 15.433594 39.859375 16.269531 L 48.359375 28.40625 C 48.945312 29.242188 48.742188 30.398438 47.902344 30.984375 Z M 47.902344 30.984375 "/>
<path style=" stroke:none;fill-rule:nonzero;fill:rgb(28.627451%,30.588235%,31.764706%);fill-opacity:1;" d="M 49.699219 30.984375 C 50.535156 31.570312 51.691406 31.367188 52.277344 30.53125 L 60.777344 18.394531 C 61.363281 17.558594 61.160156 16.402344 60.320312 15.816406 C 59.484375 15.230469 58.328125 15.433594 57.742188 16.269531 L 49.246094 28.40625 C 48.660156 29.242188 48.863281 30.398438 49.699219 30.984375 Z M 49.699219 30.984375 "/>
<path style=" stroke:none;fill-rule:nonzero;fill:rgb(19.607843%,21.568627%,23.137255%);fill-opacity:1;" d="M 22.265625 77.546875 L 77.734375 77.546875 C 81.011719 77.546875 83.671875 74.890625 83.671875 71.613281 L 83.671875 33.714844 C 83.671875 30.4375 81.011719 27.777344 77.734375 27.777344 L 22.265625 27.777344 C 18.988281 27.777344 16.328125 30.4375 16.328125 33.714844 L 16.328125 71.613281 C 16.328125 74.890625 18.988281 77.546875 22.265625 77.546875 Z M 22.265625 77.546875 "/>
<path style=" stroke:none;fill-rule:nonzero;fill:rgb(13.72549%,15.686275%,16.862745%);fill-opacity:1;" d="M 77.734375 27.777344 L 48.878906 27.777344 L 48.878906 77.546875 L 77.734375 77.546875 C 81.011719 77.546875 83.671875 74.890625 83.671875 71.613281 L 83.671875 33.714844 C 83.671875 30.4375 81.011719 27.777344 77.734375 27.777344 Z M 77.734375 27.777344 "/>
<path style=" stroke:none;fill-rule:nonzero;fill:rgb(34.901961%,31.764706%,33.333333%);fill-opacity:1;" d="M 79.460938 40.234375 C 79.460938 42.746094 77.425781 44.78125 74.914062 44.78125 C 72.40625 44.78125 70.371094 42.746094 70.371094 40.234375 C 70.371094 37.726562 72.40625 35.691406 74.914062 35.691406 C 77.425781 35.691406 79.460938 37.726562 79.460938 40.234375 Z M 79.460938 40.234375 "/>
<path style=" stroke:none;fill-rule:nonzero;fill:rgb(34.901961%,31.764706%,33.333333%);fill-opacity:1;" d="M 79.460938 54.546875 C 79.460938 57.054688 77.425781 59.089844 74.914062 59.089844 C 72.40625 59.089844 70.371094 57.054688 70.371094 54.546875 C 70.371094 52.035156 72.40625 50 74.914062 50 C 77.425781 50 79.460938 52.035156 79.460938 54.546875 Z M 79.460938 54.546875 "/>
<path style=" stroke:none;fill-rule:nonzero;fill:rgb(74.117647%,76.470588%,78.039216%);fill-opacity:1;" d="M 27.414062 72.222656 L 61.476562 72.222656 C 64.34375 72.222656 66.667969 69.898438 66.667969 67.03125 L 66.667969 38.292969 C 66.667969 35.429688 64.34375 33.105469 61.476562 33.105469 L 27.414062 33.105469 C 24.546875 33.105469 22.222656 35.425781 22.222656 38.292969 L 22.222656 67.03125 C 22.222656 69.898438 24.546875 72.222656 27.414062 72.222656 Z M 27.414062 72.222656 "/>
<path style=" stroke:none;fill-rule:nonzero;fill:rgb(61.568627%,64.313725%,65.882353%);fill-opacity:1;" d="M 61.476562 33.105469 L 48.878906 33.105469 L 48.878906 72.222656 L 61.476562 72.222656 C 64.34375 72.222656 66.667969 69.898438 66.667969 67.03125 L 66.667969 38.292969 C 66.667969 35.425781 64.34375 33.105469 61.476562 33.105469 Z M 61.476562 33.105469 "/>
</g>
</svg>
<!-- iconic normalized -->