<?xml version="1.0" encoding="UTF-8"?>
<svg xmlns="http://www.w3.org/2000/svg" xmlns:xlink="http://www.w3.org/1999/xlink" width="100px" height="100px" viewBox="0 0 100 100" version="1.1">
<g id="surface1">
<path style=" stroke:none;fill-rule:nonzero;fill:rgb(54.117647%,53.333333%,58.431373%);fill-opacity:1;" d="M 96.875 25 L 3.125 25 C 1.398438 25 0 23.601562 0 21.875 L 0 15.625 C 0 13.898438 1.398438 12.5 3.125 12.5 L 96.875 12.5 C 98.601562 12.5 100 13.898438 100 15.625 L 100 21.875 C 100 23.601562 98.601562 25 96.875 25 Z M 96.875 25 "/>
<path style=" stroke:none;fill-rule:nonzero;fill:rgb(36.078431%,32.941176%,41.568627%);fill-opacity:1;" d="M 92.1875 20.3125 L 7.8125 20.3125 C 6.949219 20.3125 6.25 19.613281 6.25 18.75 C 6.25 17.886719 6.949219 17.1875 7.8125 17.1875 L 92.1875 17.1875 C 93.050781 17.1875 93.75 17.886719 93.75 18.75 C 93.75 19.613281 93.050781 20.3125 92.1875 20.3125 Z M 92.1875 20.3125 "/>
<path style=" stroke:none;fill-rule:nonzero;fill:rgb(45.098039%,81.960784%,30.980392%);fill-opacity:1;" d="M 85.9375 18.75 C 85.074219 18.75 14.925781 18.75 14.0625 18.75 C 13.199219 18.75 12.5 19.449219 12.5 20.3125 L 12.5 82.8125 C 12.5 85.398438 14.601562 87.5 17.1875 87.5 L 82.8125 87.5 C 85.398438 87.5 87.5 85.398438 87.5 82.8125 L 87.5 20.3125 C 87.5 19.449219 86.800781 18.75 85.9375 18.75 Z M 85.9375 18.75 "/>
<path style=" stroke:none;fill-rule:nonzero;fill:rgb(100%,93.333333%,73.333333%);fill-opacity:1;" d="M 21.875 60.9375 C 21.875 61.800781 22.574219 62.5 23.4375 62.5 C 31.191406 62.5 37.5 68.808594 37.5 76.5625 C 37.5 77.425781 38.199219 78.125 39.0625 78.125 L 60.9375 78.125 C 61.800781 78.125 62.5 77.425781 62.5 76.5625 C 62.5 68.808594 68.808594 62.5 76.5625 62.5 C 77.425781 62.5 78.125 61.800781 78.125 60.9375 L 78.125 18.75 L 21.875 18.75 Z M 21.875 60.9375 "/>
<path style=" stroke:none;fill-rule:nonzero;fill:rgb(52.156863%,60.392157%,33.333333%);fill-opacity:1;" d="M 23.4375 65.625 C 22.574219 65.625 21.875 66.324219 21.875 67.1875 L 21.875 76.5625 C 21.875 77.425781 22.574219 78.125 23.4375 78.125 L 32.8125 78.125 C 33.675781 78.125 34.375 77.425781 34.375 76.5625 C 34.375 70.53125 29.46875 65.625 23.4375 65.625 Z M 23.4375 65.625 "/>
<path style=" stroke:none;fill-rule:nonzero;fill:rgb(52.156863%,60.392157%,33.333333%);fill-opacity:1;" d="M 76.5625 65.625 C 70.53125 65.625 65.625 70.53125 65.625 76.5625 C 65.625 77.425781 66.324219 78.125 67.1875 78.125 L 76.5625 78.125 C 77.425781 78.125 78.125 77.425781 78.125 76.5625 L 78.125 67.1875 C 78.125 66.324219 77.425781 65.625 76.5625 65.625 Z M 76.5625 65.625 "/>
<path style=" stroke:none;fill-rule:nonzero;fill:rgb(45.098039%,81.960784%,30.980392%);fill-opacity:1;" d="M 57.8125 59.375 C 57.8125 63.691406 54.316406 67.1875 50 67.1875 C 45.683594 67.1875 42.1875 63.691406 42.1875 59.375 C 42.1875 55.058594 45.683594 51.5625 50 51.5625 C 54.316406 51.5625 57.8125 55.058594 57.8125 59.375 Z M 57.8125 59.375 "/>
<path style=" stroke:none;fill-rule:nonzero;fill:rgb(52.156863%,60.392157%,33.333333%);fill-opacity:1;" d="M 21.945312 18.75 C 21.921875 19.152344 21.875 19.546875 21.875 19.953125 C 21.875 33.09375 34.46875 43.75 50 43.75 C 65.53125 43.75 78.125 33.09375 78.125 19.953125 C 78.125 19.546875 78.148438 19.152344 78.125 18.75 Z M 21.945312 18.75 "/>
<path style=" stroke:none;fill-rule:nonzero;fill:rgb(45.098039%,81.960784%,30.980392%);fill-opacity:1;" d="M 21.917969 18.75 C 21.894531 19.148438 21.875 19.546875 21.875 19.953125 C 21.875 28.078125 26.695312 35.242188 34.039062 39.535156 L 37.53125 38.449219 C 39.871094 37.71875 41.601562 35.734375 42.003906 33.320312 L 43.507812 24.277344 C 43.507812 21.890625 43.28125 24.277344 45.671875 24.277344 L 45.671875 18.75 Z M 21.917969 18.75 "/>
<path style=" stroke:none;fill-rule:nonzero;fill:rgb(100%,93.333333%,73.333333%);fill-opacity:1;" d="M 39.261719 18.75 C 39.21875 19.144531 39.183594 19.542969 39.183594 19.953125 C 39.183594 21.894531 39.695312 23.71875 40.59375 25.296875 C 40.988281 25.992188 41.710938 26.441406 42.515625 26.441406 L 50 26.441406 L 52.164062 22.117188 L 53.003906 18.75 Z M 39.261719 18.75 "/>
<path style=" stroke:none;fill-rule:nonzero;fill:rgb(100%,93.333333%,73.333333%);fill-opacity:1;" d="M 43.582031 18.75 C 43.535156 19.144531 43.507812 19.546875 43.507812 19.953125 C 43.507812 25.917969 48.363281 30.769531 54.328125 30.769531 L 56.492188 30.769531 C 62.453125 30.769531 67.308594 25.917969 67.308594 19.953125 C 67.308594 19.546875 67.28125 19.144531 67.238281 18.75 Z M 43.582031 18.75 "/>
</g>
</svg>
<!-- iconic normalized -->