<?xml version="1.0" encoding="UTF-8"?>
<svg xmlns="http://www.w3.org/2000/svg" xmlns:xlink="http://www.w3.org/1999/xlink" width="100px" height="100px" viewBox="0 0 100 100" version="1.1">
<g id="surface1">
<path style=" stroke:none;fill-rule:nonzero;fill:rgb(100%,93.333333%,26.27451%);fill-opacity:1;" d="M 93.75 49.21875 C 92.886719 49.21875 92.1875 49.917969 92.1875 50.78125 L 7.8125 50.78125 C 7.8125 49.917969 7.113281 49.21875 6.25 49.21875 C 5.386719 49.21875 4.6875 49.917969 4.6875 50.78125 L 4.6875 91.40625 C 4.6875 95.714844 8.191406 99.21875 12.5 99.21875 L 87.5 99.21875 C 91.808594 99.21875 95.3125 95.714844 95.3125 91.40625 L 95.3125 50.78125 C 95.3125 49.917969 94.613281 49.21875 93.75 49.21875 Z M 93.75 49.21875 "/>
<path style=" stroke:none;fill-rule:nonzero;fill:rgb(100%,81.960784%,0%);fill-opacity:1;" d="M 93.75 32.03125 L 6.25 32.03125 C 2.804688 32.03125 0 34.835938 0 38.28125 L 0 47.65625 C 0 51.101562 2.804688 53.90625 6.25 53.90625 L 93.75 53.90625 C 97.195312 53.90625 100 51.101562 100 47.65625 L 100 38.28125 C 100 34.835938 97.195312 32.03125 93.75 32.03125 Z M 93.75 32.03125 "/>
<path style=" stroke:none;fill-rule:nonzero;fill:rgb(100%,30.980392%,9.803922%);fill-opacity:1;" d="M 43.75 30.46875 L 56.25 30.46875 L 56.25 99.21875 L 43.75 99.21875 Z M 43.75 30.46875 "/>
<path style=" stroke:none;fill-rule:nonzero;fill:rgb(90.588235%,0%,11.764706%);fill-opacity:1;" d="M 43.75 79.554688 L 56.25 92.054688 L 56.25 87.632812 L 43.75 75.132812 Z M 43.75 79.554688 "/>
<path style=" stroke:none;fill-rule:nonzero;fill:rgb(90.588235%,0%,11.764706%);fill-opacity:1;" d="M 43.75 71.742188 L 56.25 84.242188 L 56.25 79.820312 L 43.75 67.320312 Z M 43.75 71.742188 "/>
<path style=" stroke:none;fill-rule:nonzero;fill:rgb(90.588235%,0%,11.764706%);fill-opacity:1;" d="M 56.25 45.179688 L 56.25 40.757812 L 45.960938 30.46875 L 43.75 30.46875 L 43.75 32.679688 Z M 56.25 45.179688 "/>
<path style=" stroke:none;fill-rule:nonzero;fill:rgb(90.588235%,0%,11.764706%);fill-opacity:1;" d="M 43.75 63.929688 L 56.25 76.429688 L 56.25 72.007812 L 43.75 59.507812 Z M 43.75 63.929688 "/>
<path style=" stroke:none;fill-rule:nonzero;fill:rgb(90.588235%,0%,11.764706%);fill-opacity:1;" d="M 43.75 82.945312 L 43.75 87.367188 L 55.601562 99.21875 L 56.25 99.21875 L 56.25 95.445312 Z M 43.75 82.945312 "/>
<path style=" stroke:none;fill-rule:nonzero;fill:rgb(90.588235%,0%,11.764706%);fill-opacity:1;" d="M 43.75 56.117188 L 56.25 68.617188 L 56.25 64.195312 L 43.75 51.695312 Z M 43.75 56.117188 "/>
<path style=" stroke:none;fill-rule:nonzero;fill:rgb(90.588235%,0%,11.764706%);fill-opacity:1;" d="M 43.75 40.492188 L 56.25 52.992188 L 56.25 48.570312 L 43.75 36.070312 Z M 43.75 40.492188 "/>
<path style=" stroke:none;fill-rule:nonzero;fill:rgb(90.588235%,0%,11.764706%);fill-opacity:1;" d="M 52.210938 99.21875 L 43.75 90.757812 L 43.75 95.179688 L 47.789062 99.21875 Z M 52.210938 99.21875 "/>
<path style=" stroke:none;fill-rule:nonzero;fill:rgb(90.588235%,0%,11.764706%);fill-opacity:1;" d="M 43.75 48.304688 L 56.25 60.804688 L 56.25 56.382812 L 43.75 43.882812 Z M 43.75 48.304688 "/>
<path style=" stroke:none;fill-rule:nonzero;fill:rgb(90.588235%,0%,11.764706%);fill-opacity:1;" d="M 82.8125 57.023438 C 76.644531 57.023438 73.007812 50.59375 69.492188 44.371094 C 66.886719 39.765625 64.214844 35.046875 60.339844 33.035156 C 67.691406 30.171875 76.941406 26.207031 79.703125 23.449219 C 84.882812 18.269531 84.882812 9.84375 79.703125 4.664062 C 74.527344 -0.511719 66.101562 -0.511719 60.921875 4.664062 C 57.699219 7.886719 52.839844 19.945312 50 27.511719 C 47.160156 19.949219 42.300781 7.886719 39.078125 4.664062 C 33.902344 -0.511719 25.476562 -0.511719 20.296875 4.664062 C 15.117188 9.84375 15.117188 18.269531 20.296875 23.449219 C 23.058594 26.207031 32.308594 30.171875 39.660156 33.035156 C 35.785156 35.046875 33.113281 39.765625 30.507812 44.371094 C 26.992188 50.59375 23.355469 57.023438 17.1875 57.023438 C 15.894531 57.023438 14.84375 58.074219 14.84375 59.367188 C 14.84375 60.664062 15.894531 61.710938 17.1875 61.710938 C 26.089844 61.710938 30.605469 53.726562 34.589844 46.679688 C 37.488281 41.554688 40.222656 36.710938 43.75 36.710938 L 43.75 36.71875 L 56.25 36.71875 L 56.25 36.710938 C 59.777344 36.710938 62.515625 41.554688 65.410156 46.679688 C 69.394531 53.726562 73.910156 61.710938 82.8125 61.710938 C 84.105469 61.710938 85.15625 60.664062 85.15625 59.367188 C 85.15625 58.074219 84.105469 57.023438 82.8125 57.023438 Z M 64.234375 7.980469 C 65.910156 6.304688 68.109375 5.46875 70.3125 5.46875 C 72.511719 5.46875 74.714844 6.304688 76.390625 7.980469 C 79.742188 11.332031 79.742188 16.78125 76.390625 20.132812 C 74.003906 22.519531 62.761719 27.179688 53.898438 30.46875 C 57.1875 21.605469 61.847656 10.367188 64.234375 7.980469 Z M 23.609375 7.980469 C 25.285156 6.304688 27.484375 5.46875 29.6875 5.46875 C 31.886719 5.46875 34.089844 6.304688 35.765625 7.980469 C 38.152344 10.367188 42.8125 21.605469 46.101562 30.46875 C 37.238281 27.179688 25.996094 22.519531 23.609375 20.132812 C 20.257812 16.78125 20.257812 11.332031 23.609375 7.980469 Z M 23.609375 7.980469 "/>
</g>
</svg>
<!-- iconic normalized -->