<?xml version="1.0" encoding="UTF-8"?>
<svg xmlns="http://www.w3.org/2000/svg" xmlns:xlink="http://www.w3.org/1999/xlink" width="100px" height="100px" viewBox="0 0 100 100" version="1.1">
<g id="surface1">
<path style=" stroke:none;fill-rule:nonzero;fill:rgb(1.568627%,61.176471%,100%);fill-opacity:1;" d="M 41.269531 93.222656 C 42.199219 93.015625 42.785156 92.097656 42.578125 91.167969 C 42.371094 90.238281 41.4375 89.660156 40.523438 89.859375 L 28.019531 92.640625 C 28.015625 92.636719 28.007812 92.636719 28 92.632812 L 27.707031 92.710938 L 27.144531 92.835938 C 27.097656 92.847656 27.0625 92.878906 27.019531 92.890625 L 0 100 L 8.601562 74.203125 C 4.234375 66.863281 1.722656 58.296875 1.722656 49.136719 C 1.722656 22 23.722656 0 50.863281 0 C 78 0 100 22 100 49.136719 C 100 76.277344 78 98.277344 50.863281 98.277344 C 44.648438 98.277344 38.710938 97.117188 33.238281 95.011719 Z M 41.269531 93.222656 "/>
</g>
</svg>
<!-- iconic normalized -->