<?xml version="1.0" encoding="UTF-8"?>
<svg xmlns="http://www.w3.org/2000/svg" xmlns:xlink="http://www.w3.org/1999/xlink" width="100px" height="100px" viewBox="0 0 100 100" version="1.1">
<g id="surface1">
<path style=" stroke:none;fill-rule:nonzero;fill:rgb(53.333333%,77.254902%,80%);fill-opacity:1;" d="M 100 50 C 100 77.613281 77.613281 100 50 100 C 22.386719 100 0 77.613281 0 50 C 0 22.386719 22.386719 0 50 0 C 77.613281 0 100 22.386719 100 50 Z M 100 50 "/>
<path style=" stroke:none;fill-rule:nonzero;fill:rgb(90.196078%,90.196078%,90.196078%);fill-opacity:1;" d="M 89.0625 62.5 C 89.0625 64.21875 87.65625 65.625 85.9375 65.625 L 14.0625 65.625 C 12.34375 65.625 10.9375 64.21875 10.9375 62.5 L 10.9375 37.5 C 10.9375 35.78125 12.34375 34.375 14.0625 34.375 L 85.9375 34.375 C 87.65625 34.375 89.0625 35.78125 89.0625 37.5 Z M 89.0625 62.5 "/>
<path style=" stroke:none;fill-rule:nonzero;fill:rgb(80%,80%,80%);fill-opacity:1;" d="M 85.9375 34.375 L 82.8125 34.375 C 84.53125 34.375 85.9375 35.78125 85.9375 37.5 L 85.9375 62.5 C 85.9375 64.21875 84.53125 65.625 82.8125 65.625 L 85.9375 65.625 C 87.65625 65.625 89.0625 64.21875 89.0625 62.5 L 89.0625 37.5 C 89.0625 35.78125 87.65625 34.375 85.9375 34.375 Z M 85.9375 34.375 "/>
<path style=" stroke:none;fill-rule:nonzero;fill:rgb(25.098039%,41.568627%,50.196078%);fill-opacity:1;" d="M 10.9375 49.21875 L 89.0625 49.21875 L 89.0625 52.34375 L 10.9375 52.34375 Z M 10.9375 49.21875 "/>
<path style=" stroke:none;fill-rule:nonzero;fill:rgb(14.117647%,14.117647%,14.117647%);fill-opacity:1;" d="M 26.5625 65.625 L 26.5625 67.96875 C 26.5625 68.398438 26.210938 68.75 25.78125 68.75 L 19.53125 68.75 C 19.101562 68.75 18.75 68.398438 18.75 67.96875 L 18.75 65.625 Z M 26.5625 65.625 "/>
<path style=" stroke:none;fill-rule:nonzero;fill:rgb(14.117647%,14.117647%,14.117647%);fill-opacity:1;" d="M 81.25 65.625 L 81.25 67.96875 C 81.25 68.398438 80.898438 68.75 80.46875 68.75 L 74.21875 68.75 C 73.789062 68.75 73.4375 68.398438 73.4375 67.96875 L 73.4375 65.625 Z M 81.25 65.625 "/>
<path style=" stroke:none;fill-rule:nonzero;fill:rgb(96.078431%,96.078431%,96.078431%);fill-opacity:1;" d="M 78.90625 43.75 C 78.90625 52.378906 71.910156 59.375 63.28125 59.375 C 54.652344 59.375 47.65625 52.378906 47.65625 43.75 C 47.65625 35.121094 54.652344 28.125 63.28125 28.125 C 71.910156 28.125 78.90625 35.121094 78.90625 43.75 Z M 78.90625 43.75 "/>
<path style=" stroke:none;fill-rule:nonzero;fill:rgb(14.901961%,21.568627%,25.098039%);fill-opacity:1;" d="M 63.28125 56.25 C 56.390625 56.25 50.78125 50.640625 50.78125 43.75 C 50.78125 36.859375 56.390625 31.25 63.28125 31.25 C 70.171875 31.25 75.78125 36.859375 75.78125 43.75 C 75.78125 50.640625 70.171875 56.25 63.28125 56.25 Z M 63.28125 56.25 "/>
<path style=" stroke:none;fill-rule:nonzero;fill:rgb(14.117647%,14.117647%,14.117647%);fill-opacity:1;" d="M 63.28125 50 C 59.835938 50 57.03125 47.195312 57.03125 43.75 C 57.03125 40.304688 59.835938 37.5 63.28125 37.5 C 66.726562 37.5 69.53125 40.304688 69.53125 43.75 C 69.53125 47.195312 66.726562 50 63.28125 50 Z M 63.28125 50 "/>
<path style=" stroke:none;fill-rule:nonzero;fill:rgb(14.117647%,14.117647%,14.117647%);fill-opacity:1;" d="M 15.625 43.75 C 15.625 44.613281 16.324219 45.3125 17.1875 45.3125 C 18.050781 45.3125 18.75 44.613281 18.75 43.75 L 18.75 34.375 L 15.625 34.375 Z M 15.625 43.75 "/>
<path style=" stroke:none;fill-rule:nonzero;fill:rgb(14.117647%,14.117647%,14.117647%);fill-opacity:1;" d="M 21.875 43.75 C 21.875 44.613281 22.574219 45.3125 23.4375 45.3125 C 24.300781 45.3125 25 44.613281 25 43.75 L 25 34.375 L 21.875 34.375 Z M 21.875 43.75 "/>
<path style=" stroke:none;fill-rule:nonzero;fill:rgb(14.117647%,14.117647%,14.117647%);fill-opacity:1;" d="M 28.125 34.375 L 28.125 43.75 C 28.125 44.613281 28.824219 45.3125 29.6875 45.3125 C 30.550781 45.3125 31.25 44.613281 31.25 43.75 L 31.25 34.375 Z M 28.125 34.375 "/>
</g>
</svg>
<!-- iconic normalized -->