<?xml version="1.0" encoding="UTF-8"?>
<svg xmlns="http://www.w3.org/2000/svg" xmlns:xlink="http://www.w3.org/1999/xlink" width="100px" height="100px" viewBox="0 0 100 100" version="1.1">
<g id="surface1">
<path style=" stroke:none;fill-rule:nonzero;fill:rgb(43.137255%,18.039216%,8.235294%);fill-opacity:1;" d="M 100 50 C 100 77.613281 77.613281 100 50 100 C 22.386719 100 0 77.613281 0 50 C 0 22.386719 22.386719 0 50 0 C 77.613281 0 100 22.386719 100 50 Z M 100 50 "/>
<path style=" stroke:none;fill-rule:nonzero;fill:rgb(22.745098%,0.784314%,0%);fill-opacity:1;" d="M 97.101562 33.207031 L 78.265625 22.070312 L 78.886719 28.070312 L 74.734375 28.070312 L 74.734375 25.550781 L 69.347656 25.550781 L 69.347656 54.847656 L 21.691406 54.847656 L 22.667969 77.996094 L 53.300781 99.878906 C 79.375 98.175781 100 76.503906 100 50 C 100 44.109375 98.972656 38.457031 97.101562 33.207031 Z M 97.101562 33.207031 "/>
<path style=" stroke:none;fill-rule:nonzero;fill:rgb(96.078431%,94.509804%,92.941176%);fill-opacity:1;" d="M 78.964844 75.386719 C 78.964844 77.535156 77.207031 79.292969 75.058594 79.292969 L 25.613281 79.292969 C 23.464844 79.292969 21.707031 77.535156 21.707031 75.386719 L 21.707031 37.085938 C 21.707031 34.9375 23.464844 33.179688 25.613281 33.179688 L 75.058594 33.179688 C 77.207031 33.179688 78.964844 34.9375 78.964844 37.085938 Z M 78.964844 75.386719 "/>
<path style=" stroke:none;fill-rule:nonzero;fill:rgb(81.568627%,84.313725%,84.705882%);fill-opacity:1;" d="M 75.058594 33.179688 L 54.074219 33.179688 C 51.925781 33.179688 50.167969 34.9375 50.167969 37.085938 L 50.167969 75.386719 C 50.167969 76.875 50.179688 78.144531 50.199219 79.230469 L 66.484375 79.230469 L 66.484375 79.292969 L 75.058594 79.292969 C 77.207031 79.292969 78.964844 77.535156 78.964844 75.386719 L 78.964844 37.085938 C 78.964844 34.9375 77.207031 33.179688 75.058594 33.179688 Z M 75.058594 33.179688 "/>
<path style=" stroke:none;fill-rule:nonzero;fill:rgb(74.901961%,77.254902%,77.647059%);fill-opacity:1;" d="M 21.707031 33.179688 L 78.964844 33.179688 L 78.964844 37.636719 L 21.707031 37.636719 Z M 21.707031 33.179688 "/>
<path style=" stroke:none;fill-rule:nonzero;fill:rgb(100%,64.705882%,16.078431%);fill-opacity:1;" d="M 63.023438 27.179688 C 63.023438 28.742188 61.757812 30.007812 60.195312 30.007812 L 41.335938 30.007812 C 39.773438 30.007812 38.511719 28.742188 38.511719 27.179688 C 38.511719 25.617188 39.773438 24.351562 41.335938 24.351562 L 60.195312 24.351562 C 61.757812 24.351562 63.023438 25.617188 63.023438 27.179688 Z M 63.023438 27.179688 "/>
<path style=" stroke:none;fill-rule:nonzero;fill:rgb(8.235294%,12.941176%,21.568627%);fill-opacity:1;" d="M 35.148438 49.769531 C 35.570312 49.566406 35.980469 49.367188 36.382812 49.164062 C 36.785156 48.964844 37.191406 48.730469 37.601562 48.457031 C 38.011719 48.1875 38.449219 47.84375 38.914062 47.433594 C 39.375 47.023438 39.875 46.484375 40.417969 45.820312 L 45.78125 45.820312 L 45.78125 62.867188 L 48.582031 62.867188 L 48.582031 66.875 L 36.53125 66.875 L 36.53125 62.867188 L 39.542969 62.867188 L 39.542969 51.695312 L 36.53125 53.109375 Z M 35.148438 49.769531 "/>
<path style=" stroke:none;fill-rule:nonzero;fill:rgb(8.235294%,12.941176%,21.568627%);fill-opacity:1;" d="M 59.078125 67.265625 C 58.316406 67.265625 57.554688 67.164062 56.804688 66.964844 C 56.050781 66.765625 55.335938 66.492188 54.667969 66.152344 C 53.992188 65.808594 53.390625 65.417969 52.859375 64.976562 C 52.324219 64.535156 51.910156 64.082031 51.609375 63.621094 L 54.890625 60.21875 C 55.472656 60.820312 56.101562 61.34375 56.773438 61.785156 C 57.445312 62.226562 58.226562 62.445312 59.109375 62.445312 C 60.132812 62.445312 60.941406 62.167969 61.53125 61.605469 C 62.125 61.042969 62.421875 60.320312 62.421875 59.433594 C 62.421875 59.035156 62.339844 58.65625 62.179688 58.304688 C 62.019531 57.953125 61.804688 57.644531 61.53125 57.371094 C 61.261719 57.101562 60.933594 56.890625 60.554688 56.738281 C 60.171875 56.589844 59.769531 56.511719 59.347656 56.511719 C 58.644531 56.511719 58.078125 56.660156 57.648438 56.953125 C 57.214844 57.242188 56.839844 57.558594 56.515625 57.898438 L 52.664062 56.183594 L 54.5 45.820312 L 66.425781 45.820312 L 66.425781 50.308594 L 58.324219 50.308594 L 57.8125 53.230469 C 58.113281 53.03125 58.546875 52.859375 59.109375 52.71875 C 59.667969 52.578125 60.324219 52.507812 61.066406 52.507812 C 61.949219 52.507812 62.8125 52.660156 63.65625 52.960938 C 64.5 53.261719 65.246094 53.710938 65.898438 54.316406 C 66.550781 54.917969 67.078125 55.667969 67.480469 56.558594 C 67.882812 57.453125 68.082031 58.480469 68.082031 59.644531 C 68.082031 60.910156 67.816406 62.019531 67.285156 62.972656 C 66.753906 63.929688 66.058594 64.722656 65.207031 65.355469 C 64.355469 65.988281 63.390625 66.464844 62.316406 66.785156 C 61.242188 67.105469 60.164062 67.265625 59.078125 67.265625 Z M 59.078125 67.265625 "/>
<path style=" stroke:none;fill-rule:nonzero;fill:rgb(8.235294%,12.941176%,21.568627%);fill-opacity:1;" d="M 50.402344 21.351562 L 24.03125 21.351562 C 22.742188 21.351562 21.691406 22.402344 21.691406 23.695312 L 21.691406 33.269531 L 50.402344 33.269531 Z M 50.402344 21.351562 "/>
<path style=" stroke:none;fill-rule:nonzero;fill:rgb(3.137255%,43.137255%,66.666667%);fill-opacity:1;" d="M 76.675781 21.351562 L 50.078125 21.351562 L 50.078125 33.269531 L 79.015625 33.269531 L 79.015625 23.695312 C 79.015625 22.402344 77.96875 21.351562 76.675781 21.351562 Z M 76.675781 21.351562 "/>
</g>
</svg>
<!-- iconic normalized -->