<?xml version="1.0" encoding="UTF-8"?>
<svg xmlns="http://www.w3.org/2000/svg" xmlns:xlink="http://www.w3.org/1999/xlink" width="100px" height="100px" viewBox="0 0 100 100" version="1.1">
<g id="surface1">
<path style=" stroke:none;fill-rule:nonzero;fill:rgb(0%,0%,0%);fill-opacity:1;" d="M 49.785156 100 L 4.617188 44.027344 L 33.230469 22.117188 L 45.460938 22.117188 L 33.953125 44.28125 L 49.78125 93.375 L 65.46875 44.28125 L 54.066406 22.117188 L 66.34375 22.117188 L 94.957031 44.027344 Z M 57.25 24.058594 L 67.5625 44.105469 L 51.285156 95.054688 L 92.195312 44.359375 L 65.6875 24.058594 Z M 7.378906 44.359375 L 48.28125 95.042969 L 31.855469 44.105469 L 42.265625 24.054688 L 33.890625 24.054688 Z M 7.378906 44.359375 "/>
<path style=" stroke:none;fill-rule:nonzero;fill:rgb(0%,0%,0%);fill-opacity:1;" d="M 6.335938 42.964844 L 93.574219 42.964844 L 93.574219 44.90625 L 6.335938 44.90625 Z M 6.335938 42.964844 "/>
<path style=" stroke:none;fill-rule:nonzero;fill:rgb(0%,0%,0%);fill-opacity:1;" d="M 37.90625 22.117188 L 63.121094 22.117188 L 63.121094 24.058594 L 37.90625 24.058594 Z M 37.90625 22.117188 "/>
<path style=" stroke:none;fill-rule:nonzero;fill:rgb(0%,0%,0%);fill-opacity:1;" d="M 30.199219 19.960938 L 26.964844 12.519531 L 28.742188 11.746094 L 31.980469 19.1875 Z M 30.199219 19.960938 "/>
<path style=" stroke:none;fill-rule:nonzero;fill:rgb(0%,0%,0%);fill-opacity:1;" d="M 48.984375 0 L 50.925781 0 L 50.925781 17.796875 L 48.984375 17.796875 Z M 48.984375 0 "/>
<path style=" stroke:none;fill-rule:nonzero;fill:rgb(0%,0%,0%);fill-opacity:1;" d="M 68.800781 20.078125 L 67.140625 19.070312 L 71.671875 11.628906 L 73.332031 12.636719 Z M 68.800781 20.078125 "/>
<path style=" stroke:none;fill-rule:nonzero;fill:rgb(0%,0%,0%);fill-opacity:1;" d="M 15.898438 30.492188 L 3.929688 13.667969 L 5.511719 12.542969 L 17.480469 29.367188 Z M 15.898438 30.492188 "/>
<path style=" stroke:none;fill-rule:nonzero;fill:rgb(0%,0%,0%);fill-opacity:1;" d="M 82.480469 30.535156 L 80.96875 29.316406 L 94.558594 12.492188 L 96.070312 13.710938 Z M 82.480469 30.535156 "/>
<path style=" stroke:none;fill-rule:nonzero;fill:rgb(100%,87.058824%,49.019608%);fill-opacity:1;" d="M 49.789062 27.699219 L 44.03125 38.738281 L 54.222656 38.738281 Z M 49.789062 27.699219 "/>
<path style=" stroke:none;fill-rule:nonzero;fill:rgb(100%,87.058824%,49.019608%);fill-opacity:1;" d="M 27.851562 50.265625 L 19.402344 50.265625 L 35.660156 71.175781 Z M 27.851562 50.265625 "/>
<path style=" stroke:none;fill-rule:nonzero;fill:rgb(100%,87.058824%,49.019608%);fill-opacity:1;" d="M 72.179688 50.265625 L 80.628906 50.265625 L 64.371094 71.175781 Z M 72.179688 50.265625 "/>
</g>
</svg>
<!-- iconic normalized -->