<?xml version="1.0" encoding="UTF-8"?>
<svg xmlns="http://www.w3.org/2000/svg" xmlns:xlink="http://www.w3.org/1999/xlink" width="100px" height="100px" viewBox="0 0 100 100" version="1.1">
<defs>
<filter id="alpha" filterUnits="objectBoundingBox" x="0%" y="0%" width="100%" height="100%">
  <feColorMatrix type="matrix" in="SourceGraphic" values="0 0 0 0 1 0 0 0 0 1 0 0 0 0 1 0 0 0 1 0"/>
</filter>
<mask id="mask0">
  <g filter="url(#alpha)">
<rect x="0" y="0" width="100" height="100" style="fill:rgb(0%,0%,0%);fill-opacity:0.101961;stroke:none;"/>
  </g>
</mask>
<clipPath id="clip1">
  <rect width="100" height="100"/>
</clipPath>
<g id="surface1" clip-path="url(#clip1)">
<path style=" stroke:none;fill-rule:nonzero;fill:rgb(0%,0%,0%);fill-opacity:1;" d="M 50 98.597656 C 45.867188 98.597656 42.5 95.234375 42.5 91.101562 L 42.5 90.339844 L 41.742188 90.339844 C 37.609375 90.339844 34.242188 86.976562 34.242188 82.84375 C 34.242188 78.707031 37.609375 75.34375 41.742188 75.34375 L 44.632812 75.351562 C 45.332031 75.351562 46.015625 75.347656 46.714844 75.328125 L 47.453125 75.308594 L 47.398438 21.5 L 47.398438 1.402344 L 59.664062 1.402344 L 59.664062 3.933594 L 52.605469 3.933594 L 52.605469 9.824219 L 57.144531 9.824219 L 57.144531 12.355469 L 52.605469 12.355469 L 52.605469 18.210938 L 59.664062 18.210938 L 59.664062 20.746094 L 52.605469 20.746094 L 52.574219 75.410156 L 53.359375 75.386719 C 54.425781 75.347656 55.429688 75.34375 56.609375 75.34375 L 58.257812 75.34375 C 62.394531 75.34375 65.757812 78.707031 65.757812 82.84375 C 65.757812 86.976562 62.394531 90.34375 58.257812 90.34375 L 57.5 90.34375 L 57.5 91.101562 C 57.5 95.234375 54.136719 98.597656 50 98.597656 Z M 50 98.597656 "/>
</g>
</defs>
<g id="surface1">
<path style=" stroke:none;fill-rule:nonzero;fill:rgb(0%,0%,0%);fill-opacity:1;" d="M 50 100 C 45.300781 100 41.441406 96.339844 41.121094 91.722656 C 36.503906 91.402344 32.84375 87.539062 32.84375 82.84375 C 32.84375 77.933594 36.835938 73.941406 41.742188 73.941406 C 42.28125 73.941406 42.792969 73.945312 43.285156 73.945312 L 44.628906 73.949219 C 45.109375 73.949219 45.578125 73.949219 46.050781 73.941406 L 45.996094 0 L 61.066406 0 L 61.066406 5.335938 L 54.003906 5.335938 L 54.003906 8.421875 L 58.542969 8.421875 L 58.542969 13.757812 L 54.003906 13.757812 L 54.003906 16.8125 L 61.066406 16.8125 L 61.066406 22.148438 L 54.003906 22.148438 L 53.976562 73.964844 C 54.824219 73.945312 55.664062 73.941406 56.617188 73.941406 L 58.257812 73.941406 C 63.164062 73.941406 67.15625 77.933594 67.15625 82.84375 C 67.15625 87.539062 63.496094 91.402344 58.878906 91.722656 C 58.558594 96.339844 54.699219 100 50 100 Z M 41.742188 75.226562 C 37.542969 75.226562 34.128906 78.640625 34.128906 82.84375 C 34.128906 87.042969 37.542969 90.457031 41.742188 90.457031 L 42.386719 90.457031 L 42.386719 91.101562 C 42.386719 95.300781 45.800781 98.714844 50 98.714844 C 54.199219 98.714844 57.617188 95.300781 57.617188 91.101562 L 57.617188 90.457031 L 58.257812 90.457031 C 62.457031 90.457031 65.875 87.042969 65.875 82.84375 C 65.875 78.640625 62.457031 75.226562 58.257812 75.226562 L 56.617188 75.226562 C 55.429688 75.226562 54.425781 75.234375 53.355469 75.269531 L 52.691406 75.289062 L 52.722656 20.859375 L 59.78125 20.859375 L 59.78125 18.09375 L 52.71875 18.09375 L 52.71875 12.472656 L 57.257812 12.472656 L 57.257812 9.707031 L 52.71875 9.707031 L 52.71875 4.050781 L 59.78125 4.050781 L 59.78125 1.285156 L 47.28125 1.285156 L 47.28125 21.503906 L 47.335938 75.195312 L 46.710938 75.210938 C 46.015625 75.230469 45.332031 75.234375 44.632812 75.234375 L 43.28125 75.230469 C 42.789062 75.230469 42.28125 75.226562 41.742188 75.226562 Z M 41.742188 75.226562 "/>
<use xlink:href="#surface1" mask="url(#mask0)"/>
<path style=" stroke:none;fill-rule:nonzero;fill:rgb(0%,0%,0%);fill-opacity:1;" d="M 57.707031 91.710938 C 53.464844 91.710938 50.015625 88.261719 50.015625 84.019531 C 50.015625 80.558594 52.832031 77.742188 56.296875 77.742188 C 59.136719 77.742188 61.449219 80.050781 61.449219 82.894531 L 60.164062 82.894531 C 60.164062 80.761719 58.429688 79.027344 56.296875 79.027344 C 53.539062 79.027344 51.300781 81.265625 51.300781 84.019531 C 51.300781 87.554688 54.171875 90.425781 57.707031 90.425781 C 62.207031 90.425781 65.875 86.761719 65.875 82.261719 L 67.15625 82.261719 C 67.15625 87.472656 62.917969 91.710938 57.707031 91.710938 Z M 57.707031 91.710938 "/>
<path style=" stroke:none;fill-rule:nonzero;fill:rgb(0%,0%,0%);fill-opacity:1;" d="M 42.296875 91.710938 C 37.082031 91.710938 32.84375 87.472656 32.84375 82.257812 L 34.125 82.257812 C 34.125 86.761719 37.792969 90.425781 42.292969 90.425781 C 45.828125 90.425781 48.699219 87.550781 48.699219 84.019531 C 48.699219 81.265625 46.457031 79.023438 43.703125 79.023438 C 41.570312 79.023438 39.835938 80.761719 39.835938 82.894531 L 38.550781 82.894531 C 38.550781 80.050781 40.863281 77.738281 43.703125 77.738281 C 47.167969 77.738281 49.984375 80.558594 49.984375 84.019531 C 49.984375 88.261719 46.535156 91.710938 42.296875 91.710938 Z M 42.296875 91.710938 "/>
</g>
</svg>
<!-- iconic normalized -->