<?xml version="1.0" encoding="UTF-8"?>
<svg xmlns="http://www.w3.org/2000/svg" xmlns:xlink="http://www.w3.org/1999/xlink" width="100px" height="100px" viewBox="0 0 100 100" version="1.1">
<g id="surface1">
<path style=" stroke:none;fill-rule:nonzero;fill:rgb(8.627451%,36.078431%,42.352941%);fill-opacity:1;" d="M 31.273438 22.097656 C 28.171875 22.097656 25.65625 19.582031 25.65625 16.480469 L 25.65625 5.617188 C 25.65625 2.515625 28.171875 0 31.273438 0 C 34.375 0 36.890625 2.515625 36.890625 5.617188 L 36.890625 16.480469 C 36.890625 19.582031 34.375 22.097656 31.273438 22.097656 Z M 31.273438 22.097656 "/>
<path style=" stroke:none;fill-rule:nonzero;fill:rgb(10.980392%,44.705882%,52.941176%);fill-opacity:1;" d="M 50 22.097656 C 46.898438 22.097656 44.382812 19.582031 44.382812 16.480469 L 44.382812 5.617188 C 44.382812 2.515625 46.898438 0 50 0 C 53.101562 0 55.617188 2.515625 55.617188 5.617188 L 55.617188 16.480469 C 55.617188 19.582031 53.101562 22.097656 50 22.097656 Z M 50 22.097656 "/>
<path style=" stroke:none;fill-rule:nonzero;fill:rgb(8.627451%,36.078431%,42.352941%);fill-opacity:1;" d="M 50 22.097656 C 46.898438 22.097656 44.382812 19.582031 44.382812 16.480469 L 44.382812 5.617188 C 44.382812 2.515625 46.898438 0 50 0 C 50 0 50 20.972656 50 22.097656 Z M 50 22.097656 "/>
<path style=" stroke:none;fill-rule:nonzero;fill:rgb(10.980392%,44.705882%,52.941176%);fill-opacity:1;" d="M 68.726562 22.097656 C 65.625 22.097656 63.109375 19.582031 63.109375 16.480469 L 63.109375 5.617188 C 63.109375 2.515625 65.625 0 68.726562 0 C 71.828125 0 74.34375 2.515625 74.34375 5.617188 L 74.34375 16.480469 C 74.34375 19.582031 71.828125 22.097656 68.726562 22.097656 Z M 68.726562 22.097656 "/>
<path style=" stroke:none;fill-rule:nonzero;fill:rgb(8.627451%,36.078431%,42.352941%);fill-opacity:1;" d="M 31.273438 100 C 28.171875 100 25.65625 97.484375 25.65625 94.382812 L 25.65625 83.519531 C 25.65625 80.417969 28.171875 77.902344 31.273438 77.902344 C 34.375 77.902344 36.890625 80.417969 36.890625 83.519531 L 36.890625 94.382812 C 36.890625 97.484375 34.375 100 31.273438 100 Z M 31.273438 100 "/>
<path style=" stroke:none;fill-rule:nonzero;fill:rgb(10.980392%,44.705882%,52.941176%);fill-opacity:1;" d="M 50 100 C 46.898438 100 44.382812 97.484375 44.382812 94.382812 L 44.382812 83.519531 C 44.382812 80.417969 46.898438 77.902344 50 77.902344 C 53.101562 77.902344 55.617188 80.417969 55.617188 83.519531 L 55.617188 94.382812 C 55.617188 97.484375 53.101562 100 50 100 Z M 50 100 "/>
<path style=" stroke:none;fill-rule:nonzero;fill:rgb(8.627451%,36.078431%,42.352941%);fill-opacity:1;" d="M 50 100 C 46.898438 100 44.382812 97.484375 44.382812 94.382812 L 44.382812 83.519531 C 44.382812 80.417969 46.898438 77.902344 50 77.902344 Z M 50 100 "/>
<path style=" stroke:none;fill-rule:nonzero;fill:rgb(10.980392%,44.705882%,52.941176%);fill-opacity:1;" d="M 68.726562 100 C 65.625 100 63.109375 97.484375 63.109375 94.382812 L 63.109375 83.519531 C 63.109375 80.417969 65.625 77.902344 68.726562 77.902344 C 71.828125 77.902344 74.34375 80.417969 74.34375 83.519531 L 74.34375 94.382812 C 74.34375 97.484375 71.828125 100 68.726562 100 Z M 68.726562 100 "/>
<path style=" stroke:none;fill-rule:nonzero;fill:rgb(8.627451%,36.078431%,42.352941%);fill-opacity:1;" d="M 17.042969 36.703125 L 6.179688 36.703125 C 3.078125 36.703125 0.5625 34.1875 0.5625 31.085938 C 0.5625 27.984375 3.078125 25.46875 6.179688 25.46875 L 17.042969 25.46875 C 20.144531 25.46875 22.660156 27.984375 22.660156 31.085938 C 22.660156 34.1875 20.144531 36.703125 17.042969 36.703125 Z M 17.042969 36.703125 "/>
<path style=" stroke:none;fill-rule:nonzero;fill:rgb(8.627451%,36.078431%,42.352941%);fill-opacity:1;" d="M 17.042969 55.429688 L 6.179688 55.429688 C 3.078125 55.429688 0.5625 52.914062 0.5625 49.8125 C 0.5625 46.710938 3.078125 44.195312 6.179688 44.195312 L 17.042969 44.195312 C 20.144531 44.195312 22.660156 46.710938 22.660156 49.8125 C 22.660156 52.914062 20.144531 55.429688 17.042969 55.429688 Z M 17.042969 55.429688 "/>
<path style=" stroke:none;fill-rule:nonzero;fill:rgb(8.627451%,36.078431%,42.352941%);fill-opacity:1;" d="M 17.414062 74.15625 L 6.554688 74.15625 C 3.453125 74.15625 0.9375 71.640625 0.9375 68.539062 C 0.9375 65.4375 3.453125 62.921875 6.554688 62.921875 L 17.414062 62.921875 C 20.519531 62.921875 23.035156 65.4375 23.035156 68.539062 C 23.035156 71.640625 20.519531 74.15625 17.414062 74.15625 Z M 17.414062 74.15625 "/>
<path style=" stroke:none;fill-rule:nonzero;fill:rgb(10.980392%,44.705882%,52.941176%);fill-opacity:1;" d="M 93.445312 36.703125 L 82.585938 36.703125 C 79.480469 36.703125 76.964844 34.1875 76.964844 31.085938 C 76.964844 27.984375 79.480469 25.46875 82.585938 25.46875 L 93.445312 25.46875 C 96.546875 25.46875 99.0625 27.984375 99.0625 31.085938 C 99.0625 34.1875 96.546875 36.703125 93.445312 36.703125 Z M 93.445312 36.703125 "/>
<path style=" stroke:none;fill-rule:nonzero;fill:rgb(10.980392%,44.705882%,52.941176%);fill-opacity:1;" d="M 93.445312 55.429688 L 82.585938 55.429688 C 79.480469 55.429688 76.964844 52.914062 76.964844 49.8125 C 76.964844 46.710938 79.480469 44.195312 82.585938 44.195312 L 93.445312 44.195312 C 96.546875 44.195312 99.0625 46.710938 99.0625 49.8125 C 99.0625 52.914062 96.546875 55.429688 93.445312 55.429688 Z M 93.445312 55.429688 "/>
<path style=" stroke:none;fill-rule:nonzero;fill:rgb(10.980392%,44.705882%,52.941176%);fill-opacity:1;" d="M 93.820312 74.15625 L 82.957031 74.15625 C 79.855469 74.15625 77.339844 71.640625 77.339844 68.539062 C 77.339844 65.4375 79.855469 62.921875 82.957031 62.921875 L 93.820312 62.921875 C 96.921875 62.921875 99.4375 65.4375 99.4375 68.539062 C 99.4375 71.640625 96.921875 74.15625 93.820312 74.15625 Z M 93.820312 74.15625 "/>
<path style=" stroke:none;fill-rule:nonzero;fill:rgb(76.862745%,78.431373%,76.862745%);fill-opacity:1;" d="M 20.152344 11.507812 L 79.847656 11.507812 C 84.527344 11.507812 88.324219 15.304688 88.324219 19.984375 L 88.324219 79.679688 C 88.324219 84.363281 84.527344 88.15625 79.847656 88.15625 L 20.152344 88.15625 C 15.472656 88.15625 11.675781 84.363281 11.675781 79.679688 L 11.675781 19.984375 C 11.675781 15.304688 15.472656 11.507812 20.152344 11.507812 Z M 20.152344 11.507812 "/>
<path style=" stroke:none;fill-rule:nonzero;fill:rgb(64.705882%,66.27451%,65.098039%);fill-opacity:1;" d="M 20.152344 11.507812 L 50 11.507812 L 50 88.15625 L 20.152344 88.15625 C 15.472656 88.15625 11.675781 84.363281 11.675781 79.679688 L 11.675781 19.984375 C 11.675781 15.304688 15.472656 11.507812 20.152344 11.507812 Z M 20.152344 11.507812 "/>
<path style=" stroke:none;fill-rule:nonzero;fill:rgb(10.980392%,44.705882%,52.941176%);fill-opacity:1;" d="M 39.902344 33.722656 L 60.097656 33.722656 C 63.40625 33.722656 66.089844 36.40625 66.089844 39.714844 L 66.089844 59.910156 C 66.089844 63.21875 63.40625 65.902344 60.097656 65.902344 L 39.902344 65.902344 C 36.59375 65.902344 33.910156 63.21875 33.910156 59.910156 L 33.910156 39.714844 C 33.910156 36.40625 36.59375 33.722656 39.902344 33.722656 Z M 39.902344 33.722656 "/>
<path style=" stroke:none;fill-rule:nonzero;fill:rgb(8.627451%,36.078431%,42.352941%);fill-opacity:1;" d="M 39.902344 33.722656 L 50 33.722656 L 50 65.902344 L 39.902344 65.902344 C 36.59375 65.902344 33.910156 63.21875 33.910156 59.910156 L 33.910156 39.714844 C 33.910156 36.40625 36.59375 33.722656 39.902344 33.722656 Z M 39.902344 33.722656 "/>
</g>
</svg>
<!-- iconic normalized -->