<?xml version="1.0" encoding="UTF-8"?>
<svg xmlns="http://www.w3.org/2000/svg" xmlns:xlink="http://www.w3.org/1999/xlink" width="100px" height="100px" viewBox="0 0 100 100" version="1.1">
<defs>
<linearGradient id="linear0" gradientUnits="userSpaceOnUse" x1="-32.8134" y1="596.9095" x2="-25.1284" y2="615.4565" gradientTransform="matrix(1.562496,0,0,-1.562496,72.215253,978.869839)">
<stop offset="0.012" style="stop-color:rgb(87.843137%,70.196078%,52.54902%);stop-opacity:1;"/>
<stop offset="0.519" style="stop-color:rgb(85.490196%,28.627451%,54.901961%);stop-opacity:1;"/>
<stop offset="1" style="stop-color:rgb(58.823529%,7.843137%,51.764706%);stop-opacity:1;"/>
</linearGradient>
<linearGradient id="linear1" gradientUnits="userSpaceOnUse" x1="-0.7766" y1="579.606" x2="6.9084" y2="598.1559" gradientTransform="matrix(1.562496,0,0,-1.562496,72.215253,978.869839)">
<stop offset="0.012" style="stop-color:rgb(87.843137%,70.196078%,52.54902%);stop-opacity:1;"/>
<stop offset="0.519" style="stop-color:rgb(85.490196%,28.627451%,54.901961%);stop-opacity:1;"/>
<stop offset="1" style="stop-color:rgb(58.823529%,7.843137%,51.764706%);stop-opacity:1;"/>
</linearGradient>
<linearGradient id="linear2" gradientUnits="userSpaceOnUse" x1="-24.7096" y1="602.3274" x2="-14.6696" y2="626.5524" gradientTransform="matrix(1.562496,0,0,-1.562496,72.215253,978.869839)">
<stop offset="0" style="stop-color:rgb(16.078431%,82.745098%,85.490196%);stop-opacity:1;"/>
<stop offset="0.519" style="stop-color:rgb(0%,46.666667%,100%);stop-opacity:1;"/>
<stop offset="0.999" style="stop-color:rgb(2.352941%,25.098039%,57.647059%);stop-opacity:1;"/>
<stop offset="1" style="stop-color:rgb(3.137255%,27.45098%,59.607843%);stop-opacity:1;"/>
</linearGradient>
<linearGradient id="linear3" gradientUnits="userSpaceOnUse" x1="-10.4599" y1="570.3775" x2="-0.4199" y2="594.6035" gradientTransform="matrix(1.562496,0,0,-1.562496,72.215253,978.869839)">
<stop offset="0" style="stop-color:rgb(16.078431%,82.745098%,85.490196%);stop-opacity:1;"/>
<stop offset="0.519" style="stop-color:rgb(0%,46.666667%,100%);stop-opacity:1;"/>
<stop offset="0.999" style="stop-color:rgb(2.352941%,25.098039%,57.647059%);stop-opacity:1;"/>
<stop offset="1" style="stop-color:rgb(3.137255%,27.45098%,59.607843%);stop-opacity:1;"/>
</linearGradient>
<linearGradient id="linear4" gradientUnits="userSpaceOnUse" x1="-10.9818" y1="597.4262" x2="5.1712" y2="636.4112" gradientTransform="matrix(1.562496,0,0,-1.562496,72.215253,978.869839)">
<stop offset="0.012" style="stop-color:rgb(87.843137%,70.196078%,52.54902%);stop-opacity:1;"/>
<stop offset="0.519" style="stop-color:rgb(85.490196%,28.627451%,54.901961%);stop-opacity:1;"/>
<stop offset="1" style="stop-color:rgb(58.823529%,7.843137%,51.764706%);stop-opacity:1;"/>
</linearGradient>
<linearGradient id="linear5" gradientUnits="userSpaceOnUse" x1="-13.3571" y1="596.4663" x2="-12.8471" y2="597.6933" gradientTransform="matrix(1.562496,0,0,-1.562496,72.215253,978.869839)">
<stop offset="0" style="stop-color:rgb(16.078431%,82.745098%,85.490196%);stop-opacity:1;"/>
<stop offset="0.519" style="stop-color:rgb(0%,46.666667%,100%);stop-opacity:1;"/>
<stop offset="0.999" style="stop-color:rgb(2.352941%,25.098039%,57.647059%);stop-opacity:1;"/>
<stop offset="1" style="stop-color:rgb(3.137255%,27.45098%,59.607843%);stop-opacity:1;"/>
</linearGradient>
<linearGradient id="linear6" gradientUnits="userSpaceOnUse" x1="-35.3928" y1="574.801" x2="-19.8848" y2="612.233" gradientTransform="matrix(1.562496,0,0,-1.562496,72.215253,978.869839)">
<stop offset="0" style="stop-color:rgb(16.078431%,82.745098%,85.490196%);stop-opacity:1;"/>
<stop offset="0.519" style="stop-color:rgb(0%,46.666667%,100%);stop-opacity:1;"/>
<stop offset="0.999" style="stop-color:rgb(2.352941%,25.098039%,57.647059%);stop-opacity:1;"/>
<stop offset="1" style="stop-color:rgb(3.137255%,27.45098%,59.607843%);stop-opacity:1;"/>
</linearGradient>
<linearGradient id="linear7" gradientUnits="userSpaceOnUse" x1="-15.2524" y1="595.9283" x2="-14.5394" y2="597.6412" gradientTransform="matrix(1.562496,0,0,-1.562496,72.215253,978.869839)">
<stop offset="0" style="stop-color:rgb(16.078431%,82.745098%,85.490196%);stop-opacity:1;"/>
<stop offset="0.519" style="stop-color:rgb(0%,46.666667%,100%);stop-opacity:1;"/>
<stop offset="0.999" style="stop-color:rgb(2.352941%,25.098039%,57.647059%);stop-opacity:1;"/>
<stop offset="1" style="stop-color:rgb(3.137255%,27.45098%,59.607843%);stop-opacity:1;"/>
</linearGradient>
<linearGradient id="linear8" gradientUnits="userSpaceOnUse" x1="-28.285" y1="565.3871" x2="-12.132" y2="604.3771" gradientTransform="matrix(1.562496,0,0,-1.562496,72.215253,978.869839)">
<stop offset="0.012" style="stop-color:rgb(87.843137%,70.196078%,52.54902%);stop-opacity:1;"/>
<stop offset="0.519" style="stop-color:rgb(85.490196%,28.627451%,54.901961%);stop-opacity:1;"/>
<stop offset="1" style="stop-color:rgb(58.823529%,7.843137%,51.764706%);stop-opacity:1;"/>
</linearGradient>
<linearGradient id="linear9" gradientUnits="userSpaceOnUse" x1="-15.4185" y1="591.6639" x2="-14.9095" y2="592.8949" gradientTransform="matrix(1.562496,0,0,-1.562496,72.215253,978.869839)">
<stop offset="0" style="stop-color:rgb(16.078431%,82.745098%,85.490196%);stop-opacity:1;"/>
<stop offset="0.519" style="stop-color:rgb(0%,46.666667%,100%);stop-opacity:1;"/>
<stop offset="0.999" style="stop-color:rgb(2.352941%,25.098039%,57.647059%);stop-opacity:1;"/>
<stop offset="1" style="stop-color:rgb(3.137255%,27.45098%,59.607843%);stop-opacity:1;"/>
</linearGradient>
<linearGradient id="linear10" gradientUnits="userSpaceOnUse" x1="-3.4408" y1="589.0518" x2="12.0612" y2="626.4828" gradientTransform="matrix(1.562496,0,0,-1.562496,72.215253,978.869839)">
<stop offset="0" style="stop-color:rgb(16.078431%,82.745098%,85.490196%);stop-opacity:1;"/>
<stop offset="0.519" style="stop-color:rgb(0%,46.666667%,100%);stop-opacity:1;"/>
<stop offset="0.999" style="stop-color:rgb(2.352941%,25.098039%,57.647059%);stop-opacity:1;"/>
<stop offset="1" style="stop-color:rgb(3.137255%,27.45098%,59.607843%);stop-opacity:1;"/>
</linearGradient>
<linearGradient id="linear11" gradientUnits="userSpaceOnUse" x1="-13.6596" y1="591.8774" x2="-12.9526" y2="593.5914" gradientTransform="matrix(1.562496,0,0,-1.562496,72.215253,978.869839)">
<stop offset="0" style="stop-color:rgb(16.078431%,82.745098%,85.490196%);stop-opacity:1;"/>
<stop offset="0.519" style="stop-color:rgb(0%,46.666667%,100%);stop-opacity:1;"/>
<stop offset="0.999" style="stop-color:rgb(2.352941%,25.098039%,57.647059%);stop-opacity:1;"/>
<stop offset="1" style="stop-color:rgb(3.137255%,27.45098%,59.607843%);stop-opacity:1;"/>
</linearGradient>
<linearGradient id="linear12" gradientUnits="userSpaceOnUse" x1="-16.9546" y1="594.694" x2="-15.9506" y2="597.118" gradientTransform="matrix(1.562496,0,0,-1.562496,72.215253,978.869839)">
<stop offset="0" style="stop-color:rgb(16.078431%,82.745098%,85.490196%);stop-opacity:1;"/>
<stop offset="0.519" style="stop-color:rgb(0%,46.666667%,100%);stop-opacity:1;"/>
<stop offset="0.999" style="stop-color:rgb(2.352941%,25.098039%,57.647059%);stop-opacity:1;"/>
<stop offset="1" style="stop-color:rgb(3.137255%,27.45098%,59.607843%);stop-opacity:1;"/>
</linearGradient>
<linearGradient id="linear13" gradientUnits="userSpaceOnUse" x1="-12.1547" y1="592.6334" x2="-11.1507" y2="595.0584" gradientTransform="matrix(1.562496,0,0,-1.562496,72.215253,978.869839)">
<stop offset="0" style="stop-color:rgb(16.078431%,82.745098%,85.490196%);stop-opacity:1;"/>
<stop offset="0.519" style="stop-color:rgb(0%,46.666667%,100%);stop-opacity:1;"/>
<stop offset="0.999" style="stop-color:rgb(2.352941%,25.098039%,57.647059%);stop-opacity:1;"/>
<stop offset="1" style="stop-color:rgb(3.137255%,27.45098%,59.607843%);stop-opacity:1;"/>
</linearGradient>
<linearGradient id="linear14" gradientUnits="userSpaceOnUse" x1="-16.4852" y1="593.0966" x2="-15.7612" y2="594.8365" gradientTransform="matrix(1.562496,0,0,-1.562496,72.215253,978.869839)">
<stop offset="0" style="stop-color:rgb(16.078431%,82.745098%,85.490196%);stop-opacity:1;"/>
<stop offset="0.519" style="stop-color:rgb(0%,46.666667%,100%);stop-opacity:1;"/>
<stop offset="0.999" style="stop-color:rgb(2.352941%,25.098039%,57.647059%);stop-opacity:1;"/>
<stop offset="1" style="stop-color:rgb(3.137255%,27.45098%,59.607843%);stop-opacity:1;"/>
</linearGradient>
<linearGradient id="linear15" gradientUnits="userSpaceOnUse" x1="-12.4341" y1="594.6871" x2="-11.7141" y2="596.425" gradientTransform="matrix(1.562496,0,0,-1.562496,72.215253,978.869839)">
<stop offset="0" style="stop-color:rgb(16.078431%,82.745098%,85.490196%);stop-opacity:1;"/>
<stop offset="0.519" style="stop-color:rgb(0%,46.666667%,100%);stop-opacity:1;"/>
<stop offset="0.999" style="stop-color:rgb(2.352941%,25.098039%,57.647059%);stop-opacity:1;"/>
<stop offset="1" style="stop-color:rgb(3.137255%,27.45098%,59.607843%);stop-opacity:1;"/>
</linearGradient>
</defs>
<g id="surface1">
<path style=" stroke:none;fill-rule:nonzero;fill:url(#linear0);" d="M 42.945312 41.390625 L 45.109375 46.859375 C 45.988281 42.558594 46.054688 38.269531 45.425781 34.148438 C 34.066406 26.421875 18.800781 25.488281 6.253906 33.019531 C 3.953125 34.398438 1.871094 36 0 37.761719 C 11.933594 32.761719 25.453125 34.601562 35.558594 42.027344 C 37.96875 41.570312 40.4375 41.347656 42.945312 41.390625 Z M 42.945312 41.390625 "/>
<path style=" stroke:none;fill-rule:nonzero;fill:url(#linear1);" d="M 93.746094 66.976562 C 96.042969 65.601562 98.125 63.996094 100 62.234375 C 88.0625 67.234375 74.546875 65.394531 64.441406 57.972656 C 62.03125 58.429688 59.558594 58.652344 57.054688 58.605469 L 54.886719 53.136719 C 54.011719 57.4375 53.945312 61.726562 54.570312 65.847656 C 65.929688 73.578125 81.195312 74.511719 93.746094 66.976562 Z M 93.746094 66.976562 "/>
<path style=" stroke:none;fill-rule:nonzero;fill:url(#linear2);" d="M 51.09375 38.921875 L 48.765625 44.320312 C 52.421875 41.898438 55.503906 38.914062 57.972656 35.558594 C 55.40625 22.0625 45.273438 10.609375 31.070312 7.0625 C 28.472656 6.410156 25.867188 6.070312 23.296875 5.992188 C 35.273438 10.894531 43.53125 21.753906 45.425781 34.148438 C 47.453125 35.527344 49.359375 37.121094 51.09375 38.921875 Z M 51.09375 38.921875 "/>
<path style=" stroke:none;fill-rule:nonzero;fill:url(#linear3);" d="M 48.902344 61.074219 L 51.238281 55.679688 C 47.578125 58.097656 44.496094 61.082031 42.027344 64.441406 C 44.59375 77.9375 54.726562 89.390625 68.929688 92.9375 C 71.527344 93.589844 74.132812 93.929688 76.703125 94.007812 C 64.726562 89.101562 56.46875 78.242188 54.574219 65.847656 C 52.546875 64.46875 50.644531 62.875 48.902344 61.074219 Z M 48.902344 61.074219 "/>
<path style=" stroke:none;fill-rule:nonzero;fill:url(#linear4);" d="M 58.609375 42.945312 L 53.140625 45.109375 C 57.4375 45.988281 61.730469 46.054688 65.851562 45.425781 C 73.578125 34.066406 74.507812 18.804688 66.976562 6.253906 C 65.601562 3.957031 63.996094 1.875 62.234375 0 C 67.234375 11.933594 65.394531 25.453125 57.972656 35.558594 C 58.429688 37.964844 58.652344 40.4375 58.609375 42.945312 Z M 58.609375 42.945312 "/>
<path style=" stroke:none;fill-rule:nonzero;fill:url(#linear5);" d="M 52.632812 47.445312 L 51.902344 45.601562 L 50.054688 46.332031 Z M 52.632812 47.445312 "/>
<path style=" stroke:none;fill-rule:nonzero;fill:url(#linear6);" d="M 38.925781 48.902344 L 44.320312 51.238281 C 41.898438 47.578125 38.917969 44.496094 35.558594 42.027344 C 22.0625 44.59375 10.609375 54.726562 7.0625 68.925781 C 6.410156 71.527344 6.070312 74.132812 5.992188 76.703125 C 10.898438 64.726562 21.757812 56.46875 34.148438 54.574219 C 35.53125 52.546875 37.121094 50.640625 38.925781 48.902344 Z M 38.925781 48.902344 "/>
<path style=" stroke:none;fill-rule:nonzero;fill:url(#linear7);" d="M 50.054688 46.332031 L 48.234375 45.542969 L 47.445312 47.367188 Z M 50.054688 46.332031 "/>
<path style=" stroke:none;fill-rule:nonzero;fill:url(#linear8);" d="M 41.394531 57.054688 L 46.859375 54.890625 C 42.5625 54.011719 38.273438 53.945312 34.148438 54.574219 C 26.421875 65.929688 25.488281 81.195312 33.019531 93.746094 C 34.398438 96.042969 36 98.125 37.761719 100 C 32.757812 88.0625 34.601562 74.546875 42.027344 64.441406 C 41.570312 62.03125 41.347656 59.5625 41.394531 57.054688 Z M 41.394531 57.054688 "/>
<path style=" stroke:none;fill-rule:nonzero;fill:url(#linear9);" d="M 47.367188 52.554688 L 48.097656 54.398438 L 49.941406 53.667969 Z M 47.367188 52.554688 "/>
<path style=" stroke:none;fill-rule:nonzero;fill:url(#linear10);" d="M 61.074219 51.097656 L 55.679688 48.761719 C 58.097656 52.421875 61.082031 55.503906 64.441406 57.972656 C 77.9375 55.40625 89.390625 45.273438 92.9375 31.074219 C 93.589844 28.472656 93.929688 25.867188 94.007812 23.296875 C 89.105469 35.273438 78.246094 43.527344 65.851562 45.425781 C 64.472656 47.453125 62.878906 49.355469 61.074219 51.097656 Z M 61.074219 51.097656 "/>
<path style=" stroke:none;fill-rule:nonzero;fill:url(#linear11);" d="M 49.941406 53.667969 L 51.765625 54.457031 L 52.554688 52.632812 Z M 49.941406 53.667969 "/>
<path style=" stroke:none;fill-rule:nonzero;fill:url(#linear12);" d="M 47.445312 47.367188 L 45.601562 48.097656 L 46.332031 49.945312 Z M 47.445312 47.367188 "/>
<path style=" stroke:none;fill-rule:nonzero;fill:url(#linear13);" d="M 53.667969 50.054688 L 52.554688 52.632812 L 54.398438 51.902344 Z M 53.667969 50.054688 "/>
<path style=" stroke:none;fill-rule:nonzero;fill:url(#linear14);" d="M 46.332031 49.945312 L 45.542969 51.765625 L 47.367188 52.554688 Z M 46.332031 49.945312 "/>
<path style=" stroke:none;fill-rule:nonzero;fill:url(#linear15);" d="M 53.667969 50.054688 L 54.457031 48.234375 L 52.632812 47.445312 Z M 53.667969 50.054688 "/>
</g>
</svg>
<!-- iconic normalized -->