<?xml version="1.0" encoding="UTF-8"?>
<svg xmlns="http://www.w3.org/2000/svg" xmlns:xlink="http://www.w3.org/1999/xlink" width="100px" height="100px" viewBox="0 0 100 100" version="1.1">
<g id="surface1">
<path style=" stroke:none;fill-rule:nonzero;fill:rgb(89.411765%,90.588235%,90.588235%);fill-opacity:1;" d="M 50 0 C 22.386719 0 0 22.386719 0 50 C 0 77.609375 22.386719 100 50 100 C 77.617188 100 100 77.609375 100 50 C 100 22.386719 77.617188 0 50 0 Z M 50 71.875 C 37.917969 71.875 28.125 62.078125 28.125 50 C 28.125 37.921875 37.917969 28.125 50 28.125 C 62.082031 28.125 71.875 37.921875 71.875 50 C 71.875 62.078125 62.082031 71.875 50 71.875 Z M 50 71.875 "/>
<path style=" stroke:none;fill-rule:nonzero;fill:rgb(89.411765%,90.588235%,90.588235%);fill-opacity:1;" d="M 50 0 C 22.386719 0 0 22.386719 0 50 C 0 77.609375 22.386719 100 50 100 C 77.617188 100 100 77.609375 100 50 C 100 22.386719 77.617188 0 50 0 Z M 50 71.875 C 37.917969 71.875 28.125 62.078125 28.125 50 C 28.125 37.921875 37.917969 28.125 50 28.125 C 62.082031 28.125 71.875 37.921875 71.875 50 C 71.875 62.078125 62.082031 71.875 50 71.875 Z M 50 71.875 "/>
<path style=" stroke:none;fill-rule:nonzero;fill:rgb(80.392157%,81.176471%,81.176471%);fill-opacity:1;" d="M 50 99.984375 C 22.375 99.984375 0 77.609375 0 49.984375 C 0 35.484375 6.15625 22.425781 16.03125 13.332031 C 8 22.203125 3.125 33.953125 3.125 46.859375 C 3.125 74.484375 25.5 96.859375 53.125 96.859375 C 66.0625 96.859375 77.875 91.953125 86.75 83.890625 C 77.625 93.796875 64.53125 99.984375 50 99.984375 Z M 50 99.984375 "/>
<path style=" stroke:none;fill-rule:nonzero;fill:rgb(80.392157%,81.176471%,81.176471%);fill-opacity:1;" d="M 71.875 49.984375 C 71.875 37.921875 62.09375 28.109375 50 28.109375 C 44.75 28.109375 39.9375 29.953125 36.1875 33.046875 C 40.1875 28.140625 46.28125 24.984375 53.125 24.984375 C 65.21875 24.984375 75 34.796875 75 46.859375 C 75 53.703125 71.875 59.796875 66.9375 63.796875 C 70.03125 60.046875 71.875 55.234375 71.875 49.984375 Z M 71.875 49.984375 "/>
<path style=" stroke:none;fill-rule:nonzero;fill:rgb(88.627451%,34.117647%,29.803922%);fill-opacity:1;" d="M 39.933594 30.589844 C 42.949219 29.023438 46.367188 28.125 50 28.125 C 53.632812 28.125 57.050781 29.023438 60.066406 30.589844 L 65.195312 2.367188 C 60.398438 0.839844 55.300781 0.00390625 50 0.00390625 C 44.699219 0.00390625 39.601562 0.84375 34.804688 2.371094 Z M 39.933594 30.589844 "/>
<path style=" stroke:none;fill-rule:nonzero;fill:rgb(88.627451%,34.117647%,29.803922%);fill-opacity:1;" d="M 30.589844 60.0625 C 29.023438 57.046875 28.125 53.628906 28.125 50 C 28.125 46.367188 29.023438 42.953125 30.589844 39.9375 L 2.367188 34.804688 C 0.839844 39.597656 0 44.699219 0 50 C 0 55.296875 0.839844 60.398438 2.367188 65.191406 Z M 30.589844 60.0625 "/>
<path style=" stroke:none;fill-rule:nonzero;fill:rgb(88.627451%,34.117647%,29.803922%);fill-opacity:1;" d="M 69.410156 39.9375 C 70.976562 42.953125 71.875 46.367188 71.875 50 C 71.875 53.628906 70.976562 57.050781 69.410156 60.066406 L 97.632812 65.195312 C 99.160156 60.398438 100 55.300781 100 50 C 100 44.699219 99.160156 39.597656 97.632812 34.804688 Z M 69.410156 39.9375 "/>
<path style=" stroke:none;fill-rule:nonzero;fill:rgb(88.627451%,34.117647%,29.803922%);fill-opacity:1;" d="M 60.066406 69.40625 C 57.050781 70.976562 53.632812 71.875 50 71.875 C 46.367188 71.875 42.949219 70.976562 39.933594 69.40625 L 34.804688 97.628906 C 39.597656 99.15625 44.695312 100 49.996094 100 C 55.296875 100 60.398438 99.15625 65.191406 97.628906 Z M 60.066406 69.40625 "/>
<path style=" stroke:none;fill-rule:nonzero;fill:rgb(80.392157%,81.176471%,81.176471%);fill-opacity:1;" d="M 50 99.984375 C 22.375 99.984375 0 77.609375 0 49.984375 C 0 35.484375 6.15625 22.425781 16.03125 13.332031 C 8 22.203125 3.125 33.953125 3.125 46.859375 C 3.125 74.484375 25.5 96.859375 53.125 96.859375 C 66.0625 96.859375 77.875 91.953125 86.75 83.890625 C 77.625 93.796875 64.53125 99.984375 50 99.984375 Z M 50 99.984375 "/>
<path style=" stroke:none;fill-rule:nonzero;fill:rgb(79.607843%,30.588235%,26.666667%);fill-opacity:1;" d="M 60.824219 26.40625 C 58.429688 25.503906 55.839844 24.984375 53.125 24.984375 C 48.078125 24.984375 43.445312 26.710938 39.753906 29.582031 L 39.9375 30.589844 C 40.664062 30.210938 41.421875 29.875 42.195312 29.578125 C 42.601562 29.425781 43.019531 29.3125 43.433594 29.179688 C 44.101562 28.96875 44.773438 28.785156 45.460938 28.636719 C 45.886719 28.546875 46.304688 28.464844 46.742188 28.398438 C 47.65625 28.261719 48.585938 28.175781 49.535156 28.15625 C 49.6875 28.148438 49.835938 28.109375 50 28.109375 C 50.898438 28.109375 51.773438 28.179688 52.644531 28.285156 C 52.695312 28.289062 52.738281 28.300781 52.789062 28.308594 C 53.597656 28.410156 54.390625 28.5625 55.167969 28.75 C 55.242188 28.769531 55.316406 28.789062 55.386719 28.808594 C 56.179688 29.007812 56.957031 29.253906 57.714844 29.539062 C 57.726562 29.542969 57.734375 29.546875 57.742188 29.550781 C 58.539062 29.851562 59.320312 30.191406 60.070312 30.582031 Z M 60.824219 26.40625 "/>
<path style=" stroke:none;fill-rule:nonzero;fill:rgb(79.607843%,30.588235%,26.666667%);fill-opacity:1;" d="M 70.410156 42.167969 C 70.441406 42.253906 70.476562 42.347656 70.503906 42.429688 C 70.746094 43.09375 70.960938 43.765625 71.140625 44.457031 C 71.183594 44.625 71.226562 44.789062 71.269531 44.957031 C 71.417969 45.597656 71.539062 46.242188 71.632812 46.902344 C 71.660156 47.09375 71.695312 47.277344 71.714844 47.46875 C 71.8125 48.296875 71.875 49.136719 71.875 49.988281 C 71.875 49.992188 71.875 49.992188 71.875 49.996094 C 71.875 51.160156 71.753906 52.285156 71.574219 53.394531 C 71.523438 53.71875 71.460938 54.03125 71.394531 54.347656 C 71.214844 55.222656 70.988281 56.085938 70.707031 56.925781 C 70.628906 57.148438 70.570312 57.386719 70.488281 57.613281 C 70.175781 58.457031 69.816406 59.269531 69.40625 60.0625 L 70.40625 60.246094 C 73.285156 56.550781 75 51.914062 75 46.863281 C 75 44.15625 74.484375 41.570312 73.582031 39.175781 L 69.414062 39.933594 C 69.789062 40.65625 70.117188 41.402344 70.410156 42.167969 Z M 70.410156 42.167969 "/>
<path style=" stroke:none;fill-rule:nonzero;fill:rgb(79.607843%,30.588235%,26.666667%);fill-opacity:1;" d="M 6.371094 64.46875 C 4.304688 58.984375 3.125 53.066406 3.125 46.863281 C 3.125 42.835938 3.648438 38.945312 4.542969 35.199219 L 2.367188 34.804688 C 2.304688 35.019531 2.253906 35.246094 2.183594 35.457031 C 1.855469 36.554688 1.542969 37.660156 1.289062 38.785156 C 1.148438 39.398438 1.039062 40.023438 0.917969 40.648438 C 0.734375 41.628906 0.570312 42.621094 0.445312 43.621094 C 0.375 44.164062 0.304688 44.710938 0.253906 45.257812 C 0.105469 46.804688 0.0078125 48.363281 0.0078125 49.949219 C 0.00390625 49.964844 0 49.976562 0 49.992188 C 0 51.542969 0.09375 53.070312 0.230469 54.585938 C 0.28125 55.101562 0.351562 55.609375 0.414062 56.121094 C 0.535156 57.105469 0.683594 58.082031 0.863281 59.050781 C 0.972656 59.648438 1.085938 60.25 1.214844 60.84375 C 1.414062 61.746094 1.65625 62.636719 1.90625 63.519531 C 2.0625 64.074219 2.195312 64.632812 2.367188 65.175781 C 2.367188 65.183594 2.367188 65.1875 2.367188 65.191406 Z M 6.371094 64.46875 "/>
<path style=" stroke:none;fill-rule:nonzero;fill:rgb(79.607843%,30.588235%,26.666667%);fill-opacity:1;" d="M 64.792969 95.4375 C 61.042969 96.335938 57.148438 96.859375 53.125 96.859375 C 46.925781 96.859375 41.011719 95.679688 35.535156 93.621094 L 34.808594 97.621094 C 34.84375 97.632812 34.875 97.648438 34.910156 97.65625 C 35.28125 97.777344 35.667969 97.863281 36.042969 97.976562 C 37.121094 98.289062 38.207031 98.574219 39.308594 98.816406 C 39.773438 98.921875 40.25 99.007812 40.722656 99.09375 C 41.859375 99.308594 43.011719 99.488281 44.175781 99.625 C 44.53125 99.667969 44.882812 99.714844 45.238281 99.75 C 46.808594 99.894531 48.394531 99.984375 50 99.984375 C 51.671875 99.984375 53.316406 99.882812 54.945312 99.722656 C 55.316406 99.6875 55.675781 99.640625 56.042969 99.59375 C 57.300781 99.441406 58.542969 99.238281 59.769531 99 C 60.179688 98.917969 60.601562 98.84375 61.007812 98.75 C 62.425781 98.433594 63.820312 98.054688 65.191406 97.621094 Z M 64.792969 95.4375 "/>
</g>
</svg>
<!-- iconic normalized -->