<?xml version="1.0" encoding="UTF-8"?>
<svg xmlns="http://www.w3.org/2000/svg" xmlns:xlink="http://www.w3.org/1999/xlink" width="100px" height="100px" viewBox="0 0 100 100" version="1.1">
<g id="surface1">
<path style=" stroke:none;fill-rule:nonzero;fill:rgb(10.196078%,45.490196%,57.254902%);fill-opacity:1;" d="M 0 57.808594 L 50 32.808594 L 100 57.808594 L 50 82.808594 C 50 82.808594 0 57.808594 0 57.808594 Z M 0 57.808594 "/>
<path style=" stroke:none;fill-rule:nonzero;fill:rgb(14.901961%,65.098039%,81.960784%);fill-opacity:1;" d="M 0 42.1875 L 50 17.191406 L 100 42.191406 L 50 67.191406 Z M 0 42.1875 "/>
</g>
</svg>
<!-- iconic normalized -->