<?xml version="1.0" encoding="UTF-8"?>
<svg xmlns="http://www.w3.org/2000/svg" xmlns:xlink="http://www.w3.org/1999/xlink" width="100px" height="100px" viewBox="0 0 100 100" version="1.1">
<g id="surface1">
<path style=" stroke:none;fill-rule:nonzero;fill:rgb(80%,81.568627%,82.352941%);fill-opacity:1;" d="M 0 31.25 L 0 90.886719 L 0.03125 90.910156 C 0.1875 95.957031 4.296875 100 9.375 100 L 18.75 100 L 18.75 31.25 Z M 0 31.25 "/>
<path style=" stroke:none;fill-rule:nonzero;fill:rgb(89.411765%,90.588235%,90.588235%);fill-opacity:1;" d="M 18.75 0 L 18.75 90.621094 C 18.75 95.796875 14.550781 99.996094 9.375 99.996094 L 90.554688 99.996094 L 90.5625 99.988281 L 90.628906 99.996094 C 95.792969 99.996094 99.992188 95.8125 100 90.644531 L 100 0 Z M 18.75 0 "/>
<path style=" stroke:none;fill-rule:nonzero;fill:rgb(71.372549%,72.54902%,72.54902%);fill-opacity:1;" d="M 28.125 34.375 L 28.125 40.625 L 90.621094 40.625 L 90.621094 34.375 Z M 28.125 53.125 L 90.621094 53.125 L 90.621094 46.875 L 28.125 46.875 Z M 28.125 65.625 L 90.621094 65.625 L 90.621094 59.375 L 28.125 59.375 Z M 28.125 78.125 L 74.996094 78.125 L 74.996094 71.875 L 28.125 71.875 Z M 28.125 78.125 "/>
<path style=" stroke:none;fill-rule:nonzero;fill:rgb(62.352941%,63.137255%,63.137255%);fill-opacity:1;" d="M 39.113281 9.5 C 38.136719 9.5 37.410156 10.089844 37.410156 11.152344 L 37.410156 19.167969 L 37.363281 19.167969 L 31.226562 10.199219 C 30.929688 9.816406 30.226562 9.5 29.796875 9.5 C 28.816406 9.5 28.089844 10.089844 28.089844 11.152344 L 28.089844 23.199219 C 28.089844 24.261719 28.816406 24.851562 29.796875 24.851562 C 30.769531 24.851562 31.5 24.261719 31.5 23.199219 L 31.5 15.292969 L 31.546875 15.292969 L 37.679688 24.152344 C 38 24.539062 38.679688 24.855469 39.109375 24.855469 C 40.089844 24.855469 40.816406 24.265625 40.816406 23.203125 L 40.816406 11.152344 C 40.816406 10.09375 40.089844 9.5 39.113281 9.5 Z M 51.285156 21.804688 L 47.078125 21.804688 L 47.078125 18.578125 L 50.808594 18.578125 C 51.898438 18.578125 52.46875 17.835938 52.46875 17.113281 C 52.46875 16.371094 51.921875 15.648438 50.808594 15.648438 L 47.078125 15.648438 L 47.078125 12.554688 L 51.078125 12.554688 C 52.144531 12.554688 52.695312 11.8125 52.695312 11.089844 C 52.695312 10.347656 52.171875 9.628906 51.078125 9.628906 L 45.4375 9.628906 C 44.234375 9.628906 43.667969 10.410156 43.667969 11.46875 L 43.667969 23.140625 C 43.667969 24.09375 44.417969 24.726562 45.421875 24.726562 L 51.285156 24.726562 C 52.355469 24.726562 52.902344 23.988281 52.902344 23.265625 C 52.90625 22.523438 52.378906 21.804688 51.285156 21.804688 Z M 74.925781 9.5 C 73.828125 9.5 73.308594 10.089844 73.105469 11.023438 L 71.171875 20.042969 L 71.128906 20.042969 L 68.167969 10.75 C 67.917969 9.984375 67.242188 9.5 66.402344 9.5 C 65.558594 9.5 64.882812 9.984375 64.632812 10.75 L 61.671875 20.042969 L 61.628906 20.042969 L 59.695312 11.023438 C 59.492188 10.089844 58.96875 9.5 57.875 9.5 C 56.875 9.5 56.257812 10.21875 56.257812 10.902344 L 56.347656 11.621094 L 59.234375 23.199219 C 59.460938 24.089844 60.210938 24.851562 61.488281 24.851562 C 62.601562 24.851562 63.464844 24.171875 63.742188 23.300781 L 66.382812 15.117188 L 66.425781 15.117188 L 69.058594 23.300781 C 69.335938 24.171875 70.195312 24.851562 71.3125 24.851562 C 72.585938 24.851562 73.332031 24.089844 73.566406 23.199219 L 76.453125 11.621094 L 76.542969 10.902344 C 76.535156 10.21875 75.921875 9.5 74.925781 9.5 Z M 83.011719 13.804688 C 83.011719 12.914062 83.894531 12.429688 84.878906 12.429688 C 86.246094 12.429688 86.96875 13.0625 87.902344 13.0625 C 88.835938 13.0625 89.425781 12.320312 89.425781 11.496094 C 89.425781 9.816406 86.238281 9.371094 84.964844 9.371094 C 81.941406 9.371094 79.328125 11.21875 79.328125 14.1875 C 79.328125 19.109375 86.921875 17.601562 86.921875 20.105469 C 86.921875 21.144531 86.105469 21.929688 84.605469 21.929688 C 83.125 21.929688 81.851562 21.101562 80.78125 21.101562 C 79.847656 21.101562 79.257812 21.78125 79.257812 22.609375 C 79.257812 24.605469 83.035156 24.984375 84.789062 24.984375 C 87.925781 24.984375 90.605469 23.09375 90.605469 20.0625 C 90.605469 14.589844 83.011719 15.988281 83.011719 13.804688 Z M 83.011719 13.804688 "/>
</g>
</svg>
<!-- iconic normalized -->