<?xml version="1.0" encoding="UTF-8"?>
<svg xmlns="http://www.w3.org/2000/svg" xmlns:xlink="http://www.w3.org/1999/xlink" width="100px" height="100px" viewBox="0 0 100 100" version="1.1">
<g id="surface1">
<path style=" stroke:none;fill-rule:nonzero;fill:rgb(93.72549%,78.039216%,36.862745%);fill-opacity:1;" d="M 12.527344 34.421875 L 87.472656 34.421875 C 90.921875 34.421875 93.71875 37.21875 93.71875 40.664062 L 93.71875 93.753906 C 93.71875 97.203125 90.921875 100 87.472656 100 L 12.527344 100 C 9.078125 100 6.28125 97.203125 6.28125 93.753906 L 6.28125 40.664062 C 6.28125 37.214844 9.078125 34.421875 12.527344 34.421875 Z M 12.527344 34.421875 "/>
<path style=" stroke:none;fill-rule:nonzero;fill:rgb(84.313725%,70.196078%,32.941176%);fill-opacity:1;" d="M 87.472656 34.421875 L 12.527344 34.421875 C 9.078125 34.421875 6.28125 37.21875 6.28125 40.664062 L 6.28125 46.910156 C 6.28125 50.363281 9.078125 53.15625 12.527344 53.15625 L 87.472656 53.15625 C 90.921875 53.15625 93.71875 50.363281 93.71875 46.910156 L 93.71875 40.664062 C 93.71875 37.214844 90.921875 34.421875 87.472656 34.421875 Z M 87.472656 34.421875 "/>
<path style=" stroke:none;fill-rule:nonzero;fill:rgb(69.803922%,58.039216%,27.45098%);fill-opacity:1;" d="M 25.015625 37.542969 C 19.84375 37.542969 15.648438 40.339844 15.648438 43.789062 C 15.648438 47.238281 19.84375 50.035156 25.015625 50.035156 C 30.191406 50.035156 34.386719 47.238281 34.386719 43.789062 C 34.386719 40.335938 30.191406 37.542969 25.015625 37.542969 Z M 74.984375 37.542969 C 69.8125 37.542969 65.613281 40.339844 65.613281 43.789062 C 65.613281 47.238281 69.8125 50.035156 74.984375 50.035156 C 80.15625 50.035156 84.351562 47.238281 84.351562 43.789062 C 84.351562 40.335938 80.15625 37.542969 74.984375 37.542969 Z M 74.984375 37.542969 "/>
<path style=" stroke:none;fill-rule:nonzero;fill:rgb(81.960784%,83.529412%,84.313725%);fill-opacity:1;" d="M 50 0 C 32.753906 0 18.773438 13.988281 18.773438 31.234375 L 18.773438 43.855469 C 18.773438 45.582031 21.570312 46.976562 25.015625 46.976562 C 28.464844 46.976562 31.261719 45.582031 31.261719 43.855469 L 31.261719 30.339844 C 31.261719 20.484375 39.65625 12.496094 50 12.496094 C 60.347656 12.496094 68.738281 20.484375 68.738281 30.339844 L 68.738281 43.855469 C 68.738281 45.582031 71.535156 46.976562 74.984375 46.976562 C 78.429688 46.976562 81.230469 45.582031 81.230469 43.855469 L 81.230469 31.234375 C 81.226562 13.988281 67.246094 0 50 0 Z M 50 0 "/>
<path style=" stroke:none;fill-rule:nonzero;fill:rgb(85.490196%,86.666667%,87.45098%);fill-opacity:1;" d="M 50 6.246094 C 32.753906 6.246094 25.015625 20.234375 25.015625 37.480469 L 25.015625 46.976562 C 28.464844 46.976562 31.261719 45.582031 31.261719 43.855469 L 31.261719 30.339844 C 31.261719 20.484375 39.65625 12.496094 50 12.496094 C 60.347656 12.496094 68.738281 20.484375 68.738281 30.339844 L 68.738281 43.855469 C 68.738281 45.582031 71.535156 46.976562 74.984375 46.976562 L 74.984375 37.480469 C 74.984375 20.234375 67.246094 6.246094 50 6.246094 Z M 50 6.246094 "/>
</g>
</svg>
<!-- iconic normalized -->