<?xml version="1.0" encoding="UTF-8"?>
<svg xmlns="http://www.w3.org/2000/svg" xmlns:xlink="http://www.w3.org/1999/xlink" width="100px" height="100px" viewBox="0 0 100 100" version="1.1">
<g id="surface1">
<path style=" stroke:none;fill-rule:nonzero;fill:rgb(80%,81.568627%,82.352941%);fill-opacity:1;" d="M 50 0 C 25.835938 0 6.25 19.589844 6.25 43.753906 C 6.25 58.613281 13.675781 71.71875 25 79.625 L 25 96.878906 C 25 98.601562 26.394531 100 28.125 100 L 34.375 100 L 34.375 90.625 C 34.375 88.898438 35.773438 87.5 37.5 87.5 C 39.226562 87.5 40.625 88.898438 40.625 90.625 L 40.625 100 L 46.875 100 L 46.875 90.625 C 46.875 88.898438 48.273438 87.5 50 87.5 C 51.726562 87.5 53.125 88.898438 53.125 90.625 L 53.125 100 L 59.375 100 L 59.375 90.625 C 59.375 88.898438 60.773438 87.5 62.5 87.5 C 64.226562 87.5 65.625 88.898438 65.625 90.625 L 65.625 100 L 71.875 100 C 73.601562 100 75 98.601562 75 96.878906 L 75 79.625 C 86.324219 71.71875 93.75 58.601562 93.75 43.753906 C 93.75 19.589844 74.15625 0 50 0 Z M 50 0 "/>
<path style=" stroke:none;fill-rule:nonzero;fill:rgb(63.921569%,65.098039%,65.882353%);fill-opacity:1;" d="M 73.601562 47.367188 L 70.007812 43.820312 L 73.5 40.367188 C 74.804688 39.082031 74.804688 36.992188 73.5 35.703125 C 72.195312 34.414062 70.074219 34.414062 68.773438 35.703125 L 65.277344 39.152344 L 61.789062 35.703125 C 60.480469 34.414062 58.359375 34.414062 57.050781 35.703125 C 55.746094 36.992188 55.746094 39.082031 57.050781 40.367188 L 60.546875 43.820312 L 56.953125 47.367188 C 55.644531 48.660156 55.644531 50.746094 56.953125 52.039062 C 58.257812 53.324219 60.371094 53.324219 61.675781 52.039062 L 65.277344 48.480469 L 68.875 52.039062 C 70.179688 53.324219 72.296875 53.324219 73.601562 52.039062 C 74.910156 50.746094 74.910156 48.660156 73.601562 47.367188 Z M 39.183594 43.820312 L 42.675781 40.367188 C 43.980469 39.082031 43.980469 36.992188 42.675781 35.703125 C 41.367188 34.414062 39.253906 34.414062 37.945312 35.703125 L 34.453125 39.152344 L 30.960938 35.703125 C 29.652344 34.414062 27.535156 34.414062 26.230469 35.703125 C 24.925781 36.992188 24.925781 39.082031 26.230469 40.367188 L 29.722656 43.820312 L 26.125 47.367188 C 24.820312 48.660156 24.820312 50.746094 26.125 52.039062 C 27.429688 53.324219 29.550781 53.324219 30.855469 52.039062 L 34.453125 48.480469 L 38.050781 52.039062 C 39.355469 53.324219 41.472656 53.324219 42.78125 52.039062 C 44.085938 50.746094 44.085938 48.652344 42.78125 47.367188 C 42.78125 47.367188 39.183594 43.820312 39.183594 43.820312 Z M 39.183594 43.820312 "/>
<path style=" stroke:none;fill-rule:nonzero;fill:rgb(71.764706%,73.333333%,74.117647%);fill-opacity:1;" d="M 31.25 96.878906 L 31.25 79.625 C 19.925781 71.71875 12.5 58.601562 12.5 43.753906 C 12.5 20.644531 30.425781 1.765625 53.125 0.15625 C 52.085938 0.0859375 51.050781 0 50 0 C 25.835938 0 6.25 19.589844 6.25 43.753906 C 6.25 58.613281 13.675781 71.71875 25 79.625 L 25 96.878906 C 25 98.601562 26.394531 100 28.125 100 L 34.375 100 C 32.644531 100 31.25 98.601562 31.25 96.878906 Z M 31.25 96.878906 "/>
</g>
</svg>
<!-- iconic normalized -->