<?xml version="1.0" encoding="UTF-8"?>
<svg xmlns="http://www.w3.org/2000/svg" xmlns:xlink="http://www.w3.org/1999/xlink" width="100px" height="100px" viewBox="0 0 100 100" version="1.1">
<g id="surface1">
<path style=" stroke:none;fill-rule:nonzero;fill:rgb(0%,32.156863%,70.588235%);fill-opacity:1;" d="M 83.441406 84.246094 L 97.933594 84.246094 L 97.933594 52.894531 L 83.441406 52.894531 Z M 83.441406 84.246094 "/>
<path style=" stroke:none;fill-rule:nonzero;fill:rgb(0%,42.745098%,94.117647%);fill-opacity:1;" d="M 83.441406 52.894531 L 68.949219 52.894531 L 68.949219 84.246094 L 83.441406 84.246094 Z M 83.441406 52.894531 "/>
<path style=" stroke:none;fill-rule:nonzero;fill:rgb(0%,32.156863%,70.588235%);fill-opacity:1;" d="M 53.003906 2.175781 L 84.132812 2.175781 L 84.132812 16.667969 L 53.003906 16.667969 Z M 53.003906 2.175781 "/>
<path style=" stroke:none;fill-rule:nonzero;fill:rgb(0%,42.745098%,94.117647%);fill-opacity:1;" d="M 53.003906 16.667969 L 84.136719 16.667969 L 84.136719 31.164062 L 53.003906 31.164062 Z M 53.003906 16.667969 "/>
<path style=" stroke:none;fill-rule:nonzero;fill:rgb(100%,83.921569%,62.745098%);fill-opacity:1;" d="M 43.152344 71.011719 L 43.152344 96.136719 L 54.746094 96.136719 C 55.039062 98.316406 56.90625 100 59.164062 100 L 84.28125 100 C 86.742188 100 88.738281 98.003906 88.738281 95.539062 C 88.738281 94.726562 88.519531 93.96875 88.140625 93.3125 L 90.96875 93.3125 C 93.433594 93.3125 95.429688 91.3125 95.429688 88.851562 C 95.429688 88.039062 95.210938 87.277344 94.832031 86.621094 L 95.429688 86.621094 C 97.890625 86.621094 99.886719 84.625 99.890625 82.160156 C 99.886719 79.699219 97.890625 77.703125 95.429688 77.703125 L 94.832031 77.703125 C 95.210938 77.046875 95.429688 76.285156 95.429688 75.472656 C 95.429688 73.011719 93.433594 71.011719 90.96875 71.011719 Z M 43.152344 71.011719 "/>
<path style=" stroke:none;fill-rule:nonzero;fill:rgb(100%,83.921569%,62.745098%);fill-opacity:1;" d="M 78.882812 69.835938 C 78.882812 72.273438 76.90625 74.25 74.46875 74.25 L 59.753906 74.25 C 56.058594 74.25 55.339844 81.234375 55.339844 69.835938 C 55.339844 67.398438 57.316406 65.421875 59.753906 65.421875 L 74.46875 65.421875 C 76.90625 65.421875 78.882812 67.398438 78.882812 69.835938 Z M 78.882812 69.835938 "/>
<path style=" stroke:none;fill-rule:nonzero;fill:rgb(100%,75.686275%,43.921569%);fill-opacity:1;" d="M 47.023438 71.011719 L 47.023438 95.816406 L 65.753906 65.421875 L 59.753906 65.421875 C 57.316406 65.421875 55.339844 67.398438 55.339844 69.835938 C 55.339844 70.253906 55.339844 70.644531 55.34375 71.011719 Z M 47.023438 71.011719 "/>
<path style=" stroke:none;fill-rule:nonzero;fill:rgb(0%,32.156863%,70.588235%);fill-opacity:1;" d="M 15.867188 83.550781 L 46.996094 83.550781 L 46.996094 98.046875 L 15.867188 98.046875 Z M 15.867188 83.550781 "/>
<path style=" stroke:none;fill-rule:nonzero;fill:rgb(0%,42.745098%,94.117647%);fill-opacity:1;" d="M 15.867188 69.058594 L 46.996094 69.058594 L 46.996094 83.550781 L 15.867188 83.550781 Z M 15.867188 69.058594 "/>
<path style=" stroke:none;fill-rule:nonzero;fill:rgb(100%,83.921569%,62.745098%);fill-opacity:1;" d="M 30.273438 55.226562 C 29.859375 55.226562 29.46875 55.230469 29.097656 55.230469 L 29.097656 43.042969 L 3.976562 43.042969 L 3.976562 54.636719 C 1.792969 54.925781 0.109375 56.792969 0.109375 59.054688 L 0.109375 84.167969 C 0.109375 86.632812 2.105469 88.628906 4.570312 88.628906 C 5.382812 88.628906 6.144531 88.410156 6.800781 88.03125 L 6.800781 90.859375 C 6.800781 93.320312 8.796875 95.316406 11.257812 95.316406 C 12.074219 95.316406 12.832031 95.097656 13.488281 94.71875 L 13.488281 95.316406 C 13.488281 97.78125 15.484375 99.777344 17.949219 99.777344 C 20.410156 99.777344 22.410156 97.78125 22.410156 95.316406 L 22.410156 94.71875 C 23.0625 95.097656 23.824219 95.316406 24.636719 95.316406 C 27.101562 95.316406 29.097656 93.320312 29.097656 90.859375 L 29.097656 78.609375 C 29.472656 78.710938 29.867188 78.773438 30.273438 78.773438 C 32.710938 78.773438 34.6875 76.796875 34.6875 74.355469 L 34.6875 59.640625 C 34.691406 57.203125 32.714844 55.226562 30.273438 55.226562 Z M 30.273438 55.226562 "/>
<path style=" stroke:none;fill-rule:nonzero;fill:rgb(0%,32.156863%,70.588235%);fill-opacity:1;" d="M 2.066406 15.976562 L 16.558594 15.976562 L 16.558594 46.886719 L 2.066406 46.886719 Z M 2.066406 15.976562 "/>
<path style=" stroke:none;fill-rule:nonzero;fill:rgb(0%,42.745098%,94.117647%);fill-opacity:1;" d="M 16.558594 15.976562 L 31.050781 15.976562 L 31.050781 46.886719 L 16.558594 46.886719 Z M 16.558594 15.976562 "/>
<path style=" stroke:none;fill-rule:nonzero;fill:rgb(100%,83.921569%,62.745098%);fill-opacity:1;" d="M 95.429688 11.148438 C 94.617188 11.148438 93.855469 11.367188 93.199219 11.746094 L 93.199219 8.917969 C 93.199219 6.457031 91.203125 4.460938 88.742188 4.460938 C 87.925781 4.460938 87.167969 4.679688 86.511719 5.058594 L 86.511719 4.460938 C 86.511719 1.996094 84.511719 0 82.050781 0 C 79.585938 0 77.589844 1.996094 77.589844 4.460938 L 77.589844 5.058594 C 76.9375 4.679688 76.175781 4.460938 75.363281 4.460938 C 72.898438 4.460938 70.902344 6.457031 70.902344 8.917969 L 70.902344 21.167969 C 70.527344 21.066406 70.132812 21.003906 69.726562 21.003906 C 67.289062 21.003906 65.3125 22.980469 65.3125 25.421875 L 65.3125 40.136719 C 65.3125 42.574219 67.289062 44.550781 69.726562 44.550781 C 70.144531 44.550781 70.53125 44.550781 70.902344 44.546875 L 70.902344 52.894531 L 96.023438 52.894531 L 96.023438 45.140625 C 98.207031 44.851562 99.890625 42.984375 99.890625 40.722656 L 99.890625 15.609375 C 99.890625 13.144531 97.894531 11.148438 95.429688 11.148438 Z M 95.429688 11.148438 "/>
<path style=" stroke:none;fill-rule:nonzero;fill:rgb(100%,83.921569%,62.745098%);fill-opacity:1;" d="M 52.988281 29.210938 L 52.988281 4.085938 L 45.253906 4.085938 C 44.960938 1.90625 43.09375 0.222656 40.835938 0.222656 L 15.71875 0.222656 C 13.257812 0.222656 11.261719 2.21875 11.261719 4.683594 C 11.261719 5.496094 11.480469 6.253906 11.859375 6.910156 L 9.03125 6.910156 C 6.566406 6.910156 4.570312 8.90625 4.570312 11.371094 C 4.570312 12.183594 4.789062 12.945312 5.167969 13.601562 L 4.570312 13.601562 C 2.109375 13.601562 0.113281 15.597656 0.109375 18.058594 C 0.113281 20.523438 2.109375 22.519531 4.570312 22.519531 L 5.167969 22.519531 C 4.789062 23.175781 4.570312 23.9375 4.570312 24.75 C 4.570312 27.210938 6.566406 29.207031 9.03125 29.207031 L 52.988281 29.207031 Z M 52.988281 29.210938 "/>
<path style=" stroke:none;fill-rule:nonzero;fill:rgb(100%,83.921569%,62.745098%);fill-opacity:1;" d="M 21.117188 30.386719 C 21.117188 27.949219 23.09375 25.972656 25.53125 25.972656 L 40.246094 25.972656 C 43.941406 25.972656 44.660156 18.988281 44.660156 30.386719 C 44.660156 32.824219 42.683594 34.800781 40.246094 34.800781 L 25.53125 34.800781 C 23.09375 34.800781 21.117188 32.824219 21.117188 30.386719 Z M 21.117188 30.386719 "/>
<path style=" stroke:none;fill-rule:nonzero;fill:rgb(100%,75.686275%,43.921569%);fill-opacity:1;" d="M 70.902344 52.894531 L 95.707031 52.894531 L 65.308594 34.164062 L 65.308594 40.164062 C 65.308594 42.601562 67.285156 44.578125 69.726562 44.578125 C 70.140625 44.578125 70.53125 44.578125 70.902344 44.574219 Z M 70.902344 52.894531 "/>
<path style=" stroke:none;fill-rule:nonzero;fill:rgb(100%,75.686275%,43.921569%);fill-opacity:1;" d="M 52.988281 29.210938 L 52.988281 4.40625 L 34.257812 34.800781 L 40.257812 34.800781 C 42.695312 34.800781 44.671875 32.824219 44.671875 30.386719 C 44.671875 29.96875 44.671875 29.578125 44.667969 29.210938 Z M 52.988281 29.210938 "/>
<path style=" stroke:none;fill-rule:nonzero;fill:rgb(100%,75.686275%,43.921569%);fill-opacity:1;" d="M 29.097656 46.890625 L 4.292969 46.890625 L 34.691406 65.621094 L 34.691406 59.621094 C 34.691406 57.183594 32.714844 55.207031 30.273438 55.207031 C 29.859375 55.207031 29.46875 55.207031 29.097656 55.210938 Z M 29.097656 46.890625 "/>
</g>
</svg>
<!-- iconic normalized -->