<?xml version="1.0" encoding="UTF-8"?>
<svg xmlns="http://www.w3.org/2000/svg" xmlns:xlink="http://www.w3.org/1999/xlink" width="100px" height="100px" viewBox="0 0 100 100" version="1.1">
<g id="surface1">
<path style=" stroke:none;fill-rule:nonzero;fill:rgb(83.921569%,12.941176%,15.294118%);fill-opacity:1;" d="M 100 50 C 100 77.613281 77.613281 100 50 100 C 22.386719 100 0 77.613281 0 50 C 0 22.386719 22.386719 0 50 0 C 77.613281 0 100 22.386719 100 50 Z M 100 50 "/>
<path style=" stroke:none;fill-rule:nonzero;fill:rgb(49.803922%,80.392157%,80%);fill-opacity:1;" d="M 70.453125 79.359375 C 70.453125 84.363281 66.761719 88.417969 62.207031 88.417969 L 39.707031 88.417969 C 35.152344 88.417969 31.460938 84.363281 31.460938 79.359375 C 31.460938 79.359375 33.351562 59.738281 34.898438 54.835938 C 36.445312 49.933594 38.589844 45.78125 43.144531 45.78125 L 59.460938 45.78125 C 64.011719 45.78125 66.503906 48.800781 67.703125 54.835938 C 68.90625 60.875 70.453125 79.359375 70.453125 79.359375 Z M 70.453125 79.359375 "/>
<path style=" stroke:none;fill-rule:nonzero;fill:rgb(100%,100%,100%);fill-opacity:1;" d="M 45.792969 80.949219 L 49.742188 49.707031 L 50.824219 48.320312 L 51.40625 48.289062 L 52.8125 49.707031 L 56.761719 80.949219 L 51.066406 85.777344 Z M 45.792969 80.949219 "/>
<path style=" stroke:none;fill-rule:nonzero;fill:rgb(55.294118%,82.745098%,83.529412%);fill-opacity:1;" d="M 48.65625 58.308594 L 53.40625 54.417969 L 53.199219 52.769531 L 48.914062 56.277344 Z M 48.65625 58.308594 "/>
<path style=" stroke:none;fill-rule:nonzero;fill:rgb(55.294118%,82.745098%,83.529412%);fill-opacity:1;" d="M 47.929688 64.050781 L 54 59.082031 L 53.789062 57.433594 L 48.1875 62.019531 Z M 47.929688 64.050781 "/>
<path style=" stroke:none;fill-rule:nonzero;fill:rgb(55.294118%,82.745098%,83.529412%);fill-opacity:1;" d="M 47.203125 69.789062 L 54.589844 63.746094 L 54.378906 62.097656 L 47.460938 67.761719 Z M 47.203125 69.789062 "/>
<path style=" stroke:none;fill-rule:nonzero;fill:rgb(55.294118%,82.745098%,83.529412%);fill-opacity:1;" d="M 46.476562 75.53125 L 55.179688 68.410156 L 54.96875 66.761719 L 46.734375 73.503906 Z M 46.476562 75.53125 "/>
<path style=" stroke:none;fill-rule:nonzero;fill:rgb(55.294118%,82.745098%,83.529412%);fill-opacity:1;" d="M 45.792969 80.949219 L 46 81.070312 L 55.765625 73.078125 L 55.558594 71.429688 L 46.007812 79.242188 Z M 45.792969 80.949219 "/>
<path style=" stroke:none;fill-rule:nonzero;fill:rgb(55.294118%,82.745098%,83.529412%);fill-opacity:1;" d="M 48.941406 83.839844 L 56.359375 77.742188 L 56.148438 76.09375 L 47.859375 82.863281 Z M 48.941406 83.839844 "/>
<path style=" stroke:none;fill-rule:nonzero;fill:rgb(43.529412%,77.254902%,73.72549%);fill-opacity:1;" d="M 53.773438 48.941406 C 53.773438 47.511719 52.628906 46.347656 51.214844 46.347656 C 49.800781 46.347656 48.65625 47.511719 48.65625 48.941406 C 48.65625 50.375 49.800781 51.535156 51.214844 51.535156 C 52.628906 51.535156 53.773438 50.375 53.773438 48.941406 Z M 53.773438 48.941406 "/>
<path style=" stroke:none;fill-rule:nonzero;fill:rgb(91.372549%,76.078431%,61.176471%);fill-opacity:1;" d="M 67.378906 26.976562 C 67.378906 36.15625 59.9375 43.597656 50.757812 43.597656 C 41.578125 43.597656 34.136719 36.15625 34.136719 26.976562 C 34.136719 17.800781 41.578125 10.359375 50.757812 10.359375 C 59.9375 10.359375 67.378906 17.800781 67.378906 26.976562 Z M 67.378906 26.976562 "/>
<path style=" stroke:none;fill-rule:nonzero;fill:rgb(64.313725%,39.215686%,20.392157%);fill-opacity:1;" d="M 67.371094 26.976562 L 56.039062 16.78125 C 56.039062 16.78125 53.628906 20.777344 47.191406 23.6875 C 40.988281 26.492188 34.136719 26.976562 34.136719 26.976562 C 34.136719 17.800781 41.574219 10.363281 50.753906 10.363281 C 59.929688 10.363281 67.371094 17.800781 67.371094 26.976562 Z M 67.371094 26.976562 "/>
<path style=" stroke:none;fill-rule:nonzero;fill:rgb(20.392157%,20.392157%,20%);fill-opacity:1;" d="M 48.050781 29.449219 C 48.050781 28.121094 47.03125 27.042969 45.777344 27.042969 C 44.519531 27.042969 43.5 28.121094 43.5 29.449219 C 43.5 30.777344 44.519531 31.855469 45.777344 31.855469 C 47.03125 31.855469 48.050781 30.777344 48.050781 29.449219 Z M 48.050781 29.449219 "/>
<path style=" stroke:none;fill-rule:nonzero;fill:rgb(20.392157%,20.392157%,20%);fill-opacity:1;" d="M 57.914062 29.449219 C 57.914062 28.121094 56.894531 27.042969 55.636719 27.042969 C 54.378906 27.042969 53.359375 28.121094 53.359375 29.449219 C 53.359375 30.777344 54.378906 31.855469 55.636719 31.855469 C 56.894531 31.855469 57.914062 30.777344 57.914062 29.449219 Z M 57.914062 29.449219 "/>
<path style=" stroke:none;fill-rule:nonzero;fill:rgb(100%,100%,100%);fill-opacity:1;" d="M 57.257812 28.53125 C 57.257812 28 56.851562 27.570312 56.347656 27.570312 C 55.84375 27.570312 55.4375 28 55.4375 28.53125 C 55.4375 29.0625 55.84375 29.496094 56.347656 29.496094 C 56.851562 29.496094 57.257812 29.0625 57.257812 28.53125 Z M 57.257812 28.53125 "/>
<path style=" stroke:none;fill-rule:nonzero;fill:rgb(100%,100%,100%);fill-opacity:1;" d="M 47.371094 28.53125 C 47.371094 28 46.964844 27.570312 46.460938 27.570312 C 45.957031 27.570312 45.550781 28 45.550781 28.53125 C 45.550781 29.0625 45.957031 29.496094 46.460938 29.496094 C 46.964844 29.496094 47.371094 29.0625 47.371094 28.53125 Z M 47.371094 28.53125 "/>
</g>
</svg>
<!-- iconic normalized -->