<?xml version="1.0" encoding="UTF-8"?>
<svg xmlns="http://www.w3.org/2000/svg" xmlns:xlink="http://www.w3.org/1999/xlink" width="100px" height="100px" viewBox="0 0 100 100" version="1.1">
<g id="surface1">
<path style=" stroke:none;fill-rule:nonzero;fill:rgb(20.392157%,30.588235%,36.470588%);fill-opacity:1;" d="M 100 50 C 100 77.613281 77.613281 100 50 100 C 22.386719 100 0 77.613281 0 50 C 0 22.386719 22.386719 0 50 0 C 77.613281 0 100 22.386719 100 50 Z M 100 50 "/>
<path style=" stroke:none;fill-rule:nonzero;fill:rgb(96.470588%,63.529412%,63.921569%);fill-opacity:1;" d="M 80.34375 58.125 C 80.34375 41.738281 66.316406 28.453125 49.011719 28.453125 C 31.710938 28.453125 17.683594 41.738281 17.683594 58.125 C 17.683594 74.511719 31.710938 87.792969 49.011719 87.792969 C 66.316406 87.792969 80.34375 74.511719 80.34375 58.125 Z M 80.34375 58.125 "/>
<path style=" stroke:none;fill-rule:nonzero;fill:rgb(96.470588%,63.529412%,63.921569%);fill-opacity:1;" d="M 76.597656 40.90625 C 72.089844 40.90625 68.4375 44.558594 68.4375 49.066406 C 68.4375 53.574219 72.089844 57.226562 76.597656 57.226562 C 81.105469 57.226562 84.757812 53.574219 84.757812 49.066406 C 84.757812 44.558594 81.105469 40.90625 76.597656 40.90625 Z M 76.597656 54.851562 C 73.402344 54.851562 70.8125 52.261719 70.8125 49.066406 C 70.8125 45.871094 73.402344 43.28125 76.597656 43.28125 C 79.792969 43.28125 82.382812 45.871094 82.382812 49.066406 C 82.382812 52.261719 79.792969 54.851562 76.597656 54.851562 Z M 76.597656 54.851562 "/>
<path style=" stroke:none;fill-rule:nonzero;fill:rgb(97.647059%,78.039216%,78.039216%);fill-opacity:1;" d="M 66.855469 77.613281 C 63.796875 75.800781 64.742188 68.375 66.554688 65.3125 C 68.371094 62.257812 73.675781 58.441406 76.730469 60.253906 C 79.792969 62.066406 69.910156 79.425781 66.855469 77.613281 Z M 66.855469 77.613281 "/>
<path style=" stroke:none;fill-rule:nonzero;fill:rgb(96.470588%,63.529412%,63.921569%);fill-opacity:1;" d="M 78.710938 41.925781 C 78.101562 42.878906 77.855469 44.0625 78.117188 45.253906 C 78.644531 47.628906 80.992188 49.125 83.367188 48.601562 C 85.742188 48.074219 87.238281 45.722656 86.710938 43.351562 C 86.316406 41.554688 88.300781 39.113281 89.121094 42.816406 C 89.9375 46.519531 87.601562 50.1875 83.898438 51.007812 C 80.195312 51.824219 76.53125 49.488281 75.710938 45.785156 C 75.359375 44.203125 75.589844 42.632812 76.253906 41.28125 Z M 78.710938 41.925781 "/>
<path style=" stroke:none;fill-rule:nonzero;fill:rgb(90.196078%,56.470588%,56.862745%);fill-opacity:1;" d="M 29.21875 42.285156 C 25.902344 42.980469 23.890625 46.78125 24.730469 50.769531 C 25.570312 54.757812 28.9375 57.429688 32.253906 56.730469 C 35.570312 56.035156 37.578125 52.234375 36.742188 48.246094 C 35.902344 44.253906 32.535156 41.585938 29.21875 42.285156 Z M 29.21875 42.285156 "/>
<path style=" stroke:none;fill-rule:nonzero;fill:rgb(100%,100%,100%);fill-opacity:1;" d="M 29.859375 43.253906 C 26.792969 43.898438 24.9375 47.410156 25.710938 51.097656 C 26.488281 54.785156 29.601562 57.253906 32.667969 56.609375 C 35.730469 55.964844 37.589844 52.453125 36.8125 48.765625 C 36.039062 45.074219 32.925781 42.609375 29.859375 43.253906 Z M 29.859375 43.253906 "/>
<path style=" stroke:none;fill-rule:nonzero;fill:rgb(20.392157%,20.392157%,20%);fill-opacity:1;" d="M 30.5625 46.175781 C 28.316406 46.644531 27.003906 49.429688 27.625 52.386719 C 28.246094 55.347656 30.570312 57.367188 32.8125 56.894531 C 35.058594 56.421875 36.375 53.640625 35.75 50.679688 C 35.128906 47.71875 32.804688 45.703125 30.5625 46.175781 Z M 30.5625 46.175781 "/>
<path style=" stroke:none;fill-rule:nonzero;fill:rgb(100%,100%,100%);fill-opacity:1;" d="M 32.480469 48.777344 C 32.480469 48.296875 31.894531 47.90625 31.167969 47.90625 C 30.445312 47.90625 29.859375 48.296875 29.859375 48.777344 C 29.859375 49.261719 30.445312 49.652344 31.167969 49.652344 C 31.894531 49.652344 32.480469 49.261719 32.480469 48.777344 Z M 32.480469 48.777344 "/>
<path style=" stroke:none;fill-rule:nonzero;fill:rgb(90.196078%,56.470588%,56.862745%);fill-opacity:1;" d="M 51.636719 56.976562 C 54.953125 57.675781 58.320312 55.003906 59.160156 51.015625 C 60 47.023438 57.992188 43.226562 54.675781 42.527344 C 51.359375 41.832031 47.992188 44.5 47.152344 48.488281 C 46.3125 52.480469 48.320312 56.28125 51.636719 56.976562 Z M 51.636719 56.976562 "/>
<path style=" stroke:none;fill-rule:nonzero;fill:rgb(100%,100%,100%);fill-opacity:1;" d="M 51.21875 56.867188 C 54.285156 57.511719 57.398438 55.042969 58.171875 51.355469 C 58.949219 47.667969 57.09375 44.152344 54.027344 43.507812 C 50.960938 42.863281 47.847656 45.332031 47.074219 49.019531 C 46.296875 52.710938 48.152344 56.222656 51.21875 56.867188 Z M 51.21875 56.867188 "/>
<path style=" stroke:none;fill-rule:nonzero;fill:rgb(20.392157%,20.392157%,20%);fill-opacity:1;" d="M 51.070312 57.152344 C 53.3125 57.625 55.636719 55.605469 56.261719 52.644531 C 56.882812 49.683594 55.566406 46.902344 53.324219 46.429688 C 51.078125 45.957031 48.757812 47.976562 48.132812 50.9375 C 47.511719 53.898438 48.828125 56.679688 51.070312 57.152344 Z M 51.070312 57.152344 "/>
<path style=" stroke:none;fill-rule:nonzero;fill:rgb(100%,100%,100%);fill-opacity:1;" d="M 54.027344 49.027344 C 54.027344 48.546875 53.441406 48.15625 52.71875 48.15625 C 51.996094 48.15625 51.410156 48.546875 51.410156 49.027344 C 51.410156 49.511719 51.996094 49.902344 52.71875 49.902344 C 53.441406 49.902344 54.027344 49.511719 54.027344 49.027344 Z M 54.027344 49.027344 "/>
<path style=" stroke:none;fill-rule:nonzero;fill:rgb(90.196078%,56.470588%,56.862745%);fill-opacity:1;" d="M 55.164062 63.207031 C 55.164062 56.226562 49.417969 50.566406 42.332031 50.566406 C 35.246094 50.566406 29.5 56.226562 29.5 63.207031 C 29.5 70.191406 35.246094 75.847656 42.332031 75.847656 C 49.417969 75.847656 55.164062 70.191406 55.164062 63.207031 Z M 55.164062 63.207031 "/>
<path style=" stroke:none;fill-rule:nonzero;fill:rgb(96.470588%,63.529412%,63.921569%);fill-opacity:1;" d="M 53.632812 62.441406 C 53.632812 69.421875 47.886719 65.886719 40.800781 65.886719 C 33.714844 65.886719 27.96875 69.421875 27.96875 62.441406 C 27.96875 55.457031 33.714844 49.796875 40.800781 49.796875 C 47.886719 49.796875 53.632812 55.457031 53.632812 62.441406 Z M 53.632812 62.441406 "/>
<path style=" stroke:none;fill-rule:nonzero;fill:rgb(90.196078%,56.470588%,56.862745%);fill-opacity:1;" d="M 46.617188 61.039062 C 46.617188 59.835938 45.628906 58.867188 44.410156 58.867188 C 43.191406 58.867188 42.203125 59.835938 42.203125 61.039062 C 42.203125 62.238281 43.191406 63.210938 44.410156 63.210938 C 45.628906 63.210938 46.617188 62.238281 46.617188 61.039062 Z M 46.617188 61.039062 "/>
<path style=" stroke:none;fill-rule:nonzero;fill:rgb(90.196078%,56.470588%,56.862745%);fill-opacity:1;" d="M 39.175781 61.039062 C 39.175781 59.835938 38.1875 58.867188 36.972656 58.867188 C 35.753906 58.867188 34.765625 59.835938 34.765625 61.039062 C 34.765625 62.238281 35.753906 63.210938 36.972656 63.210938 C 38.1875 63.210938 39.175781 62.238281 39.175781 61.039062 Z M 39.175781 61.039062 "/>
<path style=" stroke:none;fill-rule:nonzero;fill:rgb(81.960784%,41.960784%,41.960784%);fill-opacity:1;" d="M 39.691406 34.390625 L 45.726562 34.390625 C 45.726562 34.390625 51.757812 30.039062 53.835938 30.039062 L 48.394531 29.347656 C 48.394531 29.347656 43.152344 29.644531 39.691406 34.390625 Z M 39.691406 34.390625 "/>
<path style=" stroke:none;fill-rule:nonzero;fill:rgb(81.960784%,41.960784%,41.960784%);fill-opacity:1;" d="M 49.460938 30.335938 L 51.859375 30.640625 C 52.648438 30.277344 53.351562 30.039062 53.835938 30.039062 L 48.394531 29.347656 C 48.394531 29.347656 43.152344 29.644531 39.691406 34.390625 L 42.464844 34.390625 C 45.246094 30.574219 49.460938 30.335938 49.460938 30.335938 Z M 49.460938 30.335938 "/>
<path style=" stroke:none;fill-rule:nonzero;fill:rgb(68.627451%,28.627451%,28.627451%);fill-opacity:1;" d="M 49.460938 30.335938 C 49.460938 30.335938 45.246094 30.574219 42.464844 34.390625 L 45.726562 34.390625 C 45.726562 34.390625 49.269531 31.835938 51.859375 30.640625 Z M 49.460938 30.335938 "/>
<path style=" stroke:none;fill-rule:nonzero;fill:rgb(85.490196%,76.862745%,14.509804%);fill-opacity:1;" d="M 47.136719 26.523438 C 44.03125 26.871094 41.117188 23.5625 40.625 19.140625 C 40.128906 14.714844 42.246094 10.847656 45.351562 10.5 C 48.457031 10.15625 50.882812 9.070312 51.867188 17.886719 C 52.863281 26.808594 50.242188 26.175781 47.136719 26.523438 Z M 47.136719 26.523438 "/>
<path style=" stroke:none;fill-rule:nonzero;fill:rgb(95.686275%,87.843137%,15.686275%);fill-opacity:1;" d="M 54.121094 17.632812 C 53.625 13.210938 50.710938 9.902344 47.605469 10.25 C 44.5 10.597656 42.382812 14.464844 42.875 18.886719 C 43.367188 23.308594 46.285156 26.617188 49.390625 26.269531 C 52.496094 25.921875 54.613281 22.058594 54.121094 17.632812 Z M 54.121094 17.632812 "/>
<path style=" stroke:none;fill-rule:nonzero;fill:rgb(97.647059%,94.901961%,60.392157%);fill-opacity:1;" d="M 43.074219 15.128906 C 43.074219 15.128906 42.667969 16.746094 42.8125 18.355469 L 40.566406 18.628906 C 40.566406 18.628906 40.28125 16.742188 40.847656 15.390625 Z M 43.074219 15.128906 "/>
<path style=" stroke:none;fill-rule:nonzero;fill:rgb(92.941176%,90.588235%,86.666667%);fill-opacity:1;" d="M 48.492188 12.167969 L 48.492188 12.839844 C 48.9375 12.886719 49.316406 12.976562 49.632812 13.113281 C 49.945312 13.25 50.222656 13.453125 50.457031 13.730469 C 50.644531 13.941406 50.789062 14.160156 50.890625 14.382812 C 50.992188 14.605469 51.039062 14.808594 51.039062 14.996094 C 51.039062 15.203125 50.964844 15.378906 50.816406 15.53125 C 50.664062 15.683594 50.480469 15.757812 50.265625 15.757812 C 49.859375 15.757812 49.601562 15.539062 49.480469 15.101562 C 49.34375 14.585938 49.015625 14.242188 48.492188 14.070312 L 48.492188 16.652344 C 49.003906 16.792969 49.414062 16.917969 49.71875 17.035156 C 50.023438 17.148438 50.292969 17.316406 50.53125 17.539062 C 50.789062 17.765625 50.988281 18.035156 51.125 18.351562 C 51.265625 18.667969 51.332031 19.011719 51.332031 19.390625 C 51.332031 19.859375 51.222656 20.300781 51 20.710938 C 50.78125 21.125 50.453125 21.460938 50.023438 21.71875 C 49.59375 21.980469 49.085938 22.132812 48.496094 22.183594 L 48.496094 23.726562 C 48.496094 23.972656 48.46875 24.148438 48.421875 24.261719 C 48.375 24.375 48.273438 24.429688 48.109375 24.429688 C 47.960938 24.429688 47.855469 24.382812 47.796875 24.292969 C 47.738281 24.203125 47.707031 24.0625 47.707031 23.871094 L 47.707031 22.199219 C 47.222656 22.144531 46.800781 22.03125 46.441406 21.855469 C 46.082031 21.683594 45.777344 21.46875 45.535156 21.210938 C 45.292969 20.949219 45.113281 20.683594 45 20.402344 C 44.882812 20.125 44.824219 19.851562 44.824219 19.582031 C 44.824219 19.382812 44.902344 19.203125 45.058594 19.046875 C 45.210938 18.886719 45.40625 18.808594 45.636719 18.808594 C 45.824219 18.808594 45.980469 18.851562 46.109375 18.9375 C 46.238281 19.023438 46.324219 19.144531 46.375 19.300781 C 46.488281 19.640625 46.585938 19.902344 46.664062 20.078125 C 46.75 20.261719 46.875 20.421875 47.042969 20.574219 C 47.207031 20.722656 47.429688 20.835938 47.707031 20.914062 L 47.707031 18.03125 C 47.152344 17.878906 46.691406 17.707031 46.320312 17.519531 C 45.949219 17.332031 45.644531 17.066406 45.414062 16.71875 C 45.183594 16.371094 45.066406 15.925781 45.066406 15.378906 C 45.066406 14.667969 45.292969 14.085938 45.746094 13.632812 C 46.199219 13.175781 46.851562 12.914062 47.707031 12.839844 L 47.707031 12.183594 C 47.707031 11.835938 47.835938 11.660156 48.097656 11.660156 C 48.363281 11.660156 48.492188 11.832031 48.492188 12.167969 Z M 47.707031 16.421875 L 47.707031 14.046875 C 47.359375 14.152344 47.089844 14.285156 46.894531 14.457031 C 46.699219 14.625 46.601562 14.882812 46.601562 15.226562 C 46.601562 15.550781 46.695312 15.796875 46.875 15.964844 C 47.058594 16.132812 47.335938 16.285156 47.707031 16.421875 Z M 48.492188 18.261719 L 48.492188 20.976562 C 48.910156 20.894531 49.234375 20.726562 49.460938 20.476562 C 49.6875 20.222656 49.800781 19.929688 49.800781 19.59375 C 49.800781 19.234375 49.691406 18.957031 49.46875 18.761719 C 49.25 18.566406 48.925781 18.398438 48.492188 18.261719 Z M 48.492188 18.261719 "/>
<path style=" stroke:none;fill-rule:nonzero;fill:rgb(95.294118%,72.941176%,72.54902%);fill-opacity:1;" d="M 53.804688 38.324219 C 56.105469 36.597656 59.921875 33.832031 61.042969 33.570312 C 62.023438 33.339844 62.878906 33.742188 63.300781 34.769531 C 63.777344 35.945312 63.605469 40.457031 63.441406 43.300781 C 64.0625 43.941406 64.585938 44.617188 65.023438 45.304688 C 65.207031 42.757812 65.8125 33.46875 65 31.464844 C 64.441406 30.101562 63.300781 29.570312 62.003906 29.875 C 59.828125 30.382812 50.003906 38 50.003906 38 C 49.984375 38.042969 49.972656 38.085938 49.953125 38.128906 C 51.164062 38.027344 52.464844 38.089844 53.804688 38.324219 Z M 53.804688 38.324219 "/>
<path style=" stroke:none;fill-rule:nonzero;fill:rgb(90.196078%,56.470588%,56.862745%);fill-opacity:1;" d="M 63.441406 43.300781 C 63.605469 40.457031 63.777344 35.945312 63.300781 34.769531 C 62.878906 33.742188 62.023438 33.339844 61.042969 33.570312 C 59.921875 33.832031 56.105469 36.597656 53.804688 38.324219 C 55.070312 38.542969 56.367188 38.910156 57.660156 39.445312 C 59.988281 40.410156 61.960938 41.765625 63.441406 43.300781 Z M 63.441406 43.300781 "/>
<path style=" stroke:none;fill-rule:nonzero;fill:rgb(95.294118%,72.941176%,72.54902%);fill-opacity:1;" d="M 31.738281 38.324219 C 29.4375 36.597656 25.621094 33.832031 24.5 33.570312 C 23.519531 33.339844 22.664062 33.742188 22.242188 34.769531 C 21.765625 35.945312 21.933594 40.457031 22.101562 43.300781 C 21.480469 43.941406 20.953125 44.617188 20.519531 45.304688 C 20.335938 42.757812 19.726562 33.46875 20.542969 31.464844 C 21.101562 30.101562 22.238281 29.570312 23.539062 29.875 C 25.714844 30.382812 35.539062 38 35.539062 38 C 35.558594 38.042969 35.570312 38.085938 35.589844 38.128906 C 34.378906 38.027344 33.078125 38.089844 31.738281 38.324219 Z M 31.738281 38.324219 "/>
<path style=" stroke:none;fill-rule:nonzero;fill:rgb(90.196078%,56.470588%,56.862745%);fill-opacity:1;" d="M 22.101562 43.300781 C 21.933594 40.457031 21.761719 35.945312 22.242188 34.769531 C 22.664062 33.742188 23.519531 33.339844 24.5 33.570312 C 25.621094 33.832031 29.4375 36.597656 31.738281 38.324219 C 30.472656 38.542969 29.175781 38.910156 27.882812 39.445312 C 25.550781 40.410156 23.578125 41.765625 22.101562 43.300781 Z M 22.101562 43.300781 "/>
</g>
</svg>
<!-- iconic normalized -->