<?xml version="1.0" encoding="UTF-8"?>
<svg xmlns="http://www.w3.org/2000/svg" xmlns:xlink="http://www.w3.org/1999/xlink" width="100px" height="100px" viewBox="0 0 100 100" version="1.1">
<g id="surface1">
<path style=" stroke:none;fill-rule:nonzero;fill:rgb(100%,64.313725%,0%);fill-opacity:1;" d="M 94.648438 19.832031 L 49.867188 19.832031 L 49.46875 17.226562 C 49.019531 14.320312 46.242188 11.9375 43.300781 11.9375 L 21.761719 11.9375 C 18.816406 11.9375 16.042969 14.320312 15.59375 17.226562 L 15.191406 19.832031 L 13.667969 19.832031 C 10.722656 19.832031 8.316406 22.242188 8.316406 25.183594 L 8.316406 82.710938 C 8.316406 85.652344 10.722656 88.0625 13.667969 88.0625 L 94.648438 88.0625 C 97.589844 88.0625 100 85.652344 100 82.710938 L 100 25.183594 C 100 22.242188 97.589844 19.832031 94.648438 19.832031 Z M 94.648438 19.832031 "/>
<path style=" stroke:none;fill-rule:nonzero;fill:rgb(100%,100%,100%);fill-opacity:1;" d="M 13.273438 25.601562 L 93.546875 25.601562 L 93.546875 80.011719 L 13.273438 80.011719 Z M 13.273438 25.601562 "/>
<path style=" stroke:none;fill-rule:nonzero;fill:rgb(96.470588%,77.647059%,35.686275%);fill-opacity:1;" d="M 91.753906 36.753906 C 91.285156 33.847656 88.496094 31.472656 85.550781 31.472656 L 4.570312 31.472656 C 1.625 31.472656 -0.402344 33.847656 0.0664062 36.753906 L 7.464844 82.777344 C 7.933594 85.683594 10.722656 88.0625 13.667969 88.0625 L 94.648438 88.0625 C 97.589844 88.0625 99.617188 85.683594 99.152344 82.777344 Z M 91.753906 36.753906 "/>
</g>
</svg>
<!-- iconic normalized -->