<?xml version="1.0" encoding="UTF-8"?>
<svg xmlns="http://www.w3.org/2000/svg" xmlns:xlink="http://www.w3.org/1999/xlink" width="100px" height="100px" viewBox="0 0 100 100" version="1.1">
<g id="surface1">
<rect x="0" y="0" width="100" height="100" style="fill:rgb(92.54902%,94.117647%,94.509804%);fill-opacity:1;stroke:none;"/>
<path style=" stroke:none;fill-rule:nonzero;fill:rgb(32.941176%,41.568627%,47.45098%);fill-opacity:1;" d="M 0 0 L 100 0 L 100 20.691406 L 0 20.691406 Z M 0 0 "/>
<path style=" stroke:none;fill-rule:nonzero;fill:rgb(92.941176%,44.313725%,38.039216%);fill-opacity:1;" d="M 15.515625 10.34375 C 15.515625 13.203125 13.203125 15.515625 10.34375 15.515625 C 7.488281 15.515625 5.171875 13.203125 5.171875 10.34375 C 5.171875 7.488281 7.488281 5.171875 10.34375 5.171875 C 13.203125 5.171875 15.515625 7.488281 15.515625 10.34375 Z M 15.515625 10.34375 "/>
<path style=" stroke:none;fill-rule:nonzero;fill:rgb(94.117647%,76.862745%,9.803922%);fill-opacity:1;" d="M 31.035156 10.34375 C 31.035156 13.203125 28.71875 15.515625 25.863281 15.515625 C 23.003906 15.515625 20.691406 13.203125 20.691406 10.34375 C 20.691406 7.488281 23.003906 5.171875 25.863281 5.171875 C 28.71875 5.171875 31.035156 7.488281 31.035156 10.34375 Z M 31.035156 10.34375 "/>
<path style=" stroke:none;fill-rule:nonzero;fill:rgb(30.980392%,72.941176%,43.529412%);fill-opacity:1;" d="M 46.550781 10.34375 C 46.550781 13.203125 44.234375 15.515625 41.378906 15.515625 C 38.523438 15.515625 36.207031 13.203125 36.207031 10.34375 C 36.207031 7.488281 38.523438 5.171875 41.378906 5.171875 C 44.234375 5.171875 46.550781 7.488281 46.550781 10.34375 Z M 46.550781 10.34375 "/>
<path style=" stroke:none;fill-rule:nonzero;fill:rgb(52.54902%,59.215686%,79.607843%);fill-opacity:1;" d="M 10.34375 31.035156 L 44.828125 31.035156 L 44.828125 89.65625 L 10.34375 89.65625 Z M 10.34375 31.035156 "/>
<path style=" stroke:none;fill-rule:nonzero;fill:rgb(52.54902%,59.215686%,79.607843%);fill-opacity:1;" d="M 55.171875 31.035156 L 89.65625 31.035156 L 89.65625 89.65625 L 55.171875 89.65625 Z M 55.171875 31.035156 "/>
</g>
</svg>
<!-- iconic normalized -->