<?xml version="1.0" encoding="UTF-8"?>
<svg xmlns="http://www.w3.org/2000/svg" xmlns:xlink="http://www.w3.org/1999/xlink" width="100px" height="100px" viewBox="0 0 100 100" version="1.1">
<g id="surface1">
<rect x="0" y="0" width="100" height="100" style="fill:rgb(92.54902%,94.117647%,94.509804%);fill-opacity:1;stroke:none;"/>
<path style=" stroke:none;fill-rule:nonzero;fill:rgb(32.941176%,41.568627%,47.45098%);fill-opacity:1;" d="M 0 0 L 100 0 L 100 20.691406 L 0 20.691406 Z M 0 0 "/>
<path style=" stroke:none;fill-rule:nonzero;fill:rgb(92.941176%,44.313725%,38.039216%);fill-opacity:1;" d="M 15.515625 10.34375 C 15.515625 13.203125 13.203125 15.515625 10.34375 15.515625 C 7.488281 15.515625 5.171875 13.203125 5.171875 10.34375 C 5.171875 7.488281 7.488281 5.171875 10.34375 5.171875 C 13.203125 5.171875 15.515625 7.488281 15.515625 10.34375 Z M 15.515625 10.34375 "/>
<path style=" stroke:none;fill-rule:nonzero;fill:rgb(94.117647%,76.862745%,9.803922%);fill-opacity:1;" d="M 31.035156 10.34375 C 31.035156 13.203125 28.71875 15.515625 25.863281 15.515625 C 23.003906 15.515625 20.691406 13.203125 20.691406 10.34375 C 20.691406 7.488281 23.003906 5.171875 25.863281 5.171875 C 28.71875 5.171875 31.035156 7.488281 31.035156 10.34375 Z M 31.035156 10.34375 "/>
<path style=" stroke:none;fill-rule:nonzero;fill:rgb(30.980392%,72.941176%,43.529412%);fill-opacity:1;" d="M 46.550781 10.34375 C 46.550781 13.203125 44.234375 15.515625 41.378906 15.515625 C 38.523438 15.515625 36.207031 13.203125 36.207031 10.34375 C 36.207031 7.488281 38.523438 5.171875 41.378906 5.171875 C 44.234375 5.171875 46.550781 7.488281 46.550781 10.34375 Z M 46.550781 10.34375 "/>
<path style=" stroke:none;fill-rule:nonzero;fill:rgb(14.901961%,72.54902%,60.392157%);fill-opacity:1;" d="M 0 20.691406 L 100 20.691406 L 100 62.070312 L 0 62.070312 Z M 0 20.691406 "/>
<path style=" stroke:none;fill-rule:nonzero;fill:rgb(100%,100%,100%);fill-opacity:1;" d="M 84.484375 50 C 84.042969 50 83.601562 49.832031 83.265625 49.496094 C 82.589844 48.820312 82.589844 47.730469 83.265625 47.058594 L 88.941406 41.378906 L 83.265625 35.703125 C 82.589844 35.027344 82.589844 33.9375 83.265625 33.265625 C 83.9375 32.589844 85.027344 32.589844 85.703125 33.265625 L 92.09375 39.65625 C 93.042969 40.605469 93.042969 42.152344 92.09375 43.101562 L 85.703125 49.496094 C 85.367188 49.832031 84.925781 50 84.484375 50 Z M 84.484375 50 "/>
<path style=" stroke:none;fill-rule:nonzero;fill:rgb(100%,100%,100%);fill-opacity:1;" d="M 15.222656 50 C 14.78125 50 14.339844 49.832031 14.003906 49.496094 L 7.609375 43.101562 C 6.660156 42.148438 6.660156 40.605469 7.609375 39.65625 L 14.003906 33.261719 C 14.675781 32.589844 15.765625 32.589844 16.441406 33.261719 C 17.117188 33.9375 17.117188 35.027344 16.441406 35.699219 L 10.765625 41.378906 L 16.441406 47.058594 C 17.117188 47.730469 17.117188 48.820312 16.441406 49.496094 C 16.101562 49.832031 15.660156 50 15.222656 50 Z M 15.222656 50 "/>
<path style=" stroke:none;fill-rule:nonzero;fill:rgb(74.117647%,76.470588%,78.039216%);fill-opacity:1;" d="M 29.308594 81.035156 C 29.308594 86.746094 24.679688 91.378906 18.964844 91.378906 C 13.253906 91.378906 8.621094 86.746094 8.621094 81.035156 C 8.621094 75.320312 13.253906 70.691406 18.964844 70.691406 C 24.679688 70.691406 29.308594 75.320312 29.308594 81.035156 Z M 29.308594 81.035156 "/>
<path style=" stroke:none;fill-rule:nonzero;fill:rgb(74.117647%,76.470588%,78.039216%);fill-opacity:1;" d="M 60.34375 81.035156 C 60.34375 86.746094 55.714844 91.378906 50 91.378906 C 44.285156 91.378906 39.65625 86.746094 39.65625 81.035156 C 39.65625 75.320312 44.285156 70.691406 50 70.691406 C 55.714844 70.691406 60.34375 75.320312 60.34375 81.035156 Z M 60.34375 81.035156 "/>
<path style=" stroke:none;fill-rule:nonzero;fill:rgb(74.117647%,76.470588%,78.039216%);fill-opacity:1;" d="M 91.378906 81.035156 C 91.378906 86.746094 86.746094 91.378906 81.035156 91.378906 C 75.320312 91.378906 70.691406 86.746094 70.691406 81.035156 C 70.691406 75.320312 75.320312 70.691406 81.035156 70.691406 C 86.746094 70.691406 91.378906 75.320312 91.378906 81.035156 Z M 91.378906 81.035156 "/>
</g>
</svg>
<!-- iconic normalized -->