<?xml version="1.0" encoding="UTF-8"?>
<svg xmlns="http://www.w3.org/2000/svg" xmlns:xlink="http://www.w3.org/1999/xlink" width="100px" height="100px" viewBox="0 0 100 100" version="1.1">
<g id="surface1">
<path style=" stroke:none;fill-rule:nonzero;fill:rgb(92.54902%,94.117647%,94.509804%);fill-opacity:1;" d="M 0 0.863281 L 100 0.863281 L 100 99.136719 L 0 99.136719 Z M 0 0.863281 "/>
<path style=" stroke:none;fill-rule:nonzero;fill:rgb(74.117647%,76.470588%,78.039216%);fill-opacity:1;" d="M 81.035156 25 L 41.378906 25 C 40.425781 25 39.65625 24.230469 39.65625 23.277344 C 39.65625 22.324219 40.425781 21.550781 41.378906 21.550781 L 81.035156 21.550781 C 81.984375 21.550781 82.757812 22.324219 82.757812 23.277344 C 82.757812 24.230469 81.984375 25 81.035156 25 Z M 81.035156 25 "/>
<path style=" stroke:none;fill-rule:nonzero;fill:rgb(74.117647%,76.470588%,78.039216%);fill-opacity:1;" d="M 81.035156 52.585938 L 41.378906 52.585938 C 40.425781 52.585938 39.65625 51.816406 39.65625 50.863281 C 39.65625 49.910156 40.425781 49.136719 41.378906 49.136719 L 81.035156 49.136719 C 81.984375 49.136719 82.757812 49.910156 82.757812 50.863281 C 82.757812 51.816406 81.984375 52.585938 81.035156 52.585938 Z M 81.035156 52.585938 "/>
<path style=" stroke:none;fill-rule:nonzero;fill:rgb(74.117647%,76.470588%,78.039216%);fill-opacity:1;" d="M 81.035156 80.171875 L 41.378906 80.171875 C 40.425781 80.171875 39.65625 79.402344 39.65625 78.449219 C 39.65625 77.496094 40.425781 76.722656 41.378906 76.722656 L 81.035156 76.722656 C 81.984375 76.722656 82.757812 77.496094 82.757812 78.449219 C 82.757812 79.402344 81.984375 80.171875 81.035156 80.171875 Z M 81.035156 80.171875 "/>
<path style=" stroke:none;fill-rule:nonzero;fill:rgb(74.117647%,76.470588%,78.039216%);fill-opacity:1;" d="M 17.242188 16.378906 L 31.035156 16.378906 L 31.035156 30.171875 L 17.242188 30.171875 Z M 17.242188 16.378906 "/>
<path style=" stroke:none;fill-rule:nonzero;fill:rgb(74.117647%,76.470588%,78.039216%);fill-opacity:1;" d="M 32.757812 31.898438 L 15.515625 31.898438 L 15.515625 14.65625 L 32.757812 14.65625 Z M 18.964844 28.449219 L 29.308594 28.449219 L 29.308594 18.101562 L 18.964844 18.101562 Z M 18.964844 28.449219 "/>
<path style=" stroke:none;fill-rule:nonzero;fill:rgb(74.117647%,76.470588%,78.039216%);fill-opacity:1;" d="M 17.242188 43.964844 L 31.035156 43.964844 L 31.035156 57.757812 L 17.242188 57.757812 Z M 17.242188 43.964844 "/>
<path style=" stroke:none;fill-rule:nonzero;fill:rgb(74.117647%,76.470588%,78.039216%);fill-opacity:1;" d="M 32.757812 59.484375 L 15.515625 59.484375 L 15.515625 42.242188 L 32.757812 42.242188 Z M 18.964844 56.035156 L 29.308594 56.035156 L 29.308594 45.691406 L 18.964844 45.691406 Z M 18.964844 56.035156 "/>
<path style=" stroke:none;fill-rule:nonzero;fill:rgb(74.117647%,76.470588%,78.039216%);fill-opacity:1;" d="M 17.242188 71.550781 L 31.035156 71.550781 L 31.035156 85.34375 L 17.242188 85.34375 Z M 17.242188 71.550781 "/>
<path style=" stroke:none;fill-rule:nonzero;fill:rgb(74.117647%,76.470588%,78.039216%);fill-opacity:1;" d="M 32.757812 87.070312 L 15.515625 87.070312 L 15.515625 69.828125 L 32.757812 69.828125 Z M 18.964844 83.621094 L 29.308594 83.621094 L 29.308594 73.277344 L 18.964844 73.277344 Z M 18.964844 83.621094 "/>
</g>
</svg>
<!-- iconic normalized -->