<?xml version="1.0" encoding="UTF-8"?>
<svg xmlns="http://www.w3.org/2000/svg" xmlns:xlink="http://www.w3.org/1999/xlink" width="100px" height="100px" viewBox="0 0 100 100" version="1.1">
<g id="surface1">
<path style=" stroke:none;fill-rule:nonzero;fill:rgb(91.764706%,90.980392%,86.27451%);fill-opacity:1;" d="M 64.558594 46.496094 L 75.253906 60.417969 L 69.792969 60.417969 L 69.792969 72.121094 L 59.328125 72.121094 L 59.328125 60.417969 L 53.871094 60.417969 Z M 64.558594 46.496094 "/>
<path style=" stroke:none;fill-rule:nonzero;fill:rgb(91.764706%,90.980392%,86.27451%);fill-opacity:1;" d="M 46.125 58.203125 L 35.4375 72.121094 L 24.746094 58.203125 L 30.203125 58.203125 L 30.203125 46.496094 L 40.671875 46.496094 L 40.671875 58.203125 Z M 46.125 58.203125 "/>
<path style=" stroke:none;fill-rule:nonzero;fill:rgb(71.372549%,80%,87.843137%);fill-opacity:1;" d="M 82.1875 45.886719 C 92.023438 45.886719 100 53.859375 100 63.699219 C 100 73.539062 92.023438 81.515625 82.1875 81.515625 L 22.921875 81.515625 C 10.261719 81.515625 0 71.25 0 58.589844 C 0 45.929688 10.261719 35.667969 22.921875 35.667969 C 25.269531 35.667969 27.53125 36.019531 29.664062 36.675781 C 29.589844 36.042969 29.546875 35.398438 29.546875 34.746094 C 29.546875 25.765625 36.828125 18.484375 45.804688 18.484375 C 54.484375 18.484375 61.570312 25.285156 62.039062 33.84375 C 64.105469 31.984375 66.835938 30.847656 69.832031 30.847656 C 76.261719 30.847656 81.476562 36.0625 81.476562 42.492188 C 81.476562 43.691406 81.292969 44.84375 80.957031 45.933594 C 81.363281 45.90625 81.773438 45.886719 82.1875 45.886719 Z M 75.253906 60.417969 L 64.558594 46.496094 L 53.871094 60.417969 L 59.328125 60.417969 L 59.328125 72.121094 L 69.792969 72.121094 L 69.792969 60.417969 Z M 35.4375 72.121094 L 46.125 58.203125 L 40.671875 58.203125 L 40.671875 46.496094 L 30.203125 46.496094 L 30.203125 58.203125 L 24.746094 58.203125 Z M 35.4375 72.121094 "/>
</g>
</svg>
<!-- iconic normalized -->