<?xml version="1.0" encoding="UTF-8"?>
<svg xmlns="http://www.w3.org/2000/svg" xmlns:xlink="http://www.w3.org/1999/xlink" width="100px" height="100px" viewBox="0 0 100 100" version="1.1">
<g id="surface1">
<path style=" stroke:none;fill-rule:nonzero;fill:rgb(100%,77.647059%,10.588235%);fill-opacity:1;" d="M 50 0 C 22.386719 0 0 22.386719 0 50 C 0 75.597656 19.238281 96.703125 44.042969 99.648438 L 99.894531 53.296875 C 99.964844 52.207031 100 51.105469 100 50 C 100 22.386719 77.613281 0 50 0 Z M 50 0 "/>
<path style=" stroke:none;fill-rule:nonzero;fill:rgb(83.137255%,54.509804%,2.745098%);fill-opacity:1;" d="M 99.890625 53.296875 L 91.449219 44.855469 L 86.21875 50.519531 L 58.839844 23.140625 L 13.1875 68.789062 L 44.042969 99.644531 C 45.996094 99.878906 47.984375 100 50 100 C 76.507812 100 98.191406 79.371094 99.890625 53.296875 Z M 99.890625 53.296875 "/>
<path style=" stroke:none;fill-rule:nonzero;fill:rgb(99.607843%,88.235294%,52.941176%);fill-opacity:1;" d="M 76.230469 29.660156 L 54.492188 29.660156 L 58.839844 68.789062 L 91.449219 68.789062 L 91.449219 44.855469 Z M 76.230469 29.660156 "/>
<path style=" stroke:none;fill-rule:nonzero;fill:rgb(76.078431%,98.431373%,100%);fill-opacity:1;" d="M 58.839844 23.140625 L 58.839844 55.746094 L 36.011719 60.09375 L 36.011719 23.140625 Z M 58.839844 23.140625 "/>
<path style=" stroke:none;fill-rule:nonzero;fill:rgb(100%,100%,100%);fill-opacity:1;" d="M 36.011719 23.140625 L 36.011719 60.09375 L 13.1875 55.746094 L 13.1875 23.140625 Z M 36.011719 23.140625 "/>
<path style=" stroke:none;fill-rule:nonzero;fill:rgb(44.313725%,88.627451%,94.117647%);fill-opacity:1;" d="M 13.1875 55.746094 L 58.839844 55.746094 L 58.839844 68.789062 L 13.1875 68.789062 Z M 13.1875 55.746094 "/>
<path style=" stroke:none;fill-rule:nonzero;fill:rgb(15.294118%,23.137255%,47.843137%);fill-opacity:1;" d="M 41.449219 68.789062 C 41.449219 74.191406 37.070312 78.570312 31.667969 78.570312 C 26.265625 78.570312 21.886719 74.191406 21.886719 68.789062 C 21.886719 63.386719 26.265625 59.007812 31.667969 59.007812 C 37.070312 59.007812 41.449219 63.386719 41.449219 68.789062 Z M 41.449219 68.789062 "/>
<path style=" stroke:none;fill-rule:nonzero;fill:rgb(76.078431%,98.431373%,100%);fill-opacity:1;" d="M 31.667969 74.222656 L 28.40625 68.789062 L 31.667969 63.355469 C 34.664062 63.355469 37.101562 65.792969 37.101562 68.789062 C 37.101562 71.785156 34.664062 74.222656 31.667969 74.222656 Z M 31.667969 74.222656 "/>
<path style=" stroke:none;fill-rule:nonzero;fill:rgb(100%,100%,100%);fill-opacity:1;" d="M 26.234375 68.789062 C 26.234375 71.785156 28.671875 74.222656 31.667969 74.222656 L 31.667969 63.355469 C 28.671875 63.355469 26.234375 65.792969 26.234375 68.789062 Z M 26.234375 68.789062 "/>
<path style=" stroke:none;fill-rule:nonzero;fill:rgb(21.960784%,77.647059%,85.098039%);fill-opacity:1;" d="M 31.664062 23.140625 L 40.359375 23.140625 L 40.359375 35.882812 L 31.664062 35.882812 Z M 31.664062 23.140625 "/>
<path style=" stroke:none;fill-rule:nonzero;fill:rgb(7.058824%,6.666667%,28.627451%);fill-opacity:1;" d="M 84.925781 68.789062 C 84.925781 74.191406 80.546875 78.570312 75.144531 78.570312 C 69.742188 78.570312 65.359375 74.191406 65.359375 68.789062 C 65.359375 63.386719 69.742188 59.007812 75.144531 59.007812 C 80.546875 59.007812 84.925781 63.386719 84.925781 68.789062 Z M 84.925781 68.789062 "/>
<path style=" stroke:none;fill-rule:nonzero;fill:rgb(44.313725%,88.627451%,94.117647%);fill-opacity:1;" d="M 75.144531 74.222656 L 71.882812 68.789062 L 75.144531 63.355469 C 78.140625 63.355469 80.578125 65.792969 80.578125 68.789062 C 80.578125 71.785156 78.140625 74.222656 75.144531 74.222656 Z M 75.144531 74.222656 "/>
<path style=" stroke:none;fill-rule:nonzero;fill:rgb(76.078431%,98.431373%,100%);fill-opacity:1;" d="M 69.707031 68.789062 C 69.707031 71.785156 72.148438 74.222656 75.144531 74.222656 L 75.144531 63.355469 C 72.148438 63.355469 69.707031 65.792969 69.707031 68.789062 Z M 69.707031 68.789062 "/>
</g>
</svg>
<!-- iconic normalized -->