<?xml version="1.0" encoding="UTF-8"?>
<svg xmlns="http://www.w3.org/2000/svg" xmlns:xlink="http://www.w3.org/1999/xlink" width="100px" height="100px" viewBox="0 0 100 100" version="1.1">
<g id="surface1">
<path style=" stroke:none;fill-rule:nonzero;fill:rgb(15.294118%,23.137255%,47.843137%);fill-opacity:1;" d="M 50.074219 0 C 22.457031 0 0 22.386719 0 50 C 0 71.375 13.457031 89.617188 32.34375 96.769531 L 96.644531 31.933594 C 89.421875 13.246094 71.316406 0 50.074219 0 Z M 50.074219 0 "/>
<path style=" stroke:none;fill-rule:nonzero;fill:rgb(7.058824%,6.666667%,28.627451%);fill-opacity:1;" d="M 100 50 C 100 43.628906 98.808594 37.535156 96.644531 31.933594 L 82.355469 17.644531 L 17.789062 82.210938 L 32.347656 96.765625 C 37.859375 98.855469 43.832031 100 50.074219 100 C 77.6875 100 100 77.613281 100 50 Z M 100 50 "/>
<path style=" stroke:none;fill-rule:nonzero;fill:rgb(83.137255%,54.509804%,2.745098%);fill-opacity:1;" d="M 64.964844 80.035156 L 75.832031 80.035156 L 75.832031 86.558594 L 64.964844 86.558594 Z M 64.964844 80.035156 "/>
<path style=" stroke:none;fill-rule:nonzero;fill:rgb(100%,77.647059%,10.588235%);fill-opacity:1;" d="M 26.484375 80.035156 L 37.355469 80.035156 L 37.355469 86.558594 L 26.484375 86.558594 Z M 26.484375 80.035156 "/>
<path style=" stroke:none;fill-rule:nonzero;fill:rgb(99.607843%,88.235294%,52.941176%);fill-opacity:1;" d="M 82.355469 17.644531 L 82.355469 82.210938 L 50.074219 82.210938 L 35.941406 49.929688 L 50.074219 17.644531 Z M 82.355469 17.644531 "/>
<path style=" stroke:none;fill-rule:nonzero;fill:rgb(100%,92.941176%,70.980392%);fill-opacity:1;" d="M 17.789062 17.644531 L 50.074219 17.644531 L 50.074219 82.210938 L 17.789062 82.210938 Z M 17.789062 17.644531 "/>
<path style=" stroke:none;fill-rule:nonzero;fill:rgb(83.137255%,54.509804%,2.745098%);fill-opacity:1;" d="M 73.660156 32.863281 L 73.660156 66.992188 C 73.660156 70.578125 70.722656 73.515625 67.136719 73.515625 L 50.074219 73.515625 L 40.289062 49.929688 L 50.074219 26.339844 L 67.136719 26.339844 C 70.722656 26.339844 73.660156 29.277344 73.660156 32.863281 Z M 73.660156 32.863281 "/>
<path style=" stroke:none;fill-rule:nonzero;fill:rgb(87.843137%,63.921569%,0%);fill-opacity:1;" d="M 50.074219 26.339844 L 50.074219 73.515625 L 33.007812 73.515625 C 29.421875 73.515625 26.484375 70.578125 26.484375 66.992188 L 26.484375 32.863281 C 26.484375 29.277344 29.421875 26.339844 33.007812 26.339844 C 33.007812 26.339844 50.074219 26.339844 50.074219 26.339844 Z M 50.074219 26.339844 "/>
<path style=" stroke:none;fill-rule:nonzero;fill:rgb(7.058824%,6.666667%,28.627451%);fill-opacity:1;" d="M 50.074219 61.882812 L 44.949219 49.925781 L 50.074219 37.972656 C 56.664062 37.972656 62.027344 43.335938 62.027344 49.925781 C 62.027344 56.519531 56.664062 61.882812 50.074219 61.882812 Z M 50.074219 61.882812 "/>
<path style=" stroke:none;fill-rule:nonzero;fill:rgb(15.294118%,23.137255%,47.843137%);fill-opacity:1;" d="M 38.117188 49.929688 C 38.117188 56.519531 43.480469 61.882812 50.074219 61.882812 L 50.074219 37.972656 C 43.480469 37.972656 38.117188 43.335938 38.117188 49.929688 Z M 38.117188 49.929688 "/>
<path style=" stroke:none;fill-rule:nonzero;fill:rgb(15.294118%,23.137255%,47.843137%);fill-opacity:1;" d="M 24.3125 35.179688 L 28.660156 35.179688 L 28.660156 46.050781 L 24.3125 46.050781 Z M 24.3125 35.179688 "/>
<path style=" stroke:none;fill-rule:nonzero;fill:rgb(15.294118%,23.137255%,47.843137%);fill-opacity:1;" d="M 24.3125 53.804688 L 28.660156 53.804688 L 28.660156 64.675781 L 24.3125 64.675781 Z M 24.3125 53.804688 "/>
<path style=" stroke:none;fill-rule:nonzero;fill:rgb(100%,77.647059%,10.588235%);fill-opacity:1;" d="M 50.074219 57.535156 L 46.8125 49.925781 L 50.074219 42.320312 C 54.269531 42.320312 57.679688 45.730469 57.679688 49.925781 C 57.679688 54.121094 54.269531 57.535156 50.074219 57.535156 Z M 50.074219 57.535156 "/>
<path style=" stroke:none;fill-rule:nonzero;fill:rgb(99.607843%,88.235294%,52.941176%);fill-opacity:1;" d="M 42.464844 49.929688 C 42.464844 54.125 45.878906 57.535156 50.074219 57.535156 L 50.074219 42.320312 C 45.878906 42.320312 42.464844 45.730469 42.464844 49.929688 Z M 42.464844 49.929688 "/>
</g>
</svg>
<!-- iconic normalized -->