<?xml version="1.0" encoding="UTF-8"?>
<svg xmlns="http://www.w3.org/2000/svg" xmlns:xlink="http://www.w3.org/1999/xlink" width="100px" height="100px" viewBox="0 0 100 100" version="1.1">
<g id="surface1">
<path style=" stroke:none;fill-rule:nonzero;fill:rgb(21.176471%,40.392157%,58.823529%);fill-opacity:1;" d="M 50 0 C 22.386719 0 0 22.386719 0 50 C 0 71.15625 13.140625 89.246094 31.707031 96.546875 L 99.550781 43.261719 C 96.257812 18.832031 75.328125 0 50 0 Z M 50 0 "/>
<path style=" stroke:none;fill-rule:nonzero;fill:rgb(15.294118%,23.137255%,47.843137%);fill-opacity:1;" d="M 99.546875 43.261719 L 67.1875 10.902344 L 15.628906 80.46875 L 31.707031 96.546875 C 37.371094 98.777344 43.542969 100 50 100 C 77.613281 100 100 77.613281 100 50 C 100 47.714844 99.84375 45.464844 99.546875 43.261719 Z M 99.546875 43.261719 "/>
<path style=" stroke:none;fill-rule:nonzero;fill:rgb(99.607843%,88.235294%,52.941176%);fill-opacity:1;" d="M 52.175781 43.511719 L 50 80.46875 L 30.164062 80.46875 L 32.8125 47.40625 L 36.253906 45.683594 Z M 52.175781 43.511719 "/>
<path style=" stroke:none;fill-rule:nonzero;fill:rgb(100%,92.941176%,70.980392%);fill-opacity:1;" d="M 32.8125 47.40625 L 32.8125 80.46875 L 15.628906 80.46875 L 15.628906 45.683594 L 29.371094 45.683594 Z M 32.8125 47.40625 "/>
<path style=" stroke:none;fill-rule:nonzero;fill:rgb(100%,100%,100%);fill-opacity:1;" d="M 36.253906 56.007812 L 29.371094 56.007812 L 29.371094 45.683594 L 32.816406 45.683594 L 34.535156 43.511719 L 36.253906 45.683594 Z M 36.253906 56.007812 "/>
<path style=" stroke:none;fill-rule:nonzero;fill:rgb(87.843137%,63.921569%,0%);fill-opacity:1;" d="M 84.371094 45.683594 L 84.371094 80.46875 L 64.539062 80.46875 L 67.183594 47.40625 L 70.628906 45.683594 Z M 84.371094 45.683594 "/>
<path style=" stroke:none;fill-rule:nonzero;fill:rgb(100%,77.647059%,10.588235%);fill-opacity:1;" d="M 67.183594 47.40625 L 67.183594 80.46875 L 50 80.46875 L 50 43.511719 L 63.746094 45.683594 Z M 67.183594 47.40625 "/>
<path style=" stroke:none;fill-rule:nonzero;fill:rgb(100%,92.941176%,70.980392%);fill-opacity:1;" d="M 70.628906 56.007812 L 63.746094 56.007812 L 63.746094 45.683594 L 65.46875 43.511719 L 67.1875 45.683594 L 70.628906 45.683594 Z M 70.628906 56.007812 "/>
<path style=" stroke:none;fill-rule:nonzero;fill:rgb(99.607843%,88.235294%,52.941176%);fill-opacity:1;" d="M 67.1875 10.902344 L 67.1875 45.683594 L 47.351562 45.683594 L 50 12.621094 L 53.441406 10.902344 Z M 67.1875 10.902344 "/>
<path style=" stroke:none;fill-rule:nonzero;fill:rgb(100%,92.941176%,70.980392%);fill-opacity:1;" d="M 50 12.621094 L 50 45.683594 L 32.816406 45.683594 L 32.816406 10.902344 L 46.5625 10.902344 Z M 50 12.621094 "/>
<path style=" stroke:none;fill-rule:nonzero;fill:rgb(100%,100%,100%);fill-opacity:1;" d="M 46.5625 10.902344 L 53.441406 10.902344 L 53.441406 21.222656 L 46.5625 21.222656 Z M 46.5625 10.902344 "/>
</g>
</svg>
<!-- iconic normalized -->