<?xml version="1.0" encoding="UTF-8"?>
<svg xmlns="http://www.w3.org/2000/svg" xmlns:xlink="http://www.w3.org/1999/xlink" width="100px" height="100px" viewBox="0 0 100 100" version="1.1">
<g id="surface1">
<path style=" stroke:none;fill-rule:nonzero;fill:rgb(100%,77.647059%,10.588235%);fill-opacity:1;" d="M 50 0 C 22.386719 0 0 22.386719 0 50 C 0 72.878906 15.367188 92.167969 36.339844 98.109375 L 99.332031 41.8125 C 95.425781 18.09375 74.828125 0 50 0 Z M 50 0 "/>
<path style=" stroke:none;fill-rule:nonzero;fill:rgb(83.137255%,54.509804%,2.745098%);fill-opacity:1;" d="M 100 50 C 100 47.210938 99.769531 44.476562 99.328125 41.8125 L 85.203125 27.6875 L 77.972656 26.835938 L 58.21875 7.082031 L 22.484375 84.253906 L 36.339844 98.109375 C 40.683594 99.339844 45.265625 100 50 100 C 77.613281 100 100 77.613281 100 50 Z M 100 50 "/>
<path style=" stroke:none;fill-rule:nonzero;fill:rgb(76.078431%,98.431373%,100%);fill-opacity:1;" d="M 55.871094 18.265625 L 55.871094 9.347656 L 44.128906 9.347656 L 44.128906 21.085938 L 50 95.652344 C 71.492188 95.652344 88.914062 78.226562 88.914062 56.738281 C 88.914062 37.242188 74.578125 21.097656 55.871094 18.265625 Z M 55.871094 18.265625 "/>
<path style=" stroke:none;fill-rule:nonzero;fill:rgb(44.313725%,88.627451%,94.117647%);fill-opacity:1;" d="M 59.78125 15.652344 L 40.21875 15.652344 L 40.21875 11.304688 L 50 9.128906 L 59.78125 11.304688 Z M 59.78125 15.652344 "/>
<path style=" stroke:none;fill-rule:nonzero;fill:rgb(76.078431%,98.431373%,100%);fill-opacity:1;" d="M 53.261719 4.78125 L 46.738281 4.78125 C 43.152344 4.78125 40.21875 7.71875 40.21875 11.304688 L 59.78125 11.304688 C 59.78125 7.71875 56.847656 4.78125 53.261719 4.78125 Z M 53.261719 4.78125 "/>
<path style=" stroke:none;fill-rule:nonzero;fill:rgb(44.313725%,88.627451%,94.117647%);fill-opacity:1;" d="M 77.515625 35.371094 L 71.367188 29.222656 L 79.054688 21.539062 L 85.203125 27.6875 Z M 77.515625 35.371094 "/>
<path style=" stroke:none;fill-rule:nonzero;fill:rgb(76.078431%,98.431373%,100%);fill-opacity:1;" d="M 14.796875 27.6875 L 20.949219 21.539062 L 28.632812 29.222656 L 22.484375 35.371094 Z M 14.796875 27.6875 "/>
<path style=" stroke:none;fill-rule:nonzero;fill:rgb(100%,100%,100%);fill-opacity:1;" d="M 50 17.824219 L 50 95.652344 C 28.507812 95.652344 11.085938 78.226562 11.085938 56.738281 C 11.085938 35.246094 28.507812 17.824219 50 17.824219 Z M 50 17.824219 "/>
<path style=" stroke:none;fill-rule:nonzero;fill:rgb(44.313725%,88.627451%,94.117647%);fill-opacity:1;" d="M 50 91.304688 L 46.363281 54.921875 L 84.566406 56.738281 C 84.566406 75.800781 69.058594 91.304688 50 91.304688 Z M 50 91.304688 "/>
<path style=" stroke:none;fill-rule:nonzero;fill:rgb(44.313725%,88.627451%,94.117647%);fill-opacity:1;" d="M 50 22.175781 C 69.058594 22.175781 84.566406 37.679688 84.566406 56.738281 L 46.363281 56.738281 Z M 50 22.175781 "/>
<path style=" stroke:none;fill-rule:nonzero;fill:rgb(44.313725%,88.627451%,94.117647%);fill-opacity:1;" d="M 50 56.738281 L 50 91.304688 C 30.941406 91.304688 15.433594 75.800781 15.433594 56.738281 L 32.71875 51.28125 Z M 50 56.738281 "/>
<path style=" stroke:none;fill-rule:nonzero;fill:rgb(76.078431%,98.431373%,100%);fill-opacity:1;" d="M 50 22.175781 L 50 56.738281 L 15.433594 56.738281 C 15.433594 37.679688 30.941406 22.175781 50 22.175781 Z M 50 22.175781 "/>
<path style=" stroke:none;fill-rule:nonzero;fill:rgb(44.313725%,88.627451%,94.117647%);fill-opacity:1;" d="M 50 86.957031 L 46.820312 55.148438 L 80.21875 56.738281 C 80.21875 73.402344 66.664062 86.957031 50 86.957031 Z M 50 86.957031 "/>
<path style=" stroke:none;fill-rule:nonzero;fill:rgb(76.078431%,98.431373%,100%);fill-opacity:1;" d="M 50 26.523438 C 66.664062 26.523438 80.21875 40.078125 80.21875 56.738281 L 46.820312 56.738281 Z M 50 26.523438 "/>
<path style=" stroke:none;fill-rule:nonzero;fill:rgb(76.078431%,98.431373%,100%);fill-opacity:1;" d="M 50 56.738281 L 50 86.957031 C 33.335938 86.957031 19.78125 73.402344 19.78125 56.738281 L 34.890625 51.96875 Z M 50 56.738281 "/>
<path style=" stroke:none;fill-rule:nonzero;fill:rgb(100%,100%,100%);fill-opacity:1;" d="M 50 26.523438 L 50 56.738281 L 19.78125 56.738281 C 19.78125 40.078125 33.335938 26.523438 50 26.523438 Z M 50 26.523438 "/>
<path style=" stroke:none;fill-rule:nonzero;fill:rgb(100%,77.647059%,10.588235%);fill-opacity:1;" d="M 43.855469 65.957031 L 40.78125 62.882812 L 66.753906 36.910156 L 69.828125 39.984375 Z M 43.855469 65.957031 "/>
<path style=" stroke:none;fill-rule:nonzero;fill:rgb(83.137255%,54.509804%,2.745098%);fill-opacity:1;" d="M 56.523438 56.738281 C 56.523438 60.339844 53.601562 63.261719 50 63.261719 C 46.398438 63.261719 43.476562 60.339844 43.476562 56.738281 C 43.476562 53.136719 46.398438 50.21875 50 50.21875 C 53.601562 50.21875 56.523438 53.136719 56.523438 56.738281 Z M 56.523438 56.738281 "/>
</g>
</svg>
<!-- iconic normalized -->