<?xml version="1.0" encoding="UTF-8"?>
<svg xmlns="http://www.w3.org/2000/svg" xmlns:xlink="http://www.w3.org/1999/xlink" width="100px" height="100px" viewBox="0 0 100 100" version="1.1">
<defs>
<filter id="alpha" filterUnits="objectBoundingBox" x="0%" y="0%" width="100%" height="100%">
  <feColorMatrix type="matrix" in="SourceGraphic" values="0 0 0 0 1 0 0 0 0 1 0 0 0 0 1 0 0 0 1 0"/>
</filter>
<mask id="mask0">
  <g filter="url(#alpha)">
<rect x="0" y="0" width="100" height="100" style="fill:rgb(0%,0%,0%);fill-opacity:0.278431;stroke:none;"/>
  </g>
</mask>
<clipPath id="clip1">
  <rect width="100" height="100"/>
</clipPath>
<g id="surface1" clip-path="url(#clip1)">
<path style=" stroke:none;fill-rule:nonzero;fill:rgb(32.54902%,27.058824%,31.764706%);fill-opacity:1;" d="M 11.832031 56.398438 L 11.832031 68.101562 C 11.832031 69.070312 12.605469 69.855469 13.5625 69.855469 C 14.519531 69.855469 15.296875 69.070312 15.296875 68.101562 L 15.296875 57.101562 L 15.882812 57.101562 C 17.105469 61.34375 20.96875 64.449219 25.558594 64.449219 L 29.785156 64.242188 L 79.128906 61.855469 C 84.105469 61.855469 88.234375 60.265625 89.054688 55.902344 L 11.371094 55.902344 C 11.507812 56.085938 11.660156 56.253906 11.832031 56.398438 Z M 11.832031 56.398438 "/>
</g>
</defs>
<g id="surface1">
<path style=" stroke:none;fill-rule:nonzero;fill:rgb(47.45098%,58.823529%,69.411765%);fill-opacity:1;" d="M 100 79.660156 C 100 90.894531 91.003906 100 79.910156 100 L 20.089844 100 C 8.996094 100 0 90.894531 0 79.660156 L 0 20.339844 C 0 9.105469 8.996094 0 20.089844 0 L 79.910156 0 C 91.003906 0 100 9.105469 100 20.339844 Z M 100 79.660156 "/>
<path style=" stroke:none;fill-rule:nonzero;fill:rgb(43.921569%,55.294118%,65.882353%);fill-opacity:1;" d="M 99.96875 79.660156 L 99.96875 48.71875 L 79.773438 36.296875 L 75.53125 54.128906 L 13.5625 54.242188 L 11.832031 68.101562 L 47.632812 100 L 79.878906 100 C 90.972656 100 99.96875 90.894531 99.96875 79.660156 Z M 99.96875 79.660156 "/>
<path style=" stroke:none;fill-rule:nonzero;fill:rgb(45.098039%,40.392157%,44.313725%);fill-opacity:1;" d="M 15.296875 68.101562 C 15.296875 69.070312 14.519531 69.855469 13.5625 69.855469 C 12.605469 69.855469 11.832031 69.070312 11.832031 68.101562 L 11.832031 40.378906 C 11.832031 39.410156 12.605469 38.625 13.5625 38.625 C 14.519531 38.625 15.296875 39.410156 15.296875 40.378906 Z M 15.296875 68.101562 "/>
<path style=" stroke:none;fill-rule:nonzero;fill:rgb(57.647059%,53.72549%,56.862745%);fill-opacity:1;" d="M 24.136719 54.128906 C 24.136719 55.769531 22.820312 57.101562 21.199219 57.101562 L 13.722656 57.101562 C 12.101562 57.101562 10.789062 55.769531 10.789062 54.128906 C 10.789062 52.488281 12.101562 51.160156 13.722656 51.160156 L 21.199219 51.160156 C 22.820312 51.160156 24.136719 52.488281 24.136719 54.128906 Z M 24.136719 54.128906 "/>
<path style=" stroke:none;fill-rule:nonzero;fill:rgb(54.117647%,74.901961%,80.392157%);fill-opacity:1;" d="M 51.289062 44.835938 C 51.289062 39.699219 47.175781 35.539062 42.105469 35.539062 C 37.035156 35.539062 32.925781 39.699219 32.925781 44.835938 C 32.925781 49.96875 37.035156 54.128906 42.105469 54.128906 C 47.175781 54.128906 51.289062 49.96875 51.289062 44.835938 Z M 51.289062 44.835938 "/>
<path style=" stroke:none;fill-rule:nonzero;fill:rgb(76.470588%,87.843137%,36.862745%);fill-opacity:1;" d="M 89.210938 54.242188 C 89.210938 59.878906 84.695312 61.855469 79.128906 61.855469 L 25.558594 64.449219 C 19.988281 64.449219 15.472656 59.878906 15.472656 54.242188 C 15.472656 48.605469 19.988281 44.035156 25.558594 44.035156 L 79.128906 46.625 C 84.695312 46.625 89.210938 48.605469 89.210938 54.242188 Z M 89.210938 54.242188 "/>
<path style=" stroke:none;fill-rule:nonzero;fill:rgb(76.470588%,87.843137%,36.862745%);fill-opacity:1;" d="M 84.246094 50.128906 C 84.246094 54.164062 81.011719 57.441406 77.023438 57.441406 C 73.03125 57.441406 69.796875 54.164062 69.796875 50.128906 L 69.796875 43.058594 C 69.796875 39.023438 73.03125 35.75 77.023438 35.75 C 81.011719 35.75 84.246094 39.023438 84.246094 43.058594 Z M 84.246094 50.128906 "/>
<path style=" stroke:none;fill-rule:nonzero;fill:rgb(83.921569%,42.745098%,36.470588%);fill-opacity:1;" d="M 25.558594 44.035156 C 19.988281 44.035156 15.472656 48.605469 15.472656 54.242188 C 15.472656 59.878906 19.988281 64.449219 25.558594 64.449219 L 29.785156 64.242188 L 29.785156 44.238281 Z M 25.558594 44.035156 "/>
<path style=" stroke:none;fill-rule:nonzero;fill:rgb(76.470588%,87.843137%,36.862745%);fill-opacity:1;" d="M 43.160156 50.472656 L 43.160156 35.605469 C 42.816406 35.566406 42.464844 35.539062 42.105469 35.539062 C 41.460938 35.539062 40.832031 35.609375 40.226562 35.734375 L 40.226562 50.472656 Z M 43.160156 50.472656 "/>
<path style=" stroke:none;fill-rule:nonzero;fill:rgb(76.470588%,87.843137%,36.862745%);fill-opacity:1;" d="M 59.640625 54.871094 C 59.640625 56.101562 58.65625 57.101562 57.4375 57.101562 L 40.859375 57.101562 C 39.640625 57.101562 38.65625 56.101562 38.65625 54.871094 C 38.65625 53.640625 39.640625 52.640625 40.859375 52.640625 L 57.4375 52.640625 C 58.65625 52.640625 59.640625 53.640625 59.640625 54.871094 Z M 59.640625 54.871094 "/>
<path style=" stroke:none;fill-rule:nonzero;fill:rgb(72.54902%,83.921569%,32.941176%);fill-opacity:1;" d="M 59.640625 54.871094 C 59.640625 56.101562 58.65625 57.101562 57.4375 57.101562 L 40.859375 57.101562 C 39.640625 57.101562 38.65625 56.101562 38.65625 54.871094 C 38.65625 53.640625 39.640625 52.640625 40.859375 52.640625 L 57.4375 52.640625 C 58.65625 52.640625 59.640625 53.640625 59.640625 54.871094 Z M 59.640625 54.871094 "/>
<use xlink:href="#surface1" mask="url(#mask0)"/>
</g>
</svg>
<!-- iconic normalized -->