<?xml version="1.0" encoding="UTF-8"?>
<svg xmlns="http://www.w3.org/2000/svg" xmlns:xlink="http://www.w3.org/1999/xlink" width="100px" height="100px" viewBox="0 0 100 100" version="1.1">
<defs>
<filter id="alpha" filterUnits="objectBoundingBox" x="0%" y="0%" width="100%" height="100%">
  <feColorMatrix type="matrix" in="SourceGraphic" values="0 0 0 0 1 0 0 0 0 1 0 0 0 0 1 0 0 0 1 0"/>
</filter>
<mask id="mask0">
  <g filter="url(#alpha)">
<rect x="0" y="0" width="100" height="100" style="fill:rgb(0%,0%,0%);fill-opacity:0.278431;stroke:none;"/>
  </g>
</mask>
<clipPath id="clip1">
  <rect width="100" height="100"/>
</clipPath>
<g id="surface1" clip-path="url(#clip1)">
<path style=" stroke:none;fill-rule:nonzero;fill:rgb(32.54902%,27.058824%,31.764706%);fill-opacity:1;" d="M 72.847656 80.085938 L 72.847656 79.855469 C 72.847656 77.933594 71.308594 76.375 69.414062 76.375 L 69.929688 76.375 C 71.75 76.375 73.234375 74.941406 73.351562 73.128906 L 75.597656 73.128906 C 77.496094 73.128906 79.035156 71.574219 79.035156 69.652344 L 79.035156 57.480469 C 79.035156 55.558594 77.496094 54 75.597656 54 L 73.363281 54 L 73.363281 34.347656 C 74.34375 33.734375 74.996094 32.640625 74.996094 31.390625 L 74.996094 19.914062 C 74.996094 17.992188 73.457031 16.433594 71.558594 16.433594 L 50 16.433594 L 50 83.566406 L 69.414062 83.566406 C 71.308594 83.566406 72.847656 82.007812 72.847656 80.085938 Z M 72.847656 80.085938 "/>
</g>
</defs>
<g id="surface1">
<path style=" stroke:none;fill-rule:nonzero;fill:rgb(36.470588%,31.372549%,35.686275%);fill-opacity:1;" d="M 100 79.660156 C 100 90.894531 91.003906 100 79.910156 100 L 20.089844 100 C 8.996094 100 0 90.894531 0 79.660156 L 0 20.339844 C 0 9.105469 8.996094 0 20.089844 0 L 79.910156 0 C 91.003906 0 100 9.105469 100 20.339844 Z M 100 79.660156 "/>
<path style=" stroke:none;fill-rule:nonzero;fill:rgb(32.54902%,27.058824%,31.764706%);fill-opacity:1;" d="M 28.121094 82.507812 L 46.40625 100 L 79.910156 100 C 91.003906 100 100 90.894531 100 79.660156 L 100 39.144531 L 73.363281 16.957031 L 50.234375 32.816406 Z M 28.121094 82.507812 "/>
<path style=" stroke:none;fill-rule:nonzero;fill:rgb(47.45098%,58.823529%,69.411765%);fill-opacity:1;" d="M 79.035156 69.652344 C 79.035156 71.574219 77.496094 73.128906 75.597656 73.128906 L 71.132812 73.128906 C 69.234375 73.128906 67.695312 71.574219 67.695312 69.652344 L 67.695312 57.476562 C 67.695312 55.558594 69.234375 54 71.132812 54 L 75.597656 54 C 77.496094 54 79.035156 55.558594 79.035156 57.476562 Z M 79.035156 69.652344 "/>
<path style=" stroke:none;fill-rule:nonzero;fill:rgb(47.45098%,58.823529%,69.411765%);fill-opacity:1;" d="M 32.304688 69.652344 C 32.304688 71.574219 30.765625 73.128906 28.867188 73.128906 L 24.402344 73.128906 C 22.503906 73.128906 20.964844 71.574219 20.964844 69.652344 L 20.964844 57.476562 C 20.964844 55.558594 22.503906 54 24.402344 54 L 28.867188 54 C 30.765625 54 32.304688 55.558594 32.304688 57.476562 Z M 32.304688 69.652344 "/>
<path style=" stroke:none;fill-rule:nonzero;fill:rgb(76.470588%,87.843137%,36.862745%);fill-opacity:1;" d="M 73.363281 72.898438 C 73.363281 74.820312 71.828125 76.375 69.929688 76.375 L 30.070312 76.375 C 28.171875 76.375 26.636719 74.820312 26.636719 72.898438 L 26.636719 23.273438 C 26.636719 21.351562 28.171875 19.796875 30.070312 19.796875 L 69.929688 19.796875 C 71.828125 19.796875 73.363281 21.351562 73.363281 23.273438 Z M 73.363281 72.898438 "/>
<path style=" stroke:none;fill-rule:nonzero;fill:rgb(47.45098%,58.823529%,69.411765%);fill-opacity:1;" d="M 72.847656 80.085938 C 72.847656 82.007812 71.308594 83.566406 69.414062 83.566406 L 30.585938 83.566406 C 28.6875 83.566406 27.152344 82.007812 27.152344 80.085938 L 27.152344 79.855469 C 27.152344 77.933594 28.6875 76.375 30.585938 76.375 L 69.414062 76.375 C 71.308594 76.375 72.847656 77.933594 72.847656 79.855469 Z M 72.847656 80.085938 "/>
<path style=" stroke:none;fill-rule:nonzero;fill:rgb(47.45098%,58.823529%,69.411765%);fill-opacity:1;" d="M 74.996094 31.390625 C 74.996094 33.3125 73.457031 34.871094 71.558594 34.871094 L 28.4375 34.871094 C 26.542969 34.871094 25.003906 33.3125 25.003906 31.390625 L 25.003906 19.914062 C 25.003906 17.992188 26.542969 16.433594 28.4375 16.433594 L 71.558594 16.433594 C 73.457031 16.433594 74.996094 17.992188 74.996094 19.914062 Z M 74.996094 31.390625 "/>
<path style=" stroke:none;fill-rule:nonzero;fill:rgb(45.098039%,40.392157%,44.313725%);fill-opacity:1;" d="M 41.410156 75.390625 C 41.410156 77.183594 39.972656 78.636719 38.203125 78.636719 C 36.429688 78.636719 34.996094 77.183594 34.996094 75.390625 L 34.996094 32.609375 C 34.996094 30.816406 36.429688 29.363281 38.203125 29.363281 C 39.972656 29.363281 41.410156 30.816406 41.410156 32.609375 Z M 41.410156 75.390625 "/>
<path style=" stroke:none;fill-rule:nonzero;fill:rgb(45.098039%,40.392157%,44.313725%);fill-opacity:1;" d="M 65.003906 75.390625 C 65.003906 77.183594 63.566406 78.636719 61.796875 78.636719 C 60.027344 78.636719 58.589844 77.183594 58.589844 75.390625 L 58.589844 32.609375 C 58.589844 30.816406 60.027344 29.363281 61.796875 29.363281 C 63.566406 29.363281 65.003906 30.816406 65.003906 32.609375 Z M 65.003906 75.390625 "/>
<path style=" stroke:none;fill-rule:nonzero;fill:rgb(36.470588%,31.372549%,35.686275%);fill-opacity:1;" d="M 40.777344 48.347656 L 35.625 48.347656 C 33.726562 48.347656 32.1875 49.90625 32.1875 51.828125 L 32.1875 56.175781 C 32.1875 58.09375 33.726562 59.652344 35.625 59.652344 L 40.777344 59.652344 C 42.675781 59.652344 44.214844 58.09375 44.214844 56.175781 L 44.214844 51.828125 C 44.214844 49.90625 42.675781 48.347656 40.777344 48.347656 Z M 39.234375 57.117188 L 39.234375 55.042969 C 39.234375 54.46875 38.773438 54 38.203125 54 C 37.632812 54 37.171875 54.46875 37.171875 55.042969 L 37.171875 57.117188 L 36.648438 57.117188 C 35.664062 57.117188 34.863281 56.308594 34.863281 55.3125 L 34.863281 52.6875 C 34.863281 51.691406 35.664062 50.882812 36.648438 50.882812 L 39.757812 50.882812 C 40.742188 50.882812 41.542969 51.691406 41.542969 52.6875 L 41.542969 55.3125 C 41.542969 56.308594 40.742188 57.117188 39.757812 57.117188 Z M 39.234375 57.117188 "/>
<path style=" stroke:none;fill-rule:nonzero;fill:rgb(36.470588%,31.372549%,35.686275%);fill-opacity:1;" d="M 64.371094 48.347656 L 59.21875 48.347656 C 57.320312 48.347656 55.78125 49.90625 55.78125 51.828125 L 55.78125 56.175781 C 55.78125 58.09375 57.320312 59.652344 59.21875 59.652344 L 64.371094 59.652344 C 66.269531 59.652344 67.808594 58.09375 67.808594 56.175781 L 67.808594 51.828125 C 67.808594 49.90625 66.269531 48.347656 64.371094 48.347656 Z M 62.828125 57.117188 L 62.828125 55.042969 C 62.828125 54.46875 62.367188 54 61.796875 54 C 61.226562 54 60.765625 54.46875 60.765625 55.042969 L 60.765625 57.117188 L 60.242188 57.117188 C 59.257812 57.117188 58.457031 56.308594 58.457031 55.3125 L 58.457031 52.6875 C 58.457031 51.691406 59.257812 50.882812 60.242188 50.882812 L 63.351562 50.882812 C 64.335938 50.882812 65.136719 51.691406 65.136719 52.6875 L 65.136719 55.3125 C 65.136719 56.308594 64.335938 57.117188 63.351562 57.117188 Z M 62.828125 57.117188 "/>
<use xlink:href="#surface1" mask="url(#mask0)"/>
</g>
</svg>
<!-- iconic normalized -->