<?xml version="1.0" encoding="UTF-8"?>
<svg xmlns="http://www.w3.org/2000/svg" xmlns:xlink="http://www.w3.org/1999/xlink" width="100px" height="100px" viewBox="0 0 100 100" version="1.1">
<defs>
<filter id="alpha" filterUnits="objectBoundingBox" x="0%" y="0%" width="100%" height="100%">
  <feColorMatrix type="matrix" in="SourceGraphic" values="0 0 0 0 1 0 0 0 0 1 0 0 0 0 1 0 0 0 1 0"/>
</filter>
<mask id="mask0">
  <g filter="url(#alpha)">
<rect x="0" y="0" width="100" height="100" style="fill:rgb(0%,0%,0%);fill-opacity:0.34902;stroke:none;"/>
  </g>
</mask>
<clipPath id="clip1">
  <rect width="100" height="100"/>
</clipPath>
<g id="surface1" clip-path="url(#clip1)">
<path style=" stroke:none;fill-rule:nonzero;fill:rgb(76.470588%,87.843137%,36.862745%);fill-opacity:1;" d="M 37.773438 40.917969 C 30.539062 42.851562 26.222656 50.355469 28.136719 57.679688 C 30.046875 65 37.460938 69.367188 44.695312 67.433594 C 51.925781 65.5 56.242188 57.992188 54.328125 50.671875 C 52.417969 43.347656 45.003906 38.980469 37.773438 40.917969 Z M 43.234375 61.839844 C 39.050781 62.957031 34.765625 60.433594 33.660156 56.199219 C 32.554688 51.964844 35.050781 47.628906 39.230469 46.507812 C 43.414062 45.390625 47.699219 47.914062 48.804688 52.148438 C 49.910156 56.382812 47.414062 60.722656 43.234375 61.839844 Z M 43.234375 61.839844 "/>
</g>
<mask id="mask1">
  <g filter="url(#alpha)">
<rect x="0" y="0" width="100" height="100" style="fill:rgb(0%,0%,0%);fill-opacity:0.270588;stroke:none;"/>
  </g>
</mask>
<clipPath id="clip2">
  <rect width="100" height="100"/>
</clipPath>
<g id="surface1" clip-path="url(#clip2)">
<path style=" stroke:none;fill-rule:nonzero;fill:rgb(36.470588%,31.372549%,35.686275%);fill-opacity:1;" d="M 84.265625 40.523438 C 85.402344 44.882812 84.4375 48.921875 82.109375 49.546875 C 79.78125 50.167969 76.96875 47.140625 75.832031 42.78125 C 74.695312 38.421875 75.660156 34.382812 77.988281 33.757812 C 80.316406 33.136719 83.125 36.164062 84.265625 40.523438 Z M 84.265625 40.523438 "/>
</g>
<mask id="mask2">
  <g filter="url(#alpha)">
<rect x="0" y="0" width="100" height="100" style="fill:rgb(0%,0%,0%);fill-opacity:0.278431;stroke:none;"/>
  </g>
</mask>
<clipPath id="clip3">
  <rect width="100" height="100"/>
</clipPath>
<g id="surface1" clip-path="url(#clip3)">
<path style=" stroke:none;fill-rule:nonzero;fill:rgb(32.54902%,27.058824%,31.764706%);fill-opacity:1;" d="M 54.257812 57.9375 L 80.5625 50.054688 C 81.046875 49.925781 81.441406 49.773438 81.769531 49.601562 C 81.882812 49.589844 81.996094 49.574219 82.109375 49.546875 C 84.4375 48.921875 85.402344 44.882812 84.265625 40.523438 C 83.125 36.164062 80.316406 33.136719 77.988281 33.757812 C 77.878906 33.789062 77.777344 33.832031 77.671875 33.875 C 77.289062 33.898438 76.871094 33.960938 76.398438 34.089844 L 50.367188 40.226562 L 50.367188 64.292969 C 52.21875 62.578125 53.570312 60.375 54.257812 57.9375 Z M 54.257812 57.9375 "/>
</g>
</defs>
<g id="surface1">
<path style=" stroke:none;fill-rule:nonzero;fill:rgb(83.921569%,42.745098%,36.470588%);fill-opacity:1;" d="M 100 79.660156 C 100 90.894531 91.003906 100 79.910156 100 L 20.089844 100 C 8.996094 100 0 90.894531 0 79.660156 L 0 20.339844 C 0 9.105469 8.996094 0 20.089844 0 L 79.910156 0 C 91.003906 0 100 9.105469 100 20.339844 Z M 100 79.660156 "/>
<path style=" stroke:none;fill-rule:nonzero;fill:rgb(80.784314%,38.823529%,32.156863%);fill-opacity:1;" d="M 100 79.660156 L 100 51.835938 L 80.046875 34.0625 L 67.640625 40.457031 L 59.566406 44.019531 L 43.425781 66.050781 L 32.761719 74.398438 L 24.308594 74.027344 L 52.457031 100 L 79.910156 100 C 91.003906 100 100 90.894531 100 79.660156 Z M 100 79.660156 "/>
<path style=" stroke:none;fill-rule:nonzero;fill:rgb(76.470588%,87.843137%,36.862745%);fill-opacity:1;" d="M 37.773438 40.917969 C 30.539062 42.851562 26.222656 50.355469 28.136719 57.679688 C 30.046875 65 37.460938 69.367188 44.695312 67.433594 C 51.925781 65.5 56.242188 57.992188 54.328125 50.671875 C 52.417969 43.347656 45.003906 38.980469 37.773438 40.917969 Z M 43.234375 61.839844 C 39.050781 62.957031 34.765625 60.433594 33.660156 56.199219 C 32.554688 51.964844 35.050781 47.628906 39.230469 46.507812 C 43.414062 45.390625 47.699219 47.914062 48.804688 52.148438 C 49.910156 56.382812 47.414062 60.722656 43.234375 61.839844 Z M 43.234375 61.839844 "/>
<use xlink:href="#surface1" mask="url(#mask0)"/>
<path style=" stroke:none;fill-rule:nonzero;fill:rgb(36.470588%,31.372549%,35.686275%);fill-opacity:1;" d="M 81.457031 41.574219 C 82.609375 45.984375 84.917969 48.886719 80.5625 50.054688 L 27.851562 65.855469 C 23.496094 67.019531 18.617188 62.800781 17.46875 58.394531 C 16.316406 53.984375 18.5 47.878906 22.855469 46.714844 L 76.398438 34.089844 C 80.75 32.925781 80.972656 36.316406 82.125 40.722656 Z M 81.457031 41.574219 "/>
<path style=" stroke:none;fill-rule:nonzero;fill:rgb(76.470588%,87.843137%,36.862745%);fill-opacity:1;" d="M 29.300781 50.050781 C 22.066406 51.984375 17.753906 59.492188 19.664062 66.8125 C 21.578125 74.136719 28.992188 78.503906 36.222656 76.566406 C 43.457031 74.632812 47.769531 67.128906 45.859375 59.804688 C 43.949219 52.484375 36.535156 48.117188 29.300781 50.050781 Z M 34.761719 70.972656 C 30.582031 72.09375 26.296875 69.566406 25.191406 65.335938 C 24.085938 61.101562 26.578125 56.761719 30.761719 55.644531 C 34.945312 54.523438 39.230469 57.050781 40.335938 61.285156 C 41.4375 65.515625 38.945312 69.855469 34.761719 70.972656 Z M 34.761719 70.972656 "/>
<path style=" stroke:none;fill-rule:nonzero;fill:rgb(36.470588%,31.372549%,35.686275%);fill-opacity:1;" d="M 84.265625 40.523438 C 85.402344 44.882812 84.4375 48.921875 82.109375 49.546875 C 79.78125 50.167969 76.96875 47.140625 75.832031 42.78125 C 74.695312 38.421875 75.660156 34.382812 77.988281 33.757812 C 80.316406 33.136719 83.125 36.164062 84.265625 40.523438 Z M 84.265625 40.523438 "/>
<use xlink:href="#surface1" mask="url(#mask1)"/>
<path style=" stroke:none;fill-rule:nonzero;fill:rgb(76.470588%,87.843137%,36.862745%);fill-opacity:1;" d="M 83.035156 40.851562 C 83.84375 43.941406 83.160156 46.804688 81.507812 47.246094 C 79.859375 47.691406 77.867188 45.542969 77.058594 42.453125 C 76.25 39.359375 76.9375 36.496094 78.585938 36.054688 C 80.238281 35.613281 82.230469 37.761719 83.035156 40.851562 Z M 83.035156 40.851562 "/>
<use xlink:href="#surface1" mask="url(#mask2)"/>
</g>
</svg>
<!-- iconic normalized -->