<?xml version="1.0" encoding="UTF-8"?>
<svg xmlns="http://www.w3.org/2000/svg" xmlns:xlink="http://www.w3.org/1999/xlink" width="100px" height="100px" viewBox="0 0 100 100" version="1.1">
<defs>
<filter id="alpha" filterUnits="objectBoundingBox" x="0%" y="0%" width="100%" height="100%">
  <feColorMatrix type="matrix" in="SourceGraphic" values="0 0 0 0 1 0 0 0 0 1 0 0 0 0 1 0 0 0 1 0"/>
</filter>
<mask id="mask0">
  <g filter="url(#alpha)">
<rect x="0" y="0" width="100" height="100" style="fill:rgb(0%,0%,0%);fill-opacity:0.278431;stroke:none;"/>
  </g>
</mask>
<clipPath id="clip1">
  <rect width="100" height="100"/>
</clipPath>
<g id="surface1" clip-path="url(#clip1)">
<path style=" stroke:none;fill-rule:nonzero;fill:rgb(32.54902%,27.058824%,31.764706%);fill-opacity:1;" d="M 70.023438 58.210938 L 70.023438 51.023438 L 74.101562 51.023438 C 75.761719 51.023438 77.109375 49.660156 77.109375 47.976562 C 77.109375 46.296875 75.761719 44.933594 74.101562 44.933594 L 73.691406 44.933594 C 73.691406 31.5625 63.136719 20.691406 50 20.382812 L 50 51.023438 L 67.183594 51.023438 L 67.183594 58.210938 C 67.183594 68.050781 59.574219 76.121094 50 76.71875 L 50 79.601562 C 61.140625 79.003906 70.023438 69.636719 70.023438 58.210938 Z M 70.023438 58.210938 "/>
</g>
</defs>
<g id="surface1">
<path style=" stroke:none;fill-rule:nonzero;fill:rgb(76.470588%,87.843137%,36.862745%);fill-opacity:1;" d="M 100 79.660156 C 100 90.894531 91.003906 100 79.910156 100 L 20.089844 100 C 8.996094 100 0 90.894531 0 79.660156 L 0 20.339844 C 0 9.105469 8.996094 0 20.089844 0 L 79.910156 0 C 91.003906 0 100 9.105469 100 20.339844 Z M 100 79.660156 "/>
<path style=" stroke:none;fill-rule:nonzero;fill:rgb(70.588235%,84.313725%,32.941176%);fill-opacity:1;" d="M 100 79.660156 L 100 45.304688 L 54.78125 20.976562 L 69.957031 42.175781 L 68.160156 61.558594 L 62.15625 74.863281 L 50.367188 78.085938 L 36.320312 75.453125 L 74.433594 100 L 79.910156 100 C 91.003906 100 100 90.894531 100 79.660156 Z M 100 79.660156 "/>
<path style=" stroke:none;fill-rule:nonzero;fill:rgb(47.45098%,58.823529%,69.411765%);fill-opacity:1;" d="M 48.863281 79.632812 C 37.195312 79.632812 27.703125 70.023438 27.703125 58.210938 L 27.703125 43.832031 C 27.703125 32.019531 37.195312 22.410156 48.863281 22.410156 C 60.53125 22.410156 70.023438 32.019531 70.023438 43.832031 L 70.023438 58.210938 C 70.023438 70.023438 60.53125 79.632812 48.863281 79.632812 Z M 48.863281 25.285156 C 38.761719 25.285156 30.546875 33.605469 30.546875 43.832031 L 30.546875 58.210938 C 30.546875 68.4375 38.761719 76.757812 48.863281 76.757812 C 58.964844 76.757812 67.183594 68.4375 67.183594 58.210938 L 67.183594 43.832031 C 67.183594 33.605469 58.964844 25.285156 48.863281 25.285156 Z M 48.863281 25.285156 "/>
<path style=" stroke:none;fill-rule:nonzero;fill:rgb(36.470588%,31.372549%,35.686275%);fill-opacity:1;" d="M 74.101562 44.933594 L 73.691406 44.933594 C 73.691406 31.367188 62.828125 20.367188 49.421875 20.367188 C 36.019531 20.367188 25.152344 31.367188 25.152344 44.933594 L 23.625 44.933594 C 21.964844 44.933594 20.621094 46.296875 20.621094 47.976562 C 20.621094 49.660156 21.964844 51.019531 23.625 51.019531 L 74.101562 51.019531 C 75.761719 51.019531 77.105469 49.660156 77.105469 47.976562 C 77.109375 46.296875 75.761719 44.933594 74.101562 44.933594 Z M 74.101562 44.933594 "/>
<path style=" stroke:none;fill-rule:nonzero;fill:rgb(47.45098%,58.823529%,69.411765%);fill-opacity:1;" d="M 55.59375 42.175781 C 55.59375 39.050781 53.089844 36.515625 50 36.515625 C 46.910156 36.515625 44.40625 39.046875 44.40625 42.175781 C 44.40625 45.300781 46.910156 47.835938 50 47.835938 C 53.089844 47.835938 55.59375 45.300781 55.59375 42.175781 Z M 55.59375 42.175781 "/>
<use xlink:href="#surface1" mask="url(#mask0)"/>
</g>
</svg>
<!-- iconic normalized -->