<?xml version="1.0" encoding="UTF-8"?>
<svg xmlns="http://www.w3.org/2000/svg" xmlns:xlink="http://www.w3.org/1999/xlink" width="100px" height="100px" viewBox="0 0 100 100" version="1.1">
<g id="surface1">
<path style=" stroke:none;fill-rule:nonzero;fill:rgb(94.901961%,42.745098%,28.627451%);fill-opacity:1;" d="M 95.207031 79.480469 C 91.710938 67.644531 74.164062 68.957031 66.589844 65.558594 C 59.015625 62.160156 60.199219 50.753906 59.238281 48.769531 L 40.761719 48.769531 C 39.800781 50.753906 40.984375 62.160156 33.410156 65.558594 C 25.835938 68.957031 8.285156 67.644531 4.792969 79.480469 C 2.863281 86.011719 2.953125 88.007812 2.421875 95.238281 C 2.421875 95.238281 26.5 100 49.457031 100 C 72.410156 100 97.578125 95.238281 97.578125 95.238281 C 97.042969 88.003906 97.132812 86.011719 95.207031 79.480469 Z M 95.207031 79.480469 "/>
<path style=" stroke:none;fill-rule:nonzero;fill:rgb(92.156863%,37.254902%,14.117647%);fill-opacity:1;" d="M 95.207031 79.480469 C 91.710938 67.644531 74.164062 68.957031 66.589844 65.558594 C 59.015625 62.160156 60.199219 50.753906 59.238281 48.769531 L 49.453125 48.769531 C 49.453125 48.769531 49.226562 64.765625 56.800781 68.167969 C 64.375 71.566406 81.925781 70.253906 85.417969 82.089844 C 87.257812 88.304688 87.257812 90.414062 87.714844 96.847656 C 93.746094 95.964844 97.574219 95.238281 97.574219 95.238281 C 97.042969 88.003906 97.132812 86.011719 95.207031 79.480469 Z M 95.207031 79.480469 "/>
<path style=" stroke:none;fill-rule:nonzero;fill:rgb(85.882353%,70.588235%,56.862745%);fill-opacity:1;" d="M 46.023438 64.433594 L 45.640625 72.601562 C 46.960938 73.117188 48.398438 73.515625 49.980469 73.738281 C 51.605469 73.507812 53.078125 73.089844 54.429688 72.550781 L 53.648438 64.433594 Z M 46.023438 64.433594 "/>
<path style=" stroke:none;fill-rule:nonzero;fill:rgb(77.647059%,61.960784%,49.803922%);fill-opacity:1;" d="M 49.980469 66.242188 C 51.332031 66.050781 52.578125 65.730469 53.734375 65.316406 L 53.648438 64.433594 L 46.023438 64.433594 L 45.984375 65.234375 C 47.210938 65.6875 48.539062 66.039062 49.980469 66.242188 Z M 49.980469 66.242188 "/>
<path style=" stroke:none;fill-rule:nonzero;fill:rgb(92.156863%,37.254902%,14.117647%);fill-opacity:1;" d="M 65.574219 65.023438 L 55.210938 74.027344 L 53.648438 64.433594 Z M 65.574219 65.023438 "/>
<path style=" stroke:none;fill-rule:nonzero;fill:rgb(92.156863%,37.254902%,14.117647%);fill-opacity:1;" d="M 34.246094 65.128906 L 44.773438 74.027344 L 46.023438 64.433594 Z M 34.246094 65.128906 "/>
<path style=" stroke:none;fill-rule:nonzero;fill:rgb(87.843137%,85.882353%,82.745098%);fill-opacity:1;" d="M 46.023438 64.433594 L 37.960938 60.046875 C 37.960938 60.046875 36.898438 61.558594 34.246094 65.128906 L 44.191406 72.292969 L 45.039062 67.617188 Z M 46.023438 64.433594 "/>
<path style=" stroke:none;fill-rule:nonzero;fill:rgb(87.843137%,85.882353%,82.745098%);fill-opacity:1;" d="M 53.648438 64.433594 L 61.714844 60.046875 C 61.714844 60.046875 62.921875 61.453125 65.574219 65.023438 L 55.480469 72.296875 L 54.632812 67.617188 Z M 53.648438 64.433594 "/>
<path style=" stroke:none;fill-rule:nonzero;fill:rgb(82.745098%,80.784314%,78.039216%);fill-opacity:1;" d="M 61.714844 60.046875 L 53.648438 64.433594 L 54.207031 66.242188 C 54.949219 67.058594 55.808594 67.71875 56.800781 68.167969 C 57.679688 68.558594 58.6875 68.890625 59.796875 69.183594 L 65.574219 65.027344 C 62.925781 61.453125 61.714844 60.046875 61.714844 60.046875 Z M 61.714844 60.046875 "/>
<path style=" stroke:none;fill-rule:nonzero;fill:rgb(92.156863%,37.254902%,14.117647%);fill-opacity:1;" d="M 19.003906 97.835938 C 27.667969 98.953125 38.683594 100 49.457031 100 C 60.464844 100 71.984375 98.902344 80.988281 97.761719 L 80.988281 90.597656 C 80.988281 90.597656 63.164062 93.273438 49.410156 93.273438 C 35.65625 93.273438 19.007812 90.597656 19.007812 90.597656 L 19.007812 97.835938 Z M 19.003906 97.835938 "/>
<path style=" stroke:none;fill-rule:nonzero;fill:rgb(80%,64.313725%,51.372549%);fill-opacity:1;" d="M 70.460938 43.765625 C 72.441406 44.121094 74.578125 41.457031 75.234375 37.8125 C 75.890625 34.167969 74.816406 30.925781 72.832031 30.570312 C 70.851562 30.210938 68.714844 32.878906 68.058594 36.523438 C 67.402344 40.167969 68.476562 43.410156 70.460938 43.765625 Z M 70.460938 43.765625 "/>
<path style=" stroke:none;fill-rule:nonzero;fill:rgb(85.882353%,70.588235%,56.862745%);fill-opacity:1;" d="M 24.710938 37.816406 C 25.367188 41.460938 27.503906 44.125 29.488281 43.769531 C 31.46875 43.414062 32.542969 40.171875 31.886719 36.527344 C 31.234375 32.882812 29.09375 30.214844 27.113281 30.570312 C 25.132812 30.929688 24.054688 34.171875 24.710938 37.816406 Z M 24.710938 37.816406 "/>
<path style=" stroke:none;fill-rule:nonzero;fill:rgb(85.882353%,70.588235%,56.862745%);fill-opacity:1;" d="M 70.117188 14.847656 L 29.855469 14.847656 C 29.855469 14.847656 18.574219 60.8125 49.980469 65.265625 C 81.398438 60.8125 70.117188 14.847656 70.117188 14.847656 Z M 70.117188 14.847656 "/>
<path style=" stroke:none;fill-rule:nonzero;fill:rgb(80%,64.313725%,51.372549%);fill-opacity:1;" d="M 49.980469 65.265625 C 81.402344 60.8125 70.117188 14.847656 70.117188 14.847656 L 65.40625 14.847656 C 66.695312 34.046875 68.480469 44.246094 61.074219 55.367188 C 55.207031 64.179688 49.980469 65.265625 49.980469 65.265625 Z M 49.980469 65.265625 "/>
<path style=" stroke:none;fill-rule:nonzero;fill:rgb(80%,64.313725%,51.372549%);fill-opacity:1;" d="M 66.328125 13.636719 L 27.226562 16.871094 L 27.226562 26.417969 C 27.226562 26.417969 28.296875 27.160156 29.175781 27.433594 C 29.175781 27.433594 39.894531 29.832031 47.277344 27.011719 C 53.875 24.488281 56.789062 16.785156 63.378906 16.6875 C 64.5 16.667969 65.476562 16.894531 66.328125 17.300781 Z M 66.328125 13.636719 "/>
<path style=" stroke:none;fill-rule:nonzero;fill:rgb(23.137255%,23.137255%,23.137255%);fill-opacity:1;" d="M 73.921875 15.277344 C 72.128906 8.136719 63.078125 0 50 0 C 36.921875 0 27.871094 8.136719 26.074219 15.277344 C 26.074219 15.277344 22.648438 30.164062 28.484375 36.574219 C 28.484375 36.574219 28.195312 30.757812 28.785156 26.128906 C 28.785156 26.128906 39.503906 28.53125 46.882812 25.707031 C 53.484375 23.1875 56.398438 15.484375 62.988281 15.382812 C 69.097656 15.292969 70.914062 22.402344 71.214844 26.128906 C 71.511719 29.855469 71.511719 36.574219 71.511719 36.574219 C 77.351562 30.164062 73.921875 15.277344 73.921875 15.277344 Z M 73.921875 15.277344 "/>
</g>
</svg>
<!-- iconic normalized -->