<?xml version="1.0" encoding="UTF-8"?>
<svg xmlns="http://www.w3.org/2000/svg" xmlns:xlink="http://www.w3.org/1999/xlink" width="100px" height="100px" viewBox="0 0 100 100" version="1.1">
<g id="surface1">
<path style=" stroke:none;fill-rule:nonzero;fill:rgb(72.941176%,26.666667%,24.313725%);fill-opacity:1;" d="M 69.847656 59.121094 C 69.847656 59.121094 55.832031 62.085938 49.980469 65.015625 L 49.980469 78.878906 L 73.632812 78.878906 C 73.632812 78.878906 78.992188 58.820312 69.847656 59.121094 Z M 69.847656 59.121094 "/>
<path style=" stroke:none;fill-rule:nonzero;fill:rgb(72.941176%,26.666667%,24.313725%);fill-opacity:1;" d="M 28.792969 59.121094 C 28.792969 59.121094 42.8125 62.085938 48.664062 65.015625 L 48.664062 78.878906 L 25.007812 78.878906 C 25.007812 78.878906 19.652344 58.820312 28.792969 59.121094 Z M 28.792969 59.121094 "/>
<path style=" stroke:none;fill-rule:nonzero;fill:rgb(91.764706%,89.803922%,86.27451%);fill-opacity:1;" d="M 96.847656 78.738281 C 93.222656 66.472656 75.039062 67.832031 67.191406 64.308594 C 59.34375 60.785156 60.566406 48.96875 59.574219 46.910156 L 40.425781 46.910156 C 39.433594 48.96875 40.65625 60.789062 32.808594 64.308594 C 24.960938 67.832031 6.773438 66.472656 3.152344 78.738281 C 1.15625 85.503906 1.25 87.570312 0.699219 95.066406 C 0.699219 95.066406 25.648438 100 49.4375 100 C 73.222656 100 99.300781 95.066406 99.300781 95.066406 C 98.75 87.570312 98.84375 85.503906 96.847656 78.738281 Z M 96.847656 78.738281 "/>
<path style=" stroke:none;fill-rule:nonzero;fill:rgb(87.843137%,85.882353%,82.745098%);fill-opacity:1;" d="M 96.847656 78.738281 C 93.222656 66.472656 75.039062 67.832031 67.191406 64.308594 C 59.34375 60.785156 60.566406 48.96875 59.574219 46.910156 L 49.433594 46.910156 C 49.433594 46.910156 49.199219 63.488281 57.046875 67.011719 C 64.898438 70.535156 83.082031 69.175781 86.703125 81.4375 C 88.605469 87.882812 88.609375 90.066406 89.082031 96.734375 C 95.332031 95.816406 99.300781 95.066406 99.300781 95.066406 C 98.75 87.570312 98.84375 85.503906 96.847656 78.738281 Z M 96.847656 78.738281 "/>
<path style=" stroke:none;fill-rule:nonzero;fill:rgb(61.960784%,43.529412%,29.803922%);fill-opacity:1;" d="M 59.945312 69.921875 C 63.109375 68.683594 65.714844 66.863281 67.472656 64.652344 L 67.605469 64.484375 C 67.464844 64.425781 67.328125 64.367188 67.191406 64.308594 C 59.34375 60.785156 60.570312 48.96875 59.574219 46.910156 L 40.425781 46.910156 C 39.433594 48.96875 40.65625 60.789062 32.808594 64.308594 C 32.671875 64.367188 32.535156 64.429688 32.394531 64.484375 L 32.527344 64.652344 C 34.285156 66.863281 36.890625 68.683594 40.054688 69.921875 C 43.054688 71.089844 46.492188 71.710938 50 71.710938 C 53.507812 71.710938 56.945312 71.089844 59.945312 69.921875 Z M 59.945312 69.921875 "/>
<path style=" stroke:none;fill-rule:nonzero;fill:rgb(55.686275%,38.823529%,24.705882%);fill-opacity:1;" d="M 67.191406 64.308594 C 65.78125 63.675781 64.664062 62.773438 63.773438 61.707031 C 62.128906 63.773438 59.28125 65.414062 55.789062 66.289062 C 56.183594 66.566406 56.605469 66.808594 57.050781 67.007812 C 58.582031 67.695312 60.503906 68.199219 62.640625 68.652344 C 64.597656 67.554688 66.242188 66.199219 67.46875 64.652344 L 67.605469 64.484375 C 67.464844 64.429688 67.324219 64.371094 67.191406 64.308594 Z M 67.191406 64.308594 "/>
<path style=" stroke:none;fill-rule:nonzero;fill:rgb(73.72549%,56.862745%,45.098039%);fill-opacity:1;" d="M 63.773438 61.707031 C 59.714844 56.851562 60.386719 48.597656 59.574219 46.910156 L 40.425781 46.910156 C 39.609375 48.597656 40.289062 56.851562 36.226562 61.707031 C 38.714844 64.832031 43.945312 66.980469 50 66.980469 C 56.054688 66.980469 61.289062 64.832031 63.773438 61.707031 Z M 63.773438 61.707031 "/>
<path style=" stroke:none;fill-rule:nonzero;fill:rgb(68.627451%,51.764706%,40.784314%);fill-opacity:1;" d="M 55.789062 66.289062 C 59.28125 65.414062 62.128906 63.773438 63.773438 61.707031 C 59.714844 56.851562 60.386719 48.597656 59.574219 46.910156 L 49.4375 46.910156 C 49.4375 46.910156 49.226562 61.65625 55.789062 66.289062 Z M 55.789062 66.289062 "/>
<path style=" stroke:none;fill-rule:nonzero;fill:rgb(65.882353%,48.235294%,38.431373%);fill-opacity:1;" d="M 37.847656 59.125 C 41.027344 61.710938 44.75 64.277344 49.980469 65.015625 C 55.222656 64.273438 58.9375 61.65625 62.117188 59.0625 C 59.472656 54.195312 60.289062 48.394531 59.574219 46.910156 L 40.425781 46.910156 C 39.707031 48.398438 40.507812 54.261719 37.847656 59.125 Z M 37.847656 59.125 "/>
<path style=" stroke:none;fill-rule:nonzero;fill:rgb(68.627451%,51.764706%,40.784314%);fill-opacity:1;" d="M 71.199219 41.726562 C 73.253906 42.097656 75.46875 39.335938 76.148438 35.558594 C 76.828125 31.78125 75.714844 28.417969 73.660156 28.050781 C 71.605469 27.679688 69.390625 30.441406 68.710938 34.21875 C 68.035156 37.996094 69.148438 41.359375 71.199219 41.726562 Z M 71.199219 41.726562 "/>
<path style=" stroke:none;fill-rule:nonzero;fill:rgb(73.72549%,56.862745%,45.098039%);fill-opacity:1;" d="M 23.792969 35.5625 C 24.472656 39.335938 26.6875 42.101562 28.742188 41.730469 C 30.796875 41.359375 31.910156 38 31.230469 34.222656 C 30.550781 30.445312 28.335938 27.683594 26.28125 28.054688 C 24.230469 28.421875 23.113281 31.785156 23.792969 35.5625 Z M 23.792969 35.5625 "/>
<path style=" stroke:none;fill-rule:nonzero;fill:rgb(73.72549%,56.862745%,45.098039%);fill-opacity:1;" d="M 70.84375 11.761719 L 29.125 11.761719 C 29.125 11.761719 17.433594 59.394531 49.980469 64.003906 C 82.539062 59.394531 70.84375 11.761719 70.84375 11.761719 Z M 70.84375 11.761719 "/>
<path style=" stroke:none;fill-rule:nonzero;fill:rgb(68.627451%,51.764706%,40.784314%);fill-opacity:1;" d="M 49.980469 64.003906 C 82.539062 59.394531 70.84375 11.761719 70.84375 11.761719 L 65.964844 11.761719 C 67.300781 31.65625 69.148438 42.226562 61.476562 53.75 C 55.394531 62.878906 49.980469 64.003906 49.980469 64.003906 Z M 49.980469 64.003906 "/>
<path style=" stroke:none;fill-rule:nonzero;fill:rgb(68.627451%,51.764706%,40.784314%);fill-opacity:1;" d="M 69.730469 16.894531 L 30.34375 16.894531 L 30.34375 22.261719 C 30.363281 22.289062 30.375 22.308594 30.375 22.308594 C 30.375 22.308594 39.898438 25.480469 50.015625 25.480469 C 60.132812 25.480469 69.613281 22.308594 69.613281 22.308594 C 69.613281 22.308594 69.65625 22.242188 69.730469 22.125 C 69.730469 22.125 69.730469 16.894531 69.730469 16.894531 Z M 69.730469 16.894531 "/>
<path style=" stroke:none;fill-rule:nonzero;fill:rgb(22.352941%,23.529412%,23.921569%);fill-opacity:1;" d="M 72.863281 12.066406 C 67.757812 0.695312 57.972656 0 49.992188 0 C 42.015625 0 32.230469 0.695312 27.121094 12.066406 C 26.023438 14.511719 25.960938 21.167969 25.960938 26.664062 C 25.960938 35.296875 28.160156 41.761719 28.160156 41.761719 L 30.019531 41.761719 C 30.933594 34.304688 30.375 20.957031 30.375 20.957031 C 30.375 20.957031 39.898438 24.128906 50.015625 24.128906 C 60.132812 24.128906 69.613281 20.957031 69.613281 20.957031 C 69.613281 20.957031 69.222656 34.289062 70.136719 41.746094 L 71.8125 41.75 C 71.8125 41.75 74.023438 35.296875 74.023438 26.664062 C 74.023438 21.167969 73.960938 14.511719 72.863281 12.066406 Z M 72.863281 12.066406 "/>
<path style=" stroke:none;fill-rule:nonzero;fill:rgb(68.627451%,51.764706%,40.784314%);fill-opacity:1;" d="M 62.207031 23.390625 L 60.988281 14.746094 L 59.699219 23.769531 C 60.511719 23.636719 61.464844 23.535156 62.207031 23.390625 Z M 62.207031 23.390625 "/>
<path style=" stroke:none;fill-rule:nonzero;fill:rgb(87.843137%,37.647059%,36.078431%);fill-opacity:1;" d="M 96.847656 78.738281 C 94.414062 70.496094 85.398438 68.40625 77.367188 66.851562 C 75.8125 70.320312 73.789062 73.863281 71.363281 76.078125 C 65.285156 81.613281 49.980469 85.195312 49.980469 85.195312 L 49.289062 85.304688 L 48.664062 85.195312 C 48.664062 85.195312 33.582031 81.617188 27.503906 76.078125 C 25.125 73.910156 23.136719 70.457031 21.59375 67.054688 C 13.839844 68.59375 5.480469 70.847656 3.152344 78.738281 C 1.15625 85.503906 1.25 87.570312 0.699219 95.066406 C 0.699219 95.066406 25.648438 100 49.4375 100 C 73.222656 100 99.300781 95.066406 99.300781 95.066406 C 98.75 87.570312 98.84375 85.503906 96.847656 78.738281 Z M 96.847656 78.738281 "/>
<path style=" stroke:none;fill-rule:nonzero;fill:rgb(81.960784%,34.509804%,32.156863%);fill-opacity:1;" d="M 96.847656 78.738281 C 94.414062 70.496094 85.398438 68.40625 77.367188 66.851562 C 76.675781 68.394531 75.890625 69.953125 75.019531 71.402344 C 80.371094 73.085938 85.054688 75.84375 86.703125 81.441406 C 88.605469 87.882812 88.609375 90.066406 89.082031 96.734375 C 95.332031 95.816406 99.300781 95.066406 99.300781 95.066406 C 98.75 87.570312 98.84375 85.503906 96.847656 78.738281 Z M 96.847656 78.738281 "/>
<path style=" stroke:none;fill-rule:nonzero;fill:rgb(81.960784%,34.509804%,32.156863%);fill-opacity:1;" d="M 28.792969 59.121094 C 25.722656 59.707031 24.605469 61.769531 25.753906 65.941406 C 29.117188 78.15625 48.664062 85.195312 48.664062 85.195312 C 48.664062 85.195312 22.28125 82 16.660156 68.171875 C 18.773438 61.289062 22.613281 57.828125 28.792969 59.121094 Z M 28.792969 59.121094 "/>
<path style=" stroke:none;fill-rule:nonzero;fill:rgb(81.960784%,34.509804%,32.156863%);fill-opacity:1;" d="M 69.847656 59.121094 C 72.921875 59.707031 74.039062 61.769531 72.890625 65.941406 C 69.527344 78.15625 49.980469 85.195312 49.980469 85.195312 C 49.980469 85.195312 76.496094 81.691406 82.113281 67.859375 C 80 60.976562 76.027344 57.828125 69.847656 59.121094 Z M 69.847656 59.121094 "/>
<path style=" stroke:none;fill-rule:nonzero;fill:rgb(77.647059%,31.372549%,26.666667%);fill-opacity:1;" d="M 69.847656 59.121094 C 72.921875 59.707031 74.039062 61.769531 72.890625 65.941406 C 72.464844 67.484375 71.785156 68.941406 70.914062 70.316406 C 73.675781 70.9375 76.414062 71.722656 78.84375 72.878906 C 80.234375 71.378906 81.359375 69.710938 82.113281 67.859375 C 80 60.976562 76.027344 57.828125 69.847656 59.121094 Z M 69.847656 59.121094 "/>
<path style=" stroke:none;fill-rule:nonzero;fill:rgb(91.764706%,89.803922%,86.27451%);fill-opacity:1;" d="M 52.253906 86.042969 C 51.546875 86.042969 50.953125 86.707031 51.109375 87.460938 C 51.15625 87.5 55.050781 90.738281 56.273438 99.875 C 56.882812 99.851562 57.496094 99.828125 58.105469 99.800781 C 56.816406 89.828125 52.464844 86.210938 52.253906 86.042969 Z M 52.253906 86.042969 "/>
<path style=" stroke:none;fill-rule:nonzero;fill:rgb(91.764706%,89.803922%,86.27451%);fill-opacity:1;" d="M 46.390625 86.042969 C 47.09375 86.042969 47.691406 86.707031 47.53125 87.460938 C 47.488281 87.5 43.59375 90.738281 42.367188 99.875 C 41.757812 99.851562 41.148438 99.828125 40.539062 99.800781 C 41.828125 89.828125 46.175781 86.210938 46.390625 86.042969 Z M 46.390625 86.042969 "/>
</g>
</svg>
<!-- iconic normalized -->