<?xml version="1.0" encoding="UTF-8"?>
<svg xmlns="http://www.w3.org/2000/svg" xmlns:xlink="http://www.w3.org/1999/xlink" width="100px" height="100px" viewBox="0 0 100 100" version="1.1">
<defs>
<filter id="alpha" filterUnits="objectBoundingBox" x="0%" y="0%" width="100%" height="100%">
  <feColorMatrix type="matrix" in="SourceGraphic" values="0 0 0 0 1 0 0 0 0 1 0 0 0 0 1 0 0 0 1 0"/>
</filter>
<mask id="mask0">
  <g filter="url(#alpha)">
<rect x="0" y="0" width="100" height="100" style="fill:rgb(0%,0%,0%);fill-opacity:0.4;stroke:none;"/>
  </g>
</mask>
<clipPath id="clip1">
  <rect width="100" height="100"/>
</clipPath>
<g id="surface1" clip-path="url(#clip1)">
<path style=" stroke:none;fill-rule:nonzero;fill:rgb(12.941176%,9.803922%,8.235294%);fill-opacity:1;" d="M 23.964844 86.328125 L 34.621094 86.328125 L 34.621094 93.199219 L 23.964844 93.199219 Z M 23.964844 86.328125 "/>
</g>
<mask id="mask1">
  <g filter="url(#alpha)">
<rect x="0" y="0" width="100" height="100" style="fill:rgb(0%,0%,0%);fill-opacity:0.4;stroke:none;"/>
  </g>
</mask>
<clipPath id="clip2">
  <rect width="100" height="100"/>
</clipPath>
<g id="surface1" clip-path="url(#clip2)">
<path style=" stroke:none;fill-rule:nonzero;fill:rgb(12.941176%,9.803922%,8.235294%);fill-opacity:1;" d="M 37.769531 86.328125 L 48.425781 86.328125 L 48.425781 93.199219 L 37.769531 93.199219 Z M 37.769531 86.328125 "/>
</g>
<mask id="mask2">
  <g filter="url(#alpha)">
<rect x="0" y="0" width="100" height="100" style="fill:rgb(0%,0%,0%);fill-opacity:0.301961;stroke:none;"/>
  </g>
</mask>
<clipPath id="clip3">
  <rect width="100" height="100"/>
</clipPath>
<g id="surface1" clip-path="url(#clip3)">
<path style=" stroke:none;fill-rule:nonzero;fill:rgb(35.686275%,35.686275%,37.254902%);fill-opacity:1;" d="M 23.964844 17.480469 L 76.035156 17.480469 L 76.035156 26.625 L 23.964844 26.625 Z M 23.964844 17.480469 "/>
</g>
</defs>
<g id="surface1">
<path style=" stroke:none;fill-rule:nonzero;fill:rgb(34.901961%,34.901961%,35.294118%);fill-opacity:1;" d="M 15.625 0 L 84.375 0 L 84.375 100 L 15.625 100 Z M 15.625 0 "/>
<path style=" stroke:none;fill-rule:nonzero;fill:rgb(56.470588%,77.254902%,100%);fill-opacity:1;" d="M 23.964844 8.339844 L 76.035156 8.339844 L 76.035156 26.625 L 23.964844 26.625 Z M 23.964844 8.339844 "/>
<path style=" stroke:none;fill-rule:nonzero;fill:rgb(100%,100%,100%);fill-opacity:1;" d="M 51.574219 55.351562 L 62.230469 55.351562 L 62.230469 62.226562 L 51.574219 62.226562 Z M 51.574219 55.351562 "/>
<path style=" stroke:none;fill-rule:nonzero;fill:rgb(100%,100%,100%);fill-opacity:1;" d="M 65.378906 55.351562 L 76.035156 55.351562 L 76.035156 62.226562 L 65.378906 62.226562 Z M 65.378906 55.351562 "/>
<path style=" stroke:none;fill-rule:nonzero;fill:rgb(100%,100%,100%);fill-opacity:1;" d="M 23.964844 55.351562 L 34.621094 55.351562 L 34.621094 62.226562 L 23.964844 62.226562 Z M 23.964844 55.351562 "/>
<path style=" stroke:none;fill-rule:nonzero;fill:rgb(100%,100%,100%);fill-opacity:1;" d="M 37.769531 55.351562 L 48.425781 55.351562 L 48.425781 62.226562 L 37.769531 62.226562 Z M 37.769531 55.351562 "/>
<path style=" stroke:none;fill-rule:nonzero;fill:rgb(100%,100%,100%);fill-opacity:1;" d="M 51.574219 70.839844 L 62.230469 70.839844 L 62.230469 77.714844 L 51.574219 77.714844 Z M 51.574219 70.839844 "/>
<path style=" stroke:none;fill-rule:nonzero;fill:rgb(100%,100%,100%);fill-opacity:1;" d="M 65.378906 70.839844 L 76.035156 70.839844 L 76.035156 77.714844 L 65.378906 77.714844 Z M 65.378906 70.839844 "/>
<path style=" stroke:none;fill-rule:nonzero;fill:rgb(100%,100%,100%);fill-opacity:1;" d="M 23.964844 70.839844 L 34.621094 70.839844 L 34.621094 77.714844 L 23.964844 77.714844 Z M 23.964844 70.839844 "/>
<path style=" stroke:none;fill-rule:nonzero;fill:rgb(100%,100%,100%);fill-opacity:1;" d="M 37.769531 70.839844 L 48.425781 70.839844 L 48.425781 77.714844 L 37.769531 77.714844 Z M 37.769531 70.839844 "/>
<path style=" stroke:none;fill-rule:nonzero;fill:rgb(67.058824%,79.607843%,34.117647%);fill-opacity:1;" d="M 51.574219 86.328125 L 62.230469 86.328125 L 62.230469 93.199219 L 51.574219 93.199219 Z M 51.574219 86.328125 "/>
<path style=" stroke:none;fill-rule:nonzero;fill:rgb(78.431373%,32.156863%,23.137255%);fill-opacity:1;" d="M 65.378906 86.328125 L 76.035156 86.328125 L 76.035156 93.199219 L 65.378906 93.199219 Z M 65.378906 86.328125 "/>
<use xlink:href="#surface1" mask="url(#mask0)"/>
<use xlink:href="#surface1" mask="url(#mask1)"/>
<path style=" stroke:none;fill-rule:nonzero;fill:rgb(100%,100%,100%);fill-opacity:1;" d="M 51.574219 39.867188 L 62.230469 39.867188 L 62.230469 46.738281 L 51.574219 46.738281 Z M 51.574219 39.867188 "/>
<path style=" stroke:none;fill-rule:nonzero;fill:rgb(100%,100%,100%);fill-opacity:1;" d="M 65.378906 39.867188 L 76.035156 39.867188 L 76.035156 46.738281 L 65.378906 46.738281 Z M 65.378906 39.867188 "/>
<path style=" stroke:none;fill-rule:nonzero;fill:rgb(89.803922%,76.862745%,0%);fill-opacity:1;" d="M 23.964844 39.867188 L 48.425781 39.867188 L 48.425781 46.738281 L 23.964844 46.738281 Z M 23.964844 39.867188 "/>
<use xlink:href="#surface1" mask="url(#mask2)"/>
</g>
</svg>
<!-- iconic normalized -->