<?xml version="1.0" encoding="UTF-8"?>
<svg xmlns="http://www.w3.org/2000/svg" xmlns:xlink="http://www.w3.org/1999/xlink" width="100px" height="100px" viewBox="0 0 100 100" version="1.1">
<g id="surface1">
<path style=" stroke:none;fill-rule:nonzero;fill:rgb(5.490196%,87.843137%,72.156863%);fill-opacity:1;" d="M 81.453125 0 L 18.546875 0 C 15.804688 0 12.902344 2.582031 12.902344 5.324219 L 12.902344 69.839844 L 44.839844 100 L 81.453125 100 C 84.195312 100 87.097656 97.417969 87.097656 94.675781 L 87.097656 5.324219 C 87.097656 2.582031 84.195312 0 81.453125 0 Z M 81.453125 0 "/>
<path style=" stroke:none;fill-rule:nonzero;fill:rgb(63.921569%,92.941176%,32.941176%);fill-opacity:1;" d="M 81.453125 0 L 18.546875 0 C 15.804688 0 12.902344 2.582031 12.902344 5.324219 L 12.902344 69.839844 L 44.839844 100 L 81.453125 100 C 84.195312 100 87.097656 97.417969 87.097656 94.675781 L 87.097656 5.324219 C 87.097656 2.582031 84.195312 0 81.453125 0 Z M 81.453125 0 "/>
<path style=" stroke:none;fill-rule:nonzero;fill:rgb(58.039216%,88.627451%,22.352941%);fill-opacity:1;" d="M 87.097656 77.417969 L 87.097656 5.324219 C 87.097656 2.582031 84.195312 0 81.453125 0 L 18.546875 0 C 15.804688 0 13.386719 2.257812 13.386719 4.839844 "/>
<path style=" stroke:none;fill-rule:nonzero;fill:rgb(55.294118%,84.705882%,9.803922%);fill-opacity:1;" d="M 87.097656 77.417969 L 87.097656 5.324219 C 87.097656 2.582031 84.195312 0 81.453125 0 L 41.933594 0 "/>
<path style=" stroke:none;fill-rule:nonzero;fill:rgb(58.039216%,88.627451%,22.352941%);fill-opacity:1;" d="M 40.324219 70.96875 L 40.324219 95 C 40.324219 95.324219 40.644531 95.644531 40.644531 95.96875 L 44.515625 99.675781 C 44.839844 99.675781 45.160156 100 45.484375 100 L 70.804688 100 L 40.96875 70.96875 Z M 40.324219 70.96875 "/>
<path style=" stroke:none;fill-rule:nonzero;fill:rgb(55.294118%,84.705882%,9.803922%);fill-opacity:1;" d="M 40.324219 70.804688 L 40.324219 95 C 40.324219 95.324219 40.644531 95.644531 40.644531 95.96875 L 44.515625 99.675781 C 44.839844 99.675781 45.160156 100 45.484375 100 L 58.386719 100 L 43.710938 75.644531 Z M 40.324219 70.804688 "/>
<path style=" stroke:none;fill-rule:nonzero;fill:rgb(100%,100%,100%);fill-opacity:1;" d="M 44.839844 100 L 45.160156 100 L 45.160156 74.675781 C 45.160156 71.933594 42.742188 69.355469 40 69.355469 L 12.902344 69.675781 Z M 44.839844 100 "/>
<path style=" stroke:none;fill-rule:nonzero;fill:rgb(93.333333%,98.823529%,87.058824%);fill-opacity:1;" d="M 12.902344 69.675781 L 44.839844 100 L 45.160156 100 L 45.160156 74.195312 "/>
<path style=" stroke:none;fill-rule:nonzero;fill:rgb(78.823529%,98.823529%,55.294118%);fill-opacity:1;" d="M 16.128906 69.675781 L 16.128906 5.324219 C 16.128906 2.582031 18.066406 0 20.644531 0 L 18.546875 0 C 15.804688 0 12.902344 2.582031 12.902344 5.324219 L 12.902344 69.839844 Z M 16.128906 69.675781 "/>
<path style=" stroke:none;fill-rule:nonzero;fill:rgb(55.294118%,84.705882%,9.803922%);fill-opacity:1;" d="M 38.386719 42.582031 C 36.128906 42.582031 34.03125 41.773438 32.417969 40.160156 C 30.804688 38.546875 30 36.453125 30 34.195312 C 30 31.933594 30.804688 29.839844 32.417969 28.226562 C 33.386719 27.257812 34.839844 27.257812 35.644531 28.226562 C 36.613281 29.195312 36.613281 30.644531 35.644531 31.453125 C 34.839844 32.257812 34.515625 33.226562 34.515625 34.195312 C 34.515625 35.160156 34.839844 36.128906 35.644531 36.933594 C 37.097656 38.386719 39.675781 38.386719 41.128906 36.933594 C 42.097656 35.96875 43.546875 35.96875 44.355469 36.933594 C 45.324219 37.902344 45.324219 39.355469 44.355469 40.160156 C 42.742188 41.613281 40.644531 42.582031 38.386719 42.582031 Z M 38.386719 42.582031 "/>
<path style=" stroke:none;fill-rule:nonzero;fill:rgb(55.294118%,84.705882%,9.803922%);fill-opacity:1;" d="M 80.96875 59.675781 L 78.546875 59.675781 L 59.675781 34.675781 C 58.871094 33.546875 56.773438 33.546875 55.96875 34.839844 L 42.257812 53.386719 L 38.710938 48.710938 C 37.902344 47.582031 35.804688 47.417969 35 48.546875 L 26.453125 59.839844 L 23.871094 59.839844 C 22.582031 59.839844 21.613281 60.96875 21.613281 62.257812 C 21.613281 63.546875 22.582031 64.675781 23.871094 64.675781 L 26.933594 64.675781 C 27.257812 64.675781 27.742188 64.675781 28.066406 64.675781 L 37.742188 64.675781 C 37.902344 64.675781 38.066406 64.839844 38.226562 64.839844 C 38.386719 64.839844 38.546875 64.675781 38.871094 64.675781 L 45.324219 64.675781 C 45.484375 64.675781 45.644531 64.839844 45.96875 64.839844 C 46.128906 64.839844 46.289062 64.675781 46.453125 64.675781 L 76.613281 64.675781 C 76.933594 64.675781 77.417969 64.675781 77.742188 64.675781 L 80.644531 64.675781 C 81.933594 64.675781 82.902344 63.546875 82.902344 62.257812 C 82.902344 60.96875 82.257812 59.675781 80.96875 59.675781 Z M 80.96875 59.675781 "/>
<path style=" stroke:none;fill-rule:nonzero;fill:rgb(100%,100%,100%);fill-opacity:1;" d="M 35.96875 40 C 33.710938 40 31.613281 39.195312 30 37.582031 C 28.386719 35.96875 27.582031 33.871094 27.582031 31.613281 C 27.582031 29.355469 28.386719 27.257812 30 25.644531 C 30.96875 24.675781 32.417969 24.675781 33.226562 25.644531 C 34.195312 26.613281 34.195312 28.066406 33.226562 28.871094 C 32.417969 29.675781 32.097656 30.644531 32.097656 31.613281 C 32.097656 32.582031 32.417969 33.546875 33.226562 34.355469 C 34.675781 35.804688 37.257812 35.804688 38.710938 34.355469 C 39.675781 33.386719 41.128906 33.386719 41.933594 34.355469 C 42.902344 35.324219 42.902344 36.773438 41.933594 37.582031 C 40.324219 39.195312 38.226562 40 35.96875 40 Z M 35.96875 40 "/>
<path style=" stroke:none;fill-rule:nonzero;fill:rgb(100%,100%,100%);fill-opacity:1;" d="M 78.386719 58.066406 L 75.96875 58.066406 L 57.257812 32.582031 C 56.453125 31.453125 54.355469 31.289062 53.546875 32.417969 L 39.839844 50.804688 L 36.289062 45.96875 C 35.484375 44.839844 33.386719 45 32.582031 46.128906 L 24.03125 58.066406 L 21.453125 58.066406 C 20.160156 58.066406 19.195312 59.195312 19.195312 60.484375 C 19.195312 61.773438 20.160156 62.902344 21.453125 62.902344 L 24.515625 62.902344 C 24.839844 62.902344 25.324219 62.902344 25.644531 62.902344 L 35.324219 62.902344 C 35.484375 62.902344 35.644531 63.066406 35.804688 63.066406 C 35.96875 63.066406 36.128906 62.902344 36.453125 62.902344 L 43.066406 62.902344 C 43.226562 62.902344 43.386719 63.066406 43.710938 63.066406 C 43.871094 63.066406 44.03125 62.902344 44.195312 62.902344 L 74.355469 62.902344 C 74.675781 62.902344 75.160156 62.902344 75.484375 62.902344 L 78.386719 62.902344 C 79.675781 62.902344 80.644531 61.773438 80.644531 60.484375 C 80.804688 59.195312 79.675781 58.066406 78.386719 58.066406 Z M 78.386719 58.066406 "/>
</g>
</svg>
<!-- iconic normalized -->