<?xml version="1.0" encoding="UTF-8"?>
<svg xmlns="http://www.w3.org/2000/svg" xmlns:xlink="http://www.w3.org/1999/xlink" width="100px" height="100px" viewBox="0 0 100 100" version="1.1">
<g id="surface1">
<path style=" stroke:none;fill-rule:nonzero;fill:rgb(10.588235%,80.784314%,72.156863%);fill-opacity:1;" d="M 100 49.195312 C 100 51.453125 98.226562 53.226562 95.96875 53.226562 L 4.03125 53.226562 C 1.773438 53.226562 0 51.453125 0 49.195312 C 0 46.933594 1.773438 45.160156 4.03125 45.160156 L 95.96875 45.160156 C 98.226562 45.160156 100 46.933594 100 49.195312 Z M 100 49.195312 "/>
<path style=" stroke:none;fill-rule:nonzero;fill:rgb(5.098039%,74.901961%,72.941176%);fill-opacity:1;" d="M 100 49.195312 C 100 46.933594 98.226562 45.160156 95.96875 45.160156 L 43.386719 45.160156 C 43.226562 46.773438 43.066406 48.546875 43.066406 50 C 43.066406 51.453125 43.066406 51.613281 43.226562 53.226562 L 95.96875 53.226562 C 98.226562 53.226562 100 51.453125 100 49.195312 Z M 100 49.195312 "/>
<path style=" stroke:none;fill-rule:nonzero;fill:rgb(100%,100%,100%);fill-opacity:1;" d="M 92.902344 50 C 92.902344 60.777344 84.164062 69.515625 73.386719 69.515625 C 62.609375 69.515625 53.871094 60.777344 53.871094 50 C 53.871094 39.222656 62.609375 30.484375 73.386719 30.484375 C 84.164062 30.484375 92.902344 39.222656 92.902344 50 Z M 92.902344 50 "/>
<path style=" stroke:none;fill-rule:nonzero;fill:rgb(83.921569%,89.803922%,88.627451%);fill-opacity:1;" d="M 87.257812 63.871094 C 79.675781 71.453125 67.257812 71.453125 59.515625 63.871094 C 51.933594 56.289062 51.933594 43.871094 59.515625 36.128906 "/>
<path style=" stroke:none;fill-rule:nonzero;fill:rgb(87.45098%,92.941176%,90.980392%);fill-opacity:1;" d="M 59.515625 36.128906 C 67.097656 28.546875 79.515625 28.546875 87.257812 36.128906 C 94.839844 43.710938 94.839844 56.128906 87.257812 63.871094 "/>
</g>
</svg>
<!-- iconic normalized -->