<?xml version="1.0" encoding="UTF-8"?>
<svg xmlns="http://www.w3.org/2000/svg" xmlns:xlink="http://www.w3.org/1999/xlink" width="100px" height="100px" viewBox="0 0 100 100" version="1.1">
<defs>
<filter id="alpha" filterUnits="objectBoundingBox" x="0%" y="0%" width="100%" height="100%">
  <feColorMatrix type="matrix" in="SourceGraphic" values="0 0 0 0 1 0 0 0 0 1 0 0 0 0 1 0 0 0 1 0"/>
</filter>
<mask id="mask0">
  <g filter="url(#alpha)">
<rect x="0" y="0" width="100" height="100" style="fill:rgb(0%,0%,0%);fill-opacity:0.4;stroke:none;"/>
  </g>
</mask>
<clipPath id="clip1">
  <rect width="100" height="100"/>
</clipPath>
<g id="surface1" clip-path="url(#clip1)">
<path style=" stroke:none;fill-rule:nonzero;fill:rgb(69.411765%,73.72549%,73.72549%);fill-opacity:1;" d="M 10.832031 10.5 C 10.832031 11.789062 9.789062 12.832031 8.5 12.832031 C 7.210938 12.832031 6.167969 11.789062 6.167969 10.5 C 6.167969 9.210938 7.210938 8.167969 8.5 8.167969 C 9.789062 8.167969 10.832031 9.210938 10.832031 10.5 Z M 10.832031 10.5 "/>
</g>
<mask id="mask1">
  <g filter="url(#alpha)">
<rect x="0" y="0" width="100" height="100" style="fill:rgb(0%,0%,0%);fill-opacity:0.4;stroke:none;"/>
  </g>
</mask>
<clipPath id="clip2">
  <rect width="100" height="100"/>
</clipPath>
<g id="surface1" clip-path="url(#clip2)">
<path style=" stroke:none;fill-rule:nonzero;fill:rgb(69.411765%,73.72549%,73.72549%);fill-opacity:1;" d="M 20 10.5 C 20 11.789062 18.957031 12.832031 17.667969 12.832031 C 16.378906 12.832031 15.332031 11.789062 15.332031 10.5 C 15.332031 9.210938 16.378906 8.167969 17.667969 8.167969 C 18.957031 8.167969 20 9.210938 20 10.5 Z M 20 10.5 "/>
</g>
<mask id="mask2">
  <g filter="url(#alpha)">
<rect x="0" y="0" width="100" height="100" style="fill:rgb(0%,0%,0%);fill-opacity:0.4;stroke:none;"/>
  </g>
</mask>
<clipPath id="clip3">
  <rect width="100" height="100"/>
</clipPath>
<g id="surface1" clip-path="url(#clip3)">
<path style=" stroke:none;fill-rule:nonzero;fill:rgb(69.411765%,73.72549%,73.72549%);fill-opacity:1;" d="M 29.167969 10.5 C 29.167969 11.789062 28.121094 12.832031 26.832031 12.832031 C 25.542969 12.832031 24.5 11.789062 24.5 10.5 C 24.5 9.210938 25.542969 8.167969 26.832031 8.167969 C 28.121094 8.167969 29.167969 9.210938 29.167969 10.5 Z M 29.167969 10.5 "/>
</g>
</defs>
<g id="surface1">
<path style=" stroke:none;fill-rule:nonzero;fill:rgb(0%,59.215686%,95.686275%);fill-opacity:1;" d="M 95.167969 100 L 4.832031 100 C 2.167969 100 0 97.832031 0 95.167969 L 0 4.832031 C 0 2.167969 2.167969 0 4.832031 0 L 95 0 C 97.832031 0 100 2.167969 100 4.832031 L 100 95 C 100 97.832031 97.832031 100 95.167969 100 Z M 4.832031 3.332031 C 4 3.332031 3.332031 4 3.332031 4.832031 L 3.332031 95 C 3.332031 96 4 96.667969 4.832031 96.667969 L 95 96.667969 C 95.832031 96.667969 96.5 96 96.5 95.167969 L 96.5 4.832031 C 96.667969 4 96 3.332031 95.167969 3.332031 Z M 4.832031 3.332031 "/>
<path style=" stroke:none;fill-rule:nonzero;fill:rgb(0%,59.215686%,95.686275%);fill-opacity:1;" d="M 3.332031 1.667969 L 96.667969 1.667969 L 96.667969 18.332031 L 3.332031 18.332031 Z M 3.332031 1.667969 "/>
<use xlink:href="#surface1" mask="url(#mask0)"/>
<path style=" stroke:none;fill-rule:nonzero;fill:rgb(100%,100%,100%);fill-opacity:1;" d="M 10.832031 9.667969 C 10.832031 10.957031 9.789062 12 8.5 12 C 7.210938 12 6.167969 10.957031 6.167969 9.667969 C 6.167969 8.378906 7.210938 7.332031 8.5 7.332031 C 9.789062 7.332031 10.832031 8.378906 10.832031 9.667969 Z M 10.832031 9.667969 "/>
<path style=" stroke:none;fill-rule:nonzero;fill:rgb(90.980392%,93.72549%,93.333333%);fill-opacity:1;" d="M 6.832031 8 C 7.667969 7.167969 9.167969 7.167969 10.167969 8 C 11 8.832031 11 10.332031 10.167969 11.332031 "/>
<use xlink:href="#surface1" mask="url(#mask1)"/>
<path style=" stroke:none;fill-rule:nonzero;fill:rgb(100%,100%,100%);fill-opacity:1;" d="M 20 9.667969 C 20 10.957031 18.957031 12 17.667969 12 C 16.378906 12 15.332031 10.957031 15.332031 9.667969 C 15.332031 8.378906 16.378906 7.332031 17.667969 7.332031 C 18.957031 7.332031 20 8.378906 20 9.667969 Z M 20 9.667969 "/>
<path style=" stroke:none;fill-rule:nonzero;fill:rgb(90.980392%,93.72549%,93.333333%);fill-opacity:1;" d="M 16 8 C 16.832031 7.167969 18.332031 7.167969 19.332031 8 C 20.167969 8.832031 20.167969 10.332031 19.332031 11.332031 "/>
<use xlink:href="#surface1" mask="url(#mask2)"/>
<path style=" stroke:none;fill-rule:nonzero;fill:rgb(100%,100%,100%);fill-opacity:1;" d="M 29.167969 9.667969 C 29.167969 10.957031 28.121094 12 26.832031 12 C 25.542969 12 24.5 10.957031 24.5 9.667969 C 24.5 8.378906 25.542969 7.332031 26.832031 7.332031 C 28.121094 7.332031 29.167969 8.378906 29.167969 9.667969 Z M 29.167969 9.667969 "/>
<path style=" stroke:none;fill-rule:nonzero;fill:rgb(90.980392%,93.72549%,93.333333%);fill-opacity:1;" d="M 25.167969 8 C 26 7.167969 27.5 7.167969 28.5 8 C 29.332031 8.832031 29.332031 10.332031 28.5 11.332031 "/>
<path style=" stroke:none;fill-rule:nonzero;fill:rgb(0%,59.215686%,95.686275%);fill-opacity:1;" d="M 98.332031 36.667969 L 1.667969 36.667969 C 0.667969 36.667969 0 36 0 35 C 0 34 0.667969 33.332031 1.667969 33.332031 L 98.332031 33.332031 C 99.332031 33.332031 100 34 100 35 C 100 36 99.332031 36.667969 98.332031 36.667969 Z M 98.332031 36.667969 "/>
<path style=" stroke:none;fill-rule:nonzero;fill:rgb(0%,59.215686%,95.686275%);fill-opacity:1;" d="M 31.667969 100 C 30.667969 100 30 99.332031 30 98.332031 L 30 35 C 30 34 30.667969 33.332031 31.667969 33.332031 C 32.667969 33.332031 33.332031 34 33.332031 35 L 33.332031 98.332031 C 33.332031 99.332031 32.667969 100 31.667969 100 Z M 31.667969 100 "/>
<path style=" stroke:none;fill-rule:nonzero;fill:rgb(0%,59.215686%,95.686275%);fill-opacity:1;" d="M 98.332031 68.332031 L 31.667969 68.332031 C 30.667969 68.332031 30 67.667969 30 66.667969 C 30 65.667969 30.667969 65 31.667969 65 L 98.332031 65 C 99.332031 65 100 65.667969 100 66.667969 C 100 67.667969 99.332031 68.332031 98.332031 68.332031 Z M 98.332031 68.332031 "/>
</g>
</svg>
<!-- iconic normalized -->