<?xml version="1.0" encoding="UTF-8"?>
<svg xmlns="http://www.w3.org/2000/svg" xmlns:xlink="http://www.w3.org/1999/xlink" width="100px" height="100px" viewBox="0 0 100 100" version="1.1">
<defs>
<filter id="alpha" filterUnits="objectBoundingBox" x="0%" y="0%" width="100%" height="100%">
  <feColorMatrix type="matrix" in="SourceGraphic" values="0 0 0 0 1 0 0 0 0 1 0 0 0 0 1 0 0 0 1 0"/>
</filter>
<mask id="mask0">
  <g filter="url(#alpha)">
<rect x="0" y="0" width="100" height="100" style="fill:rgb(0%,0%,0%);fill-opacity:0.4;stroke:none;"/>
  </g>
</mask>
<clipPath id="clip1">
  <rect width="100" height="100"/>
</clipPath>
<g id="surface1" clip-path="url(#clip1)">
<path style=" stroke:none;fill-rule:nonzero;fill:rgb(69.411765%,73.72549%,73.72549%);fill-opacity:1;" d="M 11.523438 11.273438 C 11.523438 12.539062 10.5 13.5625 9.234375 13.5625 C 7.972656 13.5625 6.949219 12.539062 6.949219 11.273438 C 6.949219 10.011719 7.972656 8.988281 9.234375 8.988281 C 10.5 8.988281 11.523438 10.011719 11.523438 11.273438 Z M 11.523438 11.273438 "/>
</g>
<mask id="mask1">
  <g filter="url(#alpha)">
<rect x="0" y="0" width="100" height="100" style="fill:rgb(0%,0%,0%);fill-opacity:0.4;stroke:none;"/>
  </g>
</mask>
<clipPath id="clip2">
  <rect width="100" height="100"/>
</clipPath>
<g id="surface1" clip-path="url(#clip2)">
<path style=" stroke:none;fill-rule:nonzero;fill:rgb(69.411765%,73.72549%,73.72549%);fill-opacity:1;" d="M 20.511719 11.273438 C 20.511719 12.539062 19.484375 13.5625 18.222656 13.5625 C 16.960938 13.5625 15.933594 12.539062 15.933594 11.273438 C 15.933594 10.011719 16.960938 8.988281 18.222656 8.988281 C 19.484375 8.988281 20.511719 10.011719 20.511719 11.273438 Z M 20.511719 11.273438 "/>
</g>
<mask id="mask2">
  <g filter="url(#alpha)">
<rect x="0" y="0" width="100" height="100" style="fill:rgb(0%,0%,0%);fill-opacity:0.4;stroke:none;"/>
  </g>
</mask>
<clipPath id="clip3">
  <rect width="100" height="100"/>
</clipPath>
<g id="surface1" clip-path="url(#clip3)">
<path style=" stroke:none;fill-rule:nonzero;fill:rgb(69.411765%,73.72549%,73.72549%);fill-opacity:1;" d="M 29.496094 11.273438 C 29.496094 12.539062 28.472656 13.5625 27.210938 13.5625 C 25.945312 13.5625 24.921875 12.539062 24.921875 11.273438 C 24.921875 10.011719 25.945312 8.988281 27.210938 8.988281 C 28.472656 8.988281 29.496094 10.011719 29.496094 11.273438 Z M 29.496094 11.273438 "/>
</g>
<mask id="mask3">
  <g filter="url(#alpha)">
<rect x="0" y="0" width="100" height="100" style="fill:rgb(0%,0%,0%);fill-opacity:0.4;stroke:none;"/>
  </g>
</mask>
<clipPath id="clip4">
  <rect width="100" height="100"/>
</clipPath>
<g id="surface1" clip-path="url(#clip4)">
<path style=" stroke:none;fill-rule:nonzero;fill:rgb(69.411765%,73.72549%,73.72549%);fill-opacity:1;" d="M 23.613281 39.214844 C 23.613281 40.117188 22.882812 40.851562 21.980469 40.851562 C 21.078125 40.851562 20.347656 40.117188 20.347656 39.214844 C 20.347656 38.3125 21.078125 37.582031 21.980469 37.582031 C 22.882812 37.582031 23.613281 38.3125 23.613281 39.214844 Z M 23.613281 39.214844 "/>
</g>
<mask id="mask4">
  <g filter="url(#alpha)">
<rect x="0" y="0" width="100" height="100" style="fill:rgb(0%,0%,0%);fill-opacity:0.4;stroke:none;"/>
  </g>
</mask>
<clipPath id="clip5">
  <rect width="100" height="100"/>
</clipPath>
<g id="surface1" clip-path="url(#clip5)">
<path style=" stroke:none;fill-rule:nonzero;fill:rgb(69.411765%,73.72549%,73.72549%);fill-opacity:1;" d="M 29.824219 39.214844 C 29.824219 40.117188 29.09375 40.851562 28.191406 40.851562 C 27.289062 40.851562 26.554688 40.117188 26.554688 39.214844 C 26.554688 38.3125 27.289062 37.582031 28.191406 37.582031 C 29.09375 37.582031 29.824219 38.3125 29.824219 39.214844 Z M 29.824219 39.214844 "/>
</g>
<mask id="mask5">
  <g filter="url(#alpha)">
<rect x="0" y="0" width="100" height="100" style="fill:rgb(0%,0%,0%);fill-opacity:0.4;stroke:none;"/>
  </g>
</mask>
<clipPath id="clip6">
  <rect width="100" height="100"/>
</clipPath>
<g id="surface1" clip-path="url(#clip6)">
<path style=" stroke:none;fill-rule:nonzero;fill:rgb(69.411765%,73.72549%,73.72549%);fill-opacity:1;" d="M 36.03125 39.214844 C 36.03125 40.117188 35.300781 40.851562 34.398438 40.851562 C 33.496094 40.851562 32.765625 40.117188 32.765625 39.214844 C 32.765625 38.3125 33.496094 37.582031 34.398438 37.582031 C 35.300781 37.582031 36.03125 38.3125 36.03125 39.214844 Z M 36.03125 39.214844 "/>
</g>
</defs>
<g id="surface1">
<path style=" stroke:none;fill-rule:nonzero;fill:rgb(69.411765%,73.72549%,73.72549%);fill-opacity:1;" d="M 94.203125 100 L 5.640625 100 C 2.535156 100 0.0859375 97.550781 0.0859375 94.445312 L 0.0859375 5.71875 C -0.078125 2.613281 2.535156 0 5.640625 0 L 94.367188 0 C 97.472656 0 99.921875 2.449219 99.921875 5.554688 L 99.921875 94.28125 C 99.921875 97.386719 97.308594 100 94.203125 100 Z M 5.640625 4.902344 C 5.3125 4.902344 4.988281 5.230469 4.988281 5.554688 L 4.988281 94.28125 C 4.988281 94.609375 5.3125 94.933594 5.640625 94.933594 L 94.367188 94.933594 C 94.691406 94.933594 95.019531 94.609375 95.019531 94.28125 L 95.019531 5.71875 C 95.019531 5.390625 94.691406 5.066406 94.367188 5.066406 L 5.640625 5.066406 Z M 5.640625 4.902344 "/>
<path style=" stroke:none;fill-rule:nonzero;fill:rgb(69.411765%,73.72549%,73.72549%);fill-opacity:1;" d="M 3.679688 4.085938 L 96.328125 4.085938 L 96.328125 19.28125 L 3.679688 19.28125 Z M 3.679688 4.085938 "/>
<use xlink:href="#surface1" mask="url(#mask0)"/>
<path style=" stroke:none;fill-rule:nonzero;fill:rgb(100%,100%,100%);fill-opacity:1;" d="M 11.523438 10.457031 C 11.523438 11.722656 10.5 12.746094 9.234375 12.746094 C 7.972656 12.746094 6.949219 11.722656 6.949219 10.457031 C 6.949219 9.195312 7.972656 8.171875 9.234375 8.171875 C 10.5 8.171875 11.523438 9.195312 11.523438 10.457031 Z M 11.523438 10.457031 "/>
<path style=" stroke:none;fill-rule:nonzero;fill:rgb(90.980392%,93.72549%,93.333333%);fill-opacity:1;" d="M 7.601562 8.824219 C 8.417969 8.007812 9.890625 8.007812 10.871094 8.824219 C 11.6875 9.640625 11.6875 11.109375 10.871094 12.089844 "/>
<use xlink:href="#surface1" mask="url(#mask1)"/>
<path style=" stroke:none;fill-rule:nonzero;fill:rgb(100%,100%,100%);fill-opacity:1;" d="M 20.511719 10.457031 C 20.511719 11.722656 19.484375 12.746094 18.222656 12.746094 C 16.960938 12.746094 15.933594 11.722656 15.933594 10.457031 C 15.933594 9.195312 16.960938 8.171875 18.222656 8.171875 C 19.484375 8.171875 20.511719 9.195312 20.511719 10.457031 Z M 20.511719 10.457031 "/>
<path style=" stroke:none;fill-rule:nonzero;fill:rgb(90.980392%,93.72549%,93.333333%);fill-opacity:1;" d="M 16.589844 8.824219 C 17.40625 8.007812 18.875 8.007812 19.855469 8.824219 C 20.671875 9.640625 20.671875 11.109375 19.855469 12.089844 "/>
<use xlink:href="#surface1" mask="url(#mask2)"/>
<path style=" stroke:none;fill-rule:nonzero;fill:rgb(100%,100%,100%);fill-opacity:1;" d="M 29.496094 10.457031 C 29.496094 11.722656 28.472656 12.746094 27.210938 12.746094 C 25.945312 12.746094 24.921875 11.722656 24.921875 10.457031 C 24.921875 9.195312 25.945312 8.171875 27.210938 8.171875 C 28.472656 8.171875 29.496094 9.195312 29.496094 10.457031 Z M 29.496094 10.457031 "/>
<path style=" stroke:none;fill-rule:nonzero;fill:rgb(90.980392%,93.72549%,93.333333%);fill-opacity:1;" d="M 25.574219 8.824219 C 26.390625 8.007812 27.863281 8.007812 28.84375 8.824219 C 29.660156 9.640625 29.660156 11.109375 28.84375 12.089844 "/>
<path style=" stroke:none;fill-rule:nonzero;fill:rgb(5.882353%,72.156863%,73.72549%);fill-opacity:1;" d="M 80.3125 83.660156 L 19.53125 83.660156 C 17.40625 83.660156 15.773438 82.027344 15.773438 79.902344 L 15.773438 35.292969 C 15.773438 33.171875 17.40625 31.535156 19.53125 31.535156 L 80.476562 31.535156 C 82.601562 31.535156 84.234375 33.171875 84.234375 35.292969 L 84.234375 79.902344 C 84.234375 81.863281 82.4375 83.660156 80.3125 83.660156 Z M 19.53125 34.804688 C 19.203125 34.804688 19.039062 34.96875 19.039062 35.292969 L 19.039062 79.902344 C 19.039062 80.230469 19.203125 80.390625 19.53125 80.390625 L 80.476562 80.390625 C 80.804688 80.390625 80.96875 80.230469 80.96875 79.902344 L 80.96875 35.292969 C 80.96875 34.96875 80.804688 34.804688 80.476562 34.804688 Z M 19.53125 34.804688 "/>
<path style=" stroke:none;fill-rule:nonzero;fill:rgb(5.882353%,72.156863%,73.72549%);fill-opacity:1;" d="M 18.222656 34.3125 L 81.785156 34.3125 L 81.785156 44.769531 L 18.222656 44.769531 Z M 18.222656 34.3125 "/>
<use xlink:href="#surface1" mask="url(#mask3)"/>
<path style=" stroke:none;fill-rule:nonzero;fill:rgb(100%,100%,100%);fill-opacity:1;" d="M 23.613281 38.5625 C 23.613281 39.464844 22.882812 40.195312 21.980469 40.195312 C 21.078125 40.195312 20.347656 39.464844 20.347656 38.5625 C 20.347656 37.660156 21.078125 36.929688 21.980469 36.929688 C 22.882812 36.929688 23.613281 37.660156 23.613281 38.5625 Z M 23.613281 38.5625 "/>
<path style=" stroke:none;fill-rule:nonzero;fill:rgb(90.980392%,93.72549%,93.333333%);fill-opacity:1;" d="M 20.835938 37.417969 C 21.492188 36.765625 22.472656 36.765625 23.125 37.417969 C 23.777344 38.070312 23.777344 39.050781 23.125 39.707031 "/>
<use xlink:href="#surface1" mask="url(#mask4)"/>
<path style=" stroke:none;fill-rule:nonzero;fill:rgb(100%,100%,100%);fill-opacity:1;" d="M 29.824219 38.5625 C 29.824219 39.464844 29.09375 40.195312 28.191406 40.195312 C 27.289062 40.195312 26.554688 39.464844 26.554688 38.5625 C 26.554688 37.660156 27.289062 36.929688 28.191406 36.929688 C 29.09375 36.929688 29.824219 37.660156 29.824219 38.5625 Z M 29.824219 38.5625 "/>
<path style=" stroke:none;fill-rule:nonzero;fill:rgb(90.980392%,93.72549%,93.333333%);fill-opacity:1;" d="M 27.046875 37.417969 C 27.699219 36.765625 28.679688 36.765625 29.332031 37.417969 C 29.988281 38.070312 29.988281 39.050781 29.332031 39.707031 "/>
<use xlink:href="#surface1" mask="url(#mask5)"/>
<path style=" stroke:none;fill-rule:nonzero;fill:rgb(100%,100%,100%);fill-opacity:1;" d="M 36.03125 38.5625 C 36.03125 39.464844 35.300781 40.195312 34.398438 40.195312 C 33.496094 40.195312 32.765625 39.464844 32.765625 38.5625 C 32.765625 37.660156 33.496094 36.929688 34.398438 36.929688 C 35.300781 36.929688 36.03125 37.660156 36.03125 38.5625 Z M 36.03125 38.5625 "/>
<path style=" stroke:none;fill-rule:nonzero;fill:rgb(90.980392%,93.72549%,93.333333%);fill-opacity:1;" d="M 33.253906 37.417969 C 33.910156 36.765625 34.890625 36.765625 35.542969 37.417969 C 36.195312 38.070312 36.195312 39.050781 35.542969 39.707031 "/>
</g>
</svg>
<!-- iconic normalized -->