<?xml version="1.0" encoding="UTF-8"?>
<svg xmlns="http://www.w3.org/2000/svg" xmlns:xlink="http://www.w3.org/1999/xlink" width="100px" height="100px" viewBox="0 0 100 100" version="1.1">
<g id="surface1">
<path style=" stroke:none;fill-rule:nonzero;fill:rgb(38.039216%,27.843137%,61.960784%);fill-opacity:1;" d="M 47.417969 8.226562 C 45.96875 8.226562 44.515625 9.03125 43.871094 10.324219 L 16.289062 25.96875 C 12.902344 24.839844 9.03125 24.195312 7.257812 24.195312 L 6.613281 24.195312 C 3.066406 24.195312 0 27.097656 0 30.804688 L 0 69.195312 C 0 72.902344 3.066406 75.804688 6.613281 75.804688 L 7.097656 75.804688 C 8.871094 75.804688 12.742188 75.160156 16.128906 74.03125 L 43.710938 89.675781 C 44.355469 90.96875 45.804688 91.773438 47.417969 91.773438 C 49.675781 91.773438 51.613281 90 51.613281 87.742188 L 51.613281 12.257812 C 51.613281 10 49.675781 8.226562 47.417969 8.226562 Z M 47.417969 8.226562 "/>
<path style=" stroke:none;fill-rule:nonzero;fill:rgb(47.843137%,38.039216%,78.823529%);fill-opacity:1;" d="M 43.546875 10.644531 L 16.128906 25.96875 C 12.582031 24.839844 9.03125 24.195312 7.257812 24.195312 L 6.613281 24.195312 C 3.066406 24.195312 0 27.097656 0 30.804688 L 0 51.613281 L 37.417969 51.613281 C 41.128906 51.613281 43.546875 48.066406 43.546875 44.515625 Z M 43.546875 10.644531 "/>
<path style=" stroke:none;fill-rule:nonzero;fill:rgb(97.647059%,52.156863%,10.980392%);fill-opacity:1;" d="M 61.613281 65.324219 C 60.804688 65.324219 60 65 59.355469 64.355469 C 58.226562 63.226562 58.226562 61.128906 59.355469 60 C 65 54.355469 65 45.324219 59.355469 39.839844 C 58.226562 38.710938 58.226562 36.613281 59.355469 35.484375 C 60.484375 34.355469 62.582031 34.355469 63.710938 35.484375 C 71.613281 43.386719 71.613281 56.453125 63.710938 64.355469 C 63.066406 65 62.257812 65.324219 61.613281 65.324219 Z M 61.613281 65.324219 "/>
<path style=" stroke:none;fill-rule:nonzero;fill:rgb(80%,86.666667%,84.313725%);fill-opacity:1;" d="M 71.613281 77.582031 C 70.804688 77.582031 70 77.257812 69.355469 76.613281 C 68.226562 75.484375 68.226562 73.386719 69.355469 72.257812 C 75.324219 66.289062 78.710938 58.386719 78.710938 49.839844 C 78.710938 41.453125 75.484375 33.386719 69.355469 27.417969 C 68.226562 26.289062 68.226562 24.195312 69.355469 23.066406 C 70.484375 21.933594 72.582031 21.933594 73.710938 23.066406 C 80.804688 30.160156 84.839844 39.675781 84.839844 49.839844 C 84.839844 60 80.96875 69.515625 73.710938 76.613281 C 73.066406 77.417969 72.257812 77.582031 71.613281 77.582031 Z M 71.613281 77.582031 "/>
<path style=" stroke:none;fill-rule:nonzero;fill:rgb(80%,86.666667%,84.313725%);fill-opacity:1;" d="M 81.128906 91.128906 C 80.324219 91.128906 79.515625 90.804688 78.871094 90.160156 C 77.742188 89.03125 77.742188 86.933594 78.871094 85.804688 C 88.386719 76.289062 93.710938 63.386719 93.710938 49.839844 C 93.710938 36.289062 88.386719 23.546875 78.871094 13.871094 C 77.742188 12.742188 77.742188 10.644531 78.871094 9.515625 C 80 8.386719 82.097656 8.386719 83.226562 9.515625 C 94.03125 20.484375 100 34.839844 100 50 C 100 65.160156 94.03125 79.515625 83.386719 90.324219 C 82.742188 90.804688 81.933594 91.128906 81.128906 91.128906 Z M 81.128906 91.128906 "/>
<path style=" stroke:none;fill-rule:nonzero;fill:rgb(87.843137%,35.294118%,0%);fill-opacity:1;" d="M 62.257812 64.515625 C 70.160156 56.613281 70.160156 43.546875 62.257812 35.644531 C 61.933594 35.324219 61.289062 35 60.804688 34.839844 C 60.324219 35 59.839844 35.160156 59.355469 35.644531 C 58.226562 36.773438 58.226562 38.871094 59.355469 40 C 65 45.644531 65 54.675781 59.355469 60.160156 C 58.226562 61.289062 58.226562 63.386719 59.355469 64.515625 C 59.839844 65 60.324219 65.160156 60.804688 65.324219 C 61.289062 65.160156 61.773438 64.839844 62.257812 64.515625 Z M 62.257812 64.515625 "/>
<path style=" stroke:none;fill-rule:nonzero;fill:rgb(68.627451%,73.72549%,72.156863%);fill-opacity:1;" d="M 72.257812 76.773438 C 79.355469 69.675781 83.386719 60.160156 83.386719 50 C 83.386719 39.839844 79.515625 30.324219 72.257812 23.226562 C 71.773438 22.742188 71.289062 22.582031 70.804688 22.417969 C 70.324219 22.582031 69.839844 22.742188 69.355469 23.226562 C 68.226562 24.355469 68.226562 26.453125 69.355469 27.582031 C 75.324219 33.546875 78.710938 41.453125 78.710938 50 C 78.710938 58.386719 75.484375 66.453125 69.355469 72.417969 C 68.226562 73.546875 68.226562 75.644531 69.355469 76.773438 C 69.839844 77.257812 70.324219 77.417969 70.804688 77.582031 C 71.289062 77.417969 71.773438 77.097656 72.257812 76.773438 Z M 72.257812 76.773438 "/>
<path style=" stroke:none;fill-rule:nonzero;fill:rgb(68.627451%,73.72549%,72.156863%);fill-opacity:1;" d="M 81.773438 90.324219 C 92.582031 79.515625 98.386719 65.160156 98.386719 50 C 98.386719 34.839844 92.582031 20.484375 81.773438 9.675781 C 81.453125 9.195312 80.804688 9.03125 80.324219 8.871094 C 79.839844 9.03125 79.355469 9.195312 78.871094 9.675781 C 77.742188 10.804688 77.742188 12.902344 78.871094 14.03125 C 88.386719 23.546875 93.710938 36.453125 93.710938 50 C 93.710938 63.546875 88.386719 76.289062 78.871094 85.96875 C 77.742188 87.097656 77.742188 89.195312 78.871094 90.324219 C 79.355469 90.804688 79.839844 90.96875 80.324219 91.128906 C 80.804688 90.96875 81.453125 90.644531 81.773438 90.324219 Z M 81.773438 90.324219 "/>
</g>
</svg>
<!-- iconic normalized -->