<?xml version="1.0" encoding="UTF-8"?>
<svg xmlns="http://www.w3.org/2000/svg" xmlns:xlink="http://www.w3.org/1999/xlink" width="100px" height="100px" viewBox="0 0 100 100" version="1.1">
<g id="surface1">
<path style=" stroke:none;fill-rule:nonzero;fill:rgb(29.411765%,30.980392%,30.588235%);fill-opacity:1;" d="M 100 64.675781 C 100 84.195312 84.195312 100 64.675781 100 L 35.324219 100 C 15.804688 100 0 84.195312 0 64.675781 L 0 35.324219 C 0 15.804688 15.804688 0 35.324219 0 L 64.675781 0 C 84.195312 0 100 15.804688 100 35.324219 Z M 100 64.675781 "/>
<path style=" stroke:none;fill-rule:nonzero;fill:rgb(21.176471%,24.705882%,24.313725%);fill-opacity:1;" d="M 0 35.324219 C 0 15.804688 15.804688 0 35.324219 0 L 64.675781 0 C 84.195312 0 100 15.804688 100 35.324219 L 100 64.675781 C 100 84.195312 84.195312 100 64.675781 100 "/>
<path style=" stroke:none;fill-rule:nonzero;fill:rgb(18.823529%,18.823529%,20%);fill-opacity:1;" d="M 64.675781 0 C 84.195312 0 100 15.804688 100 35.324219 L 100 64.675781 C 100 84.195312 84.195312 100 64.675781 100 "/>
<path style=" stroke:none;fill-rule:nonzero;fill:rgb(18.823529%,18.823529%,20%);fill-opacity:1;" d="M 68.546875 48.710938 L 65.160156 48.710938 C 65 48.710938 65 48.710938 64.839844 48.710938 C 64.515625 47.257812 63.871094 45.96875 63.226562 44.839844 L 63.386719 44.675781 L 65.804688 42.257812 C 67.257812 40.804688 67.257812 38.226562 65.804688 36.773438 C 64.355469 35.324219 61.773438 35.324219 60.324219 36.773438 L 57.742188 39.355469 C 56.613281 38.710938 55.324219 38.066406 53.871094 37.742188 C 53.871094 37.582031 53.871094 37.582031 53.871094 37.417969 L 53.871094 34.03125 C 53.871094 31.933594 52.097656 30.160156 50 30.160156 C 47.902344 30.160156 46.128906 31.933594 46.128906 34.03125 L 46.128906 37.417969 C 46.128906 37.582031 46.128906 37.582031 46.128906 37.742188 C 44.675781 38.066406 43.386719 38.710938 42.257812 39.355469 L 39.675781 36.773438 C 38.226562 35.324219 35.644531 35.324219 34.195312 36.773438 C 32.742188 38.226562 32.742188 40.804688 34.195312 42.257812 L 36.613281 44.675781 L 36.773438 44.839844 C 36.128906 45.96875 35.484375 47.257812 35.160156 48.710938 C 35 48.710938 35 48.710938 34.839844 48.710938 L 31.453125 48.710938 C 29.355469 48.710938 27.582031 50.484375 27.582031 52.582031 C 27.582031 54.675781 29.355469 56.453125 31.453125 56.453125 L 34.839844 56.453125 C 35 56.453125 35 56.453125 35.160156 56.453125 C 35.484375 57.902344 36.128906 59.195312 36.773438 60.324219 L 34.195312 62.902344 C 32.742188 64.355469 32.742188 66.933594 34.195312 68.386719 C 35 69.195312 35.96875 69.515625 36.933594 69.515625 C 37.902344 69.515625 38.871094 69.195312 39.675781 68.386719 L 42.097656 65.96875 L 42.257812 65.804688 C 43.386719 66.453125 44.675781 67.097656 46.128906 67.417969 C 46.128906 67.582031 46.128906 67.582031 46.128906 67.742188 L 46.128906 71.128906 C 46.128906 73.226562 47.902344 75 50 75 C 52.097656 75 53.871094 73.226562 53.871094 71.128906 L 53.871094 67.742188 C 53.871094 67.582031 53.871094 67.582031 53.871094 67.417969 C 55.324219 67.097656 56.613281 66.453125 57.742188 65.804688 L 57.902344 65.96875 L 60.324219 68.386719 C 61.128906 69.195312 62.097656 69.515625 63.066406 69.515625 C 64.03125 69.515625 65 69.195312 65.804688 68.386719 C 67.257812 66.933594 67.257812 64.355469 65.804688 62.902344 L 63.226562 60.324219 C 63.871094 59.195312 64.515625 57.902344 64.839844 56.453125 C 65 56.453125 65 56.453125 65.160156 56.453125 L 68.546875 56.453125 C 70.644531 56.453125 72.417969 54.675781 72.417969 52.582031 C 72.417969 50.484375 70.644531 48.710938 68.546875 48.710938 Z M 50 63.226562 C 44.03125 63.226562 39.355469 58.386719 39.355469 52.582031 C 39.355469 46.613281 44.195312 41.933594 50 41.933594 C 55.804688 41.933594 60.644531 46.773438 60.644531 52.582031 C 60.644531 58.546875 55.804688 63.226562 50 63.226562 Z M 50 63.226562 "/>
<path style=" stroke:none;fill-rule:nonzero;fill:rgb(18.823529%,18.823529%,20%);fill-opacity:1;" d="M 52.742188 52.582031 C 52.742188 54.09375 51.515625 55.324219 50 55.324219 C 48.484375 55.324219 47.257812 54.09375 47.257812 52.582031 C 47.257812 51.066406 48.484375 49.839844 50 49.839844 C 51.515625 49.839844 52.742188 51.066406 52.742188 52.582031 Z M 52.742188 52.582031 "/>
<path style=" stroke:none;fill-rule:nonzero;fill:rgb(100%,100%,100%);fill-opacity:1;" d="M 68.546875 46.128906 L 65.160156 46.128906 C 65 46.128906 65 46.128906 64.839844 46.128906 C 64.515625 44.675781 63.871094 43.386719 63.226562 42.257812 L 63.386719 42.097656 L 65.804688 39.675781 C 67.257812 38.226562 67.257812 35.644531 65.804688 34.195312 C 64.355469 32.742188 61.773438 32.742188 60.324219 34.195312 L 57.902344 36.613281 L 57.742188 36.773438 C 56.613281 36.128906 55.324219 35.484375 53.871094 35.160156 C 53.871094 35 53.871094 35 53.871094 34.839844 L 53.871094 31.453125 C 53.871094 29.355469 52.097656 27.582031 50 27.582031 C 47.902344 27.582031 46.128906 29.355469 46.128906 31.453125 L 46.128906 34.839844 C 46.128906 35 46.128906 35 46.128906 35.160156 C 44.675781 35.484375 43.386719 36.128906 42.257812 36.773438 L 42.097656 36.613281 L 39.675781 34.195312 C 38.226562 32.742188 35.644531 32.742188 34.195312 34.195312 C 32.742188 35.644531 32.742188 38.226562 34.195312 39.675781 L 36.613281 42.097656 L 36.773438 42.257812 C 36.128906 43.386719 35.484375 44.675781 35.160156 46.128906 C 35 46.128906 35 46.128906 34.839844 46.128906 L 31.453125 46.128906 C 29.355469 46.128906 27.582031 47.902344 27.582031 50 C 27.582031 52.097656 29.355469 53.871094 31.453125 53.871094 L 34.839844 53.871094 C 35 53.871094 35 53.871094 35.160156 53.871094 C 35.484375 55.324219 36.128906 56.613281 36.773438 57.742188 L 36.613281 57.902344 L 34.195312 60.324219 C 32.742188 61.773438 32.742188 64.355469 34.195312 65.804688 C 35 66.613281 35.96875 66.933594 36.933594 66.933594 C 37.902344 66.933594 38.871094 66.613281 39.675781 65.804688 L 42.097656 63.386719 L 42.257812 63.226562 C 43.386719 63.871094 44.675781 64.515625 46.128906 64.839844 C 46.128906 65 46.128906 65 46.128906 65.160156 L 46.128906 68.546875 C 46.128906 70.644531 47.902344 72.417969 50 72.417969 C 52.097656 72.417969 53.871094 70.644531 53.871094 68.546875 L 53.871094 65.160156 C 53.871094 65 53.871094 65 53.871094 64.839844 C 55.324219 64.515625 56.613281 63.871094 57.742188 63.226562 L 57.902344 63.386719 L 60.324219 65.804688 C 61.128906 66.613281 62.097656 66.933594 63.066406 66.933594 C 64.03125 66.933594 65 66.613281 65.804688 65.804688 C 67.257812 64.355469 67.257812 61.773438 65.804688 60.324219 L 63.386719 57.902344 L 63.226562 57.742188 C 63.871094 56.613281 64.515625 55.324219 64.839844 53.871094 C 65 53.871094 65 53.871094 65.160156 53.871094 L 68.546875 53.871094 C 70.644531 53.871094 72.417969 52.097656 72.417969 50 C 72.417969 47.902344 70.644531 46.128906 68.546875 46.128906 Z M 50 60.644531 C 44.03125 60.644531 39.355469 55.804688 39.355469 50 C 39.355469 44.195312 44.195312 39.355469 50 39.355469 C 55.804688 39.355469 60.644531 44.195312 60.644531 50 C 60.644531 55.804688 55.804688 60.644531 50 60.644531 Z M 50 60.644531 "/>
<path style=" stroke:none;fill-rule:nonzero;fill:rgb(100%,100%,100%);fill-opacity:1;" d="M 52.742188 50 C 52.742188 51.515625 51.515625 52.742188 50 52.742188 C 48.484375 52.742188 47.257812 51.515625 47.257812 50 C 47.257812 48.484375 48.484375 47.257812 50 47.257812 C 51.515625 47.257812 52.742188 48.484375 52.742188 50 Z M 52.742188 50 "/>
</g>
</svg>
<!-- iconic normalized -->