<?xml version="1.0" encoding="UTF-8"?>
<svg xmlns="http://www.w3.org/2000/svg" xmlns:xlink="http://www.w3.org/1999/xlink" width="100px" height="100px" viewBox="0 0 100 100" version="1.1">
<g id="surface1">
<path style=" stroke:none;fill-rule:nonzero;fill:rgb(83.529412%,85.882353%,85.490196%);fill-opacity:1;" d="M 96.617188 77.535156 C 96.617188 80.113281 94.523438 82.207031 91.949219 82.207031 L 6.28125 82.207031 C 3.703125 82.207031 1.609375 80.113281 1.609375 77.535156 L 1.609375 20.851562 C 1.609375 18.277344 3.703125 16.183594 6.28125 16.183594 L 92.109375 16.183594 C 94.6875 16.183594 96.78125 18.277344 96.78125 20.851562 L 96.78125 77.535156 Z M 96.617188 77.535156 "/>
<path style=" stroke:none;fill-rule:nonzero;fill:rgb(77.647059%,80%,79.607843%);fill-opacity:1;" d="M 2.414062 21.015625 C 2.414062 18.4375 4.507812 16.183594 7.085938 16.183594 L 92.914062 16.183594 C 95.492188 16.183594 96.78125 18.761719 96.78125 21.335938 L 96.78125 78.664062 C 96.78125 81.238281 95.167969 83.171875 92.59375 83.171875 "/>
<path style=" stroke:none;fill-rule:nonzero;fill:rgb(72.156863%,74.901961%,74.509804%);fill-opacity:1;" d="M 92.753906 19.402344 C 94.042969 19.402344 95.007812 20.046875 95.007812 21.335938 L 95.007812 78.664062 C 95.007812 79.953125 94.042969 80.597656 92.753906 80.597656 L 7.085938 80.597656 C 5.796875 80.597656 4.832031 79.953125 4.832031 78.664062 L 4.832031 21.335938 C 4.832031 20.046875 5.796875 19.402344 7.085938 19.402344 L 93.398438 19.402344 M 92.753906 14.574219 L 7.085938 14.574219 C 3.21875 14.574219 0 17.472656 0 21.335938 L 0 78.664062 C 0 82.527344 3.21875 85.425781 7.085938 85.425781 L 92.914062 85.425781 C 96.78125 85.425781 100 82.527344 100 78.664062 L 100 21.335938 C 99.839844 17.472656 96.617188 14.574219 92.753906 14.574219 Z M 92.753906 14.574219 "/>
<path style=" stroke:none;fill-rule:nonzero;fill:rgb(77.647059%,80%,79.607843%);fill-opacity:1;" d="M 92.753906 14.574219 L 53.140625 14.574219 L 53.140625 85.425781 L 92.753906 85.425781 C 96.617188 85.425781 99.839844 82.527344 99.839844 78.664062 L 99.839844 21.335938 C 99.839844 17.472656 96.617188 14.574219 92.753906 14.574219 Z M 92.753906 14.574219 "/>
<path style=" stroke:none;fill-rule:nonzero;fill:rgb(72.156863%,74.901961%,74.509804%);fill-opacity:1;" d="M 92.753906 16.183594 L 53.140625 16.183594 L 53.140625 57.246094 L 92.269531 83.171875 C 94.847656 83.171875 96.617188 81.078125 96.617188 78.503906 L 96.617188 21.335938 C 96.617188 18.761719 95.332031 16.183594 92.753906 16.183594 Z M 92.753906 16.183594 "/>
<path style=" stroke:none;fill-rule:nonzero;fill:rgb(83.529412%,85.882353%,85.490196%);fill-opacity:1;" d="M 75.523438 72.542969 L 65.863281 62.882812 C 64.574219 61.59375 64.574219 59.660156 65.863281 58.375 C 67.148438 57.085938 69.082031 57.085938 70.371094 58.375 L 75.523438 63.527344 L 80.675781 58.375 C 81.964844 57.085938 83.898438 57.085938 85.183594 58.375 C 86.472656 59.660156 86.472656 61.59375 85.183594 62.882812 Z M 75.523438 72.542969 "/>
<path style=" stroke:none;fill-rule:nonzero;fill:rgb(83.529412%,85.882353%,85.490196%);fill-opacity:1;" d="M 75.523438 27.457031 L 85.183594 37.117188 C 86.472656 38.40625 86.472656 40.339844 85.183594 41.625 C 83.898438 42.914062 81.964844 42.914062 80.675781 41.625 L 75.523438 36.472656 L 70.371094 41.625 C 69.082031 42.914062 67.148438 42.914062 65.863281 41.625 C 64.574219 40.339844 64.574219 38.40625 65.863281 37.117188 Z M 75.523438 27.457031 "/>
<path style=" stroke:none;fill-rule:nonzero;fill:rgb(62.352941%,66.666667%,66.27451%);fill-opacity:1;" d="M 33.976562 46.457031 C 32.207031 45.492188 29.953125 44.847656 27.695312 44.847656 L 28.179688 41.789062 L 36.070312 41.789062 C 36.875 41.789062 36.875 41.144531 36.875 40.175781 L 36.875 37.441406 C 36.875 36.632812 36.875 35.347656 36.070312 35.347656 L 24.476562 35.347656 C 23.671875 35.347656 23.027344 36.152344 22.867188 36.957031 L 21.257812 48.871094 C 21.257812 49.355469 21.417969 49.839844 21.738281 50.160156 C 22.0625 50.484375 22.707031 50.644531 23.1875 50.644531 C 23.992188 50.484375 24.960938 50.484375 26.246094 50.484375 C 29.789062 50.484375 31.722656 51.769531 31.722656 54.347656 C 31.722656 56.925781 29.46875 58.050781 27.535156 58.050781 C 25.605469 58.050781 23.832031 57.40625 23.1875 56.925781 C 22.707031 56.601562 22.222656 56.601562 21.898438 56.761719 C 21.578125 56.925781 21.09375 57.246094 20.933594 57.730469 L 20.128906 60.304688 C 19.96875 60.949219 20.128906 61.753906 20.773438 62.078125 C 22.0625 62.882812 24.636719 63.847656 27.695312 63.847656 C 33.816406 63.847656 38.324219 59.660156 38.324219 54.027344 C 38.164062 50.804688 36.714844 48.066406 33.976562 46.457031 Z M 33.976562 46.457031 "/>
</g>
</svg>
<!-- iconic normalized -->