<?xml version="1.0" encoding="UTF-8"?>
<svg xmlns="http://www.w3.org/2000/svg" xmlns:xlink="http://www.w3.org/1999/xlink" width="100px" height="100px" viewBox="0 0 100 100" version="1.1">
<g id="surface1">
<path style=" stroke:none;fill-rule:nonzero;fill:rgb(38.039216%,27.843137%,61.960784%);fill-opacity:1;" d="M 56.394531 1.261719 C 54.59375 1.261719 52.972656 2.34375 52.253906 3.785156 L 20 21.800781 C 15.855469 20.539062 11.351562 19.460938 9.371094 19.460938 L 8.648438 19.460938 C 4.324219 19.460938 0 23.421875 0 27.746094 L 0 72.433594 C 0 76.757812 4.324219 80.722656 8.648438 80.722656 L 9.371094 80.722656 C 11.351562 80.722656 15.855469 79.640625 20 78.378906 L 52.070312 96.394531 C 52.792969 97.835938 54.59375 98.738281 56.394531 98.738281 C 58.917969 98.738281 61.261719 96.578125 61.261719 94.054688 L 61.261719 5.765625 C 61.261719 3.421875 58.917969 1.261719 56.394531 1.261719 Z M 56.394531 1.261719 "/>
<path style=" stroke:none;fill-rule:nonzero;fill:rgb(47.843137%,38.039216%,78.823529%);fill-opacity:1;" d="M 52.253906 3.785156 C 52.253906 3.964844 52.253906 3.785156 52.253906 3.785156 L 19.820312 21.800781 C 15.675781 20.539062 11.351562 19.460938 9.1875 19.460938 L 8.648438 19.460938 C 4.324219 19.460938 0 23.421875 0 27.746094 L 0 51.890625 L 44.683594 51.890625 C 49.007812 51.890625 52.253906 47.929688 52.253906 43.605469 Z M 52.253906 3.785156 "/>
<path style=" stroke:none;fill-rule:nonzero;fill:rgb(50.980392%,80%,0%);fill-opacity:1;" d="M 80.539062 63.0625 C 79.820312 62.34375 79.277344 61.441406 79.277344 60.539062 L 79.277344 34.59375 C 79.277344 32.613281 80.902344 30.992188 82.882812 30.992188 C 84.863281 30.992188 86.488281 32.613281 86.488281 34.59375 L 86.488281 60.539062 C 86.488281 62.523438 85.046875 64.144531 83.0625 64.144531 C 81.980469 64.144531 81.261719 63.605469 80.539062 63.0625 Z M 80.539062 63.0625 "/>
<path style=" stroke:none;fill-rule:nonzero;fill:rgb(50.980392%,80%,0%);fill-opacity:1;" d="M 67.929688 50.449219 C 67.207031 49.730469 66.847656 49.007812 66.847656 48.109375 C 66.847656 46.125 68.46875 44.683594 70.449219 44.683594 L 96.394531 44.683594 C 98.378906 44.683594 100 46.304688 100 48.289062 C 100 50.269531 98.378906 51.890625 96.394531 51.890625 L 70.449219 51.890625 C 69.550781 51.890625 68.648438 51.171875 67.929688 50.449219 Z M 67.929688 50.449219 "/>
<path style=" stroke:none;fill-rule:nonzero;fill:rgb(39.215686%,72.941176%,0%);fill-opacity:1;" d="M 79.277344 60.539062 C 79.277344 61.621094 80 62.523438 80.539062 63.0625 C 81.261719 63.785156 81.980469 64.144531 82.882812 64.144531 C 84.863281 64.144531 86.304688 62.523438 86.304688 60.539062 L 86.304688 48.289062 L 79.097656 48.289062 L 79.097656 60.539062 Z M 79.277344 60.539062 "/>
<path style=" stroke:none;fill-rule:nonzero;fill:rgb(39.215686%,72.941176%,0%);fill-opacity:1;" d="M 100 48.289062 L 67.027344 48.289062 C 67.027344 48.828125 67.566406 49.910156 68.109375 50.449219 C 68.828125 51.171875 69.730469 51.890625 70.628906 51.890625 L 96.578125 51.890625 C 98.199219 51.890625 100 50.449219 100 48.289062 Z M 100 48.289062 "/>
</g>
</svg>
<!-- iconic normalized -->