<?xml version="1.0" encoding="UTF-8"?>
<svg xmlns="http://www.w3.org/2000/svg" xmlns:xlink="http://www.w3.org/1999/xlink" width="100px" height="100px" viewBox="0 0 100 100" version="1.1">
<g id="surface1">
<path style=" stroke:none;fill-rule:nonzero;fill:rgb(90.588235%,92.54902%,92.941176%);fill-opacity:1;" d="M 34.945312 1.613281 L 65.054688 1.613281 L 65.054688 23.117188 L 34.945312 23.117188 Z M 34.945312 1.613281 "/>
<path style=" stroke:none;fill-rule:nonzero;fill:rgb(32.941176%,41.568627%,47.45098%);fill-opacity:1;" d="M 29.570312 42.472656 L 70.429688 42.472656 L 70.429688 76.882812 L 29.570312 76.882812 Z M 29.570312 42.472656 "/>
<path style=" stroke:none;fill-rule:nonzero;fill:rgb(68.627451%,71.372549%,73.333333%);fill-opacity:1;" d="M 70.429688 23.117188 L 70.429688 42.472656 L 29.570312 42.472656 L 29.570312 23.117188 Z M 70.429688 23.117188 "/>
<path style=" stroke:none;fill-rule:nonzero;fill:rgb(68.627451%,71.372549%,73.333333%);fill-opacity:1;" d="M 29.570312 76.882812 L 70.429688 76.882812 L 70.429688 98.386719 L 29.570312 98.386719 Z M 29.570312 76.882812 "/>
<path style=" stroke:none;fill-rule:nonzero;fill:rgb(13.72549%,12.156863%,12.54902%);fill-opacity:1;" d="M 66.667969 21.503906 L 66.667969 0 L 33.332031 0 L 33.332031 21.503906 L 27.957031 21.503906 L 27.957031 100 L 72.042969 100 L 72.042969 21.503906 Z M 36.558594 3.226562 L 48.386719 3.226562 L 48.386719 14.515625 L 51.613281 14.515625 L 51.613281 3.226562 L 63.441406 3.226562 L 63.441406 21.503906 L 36.558594 21.503906 Z M 68.816406 24.730469 L 68.816406 40.859375 L 31.183594 40.859375 L 31.183594 24.730469 Z M 68.816406 44.085938 L 68.816406 75.269531 L 31.183594 75.269531 L 31.183594 44.085938 Z M 31.183594 96.773438 L 31.183594 78.496094 L 68.816406 78.496094 L 68.816406 96.773438 Z M 31.183594 96.773438 "/>
<path style=" stroke:none;fill-rule:nonzero;fill:rgb(13.72549%,12.156863%,12.54902%);fill-opacity:1;" d="M 55.269531 6.613281 L 59.570312 6.613281 L 59.570312 9.839844 L 55.269531 9.839844 Z M 55.269531 6.613281 "/>
<path style=" stroke:none;fill-rule:nonzero;fill:rgb(13.72549%,12.156863%,12.54902%);fill-opacity:1;" d="M 40.214844 6.613281 L 44.515625 6.613281 L 44.515625 9.839844 L 40.214844 9.839844 Z M 40.214844 6.613281 "/>
<path style=" stroke:none;fill-rule:nonzero;fill:rgb(13.72549%,12.156863%,12.54902%);fill-opacity:1;" d="M 48.816406 60.375 L 63.871094 60.375 L 63.871094 63.601562 L 48.816406 63.601562 Z M 48.816406 60.375 "/>
<path style=" stroke:none;fill-rule:nonzero;fill:rgb(13.72549%,12.156863%,12.54902%);fill-opacity:1;" d="M 59.570312 66.828125 L 63.871094 66.828125 L 63.871094 70.054688 L 59.570312 70.054688 Z M 59.570312 66.828125 "/>
<path style=" stroke:none;fill-rule:nonzero;fill:rgb(13.72549%,12.156863%,12.54902%);fill-opacity:1;" d="M 53.117188 66.828125 L 57.417969 66.828125 L 57.417969 70.054688 L 53.117188 70.054688 Z M 53.117188 66.828125 "/>
</g>
</svg>
<!-- iconic normalized -->