<?xml version="1.0" encoding="UTF-8"?>
<svg xmlns="http://www.w3.org/2000/svg" xmlns:xlink="http://www.w3.org/1999/xlink" width="100px" height="100px" viewBox="0 0 100 100" version="1.1">
<g id="surface1">
<path style=" stroke:none;fill-rule:nonzero;fill:rgb(68.627451%,71.372549%,73.333333%);fill-opacity:1;" d="M 33.503906 11.855469 L 66.496094 11.855469 L 66.496094 22.164062 L 33.503906 22.164062 Z M 33.503906 11.855469 "/>
<path style=" stroke:none;fill-rule:nonzero;fill:rgb(90.588235%,92.54902%,92.941176%);fill-opacity:1;" d="M 50 79.898438 C 63.09375 79.898438 73.710938 69.277344 73.710938 56.1875 C 73.710938 43.09375 63.09375 32.472656 50 32.472656 C 36.90625 32.472656 26.289062 43.09375 26.289062 56.1875 C 26.289062 69.277344 36.90625 79.898438 50 79.898438 Z M 92.269531 31.957031 C 92.269531 29.980469 90.640625 28.351562 88.660156 28.351562 L 77.320312 28.351562 C 75.339844 28.351562 73.710938 29.980469 73.710938 31.957031 C 73.710938 33.9375 75.339844 35.566406 77.320312 35.566406 L 88.660156 35.566406 C 90.640625 35.566406 92.269531 33.9375 92.269531 31.957031 Z M 96.390625 22.164062 C 97.527344 22.164062 98.453125 23.09375 98.453125 24.226562 L 98.453125 86.082031 C 98.453125 87.214844 97.527344 88.144531 96.390625 88.144531 L 3.609375 88.144531 C 2.472656 88.144531 1.546875 87.214844 1.546875 86.082031 L 1.546875 24.226562 C 1.546875 23.09375 2.472656 22.164062 3.609375 22.164062 Z M 96.390625 22.164062 "/>
<path style=" stroke:none;fill-rule:nonzero;fill:rgb(68.627451%,71.372549%,73.333333%);fill-opacity:1;" d="M 88.660156 28.351562 C 90.640625 28.351562 92.269531 29.980469 92.269531 31.957031 C 92.269531 33.9375 90.640625 35.566406 88.660156 35.566406 L 77.320312 35.566406 C 75.339844 35.566406 73.710938 33.9375 73.710938 31.957031 C 73.710938 29.980469 75.339844 28.351562 77.320312 28.351562 Z M 88.660156 28.351562 "/>
<path style=" stroke:none;fill-rule:nonzero;fill:rgb(19.215686%,75.294118%,84.705882%);fill-opacity:1;" d="M 50 71.648438 C 41.464844 71.648438 34.535156 64.722656 34.535156 56.1875 C 34.535156 47.648438 41.464844 40.722656 50 40.722656 C 58.535156 40.722656 65.464844 47.648438 65.464844 56.1875 C 65.464844 64.722656 58.535156 71.648438 50 71.648438 Z M 50 71.648438 "/>
<path style=" stroke:none;fill-rule:nonzero;fill:rgb(68.627451%,71.372549%,73.333333%);fill-opacity:1;" d="M 50 71.648438 C 58.535156 71.648438 65.464844 64.722656 65.464844 56.1875 C 65.464844 47.648438 58.535156 40.722656 50 40.722656 C 41.464844 40.722656 34.535156 47.648438 34.535156 56.1875 C 34.535156 64.722656 41.464844 71.648438 50 71.648438 Z M 50 32.472656 C 63.09375 32.472656 73.710938 43.09375 73.710938 56.1875 C 73.710938 69.277344 63.09375 79.898438 50 79.898438 C 36.90625 79.898438 26.289062 69.277344 26.289062 56.1875 C 26.289062 43.09375 36.90625 32.472656 50 32.472656 Z M 50 32.472656 "/>
<path style=" stroke:none;fill-rule:nonzero;fill:rgb(13.72549%,12.156863%,12.54902%);fill-opacity:1;" d="M 96.390625 20.617188 L 88.144531 20.617188 L 88.144531 17.527344 L 75.773438 17.527344 L 75.773438 20.617188 L 68.042969 20.617188 L 68.042969 10.308594 L 31.957031 10.308594 L 31.957031 20.617188 L 3.609375 20.617188 C 1.617188 20.617188 0 22.238281 0 24.226562 L 0 86.082031 C 0 88.070312 1.617188 89.691406 3.609375 89.691406 L 96.390625 89.691406 C 98.382812 89.691406 100 88.070312 100 86.082031 L 100 24.226562 C 100 22.238281 98.382812 20.617188 96.390625 20.617188 Z M 35.050781 13.402344 L 64.949219 13.402344 L 64.949219 20.617188 L 35.050781 20.617188 Z M 96.90625 86.082031 C 96.90625 86.363281 96.671875 86.597656 96.390625 86.597656 L 3.609375 86.597656 C 3.328125 86.597656 3.09375 86.363281 3.09375 86.082031 L 3.09375 24.226562 C 3.09375 23.949219 3.328125 23.710938 3.609375 23.710938 L 96.390625 23.710938 C 96.671875 23.710938 96.90625 23.949219 96.90625 24.226562 Z M 96.90625 86.082031 "/>
<path style=" stroke:none;fill-rule:nonzero;fill:rgb(13.72549%,12.156863%,12.54902%);fill-opacity:1;" d="M 50 39.175781 C 40.621094 39.175781 32.988281 46.804688 32.988281 56.1875 C 32.988281 65.566406 40.621094 73.195312 50 73.195312 C 59.378906 73.195312 67.011719 65.566406 67.011719 56.1875 C 67.011719 46.804688 59.378906 39.175781 50 39.175781 Z M 50 70.101562 C 42.324219 70.101562 36.082031 63.859375 36.082031 56.1875 C 36.082031 48.511719 42.324219 42.269531 50 42.269531 C 57.675781 42.269531 63.917969 48.511719 63.917969 56.1875 C 63.917969 63.859375 57.675781 70.101562 50 70.101562 Z M 50 70.101562 "/>
<path style=" stroke:none;fill-rule:nonzero;fill:rgb(13.72549%,12.156863%,12.54902%);fill-opacity:1;" d="M 50 30.929688 C 36.074219 30.929688 24.742188 42.257812 24.742188 56.1875 C 24.742188 70.113281 36.074219 81.441406 50 81.441406 C 63.925781 81.441406 75.257812 70.113281 75.257812 56.1875 C 75.257812 42.257812 63.925781 30.929688 50 30.929688 Z M 50 78.351562 C 37.777344 78.351562 27.835938 68.40625 27.835938 56.1875 C 27.835938 43.964844 37.777344 34.019531 50 34.019531 C 62.222656 34.019531 72.164062 43.964844 72.164062 56.1875 C 72.164062 68.40625 62.222656 78.351562 50 78.351562 Z M 50 78.351562 "/>
<path style=" stroke:none;fill-rule:nonzero;fill:rgb(13.72549%,12.156863%,12.54902%);fill-opacity:1;" d="M 40.207031 56.1875 L 43.300781 56.1875 C 43.300781 52.492188 46.304688 49.484375 50 49.484375 L 50 46.390625 C 44.601562 46.390625 40.207031 50.785156 40.207031 56.1875 Z M 40.207031 56.1875 "/>
<path style=" stroke:none;fill-rule:nonzero;fill:rgb(13.72549%,12.156863%,12.54902%);fill-opacity:1;" d="M 88.660156 26.804688 L 77.320312 26.804688 C 74.476562 26.804688 72.164062 29.117188 72.164062 31.957031 C 72.164062 34.800781 74.476562 37.113281 77.320312 37.113281 L 88.660156 37.113281 C 91.503906 37.113281 93.8125 34.800781 93.8125 31.957031 C 93.8125 29.117188 91.503906 26.804688 88.660156 26.804688 Z M 88.660156 34.019531 L 77.320312 34.019531 C 76.203125 34.019531 75.257812 33.078125 75.257812 31.957031 C 75.257812 30.839844 76.203125 29.898438 77.320312 29.898438 L 88.660156 29.898438 C 89.777344 29.898438 90.722656 30.839844 90.722656 31.957031 C 90.722656 33.078125 89.777344 34.019531 88.660156 34.019531 Z M 88.660156 34.019531 "/>
<path style=" stroke:none;fill-rule:nonzero;fill:rgb(13.72549%,12.156863%,12.54902%);fill-opacity:1;" d="M 7.730469 29.898438 L 20.101562 29.898438 L 20.101562 32.988281 L 7.730469 32.988281 Z M 7.730469 29.898438 "/>
<path style=" stroke:none;fill-rule:nonzero;fill:rgb(13.72549%,12.156863%,12.54902%);fill-opacity:1;" d="M 7.730469 36.082031 L 13.917969 36.082031 L 13.917969 39.175781 L 7.730469 39.175781 Z M 7.730469 36.082031 "/>
</g>
</svg>
<!-- iconic normalized -->