<?xml version="1.0" encoding="UTF-8"?>
<svg xmlns="http://www.w3.org/2000/svg" xmlns:xlink="http://www.w3.org/1999/xlink" width="100px" height="100px" viewBox="0 0 100 100" version="1.1">
<g id="surface1">
<path style=" stroke:none;fill-rule:nonzero;fill:rgb(68.627451%,71.372549%,73.333333%);fill-opacity:1;" d="M 1.550781 40.722656 L 50 40.722656 L 50 86.082031 L 1.550781 86.082031 Z M 1.550781 40.722656 "/>
<path style=" stroke:none;fill-rule:nonzero;fill:rgb(68.627451%,71.372549%,73.333333%);fill-opacity:1;" d="M 50 40.722656 L 98.449219 40.722656 L 98.449219 86.082031 L 50 86.082031 Z M 50 40.722656 "/>
<path style=" stroke:none;fill-rule:nonzero;fill:rgb(90.588235%,92.54902%,92.941176%);fill-opacity:1;" d="M 98.449219 22.167969 L 98.449219 40.722656 L 1.550781 40.722656 L 1.550781 22.167969 C 1.550781 19.898438 3.40625 18.042969 5.671875 18.042969 L 94.328125 18.042969 C 96.59375 18.042969 98.449219 19.898438 98.449219 22.167969 Z M 32.476562 33.507812 C 34.742188 33.507812 36.597656 31.648438 36.597656 29.382812 C 36.597656 27.113281 34.742188 25.257812 32.476562 25.257812 C 30.207031 25.257812 28.351562 27.113281 28.351562 29.382812 C 28.351562 31.652344 30.207031 33.507812 32.476562 33.507812 Z M 15.980469 33.507812 C 18.25 33.507812 20.105469 31.648438 20.105469 29.382812 C 20.105469 27.113281 18.25 25.257812 15.980469 25.257812 C 13.714844 25.257812 11.859375 27.113281 11.859375 29.382812 C 11.859375 31.652344 13.714844 33.507812 15.980469 33.507812 Z M 15.980469 33.507812 "/>
<path style=" stroke:none;fill-rule:nonzero;fill:rgb(90.588235%,92.54902%,92.941176%);fill-opacity:1;" d="M 76.800781 86.082031 L 89.171875 86.082031 L 89.171875 94.328125 L 76.800781 94.328125 Z M 76.800781 86.082031 "/>
<path style=" stroke:none;fill-rule:nonzero;fill:rgb(68.627451%,71.372549%,73.333333%);fill-opacity:1;" d="M 32.476562 33.507812 C 30.207031 33.507812 28.351562 31.648438 28.351562 29.382812 C 28.351562 27.113281 30.207031 25.257812 32.476562 25.257812 C 34.742188 25.257812 36.597656 27.113281 36.597656 29.382812 C 36.597656 31.652344 34.742188 33.507812 32.476562 33.507812 Z M 32.476562 33.507812 "/>
<path style=" stroke:none;fill-rule:nonzero;fill:rgb(90.588235%,92.54902%,92.941176%);fill-opacity:1;" d="M 10.828125 86.082031 L 23.195312 86.082031 L 23.195312 94.328125 L 10.828125 94.328125 Z M 10.828125 86.082031 "/>
<path style=" stroke:none;fill-rule:nonzero;fill:rgb(68.627451%,71.372549%,73.333333%);fill-opacity:1;" d="M 15.980469 25.257812 C 18.25 25.257812 20.105469 27.113281 20.105469 29.382812 C 20.105469 31.652344 18.25 33.507812 15.980469 33.507812 C 13.714844 33.507812 11.859375 31.652344 11.859375 29.382812 C 11.859375 27.113281 13.714844 25.257812 15.980469 25.257812 Z M 15.980469 25.257812 "/>
<path style=" stroke:none;fill-rule:nonzero;fill:rgb(13.72549%,12.156863%,12.54902%);fill-opacity:1;" d="M 100 22.167969 C 100 19.039062 97.457031 16.492188 94.328125 16.492188 L 87.628906 16.492188 L 87.628906 7.734375 C 87.628906 5.742188 86.007812 4.125 84.019531 4.125 L 15.980469 4.125 C 13.988281 4.125 12.371094 5.742188 12.371094 7.734375 L 12.371094 16.492188 L 5.671875 16.492188 C 2.542969 16.492188 0 19.039062 0 22.167969 L 0 87.628906 L 9.277344 87.628906 L 9.277344 95.875 L 24.746094 95.875 L 24.746094 87.628906 L 75.253906 87.628906 L 75.253906 95.875 L 90.722656 95.875 L 90.722656 87.628906 L 100 87.628906 Z M 15.46875 7.734375 C 15.46875 7.457031 15.703125 7.222656 15.980469 7.222656 L 84.019531 7.222656 C 84.296875 7.222656 84.53125 7.457031 84.53125 7.734375 L 84.53125 16.492188 L 15.46875 16.492188 Z M 5.671875 19.59375 L 94.328125 19.59375 C 95.746094 19.59375 96.902344 20.746094 96.902344 22.167969 L 96.902344 39.171875 L 3.097656 39.171875 L 3.097656 22.167969 C 3.097656 20.746094 4.253906 19.59375 5.671875 19.59375 Z M 3.097656 42.269531 L 48.449219 42.269531 L 48.449219 84.53125 L 3.097656 84.53125 Z M 21.648438 92.777344 L 12.375 92.777344 L 12.375 87.628906 L 21.648438 87.628906 Z M 87.625 92.777344 L 78.351562 92.777344 L 78.351562 87.628906 L 87.625 87.628906 Z M 51.550781 84.53125 L 51.550781 42.269531 L 96.902344 42.269531 L 96.902344 84.53125 Z M 51.550781 84.53125 "/>
<path style=" stroke:none;fill-rule:nonzero;fill:rgb(13.72549%,12.156863%,12.54902%);fill-opacity:1;" d="M 15.980469 35.054688 C 19.109375 35.054688 21.652344 32.511719 21.652344 29.382812 C 21.652344 26.253906 19.109375 23.710938 15.980469 23.710938 C 12.851562 23.710938 10.308594 26.253906 10.308594 29.382812 C 10.308594 32.511719 12.851562 35.054688 15.980469 35.054688 Z M 15.980469 26.808594 C 17.402344 26.808594 18.554688 27.964844 18.554688 29.382812 C 18.554688 30.800781 17.402344 31.957031 15.980469 31.957031 C 14.5625 31.957031 13.40625 30.800781 13.40625 29.382812 C 13.40625 27.964844 14.5625 26.808594 15.980469 26.808594 Z M 15.980469 26.808594 "/>
<path style=" stroke:none;fill-rule:nonzero;fill:rgb(13.72549%,12.156863%,12.54902%);fill-opacity:1;" d="M 32.476562 35.054688 C 35.601562 35.054688 38.148438 32.511719 38.148438 29.382812 C 38.148438 26.253906 35.601562 23.710938 32.476562 23.710938 C 29.347656 23.710938 26.804688 26.253906 26.804688 29.382812 C 26.804688 32.511719 29.347656 35.054688 32.476562 35.054688 Z M 32.476562 26.808594 C 33.894531 26.808594 35.050781 27.964844 35.050781 29.382812 C 35.050781 30.800781 33.894531 31.957031 32.476562 31.957031 C 31.054688 31.957031 29.902344 30.800781 29.902344 29.382812 C 29.902344 27.964844 31.054688 26.808594 32.476562 26.808594 Z M 32.476562 26.808594 "/>
<path style=" stroke:none;fill-rule:nonzero;fill:rgb(13.72549%,12.156863%,12.54902%);fill-opacity:1;" d="M 71.648438 23.710938 L 90.203125 23.710938 L 90.203125 26.808594 L 71.648438 26.808594 Z M 71.648438 23.710938 "/>
<path style=" stroke:none;fill-rule:nonzero;fill:rgb(13.72549%,12.156863%,12.54902%);fill-opacity:1;" d="M 71.648438 31.957031 L 90.203125 31.957031 L 90.203125 35.054688 L 71.648438 35.054688 Z M 71.648438 31.957031 "/>
<path style=" stroke:none;fill-rule:nonzero;fill:rgb(13.72549%,12.156863%,12.54902%);fill-opacity:1;" d="M 63.402344 31.957031 L 67.523438 31.957031 L 67.523438 35.054688 L 63.402344 35.054688 Z M 63.402344 31.957031 "/>
<path style=" stroke:none;fill-rule:nonzero;fill:rgb(13.72549%,12.156863%,12.54902%);fill-opacity:1;" d="M 55.152344 31.957031 L 59.277344 31.957031 L 59.277344 35.054688 L 55.152344 35.054688 Z M 55.152344 31.957031 "/>
<path style=" stroke:none;fill-rule:nonzero;fill:rgb(13.72549%,12.156863%,12.54902%);fill-opacity:1;" d="M 55.152344 23.710938 L 59.277344 23.710938 L 59.277344 26.808594 L 55.152344 26.808594 Z M 55.152344 23.710938 "/>
<path style=" stroke:none;fill-rule:nonzero;fill:rgb(13.72549%,12.156863%,12.54902%);fill-opacity:1;" d="M 63.402344 23.710938 L 67.523438 23.710938 L 67.523438 26.808594 L 63.402344 26.808594 Z M 63.402344 23.710938 "/>
<path style=" stroke:none;fill-rule:nonzero;fill:rgb(13.72549%,12.156863%,12.54902%);fill-opacity:1;" d="M 7.734375 46.390625 L 11.859375 46.390625 L 11.859375 49.488281 L 7.734375 49.488281 Z M 7.734375 46.390625 "/>
<path style=" stroke:none;fill-rule:nonzero;fill:rgb(13.72549%,12.156863%,12.54902%);fill-opacity:1;" d="M 13.917969 46.390625 L 18.042969 46.390625 L 18.042969 49.488281 L 13.917969 49.488281 Z M 13.917969 46.390625 "/>
<path style=" stroke:none;fill-rule:nonzero;fill:rgb(13.72549%,12.156863%,12.54902%);fill-opacity:1;" d="M 20.105469 46.390625 L 24.226562 46.390625 L 24.226562 49.488281 L 20.105469 49.488281 Z M 20.105469 46.390625 "/>
<path style=" stroke:none;fill-rule:nonzero;fill:rgb(13.72549%,12.156863%,12.54902%);fill-opacity:1;" d="M 26.289062 46.390625 L 30.414062 46.390625 L 30.414062 49.488281 L 26.289062 49.488281 Z M 26.289062 46.390625 "/>
<path style=" stroke:none;fill-rule:nonzero;fill:rgb(13.72549%,12.156863%,12.54902%);fill-opacity:1;" d="M 32.476562 46.390625 L 36.597656 46.390625 L 36.597656 49.488281 L 32.476562 49.488281 Z M 32.476562 46.390625 "/>
<path style=" stroke:none;fill-rule:nonzero;fill:rgb(13.72549%,12.156863%,12.54902%);fill-opacity:1;" d="M 38.660156 46.390625 L 42.785156 46.390625 L 42.785156 49.488281 L 38.660156 49.488281 Z M 38.660156 46.390625 "/>
<path style=" stroke:none;fill-rule:nonzero;fill:rgb(13.72549%,12.156863%,12.54902%);fill-opacity:1;" d="M 7.734375 52.574219 L 11.859375 52.574219 L 11.859375 55.671875 L 7.734375 55.671875 Z M 7.734375 52.574219 "/>
<path style=" stroke:none;fill-rule:nonzero;fill:rgb(13.72549%,12.156863%,12.54902%);fill-opacity:1;" d="M 13.917969 52.574219 L 18.042969 52.574219 L 18.042969 55.671875 L 13.917969 55.671875 Z M 13.917969 52.574219 "/>
<path style=" stroke:none;fill-rule:nonzero;fill:rgb(13.72549%,12.156863%,12.54902%);fill-opacity:1;" d="M 20.105469 52.574219 L 24.226562 52.574219 L 24.226562 55.671875 L 20.105469 55.671875 Z M 20.105469 52.574219 "/>
<path style=" stroke:none;fill-rule:nonzero;fill:rgb(13.72549%,12.156863%,12.54902%);fill-opacity:1;" d="M 26.289062 52.574219 L 30.414062 52.574219 L 30.414062 55.671875 L 26.289062 55.671875 Z M 26.289062 52.574219 "/>
<path style=" stroke:none;fill-rule:nonzero;fill:rgb(13.72549%,12.156863%,12.54902%);fill-opacity:1;" d="M 32.476562 52.574219 L 36.597656 52.574219 L 36.597656 55.671875 L 32.476562 55.671875 Z M 32.476562 52.574219 "/>
<path style=" stroke:none;fill-rule:nonzero;fill:rgb(13.72549%,12.156863%,12.54902%);fill-opacity:1;" d="M 38.660156 52.574219 L 42.785156 52.574219 L 42.785156 55.671875 L 38.660156 55.671875 Z M 38.660156 52.574219 "/>
<path style=" stroke:none;fill-rule:nonzero;fill:rgb(13.72549%,12.156863%,12.54902%);fill-opacity:1;" d="M 7.734375 58.757812 L 11.859375 58.757812 L 11.859375 61.859375 L 7.734375 61.859375 Z M 7.734375 58.757812 "/>
<path style=" stroke:none;fill-rule:nonzero;fill:rgb(13.72549%,12.156863%,12.54902%);fill-opacity:1;" d="M 13.917969 58.757812 L 18.042969 58.757812 L 18.042969 61.859375 L 13.917969 61.859375 Z M 13.917969 58.757812 "/>
<path style=" stroke:none;fill-rule:nonzero;fill:rgb(13.72549%,12.156863%,12.54902%);fill-opacity:1;" d="M 20.105469 58.757812 L 24.226562 58.757812 L 24.226562 61.859375 L 20.105469 61.859375 Z M 20.105469 58.757812 "/>
<path style=" stroke:none;fill-rule:nonzero;fill:rgb(13.72549%,12.156863%,12.54902%);fill-opacity:1;" d="M 26.289062 58.757812 L 30.414062 58.757812 L 30.414062 61.859375 L 26.289062 61.859375 Z M 26.289062 58.757812 "/>
<path style=" stroke:none;fill-rule:nonzero;fill:rgb(13.72549%,12.156863%,12.54902%);fill-opacity:1;" d="M 32.476562 58.757812 L 36.597656 58.757812 L 36.597656 61.859375 L 32.476562 61.859375 Z M 32.476562 58.757812 "/>
<path style=" stroke:none;fill-rule:nonzero;fill:rgb(13.72549%,12.156863%,12.54902%);fill-opacity:1;" d="M 38.660156 58.757812 L 42.785156 58.757812 L 42.785156 61.859375 L 38.660156 61.859375 Z M 38.660156 58.757812 "/>
<path style=" stroke:none;fill-rule:nonzero;fill:rgb(13.72549%,12.156863%,12.54902%);fill-opacity:1;" d="M 7.734375 64.945312 L 11.859375 64.945312 L 11.859375 68.042969 L 7.734375 68.042969 Z M 7.734375 64.945312 "/>
<path style=" stroke:none;fill-rule:nonzero;fill:rgb(13.72549%,12.156863%,12.54902%);fill-opacity:1;" d="M 13.917969 64.945312 L 18.042969 64.945312 L 18.042969 68.042969 L 13.917969 68.042969 Z M 13.917969 64.945312 "/>
<path style=" stroke:none;fill-rule:nonzero;fill:rgb(13.72549%,12.156863%,12.54902%);fill-opacity:1;" d="M 20.105469 64.945312 L 24.226562 64.945312 L 24.226562 68.042969 L 20.105469 68.042969 Z M 20.105469 64.945312 "/>
<path style=" stroke:none;fill-rule:nonzero;fill:rgb(13.72549%,12.156863%,12.54902%);fill-opacity:1;" d="M 26.289062 64.945312 L 30.414062 64.945312 L 30.414062 68.042969 L 26.289062 68.042969 Z M 26.289062 64.945312 "/>
<path style=" stroke:none;fill-rule:nonzero;fill:rgb(13.72549%,12.156863%,12.54902%);fill-opacity:1;" d="M 32.476562 64.945312 L 36.597656 64.945312 L 36.597656 68.042969 L 32.476562 68.042969 Z M 32.476562 64.945312 "/>
<path style=" stroke:none;fill-rule:nonzero;fill:rgb(13.72549%,12.156863%,12.54902%);fill-opacity:1;" d="M 38.660156 64.945312 L 42.785156 64.945312 L 42.785156 68.042969 L 38.660156 68.042969 Z M 38.660156 64.945312 "/>
<path style=" stroke:none;fill-rule:nonzero;fill:rgb(13.72549%,12.156863%,12.54902%);fill-opacity:1;" d="M 7.734375 71.128906 L 11.859375 71.128906 L 11.859375 74.226562 L 7.734375 74.226562 Z M 7.734375 71.128906 "/>
<path style=" stroke:none;fill-rule:nonzero;fill:rgb(13.72549%,12.156863%,12.54902%);fill-opacity:1;" d="M 13.917969 71.128906 L 18.042969 71.128906 L 18.042969 74.226562 L 13.917969 74.226562 Z M 13.917969 71.128906 "/>
<path style=" stroke:none;fill-rule:nonzero;fill:rgb(13.72549%,12.156863%,12.54902%);fill-opacity:1;" d="M 20.105469 71.128906 L 24.226562 71.128906 L 24.226562 74.226562 L 20.105469 74.226562 Z M 20.105469 71.128906 "/>
<path style=" stroke:none;fill-rule:nonzero;fill:rgb(13.72549%,12.156863%,12.54902%);fill-opacity:1;" d="M 26.289062 71.128906 L 30.414062 71.128906 L 30.414062 74.226562 L 26.289062 74.226562 Z M 26.289062 71.128906 "/>
<path style=" stroke:none;fill-rule:nonzero;fill:rgb(13.72549%,12.156863%,12.54902%);fill-opacity:1;" d="M 32.476562 71.128906 L 36.597656 71.128906 L 36.597656 74.226562 L 32.476562 74.226562 Z M 32.476562 71.128906 "/>
<path style=" stroke:none;fill-rule:nonzero;fill:rgb(13.72549%,12.156863%,12.54902%);fill-opacity:1;" d="M 38.660156 71.128906 L 42.785156 71.128906 L 42.785156 74.226562 L 38.660156 74.226562 Z M 38.660156 71.128906 "/>
<path style=" stroke:none;fill-rule:nonzero;fill:rgb(13.72549%,12.156863%,12.54902%);fill-opacity:1;" d="M 7.734375 77.316406 L 11.859375 77.316406 L 11.859375 80.414062 L 7.734375 80.414062 Z M 7.734375 77.316406 "/>
<path style=" stroke:none;fill-rule:nonzero;fill:rgb(13.72549%,12.156863%,12.54902%);fill-opacity:1;" d="M 13.917969 77.316406 L 18.042969 77.316406 L 18.042969 80.414062 L 13.917969 80.414062 Z M 13.917969 77.316406 "/>
<path style=" stroke:none;fill-rule:nonzero;fill:rgb(13.72549%,12.156863%,12.54902%);fill-opacity:1;" d="M 20.105469 77.316406 L 24.226562 77.316406 L 24.226562 80.414062 L 20.105469 80.414062 Z M 20.105469 77.316406 "/>
<path style=" stroke:none;fill-rule:nonzero;fill:rgb(13.72549%,12.156863%,12.54902%);fill-opacity:1;" d="M 26.289062 77.316406 L 30.414062 77.316406 L 30.414062 80.414062 L 26.289062 80.414062 Z M 26.289062 77.316406 "/>
<path style=" stroke:none;fill-rule:nonzero;fill:rgb(13.72549%,12.156863%,12.54902%);fill-opacity:1;" d="M 32.476562 77.316406 L 36.597656 77.316406 L 36.597656 80.414062 L 32.476562 80.414062 Z M 32.476562 77.316406 "/>
<path style=" stroke:none;fill-rule:nonzero;fill:rgb(13.72549%,12.156863%,12.54902%);fill-opacity:1;" d="M 38.660156 77.316406 L 42.785156 77.316406 L 42.785156 80.414062 L 38.660156 80.414062 Z M 38.660156 77.316406 "/>
<path style=" stroke:none;fill-rule:nonzero;fill:rgb(13.72549%,12.156863%,12.54902%);fill-opacity:1;" d="M 57.214844 46.390625 L 61.339844 46.390625 L 61.339844 49.488281 L 57.214844 49.488281 Z M 57.214844 46.390625 "/>
<path style=" stroke:none;fill-rule:nonzero;fill:rgb(13.72549%,12.156863%,12.54902%);fill-opacity:1;" d="M 63.402344 46.390625 L 67.523438 46.390625 L 67.523438 49.488281 L 63.402344 49.488281 Z M 63.402344 46.390625 "/>
<path style=" stroke:none;fill-rule:nonzero;fill:rgb(13.72549%,12.156863%,12.54902%);fill-opacity:1;" d="M 69.585938 46.390625 L 73.710938 46.390625 L 73.710938 49.488281 L 69.585938 49.488281 Z M 69.585938 46.390625 "/>
<path style=" stroke:none;fill-rule:nonzero;fill:rgb(13.72549%,12.156863%,12.54902%);fill-opacity:1;" d="M 75.773438 46.390625 L 79.894531 46.390625 L 79.894531 49.488281 L 75.773438 49.488281 Z M 75.773438 46.390625 "/>
<path style=" stroke:none;fill-rule:nonzero;fill:rgb(13.72549%,12.156863%,12.54902%);fill-opacity:1;" d="M 81.957031 46.390625 L 86.082031 46.390625 L 86.082031 49.488281 L 81.957031 49.488281 Z M 81.957031 46.390625 "/>
<path style=" stroke:none;fill-rule:nonzero;fill:rgb(13.72549%,12.156863%,12.54902%);fill-opacity:1;" d="M 88.140625 46.390625 L 92.265625 46.390625 L 92.265625 49.488281 L 88.140625 49.488281 Z M 88.140625 46.390625 "/>
<path style=" stroke:none;fill-rule:nonzero;fill:rgb(13.72549%,12.156863%,12.54902%);fill-opacity:1;" d="M 57.214844 52.574219 L 61.339844 52.574219 L 61.339844 55.671875 L 57.214844 55.671875 Z M 57.214844 52.574219 "/>
<path style=" stroke:none;fill-rule:nonzero;fill:rgb(13.72549%,12.156863%,12.54902%);fill-opacity:1;" d="M 63.402344 52.574219 L 67.523438 52.574219 L 67.523438 55.671875 L 63.402344 55.671875 Z M 63.402344 52.574219 "/>
<path style=" stroke:none;fill-rule:nonzero;fill:rgb(13.72549%,12.156863%,12.54902%);fill-opacity:1;" d="M 69.585938 52.574219 L 73.710938 52.574219 L 73.710938 55.671875 L 69.585938 55.671875 Z M 69.585938 52.574219 "/>
<path style=" stroke:none;fill-rule:nonzero;fill:rgb(13.72549%,12.156863%,12.54902%);fill-opacity:1;" d="M 75.773438 52.574219 L 79.894531 52.574219 L 79.894531 55.671875 L 75.773438 55.671875 Z M 75.773438 52.574219 "/>
<path style=" stroke:none;fill-rule:nonzero;fill:rgb(13.72549%,12.156863%,12.54902%);fill-opacity:1;" d="M 81.957031 52.574219 L 86.082031 52.574219 L 86.082031 55.671875 L 81.957031 55.671875 Z M 81.957031 52.574219 "/>
<path style=" stroke:none;fill-rule:nonzero;fill:rgb(13.72549%,12.156863%,12.54902%);fill-opacity:1;" d="M 88.140625 52.574219 L 92.265625 52.574219 L 92.265625 55.671875 L 88.140625 55.671875 Z M 88.140625 52.574219 "/>
<path style=" stroke:none;fill-rule:nonzero;fill:rgb(13.72549%,12.156863%,12.54902%);fill-opacity:1;" d="M 57.214844 58.757812 L 61.339844 58.757812 L 61.339844 61.859375 L 57.214844 61.859375 Z M 57.214844 58.757812 "/>
<path style=" stroke:none;fill-rule:nonzero;fill:rgb(13.72549%,12.156863%,12.54902%);fill-opacity:1;" d="M 63.402344 58.757812 L 67.523438 58.757812 L 67.523438 61.859375 L 63.402344 61.859375 Z M 63.402344 58.757812 "/>
<path style=" stroke:none;fill-rule:nonzero;fill:rgb(13.72549%,12.156863%,12.54902%);fill-opacity:1;" d="M 69.585938 58.757812 L 73.710938 58.757812 L 73.710938 61.859375 L 69.585938 61.859375 Z M 69.585938 58.757812 "/>
<path style=" stroke:none;fill-rule:nonzero;fill:rgb(13.72549%,12.156863%,12.54902%);fill-opacity:1;" d="M 75.773438 58.757812 L 79.894531 58.757812 L 79.894531 61.859375 L 75.773438 61.859375 Z M 75.773438 58.757812 "/>
<path style=" stroke:none;fill-rule:nonzero;fill:rgb(13.72549%,12.156863%,12.54902%);fill-opacity:1;" d="M 81.957031 58.757812 L 86.082031 58.757812 L 86.082031 61.859375 L 81.957031 61.859375 Z M 81.957031 58.757812 "/>
<path style=" stroke:none;fill-rule:nonzero;fill:rgb(13.72549%,12.156863%,12.54902%);fill-opacity:1;" d="M 88.140625 58.757812 L 92.265625 58.757812 L 92.265625 61.859375 L 88.140625 61.859375 Z M 88.140625 58.757812 "/>
<path style=" stroke:none;fill-rule:nonzero;fill:rgb(13.72549%,12.156863%,12.54902%);fill-opacity:1;" d="M 57.214844 64.945312 L 61.339844 64.945312 L 61.339844 68.042969 L 57.214844 68.042969 Z M 57.214844 64.945312 "/>
<path style=" stroke:none;fill-rule:nonzero;fill:rgb(13.72549%,12.156863%,12.54902%);fill-opacity:1;" d="M 63.402344 64.945312 L 67.523438 64.945312 L 67.523438 68.042969 L 63.402344 68.042969 Z M 63.402344 64.945312 "/>
<path style=" stroke:none;fill-rule:nonzero;fill:rgb(13.72549%,12.156863%,12.54902%);fill-opacity:1;" d="M 69.585938 64.945312 L 73.710938 64.945312 L 73.710938 68.042969 L 69.585938 68.042969 Z M 69.585938 64.945312 "/>
<path style=" stroke:none;fill-rule:nonzero;fill:rgb(13.72549%,12.156863%,12.54902%);fill-opacity:1;" d="M 75.773438 64.945312 L 79.894531 64.945312 L 79.894531 68.042969 L 75.773438 68.042969 Z M 75.773438 64.945312 "/>
<path style=" stroke:none;fill-rule:nonzero;fill:rgb(13.72549%,12.156863%,12.54902%);fill-opacity:1;" d="M 81.957031 64.945312 L 86.082031 64.945312 L 86.082031 68.042969 L 81.957031 68.042969 Z M 81.957031 64.945312 "/>
<path style=" stroke:none;fill-rule:nonzero;fill:rgb(13.72549%,12.156863%,12.54902%);fill-opacity:1;" d="M 88.140625 64.945312 L 92.265625 64.945312 L 92.265625 68.042969 L 88.140625 68.042969 Z M 88.140625 64.945312 "/>
<path style=" stroke:none;fill-rule:nonzero;fill:rgb(13.72549%,12.156863%,12.54902%);fill-opacity:1;" d="M 57.214844 71.128906 L 61.339844 71.128906 L 61.339844 74.226562 L 57.214844 74.226562 Z M 57.214844 71.128906 "/>
<path style=" stroke:none;fill-rule:nonzero;fill:rgb(13.72549%,12.156863%,12.54902%);fill-opacity:1;" d="M 63.402344 71.128906 L 67.523438 71.128906 L 67.523438 74.226562 L 63.402344 74.226562 Z M 63.402344 71.128906 "/>
<path style=" stroke:none;fill-rule:nonzero;fill:rgb(13.72549%,12.156863%,12.54902%);fill-opacity:1;" d="M 69.585938 71.128906 L 73.710938 71.128906 L 73.710938 74.226562 L 69.585938 74.226562 Z M 69.585938 71.128906 "/>
<path style=" stroke:none;fill-rule:nonzero;fill:rgb(13.72549%,12.156863%,12.54902%);fill-opacity:1;" d="M 75.773438 71.128906 L 79.894531 71.128906 L 79.894531 74.226562 L 75.773438 74.226562 Z M 75.773438 71.128906 "/>
<path style=" stroke:none;fill-rule:nonzero;fill:rgb(13.72549%,12.156863%,12.54902%);fill-opacity:1;" d="M 81.957031 71.128906 L 86.082031 71.128906 L 86.082031 74.226562 L 81.957031 74.226562 Z M 81.957031 71.128906 "/>
<path style=" stroke:none;fill-rule:nonzero;fill:rgb(13.72549%,12.156863%,12.54902%);fill-opacity:1;" d="M 88.140625 71.128906 L 92.265625 71.128906 L 92.265625 74.226562 L 88.140625 74.226562 Z M 88.140625 71.128906 "/>
<path style=" stroke:none;fill-rule:nonzero;fill:rgb(13.72549%,12.156863%,12.54902%);fill-opacity:1;" d="M 57.214844 77.316406 L 61.339844 77.316406 L 61.339844 80.414062 L 57.214844 80.414062 Z M 57.214844 77.316406 "/>
<path style=" stroke:none;fill-rule:nonzero;fill:rgb(13.72549%,12.156863%,12.54902%);fill-opacity:1;" d="M 63.402344 77.316406 L 67.523438 77.316406 L 67.523438 80.414062 L 63.402344 80.414062 Z M 63.402344 77.316406 "/>
<path style=" stroke:none;fill-rule:nonzero;fill:rgb(13.72549%,12.156863%,12.54902%);fill-opacity:1;" d="M 69.585938 77.316406 L 73.710938 77.316406 L 73.710938 80.414062 L 69.585938 80.414062 Z M 69.585938 77.316406 "/>
<path style=" stroke:none;fill-rule:nonzero;fill:rgb(13.72549%,12.156863%,12.54902%);fill-opacity:1;" d="M 75.773438 77.316406 L 79.894531 77.316406 L 79.894531 80.414062 L 75.773438 80.414062 Z M 75.773438 77.316406 "/>
<path style=" stroke:none;fill-rule:nonzero;fill:rgb(13.72549%,12.156863%,12.54902%);fill-opacity:1;" d="M 81.957031 77.316406 L 86.082031 77.316406 L 86.082031 80.414062 L 81.957031 80.414062 Z M 81.957031 77.316406 "/>
<path style=" stroke:none;fill-rule:nonzero;fill:rgb(13.72549%,12.156863%,12.54902%);fill-opacity:1;" d="M 88.140625 77.316406 L 92.265625 77.316406 L 92.265625 80.414062 L 88.140625 80.414062 Z M 88.140625 77.316406 "/>
</g>
</svg>
<!-- iconic normalized -->