<?xml version="1.0" encoding="UTF-8"?>
<svg xmlns="http://www.w3.org/2000/svg" xmlns:xlink="http://www.w3.org/1999/xlink" width="100px" height="100px" viewBox="0 0 100 100" version="1.1">
<g id="surface1">
<path style=" stroke:none;fill-rule:nonzero;fill:rgb(89.411765%,12.156863%,6.666667%);fill-opacity:1;" d="M 50 0 C 77.617188 0 100 22.386719 100 50 C 100 77.617188 77.617188 100 50 100 C 22.382812 100 0 77.617188 0 50 C 0 22.386719 22.382812 0 50 0 Z M 50 0 "/>
<path style=" stroke:none;fill-rule:nonzero;fill:rgb(100%,100%,100%);fill-opacity:1;" d="M 40.492188 40.425781 L 50.203125 40.425781 L 50.203125 56.148438 C 50.203125 56.148438 66.085938 60.75 68.117188 46.546875 C 68.441406 30.789062 50.171875 30.871094 50.171875 30.871094 C 50.171875 30.871094 38.722656 30.132812 33.039062 39.40625 C 28.738281 46.792969 34.257812 53.441406 34.257812 53.441406 L 26.871094 60.085938 C 26.871094 60.085938 15.75 46.21875 26.628906 31.195312 C 40.757812 15.027344 64.664062 24.746094 64.664062 24.746094 C 64.664062 24.746094 83.136719 32.351562 76.804688 52.539062 C 68.035156 70.925781 50.289062 64.117188 50.289062 64.117188 L 50.289062 73.304688 C 50.289062 73.304688 50.421875 78.394531 44.410156 80.609375 C 38.402344 82.824219 34.34375 78.507812 34.34375 78.507812 L 34.34375 68.785156 C 37.316406 71.753906 39.039062 73.8125 40.496094 69.695312 L 40.496094 40.425781 C 40.496094 40.425781 40.492188 40.425781 40.492188 40.425781 Z M 40.492188 40.425781 "/>
</g>
</svg>
<!-- iconic normalized -->