<?xml version="1.0" encoding="UTF-8"?>
<svg xmlns="http://www.w3.org/2000/svg" xmlns:xlink="http://www.w3.org/1999/xlink" width="100px" height="100px" viewBox="0 0 100 100" version="1.1">
<g id="surface1">
<path style=" stroke:none;fill-rule:nonzero;fill:rgb(78.431373%,13.72549%,17.254902%);fill-opacity:1;" d="M 50 0 C 77.617188 0 100 22.386719 100 50 C 100 77.617188 77.617188 100 50 100 C 22.382812 100 0 77.617188 0 50 C 0 22.386719 22.382812 0 50 0 Z M 50 0 "/>
<path style=" stroke:none;fill-rule:nonzero;fill:rgb(100%,100%,100%);fill-opacity:1;" d="M 51.511719 21.894531 C 33.894531 21.894531 25.015625 34.125 25.015625 44.320312 C 25.015625 50.496094 27.429688 55.992188 32.609375 58.039062 C 33.457031 58.371094 34.222656 58.050781 34.464844 57.140625 L 35.222656 54.257812 C 35.472656 53.359375 35.375 53.039062 34.691406 52.257812 C 33.195312 50.554688 32.242188 48.34375 32.242188 45.214844 C 32.242188 36.144531 39.253906 28.023438 50.496094 28.023438 C 60.457031 28.023438 65.925781 33.914062 65.925781 41.777344 C 65.925781 52.128906 61.195312 60.867188 54.167969 60.867188 C 50.292969 60.867188 47.386719 57.761719 48.320312 53.945312 C 49.433594 49.402344 51.59375 44.492188 51.59375 41.210938 C 51.59375 38.273438 49.964844 35.820312 46.589844 35.820312 C 42.625 35.820312 39.441406 39.789062 39.441406 45.113281 C 39.441406 48.503906 40.625 50.792969 40.625 50.792969 L 35.855469 70.359375 C 34.4375 76.164062 35.644531 83.28125 35.746094 84 C 35.808594 84.425781 36.371094 84.523438 36.625 84.207031 C 36.992188 83.742188 41.714844 78.097656 43.320312 72.453125 C 43.773438 70.855469 45.929688 62.582031 45.929688 62.582031 C 47.214844 64.96875 50.980469 67.0625 54.984375 67.0625 C 66.902344 67.0625 74.988281 56.539062 74.988281 42.457031 C 74.984375 31.8125 65.671875 21.894531 51.511719 21.894531 Z M 51.511719 21.894531 "/>
</g>
</svg>
<!-- iconic normalized -->