<?xml version="1.0" encoding="UTF-8"?>
<svg xmlns="http://www.w3.org/2000/svg" xmlns:xlink="http://www.w3.org/1999/xlink" width="100px" height="100px" viewBox="0 0 100 100" version="1.1">
<g id="surface1">
<path style=" stroke:none;fill-rule:nonzero;fill:rgb(45.098039%,79.215686%,32.54902%);fill-opacity:1;" d="M 100 50 C 100 77.613281 77.613281 100 50 100 C 22.386719 100 0 77.613281 0 50 C 0 22.386719 22.386719 0 50 0 C 77.613281 0 100 22.386719 100 50 Z M 100 50 "/>
<path style=" stroke:none;fill-rule:nonzero;fill:rgb(36.078431%,65.882353%,23.137255%);fill-opacity:1;" d="M 67.625 39.019531 C 67.25 39.046875 66.875 39.015625 66.5 38.890625 C 57.40625 34.175781 44.949219 32.492188 38.214844 40.574219 C 31.210938 48.851562 32.335938 60.144531 33.902344 70.460938 L 61.992188 98.546875 C 77.902344 94.632812 90.816406 83.101562 96.644531 68.039062 Z M 67.625 39.019531 "/>
<path style=" stroke:none;fill-rule:nonzero;fill:rgb(100%,100%,100%);fill-opacity:1;" d="M 73.144531 48.296875 C 71.484375 42.636719 67.414062 37.820312 62.328125 34.902344 C 56.515625 31.558594 49.222656 31.21875 42.976562 33.53125 C 39.820312 34.792969 36.964844 36.769531 34.621094 39.230469 C 34.582031 34.164062 34.617188 29.097656 34.597656 24.03125 C 34.605469 23.042969 34.003906 22.0625 33.074219 21.695312 C 32.003906 21.265625 30.753906 21.273438 29.691406 21.726562 C 28.796875 22.113281 28.238281 23.066406 28.222656 24.027344 C 28.175781 29.175781 28.296875 34.324219 28.265625 39.472656 C 28.234375 45.046875 28.335938 50.617188 28.308594 56.195312 C 28.4375 59.339844 29.144531 62.476562 30.457031 65.339844 C 32.78125 70.296875 36.921875 74.386719 41.917969 76.621094 C 46.125 78.414062 50.863281 79.140625 55.375 78.21875 C 60.902344 77.253906 65.96875 74.125 69.378906 69.679688 C 72.59375 65.550781 74.183594 60.300781 74.242188 55.097656 C 74.167969 52.800781 73.808594 50.503906 73.144531 48.296875 Z M 67.683594 57.835938 C 67.160156 61.507812 65.367188 64.984375 62.675781 67.542969 C 60.320312 69.902344 57.199219 71.464844 53.90625 71.976562 C 50.109375 72.605469 46.089844 71.84375 42.792969 69.851562 C 41.054688 68.785156 39.523438 67.390625 38.230469 65.8125 C 33.664062 60.191406 33.390625 51.507812 37.621094 45.628906 C 38.984375 43.824219 40.589844 42.160156 42.53125 40.972656 C 44.582031 39.679688 46.9375 38.902344 49.34375 38.621094 C 53.359375 38.152344 57.570312 39.15625 60.851562 41.542969 C 63.308594 43.386719 65.347656 45.839844 66.558594 48.675781 C 67.734375 51.550781 68.203125 54.757812 67.683594 57.835938 Z M 67.683594 57.835938 "/>
<path style=" stroke:none;fill-rule:nonzero;fill:rgb(100%,100%,100%);fill-opacity:1;" d="M 41.90625 50.320312 C 40.320312 50.355469 38.640625 51.066406 37.820312 52.484375 C 37.285156 53.441406 36.957031 54.566406 37.136719 55.664062 C 37.355469 56.867188 37.871094 58.085938 38.867188 58.851562 C 40.214844 59.882812 42.125 60.210938 43.6875 59.472656 C 45.261719 58.859375 46.203125 57.261719 46.429688 55.644531 C 46.601562 54.433594 46.234375 53.171875 45.542969 52.179688 C 44.734375 51.003906 43.300781 50.386719 41.90625 50.320312 Z M 41.90625 50.320312 "/>
<path style=" stroke:none;fill-rule:nonzero;fill:rgb(81.960784%,81.960784%,81.960784%);fill-opacity:1;" d="M 73.144531 48.296875 C 71.484375 42.636719 67.414062 37.820312 62.328125 34.902344 C 58.636719 32.777344 54.351562 31.871094 50.113281 32.078125 L 50.113281 38.550781 C 53.890625 38.289062 57.78125 39.308594 60.851562 41.546875 C 63.308594 43.386719 65.351562 45.839844 66.558594 48.675781 C 67.734375 51.550781 68.203125 54.757812 67.683594 57.835938 C 67.160156 61.507812 65.367188 64.984375 62.675781 67.542969 C 60.320312 69.902344 57.199219 71.464844 53.90625 71.976562 C 52.65625 72.183594 51.378906 72.238281 50.113281 72.148438 L 50.113281 78.582031 C 51.871094 78.683594 53.640625 78.574219 55.375 78.21875 C 60.898438 77.253906 65.96875 74.125 69.378906 69.679688 C 72.59375 65.554688 74.183594 60.300781 74.242188 55.101562 C 74.167969 52.800781 73.808594 50.503906 73.144531 48.296875 Z M 73.144531 48.296875 "/>
</g>
</svg>
<!-- iconic normalized -->