<?xml version="1.0" encoding="UTF-8"?>
<svg xmlns="http://www.w3.org/2000/svg" xmlns:xlink="http://www.w3.org/1999/xlink" width="100px" height="100px" viewBox="0 0 100 100" version="1.1">
<g id="surface1">
<path style=" stroke:none;fill-rule:nonzero;fill:rgb(42.745098%,29.803922%,25.490196%);fill-opacity:1;" d="M 50 12.5 L 87.5 12.5 L 87.5 37.5 L 50 37.5 Z M 50 12.5 "/>
<path style=" stroke:none;fill-rule:nonzero;fill:rgb(95.686275%,31.764706%,11.764706%);fill-opacity:1;" d="M 68.75 14.582031 L 50 35.417969 L 50 87.5 L 87.5 87.5 L 87.5 35.417969 Z M 68.75 14.582031 "/>
<path style=" stroke:none;fill-rule:nonzero;fill:rgb(74.901961%,21.176471%,4.705882%);fill-opacity:1;" d="M 75 29.167969 C 75 32.617188 72.203125 35.417969 68.75 35.417969 C 65.296875 35.417969 62.5 32.617188 62.5 29.167969 C 62.5 25.714844 65.296875 22.917969 68.75 22.917969 C 72.203125 22.917969 75 25.714844 75 29.167969 Z M 75 29.167969 "/>
<path style=" stroke:none;fill-rule:nonzero;fill:rgb(30.588235%,20.392157%,18.039216%);fill-opacity:1;" d="M 12.5 12.5 L 50 12.5 L 50 37.5 L 12.5 37.5 Z M 12.5 12.5 "/>
<path style=" stroke:none;fill-rule:nonzero;fill:rgb(74.901961%,21.176471%,4.705882%);fill-opacity:1;" d="M 31.25 14.582031 L 12.5 35.417969 L 12.5 87.5 L 50 87.5 L 50 35.417969 Z M 31.25 14.582031 "/>
<path style=" stroke:none;fill-rule:nonzero;fill:rgb(42.745098%,29.803922%,25.490196%);fill-opacity:1;" d="M 37.5 29.167969 C 37.5 32.617188 34.703125 35.417969 31.25 35.417969 C 27.796875 35.417969 25 32.617188 25 29.167969 C 25 25.714844 27.796875 22.917969 31.25 22.917969 C 34.703125 22.917969 37.5 25.714844 37.5 29.167969 Z M 37.5 29.167969 "/>
<path style=" stroke:none;fill-rule:nonzero;fill:rgb(100%,75.686275%,2.745098%);fill-opacity:1;" d="M 72.917969 72.917969 L 81.25 72.917969 L 81.25 81.25 L 72.917969 81.25 Z M 72.917969 72.917969 "/>
<path style=" stroke:none;fill-rule:nonzero;fill:rgb(100%,75.686275%,2.745098%);fill-opacity:1;" d="M 72.917969 39.582031 L 81.25 39.582031 L 81.25 47.917969 L 72.917969 47.917969 Z M 72.917969 39.582031 "/>
<path style=" stroke:none;fill-rule:nonzero;fill:rgb(100%,75.686275%,2.745098%);fill-opacity:1;" d="M 72.917969 56.25 L 81.25 56.25 L 81.25 64.582031 L 72.917969 64.582031 Z M 72.917969 56.25 "/>
<path style=" stroke:none;fill-rule:nonzero;fill:rgb(100%,75.686275%,2.745098%);fill-opacity:1;" d="M 56.25 39.582031 L 64.582031 39.582031 L 64.582031 47.917969 L 56.25 47.917969 Z M 56.25 39.582031 "/>
<path style=" stroke:none;fill-rule:nonzero;fill:rgb(100%,75.686275%,2.745098%);fill-opacity:1;" d="M 56.25 56.25 L 64.582031 56.25 L 64.582031 64.582031 L 56.25 64.582031 Z M 56.25 56.25 "/>
<path style=" stroke:none;fill-rule:nonzero;fill:rgb(100%,75.686275%,2.745098%);fill-opacity:1;" d="M 56.25 72.917969 L 64.582031 72.917969 L 64.582031 81.25 L 56.25 81.25 Z M 56.25 72.917969 "/>
<path style=" stroke:none;fill-rule:nonzero;fill:rgb(100%,75.686275%,2.745098%);fill-opacity:1;" d="M 72.917969 29.167969 C 72.917969 31.46875 71.050781 33.332031 68.75 33.332031 C 66.449219 33.332031 64.582031 31.46875 64.582031 29.167969 C 64.582031 26.867188 66.449219 25 68.75 25 C 71.050781 25 72.917969 26.867188 72.917969 29.167969 Z M 72.917969 29.167969 "/>
<path style=" stroke:none;fill-rule:nonzero;fill:rgb(100%,75.686275%,2.745098%);fill-opacity:1;" d="M 35.417969 72.917969 L 43.75 72.917969 L 43.75 81.25 L 35.417969 81.25 Z M 35.417969 72.917969 "/>
<path style=" stroke:none;fill-rule:nonzero;fill:rgb(100%,75.686275%,2.745098%);fill-opacity:1;" d="M 35.417969 39.582031 L 43.75 39.582031 L 43.75 47.917969 L 35.417969 47.917969 Z M 35.417969 39.582031 "/>
<path style=" stroke:none;fill-rule:nonzero;fill:rgb(100%,75.686275%,2.745098%);fill-opacity:1;" d="M 35.417969 56.25 L 43.75 56.25 L 43.75 64.582031 L 35.417969 64.582031 Z M 35.417969 56.25 "/>
<path style=" stroke:none;fill-rule:nonzero;fill:rgb(100%,75.686275%,2.745098%);fill-opacity:1;" d="M 18.75 39.582031 L 27.082031 39.582031 L 27.082031 47.917969 L 18.75 47.917969 Z M 18.75 39.582031 "/>
<path style=" stroke:none;fill-rule:nonzero;fill:rgb(100%,75.686275%,2.745098%);fill-opacity:1;" d="M 18.75 56.25 L 27.082031 56.25 L 27.082031 64.582031 L 18.75 64.582031 Z M 18.75 56.25 "/>
<path style=" stroke:none;fill-rule:nonzero;fill:rgb(100%,75.686275%,2.745098%);fill-opacity:1;" d="M 18.75 72.917969 L 27.082031 72.917969 L 27.082031 81.25 L 18.75 81.25 Z M 18.75 72.917969 "/>
<path style=" stroke:none;fill-rule:nonzero;fill:rgb(100%,75.686275%,2.745098%);fill-opacity:1;" d="M 35.417969 29.167969 C 35.417969 31.46875 33.550781 33.332031 31.25 33.332031 C 28.949219 33.332031 27.082031 31.46875 27.082031 29.167969 C 27.082031 26.867188 28.949219 25 31.25 25 C 33.550781 25 35.417969 26.867188 35.417969 29.167969 Z M 35.417969 29.167969 "/>
</g>
</svg>
<!-- iconic normalized -->