<?xml version="1.0" encoding="UTF-8"?>
<svg xmlns="http://www.w3.org/2000/svg" xmlns:xlink="http://www.w3.org/1999/xlink" width="100px" height="100px" viewBox="0 0 100 100" version="1.1">
<g id="surface1">
<path style=" stroke:none;fill-rule:nonzero;fill:rgb(95.686275%,26.27451%,21.176471%);fill-opacity:1;" d="M 50 16.667969 L 27.082031 29.050781 L 27.082031 33.332031 L 4.167969 41.667969 L 4.167969 83.332031 L 95.832031 83.332031 L 95.832031 41.667969 L 72.917969 33.332031 L 72.917969 29.050781 Z M 50 16.667969 "/>
<path style=" stroke:none;fill-rule:nonzero;fill:rgb(100%,54.117647%,50.196078%);fill-opacity:1;" d="M 12.5 52.082031 L 33.332031 52.082031 L 33.332031 83.332031 L 12.5 83.332031 Z M 12.5 52.082031 "/>
<path style=" stroke:none;fill-rule:nonzero;fill:rgb(100%,54.117647%,50.196078%);fill-opacity:1;" d="M 66.667969 52.082031 L 87.5 52.082031 L 87.5 83.332031 L 66.667969 83.332031 Z M 66.667969 52.082031 "/>
<path style=" stroke:none;fill-rule:nonzero;fill:rgb(30.588235%,20.392157%,18.039216%);fill-opacity:1;" d="M 33.332031 52.082031 L 66.667969 52.082031 L 66.667969 83.332031 L 33.332031 83.332031 Z M 33.332031 52.082031 "/>
<path style=" stroke:none;fill-rule:nonzero;fill:rgb(100%,100%,100%);fill-opacity:1;" d="M 33.332031 52.082031 L 28.785156 52.082031 L 22.917969 63.238281 L 17.046875 52.082031 L 12.5 52.082031 L 12.5 52.386719 L 20.5625 67.707031 L 12.5 83.027344 L 12.5 83.332031 L 17.046875 83.332031 L 22.917969 72.179688 L 28.785156 83.332031 L 33.332031 83.332031 L 33.332031 83.027344 L 25.269531 67.707031 L 33.332031 52.386719 Z M 33.332031 52.082031 "/>
<path style=" stroke:none;fill-rule:nonzero;fill:rgb(100%,100%,100%);fill-opacity:1;" d="M 87.5 52.082031 L 82.953125 52.082031 L 77.082031 63.238281 L 71.214844 52.082031 L 66.667969 52.082031 L 66.667969 52.386719 L 74.730469 67.707031 L 66.667969 83.027344 L 66.667969 83.332031 L 71.214844 83.332031 L 77.082031 72.179688 L 82.953125 83.332031 L 87.5 83.332031 L 87.5 83.027344 L 79.4375 67.707031 L 87.5 52.386719 Z M 87.5 52.082031 "/>
<path style=" stroke:none;fill-rule:nonzero;fill:rgb(100%,100%,100%);fill-opacity:1;" d="M 40.617188 36.460938 L 49.992188 27.085938 L 59.363281 36.460938 L 49.992188 45.832031 Z M 40.617188 36.460938 "/>
<path style=" stroke:none;fill-rule:nonzero;fill:rgb(71.764706%,10.980392%,10.980392%);fill-opacity:1;" d="M 45.972656 36.445312 L 49.988281 32.429688 L 54.007812 36.445312 L 49.988281 40.460938 Z M 45.972656 36.445312 "/>
<path style=" stroke:none;fill-rule:nonzero;fill:rgb(71.764706%,10.980392%,10.980392%);fill-opacity:1;" d="M 27.082031 37.5 L 2.082031 45.832031 L 2.082031 41.667969 L 27.082031 33.332031 Z M 27.082031 37.5 "/>
<path style=" stroke:none;fill-rule:nonzero;fill:rgb(71.764706%,10.980392%,10.980392%);fill-opacity:1;" d="M 50 18.75 L 25 31.25 L 25 27.082031 L 50 14.582031 Z M 50 18.75 "/>
<path style=" stroke:none;fill-rule:nonzero;fill:rgb(71.764706%,10.980392%,10.980392%);fill-opacity:1;" d="M 75 27.082031 L 50 14.582031 L 50 18.75 L 75 31.25 Z M 75 27.082031 "/>
<path style=" stroke:none;fill-rule:nonzero;fill:rgb(71.764706%,10.980392%,10.980392%);fill-opacity:1;" d="M 72.917969 37.5 L 97.917969 45.832031 L 97.917969 41.667969 L 72.917969 33.332031 Z M 72.917969 37.5 "/>
</g>
</svg>
<!-- iconic normalized -->