<?xml version="1.0" encoding="UTF-8"?>
<svg xmlns="http://www.w3.org/2000/svg" xmlns:xlink="http://www.w3.org/1999/xlink" width="100px" height="100px" viewBox="0 0 100 100" version="1.1">
<g id="surface1">
<path style=" stroke:none;fill-rule:nonzero;fill:rgb(32.941176%,43.137255%,47.843137%);fill-opacity:1;" d="M 70.246094 7.257812 L 68.980469 12.191406 L 64.527344 10.722656 L 64.527344 16.601562 L 60.074219 15.128906 L 60.074219 21.011719 L 55.621094 19.539062 L 55.621094 25.421875 L 51.167969 23.949219 L 51.167969 29.832031 L 46.714844 28.359375 L 46.714844 34.242188 L 59.828125 50.230469 L 64.527344 51.882812 L 64.527344 46.003906 L 68.980469 47.476562 L 68.980469 41.59375 L 73.433594 43.066406 L 73.433594 37.183594 L 77.886719 38.652344 L 77.886719 32.769531 L 82.339844 34.242188 L 81.660156 28.484375 L 87.382812 28.636719 L 84.535156 24.226562 L 89.609375 22.023438 L 84.941406 19.113281 L 88.0625 14.425781 L 82.402344 14.824219 L 83.636719 9.308594 L 78.628906 11.699219 L 77.265625 6.613281 L 73.804688 10.78125 Z M 70.246094 7.257812 "/>
<path style=" stroke:none;fill-rule:nonzero;fill:rgb(81.176471%,84.705882%,86.27451%);fill-opacity:1;" d="M 77.886719 18.070312 C 79.523438 19.695312 79.523438 22.328125 77.886719 23.949219 L 58.589844 43.066406 C 56.949219 44.683594 54.292969 44.683594 52.652344 43.066406 C 51.011719 41.441406 51.011719 38.804688 52.652344 37.183594 L 71.949219 18.070312 C 73.585938 16.445312 76.246094 16.445312 77.886719 18.070312 Z M 77.886719 18.070312 "/>
<path style=" stroke:none;fill-rule:nonzero;fill:rgb(96.078431%,48.627451%,0%);fill-opacity:1;" d="M 36.324219 68.058594 L 24.449219 79.820312 L 23.070312 78.457031 C 22.304688 76.222656 24.984375 68.980469 29.691406 61.488281 L 23.640625 55.496094 C 18.792969 62.886719 10.46875 77.734375 17.023438 84.230469 L 21.480469 88.640625 C 24.449219 91.582031 27.417969 88.640625 27.417969 88.640625 L 42.261719 73.9375 Z M 36.324219 68.058594 "/>
<path style=" stroke:none;fill-rule:nonzero;fill:rgb(100%,75.686275%,2.745098%);fill-opacity:1;" d="M 63.042969 47.476562 C 65.503906 49.910156 65.503906 53.859375 63.042969 56.292969 L 42.261719 76.878906 C 42.261719 76.878906 40.777344 78.347656 39.292969 76.878906 C 37.808594 75.40625 27.417969 65.113281 27.417969 65.113281 C 17.027344 54.824219 27.417969 44.535156 27.417969 44.535156 L 42.261719 29.828125 C 42.261719 29.828125 43.746094 28.359375 45.230469 29.828125 Z M 63.042969 47.476562 "/>
<path style=" stroke:none;fill-rule:nonzero;fill:rgb(42.745098%,29.803922%,25.490196%);fill-opacity:1;" d="M 47.425781 48.238281 C 47.425781 48.238281 35.394531 30.414062 35.265625 30.222656 C 33.261719 27.152344 29.113281 26.265625 26.011719 28.253906 C 26.007812 28.253906 26.003906 28.261719 26.003906 28.261719 C 24.507812 29.226562 23.476562 30.703125 23.101562 32.429688 C 22.722656 34.160156 23.050781 35.929688 24.019531 37.417969 C 24.226562 37.730469 26.625 41.097656 28.316406 43.644531 C 29.164062 42.816406 30.140625 41.820312 31.285156 40.703125 C 29.765625 38.410156 27.6875 35.464844 27.507812 35.191406 C 27.140625 34.621094 27.015625 33.949219 27.160156 33.292969 C 27.300781 32.636719 27.695312 32.074219 28.265625 31.707031 C 28.265625 31.707031 28.265625 31.703125 28.265625 31.703125 C 29.449219 30.953125 31.023438 31.292969 31.789062 32.460938 C 31.933594 32.675781 43.941406 50.472656 43.941406 50.472656 Z M 47.425781 48.238281 "/>
</g>
</svg>
<!-- iconic normalized -->