<?xml version="1.0" encoding="UTF-8"?>
<svg xmlns="http://www.w3.org/2000/svg" xmlns:xlink="http://www.w3.org/1999/xlink" width="100px" height="100px" viewBox="0 0 100 100" version="1.1">
<g id="surface1">
<path style=" stroke:none;fill-rule:nonzero;fill:rgb(73.333333%,87.058824%,98.431373%);fill-opacity:1;" d="M 50.003906 75 C 31.621094 74.996094 16.667969 60.042969 16.667969 41.667969 C 16.667969 23.289062 31.621094 8.332031 50 8.332031 C 68.378906 8.332031 83.332031 23.289062 83.332031 41.667969 C 83.332031 60.042969 68.382812 74.996094 50.003906 75 Z M 50.003906 75 "/>
<path style=" stroke:none;fill-rule:nonzero;fill:rgb(12.941176%,58.823529%,95.294118%);fill-opacity:1;" d="M 73.570312 53.453125 C 74.386719 54.265625 74.386719 55.582031 73.570312 56.398438 C 73.570312 56.398438 61.785156 71.128906 55.890625 62.289062 L 48.527344 46.085938 L 47.054688 44.613281 C 44.109375 38.722656 26.429688 29.882812 26.429688 29.882812 C 25.613281 29.066406 25.613281 27.75 26.429688 26.933594 C 26.429688 26.933594 38.214844 12.203125 44.109375 21.042969 L 51.472656 37.246094 L 52.945312 38.722656 C 55.890625 44.613281 73.570312 53.453125 73.570312 53.453125 Z M 73.570312 53.453125 "/>
<path style=" stroke:none;fill-rule:nonzero;fill:rgb(12.941176%,58.823529%,95.294118%);fill-opacity:1;" d="M 61.785156 18.097656 C 62.601562 17.285156 63.914062 17.285156 64.730469 18.097656 C 64.730469 18.097656 79.460938 29.882812 70.621094 35.773438 L 54.417969 43.140625 L 52.945312 44.613281 C 47.054688 47.558594 38.214844 65.234375 38.214844 65.234375 C 37.398438 66.050781 36.082031 66.050781 35.269531 65.234375 C 35.269531 65.234375 20.539062 53.453125 29.378906 47.558594 L 45.582031 40.195312 L 47.054688 38.722656 C 52.945312 35.773438 61.785156 18.097656 61.785156 18.097656 Z M 61.785156 18.097656 "/>
<path style=" stroke:none;fill-rule:nonzero;fill:rgb(12.941176%,58.823529%,95.294118%);fill-opacity:1;" d="M 50.003906 75 C 48.589844 75 47.203125 74.882812 45.832031 74.707031 L 45.832031 85.417969 L 54.167969 85.417969 L 54.167969 74.710938 C 52.800781 74.882812 51.417969 75 50.003906 75 Z M 50.003906 75 "/>
<path style=" stroke:none;fill-rule:nonzero;fill:rgb(12.941176%,58.823529%,95.294118%);fill-opacity:1;" d="M 72.917969 91.667969 L 27.082031 91.667969 L 27.082031 87.5 L 45.832031 81.25 L 54.167969 81.25 L 72.917969 87.5 Z M 72.917969 91.667969 "/>
<path style=" stroke:none;fill-rule:nonzero;fill:rgb(24.705882%,31.764706%,70.980392%);fill-opacity:1;" d="M 50 47.917969 C 46.554688 47.917969 43.75 45.113281 43.75 41.667969 C 43.75 38.222656 46.554688 35.417969 50 35.417969 C 53.445312 35.417969 56.25 38.222656 56.25 41.667969 C 56.25 45.113281 53.445312 47.917969 50 47.917969 Z M 50 47.917969 "/>
</g>
</svg>
<!-- iconic normalized -->