<?xml version="1.0" encoding="UTF-8"?>
<svg xmlns="http://www.w3.org/2000/svg" xmlns:xlink="http://www.w3.org/1999/xlink" width="100px" height="100px" viewBox="0 0 100 100" version="1.1">
<g id="surface1">
<path style=" stroke:none;fill-rule:nonzero;fill:rgb(100%,75.686275%,2.745098%);fill-opacity:1;" d="M 51.332031 8.332031 C 33.414062 8.332031 12.933594 18.652344 12.933594 47.804688 C 12.933594 68.976562 28.835938 91.667969 53.164062 91.667969 C 53.171875 91.667969 53.515625 91.667969 53.527344 91.667969 C 62.664062 91.503906 72.496094 85.585938 72.496094 73.003906 C 72.496094 70.589844 71.601562 68.503906 70.8125 66.664062 C 70.601562 66.179688 70.398438 65.703125 70.210938 65.21875 C 68.414062 60.6875 70.398438 59.027344 75.066406 55.707031 C 80.351562 51.945312 87.589844 46.796875 87.496094 33.167969 C 87.496094 25.066406 78.660156 8.332031 51.332031 8.332031 Z M 52.496094 81.667969 C 47.828125 81.667969 44.164062 78 44.164062 73.335938 C 44.164062 68.667969 47.828125 65 52.496094 65 C 57.160156 65 60.828125 68.667969 60.828125 73.335938 C 60.828125 78 57.164062 81.667969 52.496094 81.667969 Z M 52.496094 81.667969 "/>
<path style=" stroke:none;fill-rule:nonzero;fill:rgb(61.176471%,15.294118%,69.019608%);fill-opacity:1;" d="M 79.167969 34.375 C 79.167969 38.402344 75.902344 41.667969 71.875 41.667969 C 67.847656 41.667969 64.582031 38.402344 64.582031 34.375 C 64.582031 30.347656 67.847656 27.082031 71.875 27.082031 C 75.902344 27.082031 79.167969 30.347656 79.167969 34.375 Z M 79.167969 34.375 "/>
<path style=" stroke:none;fill-rule:nonzero;fill:rgb(12.941176%,58.823529%,95.294118%);fill-opacity:1;" d="M 60.417969 21.875 C 60.417969 25.902344 57.152344 29.167969 53.125 29.167969 C 49.097656 29.167969 45.832031 25.902344 45.832031 21.875 C 45.832031 17.847656 49.097656 14.582031 53.125 14.582031 C 57.152344 14.582031 60.417969 17.847656 60.417969 21.875 Z M 60.417969 21.875 "/>
<path style=" stroke:none;fill-rule:nonzero;fill:rgb(29.803922%,68.627451%,31.372549%);fill-opacity:1;" d="M 39.582031 32.292969 C 39.582031 36.320312 36.320312 39.582031 32.292969 39.582031 C 28.265625 39.582031 25 36.320312 25 32.292969 C 25 28.265625 28.265625 25 32.292969 25 C 36.320312 25 39.582031 28.265625 39.582031 32.292969 Z M 39.582031 32.292969 "/>
<path style=" stroke:none;fill-rule:nonzero;fill:rgb(100%,23.921569%,0%);fill-opacity:1;" d="M 37.5 55.207031 C 37.5 59.234375 34.234375 62.5 30.207031 62.5 C 26.179688 62.5 22.917969 59.234375 22.917969 55.207031 C 22.917969 51.179688 26.179688 47.917969 30.207031 47.917969 C 34.234375 47.917969 37.5 51.179688 37.5 55.207031 Z M 37.5 55.207031 "/>
</g>
</svg>
<!-- iconic normalized -->