<?xml version="1.0" encoding="UTF-8"?>
<svg xmlns="http://www.w3.org/2000/svg" xmlns:xlink="http://www.w3.org/1999/xlink" width="100px" height="100px" viewBox="0 0 100 100" version="1.1">
<g id="surface1">
<path style=" stroke:none;fill-rule:nonzero;fill:rgb(5.098039%,55.294118%,82.745098%);fill-opacity:1;" d="M 50 60.160156 C 48.386719 60 46.773438 59.675781 45.160156 59.355469 L 45.160156 84.839844 C 45.160156 87.582031 47.257812 89.675781 50 89.675781 C 52.742188 89.675781 54.839844 87.582031 54.839844 84.839844 L 54.839844 59.355469 C 53.226562 59.675781 51.613281 60 50 60.160156 Z M 50 60.160156 "/>
<path style=" stroke:none;fill-rule:nonzero;fill:rgb(3.137255%,50.588235%,76.862745%);fill-opacity:1;" d="M 50 60.160156 C 48.386719 60 46.773438 59.675781 45.160156 59.355469 L 45.160156 75.804688 L 54.839844 75.804688 L 54.839844 59.355469 C 53.226562 59.675781 51.613281 60 50 60.160156 Z M 50 60.160156 "/>
<path style=" stroke:none;fill-rule:nonzero;fill:rgb(68.235294%,74.901961%,75.686275%);fill-opacity:1;" d="M 80.324219 91.933594 L 19.675781 91.933594 C 16.933594 91.933594 14.839844 89.839844 14.839844 87.097656 C 14.839844 84.355469 16.933594 82.257812 19.675781 82.257812 L 80.484375 82.257812 C 83.226562 82.257812 85.324219 84.355469 85.324219 87.097656 C 85.160156 89.839844 83.066406 91.933594 80.324219 91.933594 Z M 80.324219 91.933594 "/>
<path style=" stroke:none;fill-rule:nonzero;fill:rgb(74.509804%,79.607843%,80%);fill-opacity:1;" d="M 14.839844 87.097656 C 14.839844 84.355469 16.933594 82.257812 19.675781 82.257812 L 80.484375 82.257812 C 83.226562 82.257812 85.324219 84.355469 85.324219 87.097656 "/>
<path style=" stroke:none;fill-rule:nonzero;fill:rgb(5.098039%,55.294118%,82.745098%);fill-opacity:1;" d="M 100 64.03125 C 100 66.773438 97.257812 69.355469 94.675781 69.355469 L 5.324219 69.355469 C 2.742188 69.355469 0 66.613281 0 64.03125 L 0 12.902344 C 0 10.160156 2.742188 8.066406 5.324219 8.066406 L 94.515625 8.066406 C 97.257812 8.066406 100 10.160156 100 12.902344 Z M 100 64.03125 "/>
<path style=" stroke:none;fill-rule:nonzero;fill:rgb(12.54902%,61.568627%,88.627451%);fill-opacity:1;" d="M 94.675781 8.066406 L 5.324219 8.066406 C 2.742188 8.066406 0 10.160156 0 12.902344 L 0 56.128906 C 0 58.871094 2.742188 61.289062 5.324219 61.289062 L 94.515625 61.289062 C 97.257812 61.289062 99.839844 58.871094 99.839844 56.128906 L 99.839844 12.902344 C 100 10.160156 97.257812 8.066406 94.675781 8.066406 Z M 94.675781 8.066406 "/>
<path style=" stroke:none;fill-rule:nonzero;fill:rgb(11.372549%,68.235294%,93.72549%);fill-opacity:1;" d="M 100 56.453125 L 100 12.902344 C 100 10.160156 97.257812 8.066406 94.675781 8.066406 L 5.324219 8.066406 C 2.742188 8.066406 0 10.160156 0 12.902344 "/>
<path style=" stroke:none;fill-rule:nonzero;fill:rgb(5.098039%,55.294118%,82.745098%);fill-opacity:1;" d="M 32.257812 82.257812 L 67.742188 82.257812 L 67.742188 91.933594 L 32.257812 91.933594 Z M 32.257812 82.257812 "/>
<path style=" stroke:none;fill-rule:nonzero;fill:rgb(12.54902%,61.568627%,88.627451%);fill-opacity:1;" d="M 32.257812 82.257812 L 67.742188 82.257812 L 67.742188 87.097656 L 32.257812 87.097656 Z M 32.257812 82.257812 "/>
<path style=" stroke:none;fill-rule:nonzero;fill:rgb(5.098039%,55.294118%,82.745098%);fill-opacity:1;" d="M 15.804688 34.839844 L 27.097656 23.546875 C 28.546875 22.097656 30.644531 22.097656 32.097656 23.546875 C 33.546875 25 33.546875 27.097656 32.097656 28.546875 L 25.804688 34.839844 L 32.097656 41.128906 C 33.546875 42.582031 33.546875 44.675781 32.097656 46.128906 C 30.644531 47.582031 28.546875 47.582031 27.097656 46.128906 Z M 15.804688 34.839844 "/>
<path style=" stroke:none;fill-rule:nonzero;fill:rgb(5.098039%,55.294118%,82.745098%);fill-opacity:1;" d="M 20.804688 34.675781 C 20.804688 32.742188 22.417969 30.644531 24.355469 30.644531 L 40.324219 30.644531 C 42.257812 30.644531 43.871094 32.742188 43.871094 34.675781 C 43.871094 36.613281 42.257812 38.710938 40.324219 38.710938 L 24.195312 38.710938 C 22.257812 38.710938 20.804688 36.613281 20.804688 34.675781 Z M 20.804688 34.675781 "/>
<path style=" stroke:none;fill-rule:nonzero;fill:rgb(5.098039%,55.294118%,82.745098%);fill-opacity:1;" d="M 84.195312 48.066406 L 72.902344 59.355469 C 71.453125 60.804688 69.355469 60.804688 67.902344 59.355469 C 66.453125 57.902344 66.453125 55.804688 67.902344 54.355469 L 74.195312 48.066406 L 67.902344 41.773438 C 66.453125 40.324219 66.453125 38.226562 67.902344 36.773438 C 69.355469 35.324219 71.453125 35.324219 72.902344 36.773438 Z M 84.195312 48.066406 "/>
<path style=" stroke:none;fill-rule:nonzero;fill:rgb(5.098039%,55.294118%,82.745098%);fill-opacity:1;" d="M 79.195312 48.386719 C 79.195312 50.324219 77.582031 51.613281 75.644531 51.613281 L 59.675781 51.613281 C 57.742188 51.613281 56.128906 50.324219 56.128906 48.386719 C 56.128906 46.453125 57.742188 45.160156 59.675781 45.160156 L 75.804688 45.160156 C 77.742188 45.160156 79.195312 46.453125 79.195312 48.386719 Z M 79.195312 48.386719 "/>
<path style=" stroke:none;fill-rule:nonzero;fill:rgb(5.098039%,55.294118%,82.745098%);fill-opacity:1;" d="M 49.195312 19.675781 C 48.710938 19.675781 48.386719 20 48.386719 20.484375 L 48.386719 62.417969 C 48.386719 62.902344 48.710938 63.226562 49.195312 63.226562 C 49.675781 63.226562 50 62.902344 50 62.417969 L 50 20.484375 C 50 20 49.675781 19.675781 49.195312 19.675781 Z M 49.195312 19.675781 "/>
<path style=" stroke:none;fill-rule:nonzero;fill:rgb(100%,100%,100%);fill-opacity:1;" d="M 15.804688 31.128906 L 27.097656 19.839844 C 28.546875 18.386719 30.644531 18.386719 32.097656 19.839844 C 33.546875 21.289062 33.546875 23.386719 32.097656 24.839844 L 25.804688 31.128906 L 32.097656 37.417969 C 33.546875 38.871094 33.546875 40.96875 32.097656 42.417969 C 30.644531 43.871094 28.546875 43.871094 27.097656 42.417969 Z M 15.804688 31.128906 "/>
<path style=" stroke:none;fill-rule:nonzero;fill:rgb(100%,100%,100%);fill-opacity:1;" d="M 84.195312 44.195312 L 72.902344 55.484375 C 71.453125 56.933594 69.355469 56.933594 67.902344 55.484375 C 66.453125 54.03125 66.453125 51.933594 67.902344 50.484375 L 74.195312 44.195312 L 67.902344 37.902344 C 66.453125 36.453125 66.453125 34.355469 67.902344 32.902344 C 69.355469 31.453125 71.453125 31.453125 72.902344 32.902344 Z M 84.195312 44.195312 "/>
<path style=" stroke:none;fill-rule:nonzero;fill:rgb(100%,100%,100%);fill-opacity:1;" d="M 79.195312 44.355469 C 79.195312 46.289062 77.582031 48.386719 75.644531 48.386719 L 59.675781 48.386719 C 57.742188 48.386719 56.128906 46.289062 56.128906 44.355469 C 56.128906 42.417969 57.742188 40.324219 59.675781 40.324219 L 75.804688 40.324219 C 77.742188 40.324219 79.195312 42.417969 79.195312 44.355469 Z M 79.195312 44.355469 "/>
<path style=" stroke:none;fill-rule:nonzero;fill:rgb(100%,100%,100%);fill-opacity:1;" d="M 43.710938 30.644531 C 43.710938 32.582031 42.097656 34.675781 40.160156 34.675781 L 24.195312 34.675781 C 22.257812 34.675781 20.644531 32.582031 20.644531 30.644531 C 20.644531 28.710938 22.257812 26.613281 24.195312 26.613281 L 40.160156 26.613281 C 42.097656 26.613281 43.710938 28.710938 43.710938 30.644531 Z M 43.710938 30.644531 "/>
<path style=" stroke:none;fill-rule:nonzero;fill:rgb(100%,100%,100%);fill-opacity:1;" d="M 49.195312 15.96875 C 48.710938 15.96875 48.386719 16.289062 48.386719 16.773438 L 48.386719 58.710938 C 48.386719 59.195312 48.710938 59.515625 49.195312 59.515625 C 49.675781 59.515625 50 59.195312 50 58.710938 L 50 16.773438 C 50 16.289062 49.675781 15.96875 49.195312 15.96875 Z M 49.195312 15.96875 "/>
</g>
</svg>
<!-- iconic normalized -->