<?xml version="1.0" encoding="UTF-8"?>
<svg xmlns="http://www.w3.org/2000/svg" xmlns:xlink="http://www.w3.org/1999/xlink" width="100px" height="100px" viewBox="0 0 100 100" version="1.1">
<g id="surface1">
<path style=" stroke:none;fill-rule:nonzero;fill:rgb(96.862745%,58.039216%,2.352941%);fill-opacity:1;" d="M 84.789062 34.789062 C 84.789062 15.535156 69.253906 0 50 0 C 30.746094 0 15.210938 15.535156 15.210938 34.789062 C 15.210938 45.308594 19.902344 54.691406 27.183594 61.003906 L 50 83.820312 L 72.816406 61.003906 C 80.097656 54.691406 84.789062 45.308594 84.789062 34.789062 Z M 84.789062 34.789062 "/>
<path style=" stroke:none;fill-rule:nonzero;fill:rgb(100%,71.372549%,0%);fill-opacity:1;" d="M 84.789062 34.789062 C 84.789062 15.535156 69.253906 0 50 0 C 30.746094 0 15.210938 15.535156 15.210938 34.789062 C 15.210938 45.308594 19.902344 47.894531 27.183594 54.207031 L 50 77.023438 L 72.816406 54.207031 C 80.097656 47.894531 84.789062 45.308594 84.789062 34.789062 Z M 84.789062 34.789062 "/>
<path style=" stroke:none;fill-rule:nonzero;fill:rgb(100%,61.568627%,0%);fill-opacity:1;" d="M 50 77.023438 L 72.816406 54.207031 C 80.097656 47.894531 84.789062 45.308594 84.789062 34.789062 C 84.789062 15.535156 69.253906 0 50 0 "/>
<path style=" stroke:none;fill-rule:nonzero;fill:rgb(73.72549%,73.72549%,73.72549%);fill-opacity:1;" d="M 78.640625 95.144531 C 78.640625 92.464844 65.816406 90.292969 50 90.292969 C 34.183594 90.292969 21.359375 92.464844 21.359375 95.144531 C 21.359375 97.828125 34.183594 100 50 100 C 65.816406 100 78.640625 97.828125 78.640625 95.144531 Z M 78.640625 95.144531 "/>
<path style=" stroke:none;fill-rule:nonzero;fill:rgb(64.705882%,64.705882%,64.705882%);fill-opacity:1;" d="M 64.238281 92.71875 C 64.238281 91.378906 57.863281 90.292969 50 90.292969 C 42.136719 90.292969 35.761719 91.378906 35.761719 92.71875 C 35.761719 94.058594 42.136719 95.144531 50 95.144531 C 57.863281 95.144531 64.238281 94.058594 64.238281 92.71875 Z M 64.238281 92.71875 "/>
<path style=" stroke:none;fill-rule:nonzero;fill:rgb(96.862745%,58.039216%,2.352941%);fill-opacity:1;" d="M 41.585938 28.480469 L 38.027344 28.480469 C 37.378906 28.480469 36.730469 29.125 36.730469 29.773438 L 36.730469 49.515625 C 36.730469 50.160156 37.378906 50.808594 38.027344 50.808594 L 41.585938 50.808594 C 42.234375 50.808594 42.878906 50.160156 42.878906 49.515625 L 42.878906 29.773438 C 42.878906 29.125 42.394531 28.480469 41.585938 28.480469 Z M 41.585938 28.480469 "/>
<path style=" stroke:none;fill-rule:nonzero;fill:rgb(96.862745%,58.039216%,2.352941%);fill-opacity:1;" d="M 39.804688 20.710938 C 37.863281 20.710938 36.246094 22.332031 36.246094 24.273438 C 36.246094 26.214844 37.703125 27.832031 39.644531 27.832031 C 40.613281 27.832031 41.585938 27.507812 42.234375 26.699219 C 42.878906 26.050781 43.203125 25.242188 43.203125 24.273438 C 43.367188 22.332031 41.910156 20.710938 39.804688 20.710938 Z M 39.804688 20.710938 "/>
<path style=" stroke:none;fill-rule:nonzero;fill:rgb(96.862745%,58.039216%,2.352941%);fill-opacity:1;" d="M 57.929688 28.15625 C 55.664062 28.15625 53.558594 28.800781 51.941406 30.097656 L 51.941406 29.773438 C 51.941406 29.125 51.292969 28.480469 50.648438 28.480469 L 47.410156 28.480469 C 47.085938 28.480469 46.765625 28.640625 46.441406 28.800781 C 46.117188 29.125 46.117188 29.449219 46.117188 29.773438 C 46.277344 31.714844 46.277344 33.65625 46.277344 36.246094 L 46.277344 57.605469 C 46.277344 58.253906 46.925781 58.898438 47.574219 58.898438 L 51.132812 58.898438 C 51.78125 58.898438 52.425781 58.253906 52.425781 57.605469 L 52.425781 50 C 57.445312 53.234375 67.636719 50.648438 67.636719 39.480469 C 67.636719 32.847656 63.59375 28.15625 57.929688 28.15625 Z M 56.796875 33.496094 C 60.03125 33.496094 61.328125 36.570312 61.328125 39.644531 C 61.328125 43.6875 59.546875 45.953125 56.632812 45.953125 C 54.691406 45.953125 52.914062 44.660156 52.425781 42.878906 C 52.425781 42.554688 52.265625 42.070312 52.265625 41.585938 L 52.265625 38.1875 C 52.265625 37.863281 52.425781 37.378906 52.425781 37.054688 C 53.234375 34.953125 54.855469 33.496094 56.796875 33.496094 Z M 56.796875 33.496094 "/>
<path style=" stroke:none;fill-rule:nonzero;fill:rgb(100%,100%,100%);fill-opacity:1;" d="M 39.644531 26.859375 L 36.085938 26.859375 C 35.4375 26.859375 34.789062 27.507812 34.789062 28.15625 L 34.789062 47.894531 C 34.789062 48.542969 35.4375 49.191406 36.085938 49.191406 L 39.644531 49.191406 C 40.292969 49.191406 40.9375 48.542969 40.9375 47.894531 L 40.9375 28.15625 C 40.9375 27.507812 40.453125 26.859375 39.644531 26.859375 Z M 39.644531 26.859375 "/>
<path style=" stroke:none;fill-rule:nonzero;fill:rgb(100%,100%,100%);fill-opacity:1;" d="M 37.863281 19.09375 C 35.921875 19.09375 34.304688 20.710938 34.304688 22.652344 C 34.304688 24.59375 35.761719 26.214844 37.703125 26.214844 C 38.671875 26.214844 39.644531 25.890625 40.292969 25.082031 C 40.9375 24.433594 41.261719 23.625 41.261719 22.652344 C 41.425781 20.550781 39.804688 19.09375 37.863281 19.09375 Z M 37.863281 19.09375 "/>
<path style=" stroke:none;fill-rule:nonzero;fill:rgb(100%,100%,100%);fill-opacity:1;" d="M 55.988281 26.375 C 53.722656 26.375 51.617188 27.023438 50 28.316406 L 50 27.992188 C 50 27.347656 49.351562 26.699219 48.707031 26.699219 L 45.46875 26.699219 C 45.144531 26.699219 44.820312 26.859375 44.5 27.023438 C 44.175781 27.347656 44.175781 27.667969 44.175781 27.992188 C 44.335938 29.933594 44.335938 31.878906 44.335938 34.464844 L 44.335938 55.824219 C 44.335938 56.472656 44.984375 57.121094 45.632812 57.121094 L 49.191406 57.121094 C 49.839844 57.121094 50.484375 56.472656 50.484375 55.824219 L 50.484375 48.058594 C 55.5 51.292969 65.695312 48.707031 65.695312 37.539062 C 65.695312 31.230469 61.652344 26.375 55.988281 26.375 Z M 54.855469 31.878906 C 58.089844 31.878906 59.386719 34.953125 59.386719 38.027344 C 59.386719 42.070312 57.605469 44.335938 54.691406 44.335938 C 52.75 44.335938 50.972656 43.042969 50.484375 41.261719 C 50.484375 40.9375 50.324219 40.453125 50.324219 39.96875 L 50.324219 36.570312 C 50.324219 36.246094 50.484375 35.761719 50.484375 35.4375 C 51.292969 33.332031 52.914062 31.878906 54.855469 31.878906 Z M 54.855469 31.878906 "/>
</g>
</svg>
<!-- iconic normalized -->