<?xml version="1.0" encoding="UTF-8"?>
<svg xmlns="http://www.w3.org/2000/svg" xmlns:xlink="http://www.w3.org/1999/xlink" width="100px" height="100px" viewBox="0 0 100 100" version="1.1">
<g id="surface1">
<path style=" stroke:none;fill-rule:nonzero;fill:rgb(100%,74.509804%,0%);fill-opacity:1;" d="M 50 100 C 35.78125 100 22.191406 93.917969 12.714844 83.308594 C 4.515625 74.140625 0 62.3125 0 50 C 0 22.429688 22.429688 0 50 0 C 62.3125 0 74.140625 4.515625 83.3125 12.710938 C 93.917969 22.195312 100 35.785156 100 50 C 100 77.570312 77.570312 100 50 100 "/>
<path style=" stroke:none;fill-rule:nonzero;fill:rgb(95.686275%,31.372549%,16.470588%);fill-opacity:1;" d="M 92.414062 50 C 92.414062 54.421875 91.738281 58.6875 90.480469 62.695312 L 90.472656 62.707031 C 86.335938 75.910156 75.914062 86.335938 62.710938 90.476562 C 60 91.328125 57.167969 91.914062 54.253906 92.203125 C 52.851562 92.34375 51.4375 92.414062 50 92.414062 C 37.429688 92.414062 26.132812 86.945312 18.367188 78.253906 C 18.304688 78.183594 18.242188 78.113281 18.175781 78.039062 C 11.582031 70.5625 7.582031 60.75 7.582031 50 C 7.582031 26.574219 26.574219 7.582031 50 7.582031 C 60.753906 7.582031 70.566406 11.582031 78.042969 18.175781 C 78.113281 18.238281 78.1875 18.304688 78.257812 18.367188 C 86.945312 26.136719 92.414062 37.425781 92.414062 50 "/>
<path style=" stroke:none;fill-rule:nonzero;fill:rgb(76.078431%,56.862745%,0%);fill-opacity:1;" d="M 18.785156 78.714844 C 18.792969 78.726562 18.800781 78.734375 18.8125 78.746094 C 18.804688 78.734375 18.792969 78.722656 18.785156 78.714844 M 18.246094 78.121094 C 18.421875 78.316406 18.601562 78.515625 18.777344 78.710938 C 18.640625 78.558594 18.503906 78.40625 18.367188 78.253906 C 18.328125 78.210938 18.289062 78.164062 18.246094 78.121094 "/>
<path style=" stroke:none;fill-rule:nonzero;fill:rgb(72.941176%,23.921569%,12.54902%);fill-opacity:1;" d="M 50 7.582031 C 26.574219 7.582031 7.585938 26.574219 7.585938 49.996094 C 7.585938 60.785156 11.609375 70.632812 18.246094 78.121094 C 18.285156 78.164062 18.328125 78.210938 18.367188 78.253906 C 18.503906 78.40625 18.640625 78.558594 18.777344 78.710938 C 18.78125 78.710938 18.78125 78.710938 18.785156 78.714844 C 18.792969 78.722656 18.800781 78.734375 18.8125 78.746094 C 20.003906 80.039062 21.277344 81.257812 22.621094 82.394531 C 16.375 75.003906 12.609375 65.453125 12.609375 55.023438 C 12.609375 31.597656 31.597656 12.609375 55.027344 12.609375 C 65.457031 12.609375 75.007812 16.375 82.394531 22.621094 C 74.617188 13.421875 62.992188 7.582031 50 7.582031 "/>
<path style=" stroke:none;fill-rule:nonzero;fill:rgb(72.941176%,23.921569%,12.54902%);fill-opacity:1;" d="M 78.167969 50.402344 L 50.523438 50.523438 L 50.402344 78.167969 L 62.710938 90.476562 C 75.914062 86.335938 86.335938 75.910156 90.472656 62.707031 L 78.167969 50.402344 "/>
<path style=" stroke:none;fill-rule:nonzero;fill:rgb(100%,100%,100%);fill-opacity:1;" d="M 50.402344 78.167969 L 29.425781 29.425781 L 78.167969 50.402344 L 58.945312 58.945312 L 50.402344 78.167969 "/>
<path style=" stroke:none;fill-rule:nonzero;fill:rgb(76.078431%,76.078431%,76.078431%);fill-opacity:1;" d="M 29.425781 29.425781 L 50.402344 78.167969 L 58.945312 58.945312 L 29.425781 29.425781 "/>
</g>
</svg>
<!-- iconic normalized -->