<?xml version="1.0" encoding="UTF-8"?>
<svg xmlns="http://www.w3.org/2000/svg" xmlns:xlink="http://www.w3.org/1999/xlink" width="100px" height="100px" viewBox="0 0 100 100" version="1.1">
<g id="surface1">
<path style=" stroke:none;fill-rule:nonzero;fill:rgb(100%,74.509804%,0%);fill-opacity:1;" d="M 50 100 C 35.78125 100 22.191406 93.917969 12.714844 83.308594 C 4.515625 74.140625 0 62.3125 0 50 C 0 22.429688 22.429688 0 50 0 C 62.3125 0 74.140625 4.515625 83.3125 12.710938 C 93.917969 22.195312 100 35.785156 100 50 C 100 77.570312 77.570312 100 50 100 "/>
<path style=" stroke:none;fill-rule:nonzero;fill:rgb(95.686275%,31.372549%,16.470588%);fill-opacity:1;" d="M 92.414062 50 C 92.414062 54.25 91.789062 58.355469 90.625 62.222656 C 90.578125 62.382812 90.527344 62.539062 90.480469 62.695312 C 86.054688 76.816406 74.453125 87.757812 59.949219 91.238281 C 58.09375 91.6875 56.191406 92.011719 54.253906 92.203125 C 52.851562 92.34375 51.4375 92.417969 50 92.417969 C 37.429688 92.417969 26.132812 86.945312 18.367188 78.257812 C 18.304688 78.183594 18.242188 78.113281 18.175781 78.039062 C 11.582031 70.566406 7.582031 60.75 7.582031 50 C 7.582031 26.574219 26.574219 7.582031 50 7.582031 C 60.753906 7.582031 70.566406 11.582031 78.042969 18.175781 C 78.113281 18.242188 78.1875 18.304688 78.257812 18.367188 C 86.945312 26.136719 92.414062 37.425781 92.414062 50 "/>
<path style=" stroke:none;fill-rule:nonzero;fill:rgb(76.078431%,56.862745%,0%);fill-opacity:1;" d="M 18.261719 78.136719 C 18.273438 78.152344 18.285156 78.164062 18.296875 78.179688 C 18.285156 78.164062 18.273438 78.152344 18.261719 78.136719 "/>
<path style=" stroke:none;fill-rule:nonzero;fill:rgb(72.941176%,23.921569%,12.54902%);fill-opacity:1;" d="M 50 7.585938 C 26.574219 7.585938 7.585938 26.574219 7.585938 49.996094 C 7.585938 60.796875 11.617188 70.652344 18.261719 78.136719 C 18.273438 78.152344 18.285156 78.164062 18.296875 78.179688 C 19.636719 79.683594 21.082031 81.089844 22.621094 82.394531 C 16.375 75.003906 12.609375 65.453125 12.609375 55.023438 C 12.609375 31.597656 31.597656 12.609375 55.027344 12.609375 C 65.457031 12.609375 75.007812 16.375 82.394531 22.621094 C 74.617188 13.421875 62.992188 7.585938 50 7.585938 "/>
<path style=" stroke:none;fill-rule:nonzero;fill:rgb(72.941176%,23.921569%,12.54902%);fill-opacity:1;" d="M 70.148438 41.75 L 58.121094 29.722656 L 38.609375 44.785156 L 35.574219 41.75 L 33.367188 41.75 L 33.367188 55.449219 L 49.464844 64.359375 C 49.558594 64.804688 49.648438 65.277344 49.746094 65.753906 C 44.347656 64.765625 38.117188 63.277344 36.207031 61.40625 L 48.5 73.699219 L 47.480469 78.769531 L 59.949219 91.238281 C 74.453125 87.757812 86.054688 76.816406 90.480469 62.695312 C 90.527344 62.539062 90.578125 62.382812 90.625 62.222656 Z M 70.148438 41.75 "/>
<path style=" stroke:none;fill-rule:nonzero;fill:rgb(70.196078%,70.196078%,70.196078%);fill-opacity:1;" d="M 61.585938 37.667969 L 61.585938 47.128906 C 61.585938 53.433594 56.476562 58.546875 50.167969 58.546875 C 46.066406 58.546875 42.46875 56.382812 40.457031 53.132812 C 39.378906 51.386719 38.753906 49.328125 38.753906 47.128906 L 38.753906 37.667969 C 38.753906 31.367188 43.863281 26.253906 50.167969 26.253906 C 52.371094 26.253906 54.429688 26.878906 56.171875 27.960938 C 56.925781 28.425781 57.621094 28.976562 58.242188 29.597656 C 60.308594 31.664062 61.585938 34.515625 61.585938 37.667969 Z M 61.585938 37.667969 "/>
<path style=" stroke:none;fill-rule:nonzero;fill:rgb(100%,100%,100%);fill-opacity:1;" d="M 57.875 33.957031 L 57.875 43.417969 C 57.875 49.722656 52.761719 54.835938 46.457031 54.835938 C 44.257812 54.835938 42.199219 54.210938 40.457031 53.132812 C 39.378906 51.386719 38.753906 49.328125 38.753906 47.128906 L 38.753906 37.667969 C 38.753906 31.367188 43.863281 26.253906 50.167969 26.253906 C 52.371094 26.253906 54.429688 26.878906 56.171875 27.960938 C 57.25 29.703125 57.875 31.757812 57.875 33.957031 Z M 57.875 33.957031 "/>
<path style=" stroke:none;fill-rule:nonzero;fill:rgb(8.235294%,49.019608%,55.686275%);fill-opacity:1;" d="M 70.148438 41.75 L 64.765625 41.75 L 64.765625 47.128906 C 64.765625 55.179688 58.21875 61.726562 50.167969 61.726562 C 49.675781 61.726562 49.1875 61.703125 48.707031 61.65625 L 51.46875 64.417969 L 52.859375 64.417969 L 52.859375 65.808594 L 53.824219 66.773438 C 63.101562 65.054688 70.148438 56.898438 70.148438 47.128906 L 70.148438 41.75 "/>
<path style=" stroke:none;fill-rule:nonzero;fill:rgb(8.235294%,49.019608%,55.686275%);fill-opacity:1;" d="M 52.859375 64.417969 L 51.46875 64.417969 L 52.859375 65.808594 L 52.859375 64.417969 "/>
<path style=" stroke:none;fill-rule:nonzero;fill:rgb(10.980392%,64.313725%,72.941176%);fill-opacity:1;" d="M 70.148438 41.75 L 70.148438 47.128906 C 70.148438 56.898438 63.101562 65.054688 53.824219 66.773438 C 52.636719 66.996094 51.417969 67.109375 50.167969 67.109375 C 39.152344 67.109375 30.191406 58.144531 30.191406 47.128906 L 30.191406 41.75 L 35.574219 41.75 L 35.574219 47.128906 C 35.574219 54.683594 41.34375 60.917969 48.707031 61.65625 C 49.1875 61.703125 49.675781 61.726562 50.167969 61.726562 C 58.21875 61.726562 64.765625 55.179688 64.765625 47.128906 L 64.765625 41.75 L 70.148438 41.75 "/>
<path style=" stroke:none;fill-rule:nonzero;fill:rgb(10.980392%,64.313725%,72.941176%);fill-opacity:1;" d="M 52.859375 78.769531 L 47.480469 78.769531 L 47.480469 64.417969 L 52.859375 64.417969 L 52.859375 78.769531 "/>
</g>
</svg>
<!-- iconic normalized -->