<?xml version="1.0" encoding="UTF-8"?>
<svg xmlns="http://www.w3.org/2000/svg" xmlns:xlink="http://www.w3.org/1999/xlink" width="100px" height="100px" viewBox="0 0 100 100" version="1.1">
<g id="surface1">
<path style=" stroke:none;fill-rule:nonzero;fill:rgb(100%,74.509804%,0%);fill-opacity:1;" d="M 50 100 C 35.78125 100 22.191406 93.914062 12.714844 83.308594 C 4.515625 74.140625 0 62.3125 0 50 C 0 22.429688 22.429688 0 50 0 C 62.3125 0 74.140625 4.515625 83.3125 12.710938 C 93.917969 22.195312 100 35.785156 100 50 C 100 77.570312 77.570312 100 50 100 "/>
<path style=" stroke:none;fill-rule:nonzero;fill:rgb(95.686275%,31.372549%,16.470588%);fill-opacity:1;" d="M 92.417969 50 C 92.417969 54.421875 91.738281 58.6875 90.480469 62.695312 C 85.492188 78.621094 71.371094 90.503906 54.253906 92.203125 C 52.855469 92.34375 51.4375 92.414062 50.003906 92.414062 C 46.84375 92.414062 43.769531 92.070312 40.808594 91.414062 C 31.980469 89.464844 24.183594 84.761719 18.371094 78.253906 C 18.304688 78.183594 18.242188 78.109375 18.175781 78.039062 C 11.582031 70.5625 7.585938 60.75 7.585938 50 C 7.585938 26.574219 26.574219 7.582031 50.003906 7.582031 C 60.753906 7.582031 70.570312 11.582031 78.046875 18.171875 C 78.117188 18.238281 78.191406 18.304688 78.261719 18.367188 C 86.117188 25.394531 91.34375 35.300781 92.269531 46.433594 C 92.367188 47.609375 92.417969 48.796875 92.417969 50 "/>
<path style=" stroke:none;fill-rule:nonzero;fill:rgb(76.078431%,56.862745%,0%);fill-opacity:1;" d="M 18.179688 78.042969 C 19.320312 79.335938 20.539062 80.558594 21.828125 81.703125 C 20.609375 80.621094 19.457031 79.46875 18.371094 78.253906 C 18.308594 78.183594 18.246094 78.113281 18.179688 78.042969 M 17.816406 77.625 C 17.816406 77.628906 17.820312 77.628906 17.820312 77.632812 C 17.820312 77.628906 17.816406 77.628906 17.816406 77.625 M 17.738281 77.535156 C 17.75 77.550781 17.761719 77.5625 17.773438 77.578125 C 17.761719 77.5625 17.75 77.550781 17.738281 77.535156 M 17.652344 77.4375 C 17.667969 77.453125 17.683594 77.472656 17.699219 77.488281 C 17.683594 77.472656 17.667969 77.453125 17.652344 77.4375 M 17.570312 77.335938 C 17.589844 77.363281 17.613281 77.390625 17.636719 77.417969 C 17.613281 77.390625 17.589844 77.363281 17.570312 77.335938 M 39.019531 9.019531 C 20.917969 13.855469 7.585938 30.371094 7.585938 49.996094 C 7.585938 60.410156 11.335938 69.949219 17.5625 77.328125 C 11.335938 69.945312 7.585938 60.410156 7.585938 50 C 7.585938 30.371094 20.917969 13.855469 39.019531 9.019531 "/>
<path style=" stroke:none;fill-rule:nonzero;fill:rgb(72.941176%,23.921569%,12.54902%);fill-opacity:1;" d="M 50 7.582031 C 46.203125 7.582031 42.523438 8.082031 39.019531 9.019531 C 20.917969 13.855469 7.585938 30.371094 7.585938 50 C 7.585938 60.410156 11.335938 69.945312 17.5625 77.328125 C 17.566406 77.332031 17.566406 77.332031 17.570312 77.335938 C 17.589844 77.363281 17.613281 77.390625 17.636719 77.417969 C 17.644531 77.421875 17.648438 77.429688 17.652344 77.4375 C 17.667969 77.453125 17.683594 77.472656 17.699219 77.488281 C 17.710938 77.503906 17.726562 77.519531 17.738281 77.535156 C 17.75 77.550781 17.761719 77.5625 17.773438 77.578125 C 17.789062 77.59375 17.800781 77.609375 17.816406 77.625 C 17.816406 77.628906 17.820312 77.628906 17.820312 77.632812 C 17.941406 77.769531 18.058594 77.90625 18.179688 78.042969 C 18.246094 78.113281 18.308594 78.183594 18.371094 78.253906 C 19.457031 79.46875 20.609375 80.621094 21.828125 81.703125 C 22.089844 81.9375 22.355469 82.167969 22.621094 82.394531 C 16.375 75.003906 12.609375 65.453125 12.609375 55.023438 C 12.609375 41.632812 18.816406 29.691406 28.507812 21.917969 L 28.507812 20.886719 L 29.847656 20.886719 C 36.886719 15.683594 45.597656 12.609375 55.027344 12.609375 C 65.457031 12.609375 75.007812 16.375 82.394531 22.621094 C 74.617188 13.421875 62.992188 7.582031 50 7.582031 "/>
<path style=" stroke:none;fill-rule:nonzero;fill:rgb(72.941176%,23.921569%,12.54902%);fill-opacity:1;" d="M 38.046875 69.570312 L 33.886719 69.570312 L 33.886719 73.730469 L 38.046875 73.730469 L 38.046875 69.570312 M 43.429688 20.886719 L 29.847656 20.886719 C 29.390625 21.222656 28.945312 21.566406 28.507812 21.917969 L 28.507812 35.8125 L 35.234375 42.539062 L 43.429688 42.539062 L 43.429688 57.460938 L 28.503906 57.460938 L 28.507812 57.460938 L 35.234375 64.1875 L 43.429688 64.1875 L 43.429688 68.957031 L 66.113281 68.957031 L 66.113281 31.039062 L 57.007812 31.039062 L 57.007812 37.453125 L 55.070312 35.519531 L 47.878906 28.347656 L 49.386719 26.847656 L 49.386719 26.84375 L 43.429688 20.886719 "/>
<path style=" stroke:none;fill-rule:nonzero;fill:rgb(55.686275%,18.039216%,9.411765%);fill-opacity:1;" d="M 29.847656 20.886719 L 28.507812 20.886719 L 28.507812 21.917969 C 28.945312 21.566406 29.390625 21.222656 29.847656 20.886719 "/>
<path style=" stroke:none;fill-rule:nonzero;fill:rgb(72.941176%,23.921569%,12.54902%);fill-opacity:1;" d="M 38.046875 47.921875 L 33.886719 47.921875 L 33.886719 52.078125 L 38.046875 52.078125 L 38.046875 47.921875 "/>
<path style=" stroke:none;fill-rule:nonzero;fill:rgb(72.941176%,23.921569%,12.54902%);fill-opacity:1;" d="M 28.503906 79.113281 L 28.507812 79.113281 M 71.492188 25.65625 L 71.492188 74.339844 L 43.429688 74.339844 L 43.429688 79.113281 L 28.503906 79.113281 L 40.808594 91.414062 C 43.769531 92.070312 46.84375 92.414062 50.003906 92.414062 C 51.4375 92.414062 52.855469 92.34375 54.253906 92.203125 C 71.371094 90.5 85.492188 78.621094 90.480469 62.695312 C 91.738281 58.6875 92.414062 54.421875 92.414062 50 C 92.414062 48.796875 92.367188 47.609375 92.269531 46.433594 L 71.492188 25.65625 "/>
<path style=" stroke:none;fill-rule:nonzero;fill:rgb(10.980392%,64.313725%,72.941176%);fill-opacity:1;" d="M 28.503906 20.886719 L 28.503906 35.808594 L 43.429688 35.808594 L 43.429688 20.886719 C 43.429688 20.886719 28.503906 20.886719 28.503906 20.886719 Z M 38.046875 30.425781 L 33.886719 30.425781 L 33.886719 26.269531 L 38.046875 26.269531 Z M 38.046875 30.425781 "/>
<path style=" stroke:none;fill-rule:nonzero;fill:rgb(10.980392%,64.313725%,72.941176%);fill-opacity:1;" d="M 28.503906 42.539062 L 28.503906 57.460938 L 43.429688 57.460938 L 43.429688 42.539062 L 28.503906 42.539062 M 38.046875 52.078125 L 33.886719 52.078125 L 33.886719 47.921875 L 38.046875 47.921875 L 38.046875 52.078125 "/>
<path style=" stroke:none;fill-rule:nonzero;fill:rgb(10.980392%,64.313725%,72.941176%);fill-opacity:1;" d="M 28.503906 64.1875 L 28.503906 79.113281 L 43.429688 79.113281 L 43.429688 64.1875 L 28.503906 64.1875 M 38.046875 73.730469 L 33.886719 73.730469 L 33.886719 69.570312 L 38.046875 69.570312 L 38.046875 73.730469 "/>
<path style=" stroke:none;fill-rule:nonzero;fill:rgb(72.941176%,23.921569%,12.54902%);fill-opacity:1;" d="M 57.007812 19.246094 L 57.007812 25.65625 L 63.417969 25.65625 L 57.007812 19.246094 "/>
<path style=" stroke:none;fill-rule:nonzero;fill:rgb(8.235294%,49.019608%,55.686275%);fill-opacity:1;" d="M 43.429688 42.539062 L 35.234375 42.539062 L 43.429688 50.734375 L 43.429688 42.539062 "/>
<path style=" stroke:none;fill-rule:nonzero;fill:rgb(76.078431%,76.078431%,76.078431%);fill-opacity:1;" d="M 49.386719 26.847656 L 47.878906 28.347656 L 55.070312 35.519531 L 57.007812 37.453125 L 57.007812 34.464844 L 49.386719 26.847656 "/>
<path style=" stroke:none;fill-rule:nonzero;fill:rgb(8.235294%,49.019608%,55.686275%);fill-opacity:1;" d="M 43.429688 64.1875 L 35.234375 64.1875 L 43.429688 72.386719 L 43.429688 64.1875 "/>
<path style=" stroke:none;fill-rule:nonzero;fill:rgb(76.078431%,76.078431%,76.078431%);fill-opacity:1;" d="M 66.113281 43.574219 L 66.113281 68.957031 L 43.429688 68.957031 L 43.429688 74.339844 L 71.492188 74.339844 L 71.492188 48.953125 L 66.113281 43.574219 "/>
<path style=" stroke:none;fill-rule:nonzero;fill:rgb(100%,100%,100%);fill-opacity:1;" d="M 71.492188 25.65625 L 71.492188 74.339844 L 43.429688 74.339844 L 43.429688 68.957031 L 66.113281 68.957031 L 66.113281 31.039062 L 54.125 31.039062 L 54.125 25.65625 L 71.492188 25.65625 "/>
<path style=" stroke:none;fill-rule:nonzero;fill:rgb(100%,100%,100%);fill-opacity:1;" d="M 57.007812 19.246094 L 57.007812 37.453125 L 55.070312 35.519531 L 47.878906 28.347656 L 49.386719 26.847656 L 55.070312 21.179688 L 57.007812 19.246094 "/>
</g>
</svg>
<!-- iconic normalized -->