<?xml version="1.0" encoding="UTF-8"?>
<svg xmlns="http://www.w3.org/2000/svg" xmlns:xlink="http://www.w3.org/1999/xlink" width="100px" height="100px" viewBox="0 0 100 100" version="1.1">
<g id="surface1">
<path style=" stroke:none;fill-rule:nonzero;fill:rgb(100%,74.509804%,0%);fill-opacity:1;" d="M 50 100 C 35.78125 100 22.191406 93.914062 12.714844 83.308594 C 4.515625 74.140625 0 62.3125 0 50 C 0 22.429688 22.429688 0 50 0 C 62.3125 0 74.140625 4.515625 83.3125 12.710938 C 93.917969 22.195312 100 35.785156 100 50 C 100 77.570312 77.570312 100 50 100 "/>
<path style=" stroke:none;fill-rule:nonzero;fill:rgb(95.686275%,31.372549%,16.470588%);fill-opacity:1;" d="M 92.414062 50 C 92.414062 50.988281 92.378906 51.972656 92.3125 52.941406 C 92.082031 56.320312 91.453125 59.585938 90.480469 62.695312 C 85.492188 78.621094 71.371094 90.503906 54.25 92.203125 C 53.742188 92.253906 53.230469 92.296875 52.714844 92.332031 C 51.816406 92.386719 50.914062 92.414062 50 92.414062 C 37.425781 92.414062 26.132812 86.945312 18.367188 78.253906 C 18.304688 78.183594 18.242188 78.113281 18.175781 78.039062 C 11.582031 70.5625 7.582031 60.75 7.582031 50 C 7.582031 26.574219 26.574219 7.582031 50 7.582031 C 60.75 7.582031 70.566406 11.582031 78.042969 18.175781 C 78.113281 18.238281 78.1875 18.304688 78.257812 18.367188 C 86.945312 26.136719 92.414062 37.425781 92.414062 50 "/>
<path style=" stroke:none;fill-rule:nonzero;fill:rgb(76.078431%,56.862745%,0%);fill-opacity:1;" d="M 18.242188 78.117188 C 18.273438 78.152344 18.304688 78.1875 18.335938 78.222656 C 18.304688 78.1875 18.273438 78.152344 18.242188 78.117188 M 14.582031 26.652344 C 14.570312 26.667969 14.558594 26.691406 14.546875 26.707031 C 14.558594 26.6875 14.570312 26.671875 14.582031 26.652344 M 14.679688 26.503906 C 14.660156 26.535156 14.636719 26.570312 14.613281 26.601562 C 14.636719 26.570312 14.660156 26.535156 14.679688 26.503906 M 25.011719 15.722656 C 20.96875 18.675781 17.46875 22.324219 14.683594 26.496094 C 17.46875 22.324219 20.96875 18.675781 25.011719 15.722656 M 25.089844 15.664062 C 25.070312 15.679688 25.050781 15.695312 25.03125 15.707031 C 25.050781 15.691406 25.070312 15.679688 25.089844 15.664062 M 25.171875 15.605469 C 25.160156 15.613281 25.148438 15.621094 25.132812 15.632812 C 25.148438 15.621094 25.160156 15.613281 25.171875 15.605469 M 25.253906 15.546875 C 25.25 15.550781 25.242188 15.554688 25.238281 15.558594 C 25.246094 15.554688 25.246094 15.550781 25.253906 15.546875 M 64.515625 10.132812 C 64.519531 10.132812 64.519531 10.132812 64.523438 10.136719 C 64.519531 10.132812 64.519531 10.132812 64.515625 10.132812 M 64.292969 10.050781 C 64.300781 10.054688 64.3125 10.058594 64.324219 10.0625 C 64.3125 10.058594 64.300781 10.054688 64.292969 10.050781 M 64.164062 10.007812 C 64.179688 10.011719 64.191406 10.015625 64.207031 10.019531 C 64.191406 10.015625 64.179688 10.011719 64.164062 10.007812 M 64.039062 9.960938 C 64.066406 9.972656 64.089844 9.980469 64.117188 9.988281 C 64.089844 9.980469 64.066406 9.972656 64.039062 9.960938 M 63.933594 9.925781 C 63.957031 9.933594 63.976562 9.941406 63.996094 9.945312 C 63.976562 9.941406 63.957031 9.933594 63.933594 9.925781 M 63.816406 9.882812 C 63.839844 9.890625 63.863281 9.898438 63.882812 9.910156 C 63.863281 9.898438 63.839844 9.890625 63.816406 9.882812 M 63.695312 9.84375 C 63.722656 9.851562 63.753906 9.863281 63.78125 9.871094 C 63.753906 9.863281 63.722656 9.851562 63.695312 9.84375 M 63.578125 9.804688 C 63.605469 9.8125 63.636719 9.824219 63.664062 9.832031 C 63.636719 9.824219 63.605469 9.8125 63.578125 9.804688 M 63.464844 9.765625 C 63.5 9.777344 63.535156 9.789062 63.566406 9.800781 C 63.535156 9.789062 63.5 9.777344 63.464844 9.765625 M 63.347656 9.726562 C 63.382812 9.738281 63.414062 9.75 63.449219 9.761719 C 63.414062 9.75 63.382812 9.738281 63.347656 9.726562 M 63.121094 9.652344 C 63.191406 9.675781 63.261719 9.699219 63.332031 9.722656 C 63.261719 9.699219 63.191406 9.675781 63.121094 9.652344 M 50.628906 7.589844 C 54.980469 7.652344 59.171875 8.371094 63.113281 9.648438 C 59.171875 8.371094 54.980469 7.652344 50.628906 7.589844 M 50.503906 7.585938 C 50.546875 7.585938 50.585938 7.585938 50.628906 7.589844 C 50.585938 7.585938 50.546875 7.585938 50.503906 7.585938 M 50.257812 7.585938 C 50.339844 7.585938 50.417969 7.585938 50.5 7.585938 C 50.417969 7.585938 50.339844 7.585938 50.257812 7.585938 M 50.132812 7.582031 C 50.171875 7.582031 50.210938 7.585938 50.25 7.585938 C 50.210938 7.585938 50.171875 7.585938 50.132812 7.582031 M 50 7.582031 C 50.039062 7.582031 50.078125 7.582031 50.117188 7.582031 C 50.078125 7.582031 50.039062 7.582031 50 7.582031 "/>
<path style=" stroke:none;fill-rule:nonzero;fill:rgb(72.941176%,23.921569%,12.54902%);fill-opacity:1;" d="M 50 7.582031 C 40.765625 7.582031 32.21875 10.535156 25.253906 15.546875 C 25.246094 15.550781 25.242188 15.554688 25.238281 15.558594 C 25.21875 15.574219 25.195312 15.589844 25.171875 15.605469 C 25.160156 15.613281 25.148438 15.621094 25.136719 15.632812 C 25.121094 15.644531 25.105469 15.652344 25.089844 15.664062 C 25.070312 15.679688 25.050781 15.691406 25.03125 15.707031 C 25.023438 15.710938 25.019531 15.71875 25.011719 15.722656 C 20.96875 18.675781 17.46875 22.324219 14.683594 26.496094 C 14.683594 26.5 14.683594 26.5 14.679688 26.503906 C 14.660156 26.535156 14.636719 26.570312 14.613281 26.601562 C 14.605469 26.621094 14.59375 26.632812 14.582031 26.652344 C 14.570312 26.671875 14.558594 26.6875 14.546875 26.707031 C 10.144531 33.394531 7.585938 41.394531 7.585938 49.996094 C 7.585938 60.785156 11.609375 70.632812 18.242188 78.117188 C 18.273438 78.152344 18.304688 78.1875 18.335938 78.222656 C 19.664062 79.710938 21.097656 81.105469 22.621094 82.394531 C 16.375 75.003906 12.609375 65.453125 12.609375 55.023438 C 12.609375 31.597656 31.597656 12.609375 55.027344 12.609375 C 65.457031 12.609375 75.007812 16.375 82.394531 22.621094 C 77.671875 17.035156 71.527344 12.6875 64.523438 10.132812 C 64.519531 10.132812 64.519531 10.132812 64.515625 10.132812 C 64.453125 10.109375 64.390625 10.085938 64.324219 10.0625 C 64.3125 10.058594 64.300781 10.054688 64.292969 10.050781 C 64.261719 10.039062 64.234375 10.03125 64.207031 10.019531 C 64.191406 10.015625 64.179688 10.011719 64.164062 10.003906 C 64.148438 10 64.132812 9.992188 64.117188 9.988281 C 64.089844 9.980469 64.066406 9.96875 64.039062 9.960938 C 64.023438 9.957031 64.011719 9.953125 63.996094 9.945312 C 63.976562 9.9375 63.957031 9.933594 63.933594 9.925781 C 63.917969 9.917969 63.902344 9.914062 63.886719 9.90625 C 63.863281 9.898438 63.839844 9.890625 63.816406 9.882812 C 63.804688 9.878906 63.792969 9.875 63.78125 9.871094 C 63.753906 9.863281 63.722656 9.851562 63.695312 9.84375 C 63.683594 9.839844 63.675781 9.835938 63.664062 9.832031 C 63.636719 9.824219 63.605469 9.8125 63.578125 9.800781 C 63.574219 9.800781 63.570312 9.800781 63.566406 9.800781 C 63.535156 9.789062 63.5 9.777344 63.46875 9.765625 C 63.460938 9.761719 63.457031 9.761719 63.449219 9.757812 C 63.417969 9.75 63.382812 9.738281 63.347656 9.726562 C 63.34375 9.722656 63.339844 9.722656 63.332031 9.722656 C 63.261719 9.699219 63.191406 9.675781 63.121094 9.652344 C 63.117188 9.652344 63.117188 9.648438 63.113281 9.648438 C 59.171875 8.371094 54.980469 7.652344 50.628906 7.589844 C 50.585938 7.585938 50.546875 7.585938 50.503906 7.585938 C 50.503906 7.585938 50.503906 7.585938 50.5 7.585938 C 50.417969 7.585938 50.339844 7.585938 50.257812 7.585938 C 50.253906 7.585938 50.25 7.585938 50.25 7.585938 C 50.210938 7.582031 50.171875 7.582031 50.132812 7.582031 C 50.128906 7.582031 50.121094 7.582031 50.117188 7.582031 C 50.078125 7.582031 50.039062 7.582031 50 7.582031 "/>
<path style=" stroke:none;fill-rule:nonzero;fill:rgb(72.941176%,23.921569%,12.54902%);fill-opacity:1;" d="M 70.578125 31.210938 C 71.234375 31.921875 72.429688 33.445312 72.429688 33.445312 C 72.648438 33.738281 35.25 74.851562 30.207031 69.789062 L 30.191406 69.808594 L 52.714844 92.332031 C 53.230469 92.296875 53.742188 92.253906 54.253906 92.203125 C 71.371094 90.503906 85.492188 78.621094 90.480469 62.695312 C 91.453125 59.585938 92.082031 56.320312 92.3125 52.941406 L 70.578125 31.210938 "/>
<path style=" stroke:none;fill-rule:nonzero;fill:rgb(25.882353%,72.941176%,77.647059%);fill-opacity:1;" d="M 74.554688 36.777344 C 76.703125 40.734375 77.925781 45.269531 77.925781 50.085938 C 77.925781 55.199219 76.550781 59.992188 74.152344 64.117188 L 58.097656 64.117188 L 66.199219 50.085938 L 73.84375 36.839844 L 74.554688 36.777344 "/>
<path style=" stroke:none;fill-rule:nonzero;fill:rgb(25.882353%,72.941176%,77.647059%);fill-opacity:1;" d="M 74.554688 36.777344 L 73.84375 36.839844 L 66.199219 50.085938 L 58.097656 36.058594 L 50.074219 22.160156 C 60.644531 22.191406 69.839844 28.09375 74.554688 36.777344 "/>
<path style=" stroke:none;fill-rule:nonzero;fill:rgb(25.882353%,72.941176%,77.647059%);fill-opacity:1;" d="M 74.152344 64.117188 C 69.824219 71.554688 62.15625 76.808594 53.203125 77.832031 C 52.152344 77.953125 51.082031 78.011719 50 78.011719 L 49.925781 78.011719 L 41.902344 64.117188 L 74.152344 64.117188 "/>
<path style=" stroke:none;fill-rule:nonzero;fill:rgb(30.196078%,30.196078%,30.196078%);fill-opacity:1;" d="M 58.097656 36.058594 L 66.199219 50.085938 L 58.097656 64.117188 L 41.898438 64.117188 L 33.800781 50.085938 L 41.898438 36.058594 L 58.097656 36.058594 "/>
<path style=" stroke:none;fill-rule:nonzero;fill:rgb(94.901961%,94.901961%,94.901961%);fill-opacity:1;" d="M 58.097656 36.058594 L 66.199219 50.085938 L 58.097656 36.058594 "/>
<path style=" stroke:none;fill-rule:nonzero;fill:rgb(25.882353%,72.941176%,77.647059%);fill-opacity:1;" d="M 50.074219 22.160156 L 58.097656 36.058594 L 25.847656 36.058594 C 30.683594 27.75 39.691406 22.160156 50 22.160156 C 50.023438 22.160156 50.050781 22.160156 50.074219 22.160156 "/>
<path style=" stroke:none;fill-rule:nonzero;fill:rgb(25.882353%,72.941176%,77.647059%);fill-opacity:1;" d="M 41.902344 64.117188 L 49.925781 78.011719 C 39.59375 77.988281 30.582031 72.351562 25.777344 63.992188 L 33.800781 50.085938 L 41.898438 64.117188 L 41.902344 64.117188 "/>
<path style=" stroke:none;fill-rule:nonzero;fill:rgb(25.882353%,72.941176%,77.647059%);fill-opacity:1;" d="M 41.898438 36.058594 L 33.800781 50.085938 L 25.777344 63.992188 C 23.421875 59.894531 22.074219 55.148438 22.074219 50.085938 C 22.074219 44.976562 23.449219 40.183594 25.847656 36.058594 L 41.898438 36.058594 "/>
<path style=" stroke:none;fill-rule:nonzero;fill:rgb(19.607843%,55.686275%,59.215686%);fill-opacity:1;" d="M 45.210938 64.117188 L 41.902344 64.117188 L 49.925781 78.011719 L 50 78.011719 C 51.082031 78.011719 52.152344 77.953125 53.203125 77.832031 L 45.210938 64.117188 "/>
<path style=" stroke:none;fill-rule:nonzero;fill:rgb(72.941176%,23.921569%,12.54902%);fill-opacity:1;" d="M 49.328125 22.167969 C 48.472656 22.191406 47.628906 22.246094 46.796875 22.34375 C 47.628906 22.25 48.476562 22.191406 49.328125 22.167969 M 49.429688 22.167969 C 49.402344 22.167969 49.378906 22.167969 49.351562 22.167969 C 49.378906 22.167969 49.402344 22.167969 49.429688 22.167969 M 49.511719 22.164062 C 49.496094 22.167969 49.484375 22.167969 49.46875 22.167969 C 49.484375 22.167969 49.496094 22.167969 49.511719 22.164062 M 49.613281 22.164062 C 49.601562 22.164062 49.59375 22.164062 49.582031 22.164062 C 49.59375 22.164062 49.601562 22.164062 49.613281 22.164062 M 49.699219 22.164062 C 49.695312 22.164062 49.6875 22.164062 49.683594 22.164062 C 49.6875 22.164062 49.695312 22.164062 49.699219 22.164062 M 49.804688 22.164062 C 49.796875 22.164062 49.792969 22.164062 49.785156 22.164062 C 49.792969 22.164062 49.796875 22.164062 49.804688 22.164062 M 49.910156 22.160156 C 49.902344 22.160156 49.898438 22.160156 49.890625 22.160156 C 49.898438 22.160156 49.902344 22.160156 49.910156 22.160156 "/>
<path style=" stroke:none;fill-rule:nonzero;fill:rgb(19.607843%,55.686275%,59.215686%);fill-opacity:1;" d="M 50.074219 22.160156 C 50.050781 22.160156 50.023438 22.160156 50 22.160156 C 49.96875 22.160156 49.9375 22.160156 49.910156 22.160156 C 49.902344 22.160156 49.898438 22.160156 49.890625 22.160156 C 49.863281 22.160156 49.832031 22.164062 49.804688 22.164062 C 49.796875 22.164062 49.792969 22.164062 49.785156 22.164062 C 49.757812 22.164062 49.726562 22.164062 49.699219 22.164062 C 49.695312 22.164062 49.6875 22.164062 49.683594 22.164062 C 49.660156 22.164062 49.636719 22.164062 49.613281 22.164062 C 49.601562 22.164062 49.59375 22.164062 49.582031 22.164062 C 49.558594 22.164062 49.535156 22.164062 49.511719 22.164062 C 49.496094 22.167969 49.484375 22.167969 49.46875 22.167969 C 49.453125 22.167969 49.441406 22.167969 49.429688 22.167969 C 49.402344 22.167969 49.378906 22.167969 49.351562 22.167969 C 49.34375 22.167969 49.335938 22.167969 49.328125 22.167969 C 48.472656 22.191406 47.628906 22.246094 46.796875 22.34375 L 54.789062 36.058594 L 58.097656 36.058594 L 50.074219 22.160156 "/>
<path style=" stroke:none;fill-rule:nonzero;fill:rgb(23.137255%,23.137255%,23.137255%);fill-opacity:1;" d="M 41.898438 36.058594 L 40.246094 38.925781 L 41.898438 36.058594 "/>
<path style=" stroke:none;fill-rule:nonzero;fill:rgb(19.607843%,55.686275%,59.215686%);fill-opacity:1;" d="M 41.898438 36.058594 L 25.851562 36.058594 L 25.816406 36.125 C 25.273438 37.0625 24.792969 38.019531 24.371094 38.988281 L 40.246094 38.925781 L 41.898438 36.058594 "/>
<path style=" stroke:none;fill-rule:nonzero;fill:rgb(19.607843%,55.686275%,59.215686%);fill-opacity:1;" d="M 75.628906 61.1875 L 59.75 61.25 L 58.097656 64.117188 L 74.144531 64.117188 L 74.183594 64.050781 C 74.722656 63.113281 75.207031 62.15625 75.628906 61.1875 "/>
<path style=" stroke:none;fill-rule:nonzero;fill:rgb(23.137255%,23.137255%,23.137255%);fill-opacity:1;" d="M 59.75 61.25 L 58.097656 64.117188 L 59.75 61.25 "/>
<path style=" stroke:none;fill-rule:nonzero;fill:rgb(72.941176%,23.921569%,12.54902%);fill-opacity:1;" d="M 27.113281 66.09375 C 27.261719 66.308594 27.417969 66.523438 27.570312 66.730469 L 27.574219 66.730469 C 27.417969 66.519531 27.261719 66.308594 27.113281 66.09375 "/>
<path style=" stroke:none;fill-rule:nonzero;fill:rgb(23.137255%,23.137255%,23.137255%);fill-opacity:1;" d="M 33.800781 50.085938 L 35.457031 52.953125 L 33.800781 50.085938 "/>
<path style=" stroke:none;fill-rule:nonzero;fill:rgb(19.607843%,55.686275%,59.215686%);fill-opacity:1;" d="M 33.800781 50.085938 L 25.777344 63.988281 L 25.8125 64.050781 C 26.222656 64.753906 26.65625 65.4375 27.113281 66.09375 C 27.261719 66.308594 27.417969 66.519531 27.574219 66.730469 L 35.457031 52.953125 L 33.800781 50.085938 "/>
<path style=" stroke:none;fill-rule:nonzero;fill:rgb(19.607843%,55.686275%,59.215686%);fill-opacity:1;" d="M 33.800781 50.085938 L 25.777344 63.984375 L 25.777344 63.988281 L 33.800781 50.085938 "/>
<path style=" stroke:none;fill-rule:nonzero;fill:rgb(55.686275%,18.039216%,9.411765%);fill-opacity:1;" d="M 72.429688 33.445312 L 72.425781 33.445312 C 72.648438 33.742188 72.859375 34.042969 73.070312 34.347656 C 72.859375 34.039062 72.648438 33.738281 72.429688 33.445312 "/>
<path style=" stroke:none;fill-rule:nonzero;fill:rgb(19.607843%,55.686275%,59.215686%);fill-opacity:1;" d="M 73.851562 36.839844 L 73.84375 36.839844 L 66.199219 50.085938 L 73.851562 36.839844 "/>
<path style=" stroke:none;fill-rule:nonzero;fill:rgb(19.607843%,55.686275%,59.215686%);fill-opacity:1;" d="M 72.425781 33.445312 L 64.542969 47.222656 L 66.199219 50.085938 L 73.84375 36.839844 L 73.851562 36.839844 L 74.222656 36.191406 L 74.1875 36.125 C 73.832031 35.515625 73.460938 34.921875 73.070312 34.347656 C 72.863281 34.042969 72.648438 33.742188 72.425781 33.445312 "/>
</g>
</svg>
<!-- iconic normalized -->