<?xml version="1.0" encoding="UTF-8"?>
<svg xmlns="http://www.w3.org/2000/svg" xmlns:xlink="http://www.w3.org/1999/xlink" width="100px" height="100px" viewBox="0 0 100 100" version="1.1">
<g id="surface1">
<path style=" stroke:none;fill-rule:nonzero;fill:rgb(91.764706%,84.705882%,73.333333%);fill-opacity:1;" d="M 20.691406 0 C 16.714844 0 13.414062 3.03125 12.984375 6.898438 L 12.929688 8.621094 C 12.929688 12.414062 16.035156 15.515625 19.828125 15.515625 L 30.171875 15.515625 L 33.621094 8.621094 L 54.308594 8.621094 L 50.929688 15.382812 C 50.898438 15.445312 50.945312 15.515625 51.015625 15.515625 L 87.070312 15.515625 L 87.070312 0 Z M 20.691406 0 "/>
<path style=" stroke:none;fill-rule:nonzero;fill:rgb(41.960784%,28.235294%,25.882353%);fill-opacity:1;" d="M 50.863281 15.515625 L 50.863281 60.691406 C 50.863281 61.5625 49.714844 61.882812 49.265625 61.132812 L 40.515625 46.550781 L 31.765625 61.132812 C 31.320312 61.882812 30.171875 61.5625 30.171875 60.691406 L 30.171875 15.515625 L 19.828125 15.515625 C 16.035156 15.515625 12.929688 12.414062 12.929688 8.621094 L 12.929688 93.03125 C 12.929688 96.878906 16.050781 100 19.898438 100 L 87.070312 100 L 87.070312 15.515625 Z M 50.863281 15.515625 "/>
<path style=" stroke:none;fill-rule:nonzero;fill:rgb(31.764706%,20.784314%,19.215686%);fill-opacity:1;" d="M 21.550781 15.515625 L 19.828125 15.515625 C 16.035156 15.515625 12.929688 12.414062 12.929688 8.621094 L 12.929688 93.03125 C 12.929688 96.878906 16.050781 100 19.898438 100 L 21.550781 100 Z M 21.550781 15.515625 "/>
<path style=" stroke:none;fill-rule:nonzero;fill:rgb(82.745098%,74.509804%,63.137255%);fill-opacity:1;" d="M 87.070312 3.449219 L 71.550781 3.449219 C 70.597656 3.449219 69.828125 4.21875 69.828125 5.171875 C 69.828125 6.125 70.597656 6.898438 71.550781 6.898438 L 87.070312 6.898438 Z M 87.070312 3.449219 "/>
<path style=" stroke:none;fill-rule:nonzero;fill:rgb(82.745098%,74.509804%,63.137255%);fill-opacity:1;" d="M 87.070312 8.621094 L 73.277344 8.621094 C 72.324219 8.621094 71.550781 9.390625 71.550781 10.34375 C 71.550781 11.296875 72.324219 12.070312 73.277344 12.070312 L 87.070312 12.070312 Z M 87.070312 8.621094 "/>
<path style=" stroke:none;fill-rule:nonzero;fill:rgb(86.666667%,20.784314%,18.039216%);fill-opacity:1;" d="M 33.621094 8.621094 L 30.171875 15.515625 L 30.171875 60.691406 C 30.171875 61.5625 31.320312 61.882812 31.765625 61.132812 L 40.515625 46.550781 L 49.265625 61.132812 C 49.714844 61.882812 50.863281 61.5625 50.863281 60.691406 L 50.863281 15.515625 L 54.308594 8.621094 Z M 33.621094 8.621094 "/>
<path style=" stroke:none;fill-rule:nonzero;fill:rgb(69.019608%,15.294118%,12.941176%);fill-opacity:1;" d="M 33.621094 8.621094 L 30.171875 15.515625 L 50.863281 15.515625 L 54.308594 8.621094 Z M 33.621094 8.621094 "/>
</g>
</svg>
<!-- iconic normalized -->