<?xml version="1.0" encoding="UTF-8"?>
<svg xmlns="http://www.w3.org/2000/svg" xmlns:xlink="http://www.w3.org/1999/xlink" width="100px" height="100px" viewBox="0 0 100 100" version="1.1">
<g id="surface1">
<path style=" stroke:none;fill-rule:nonzero;fill:rgb(92.941176%,91.764706%,85.490196%);fill-opacity:1;" d="M 47.414062 6.898438 L 47.414062 48.277344 L 33.621094 37.929688 L 19.828125 48.277344 L 19.828125 6.898438 L 7.757812 6.898438 L 7.757812 100 L 92.242188 100 L 92.242188 6.898438 Z M 47.414062 6.898438 "/>
<path style=" stroke:none;fill-rule:nonzero;fill:rgb(80.784314%,78.823529%,68.235294%);fill-opacity:1;" d="M 80.171875 60.34375 L 19.828125 60.34375 C 18.875 60.34375 18.101562 61.117188 18.101562 62.070312 C 18.101562 63.023438 18.875 63.792969 19.828125 63.792969 L 80.171875 63.792969 C 81.125 63.792969 81.898438 63.023438 81.898438 62.070312 C 81.898438 61.117188 81.125 60.34375 80.171875 60.34375 Z M 80.171875 60.34375 "/>
<path style=" stroke:none;fill-rule:nonzero;fill:rgb(80.784314%,78.823529%,68.235294%);fill-opacity:1;" d="M 80.171875 48.277344 L 57.757812 48.277344 C 56.804688 48.277344 56.035156 49.046875 56.035156 50 C 56.035156 50.953125 56.804688 51.722656 57.757812 51.722656 L 80.171875 51.722656 C 81.125 51.722656 81.898438 50.953125 81.898438 50 C 81.898438 49.046875 81.125 48.277344 80.171875 48.277344 Z M 80.171875 48.277344 "/>
<path style=" stroke:none;fill-rule:nonzero;fill:rgb(80.784314%,78.823529%,68.235294%);fill-opacity:1;" d="M 80.171875 36.207031 L 57.757812 36.207031 C 56.804688 36.207031 56.035156 36.976562 56.035156 37.929688 C 56.035156 38.882812 56.804688 39.65625 57.757812 39.65625 L 80.171875 39.65625 C 81.125 39.65625 81.898438 38.882812 81.898438 37.929688 C 81.898438 36.976562 81.125 36.207031 80.171875 36.207031 Z M 80.171875 36.207031 "/>
<path style=" stroke:none;fill-rule:nonzero;fill:rgb(80.784314%,78.823529%,68.235294%);fill-opacity:1;" d="M 57.757812 27.585938 L 80.171875 27.585938 C 81.125 27.585938 81.898438 26.816406 81.898438 25.863281 C 81.898438 24.910156 81.125 24.136719 80.171875 24.136719 L 57.757812 24.136719 C 56.804688 24.136719 56.035156 24.910156 56.035156 25.863281 C 56.035156 26.816406 56.804688 27.585938 57.757812 27.585938 Z M 57.757812 27.585938 "/>
<path style=" stroke:none;fill-rule:nonzero;fill:rgb(80.784314%,78.823529%,68.235294%);fill-opacity:1;" d="M 80.171875 81.035156 L 19.828125 81.035156 C 18.875 81.035156 18.101562 81.804688 18.101562 82.757812 C 18.101562 83.710938 18.875 84.484375 19.828125 84.484375 L 80.171875 84.484375 C 81.125 84.484375 81.898438 83.710938 81.898438 82.757812 C 81.898438 81.804688 81.125 81.035156 80.171875 81.035156 Z M 80.171875 81.035156 "/>
<path style=" stroke:none;fill-rule:nonzero;fill:rgb(80.784314%,78.823529%,68.235294%);fill-opacity:1;" d="M 19.828125 74.136719 L 43.964844 74.136719 C 44.917969 74.136719 45.691406 73.367188 45.691406 72.414062 C 45.691406 71.460938 44.917969 70.691406 43.964844 70.691406 L 19.828125 70.691406 C 18.875 70.691406 18.101562 71.460938 18.101562 72.414062 C 18.101562 73.367188 18.875 74.136719 19.828125 74.136719 Z M 19.828125 74.136719 "/>
<path style=" stroke:none;fill-rule:nonzero;fill:rgb(80.784314%,78.823529%,68.235294%);fill-opacity:1;" d="M 80.171875 70.691406 L 57.757812 70.691406 C 56.804688 70.691406 56.035156 71.460938 56.035156 72.414062 C 56.035156 73.367188 56.804688 74.136719 57.757812 74.136719 L 80.171875 74.136719 C 81.125 74.136719 81.898438 73.367188 81.898438 72.414062 C 81.898438 71.460938 81.125 70.691406 80.171875 70.691406 Z M 80.171875 70.691406 "/>
<path style=" stroke:none;fill-rule:nonzero;fill:rgb(80.784314%,78.823529%,68.235294%);fill-opacity:1;" d="M 52.085938 73.636719 C 52.398438 73.308594 52.585938 72.863281 52.585938 72.414062 C 52.585938 71.964844 52.398438 71.515625 52.085938 71.207031 C 51.449219 70.550781 50.257812 70.550781 49.636719 71.191406 C 49.324219 71.515625 49.136719 71.964844 49.136719 72.414062 C 49.136719 72.863281 49.324219 73.308594 49.636719 73.636719 C 49.964844 73.949219 50.394531 74.136719 50.863281 74.136719 C 51.308594 74.136719 51.757812 73.949219 52.085938 73.636719 Z M 52.085938 73.636719 "/>
<path style=" stroke:none;fill-rule:nonzero;fill:rgb(84.313725%,35.294118%,29.019608%);fill-opacity:1;" d="M 47.414062 48.277344 L 33.621094 37.929688 L 19.828125 48.277344 L 19.828125 0 L 47.414062 0 Z M 47.414062 48.277344 "/>
</g>
</svg>
<!-- iconic normalized -->