<?xml version="1.0" encoding="UTF-8"?>
<svg xmlns="http://www.w3.org/2000/svg" xmlns:xlink="http://www.w3.org/1999/xlink" width="100px" height="100px" viewBox="0 0 100 100" version="1.1">
<g id="surface1">
<path style=" stroke:none;fill-rule:nonzero;fill:rgb(65.490196%,68.627451%,77.647059%);fill-opacity:1;" d="M 2.542969 27.117188 L 97.457031 27.117188 L 97.457031 98.304688 L 2.542969 98.304688 Z M 2.542969 27.117188 "/>
<path style=" stroke:none;fill-rule:nonzero;fill:rgb(25.882353%,29.019608%,37.647059%);fill-opacity:1;" d="M 72.035156 8.472656 L 0.847656 8.472656 L 0.847656 25.421875 L 99.152344 25.421875 L 99.152344 8.472656 Z M 72.035156 8.472656 "/>
<path style=" stroke:none;fill-rule:nonzero;fill:rgb(14.901961%,16.862745%,21.960784%);fill-opacity:1;" d="M 38.136719 15.253906 C 38.136719 17.125 36.617188 18.644531 34.746094 18.644531 C 32.875 18.644531 31.355469 17.125 31.355469 15.253906 C 31.355469 13.382812 32.875 11.863281 34.746094 11.863281 C 36.617188 11.863281 38.136719 13.382812 38.136719 15.253906 Z M 38.136719 15.253906 "/>
<path style=" stroke:none;fill-rule:nonzero;fill:rgb(14.901961%,16.862745%,21.960784%);fill-opacity:1;" d="M 48.304688 15.253906 C 48.304688 17.125 46.789062 18.644531 44.914062 18.644531 C 43.042969 18.644531 41.527344 17.125 41.527344 15.253906 C 41.527344 13.382812 43.042969 11.863281 44.914062 11.863281 C 46.789062 11.863281 48.304688 13.382812 48.304688 15.253906 Z M 48.304688 15.253906 "/>
<path style=" stroke:none;fill-rule:nonzero;fill:rgb(14.901961%,16.862745%,21.960784%);fill-opacity:1;" d="M 58.472656 15.253906 C 58.472656 17.125 56.957031 18.644531 55.085938 18.644531 C 53.210938 18.644531 51.695312 17.125 51.695312 15.253906 C 51.695312 13.382812 53.210938 11.863281 55.085938 11.863281 C 56.957031 11.863281 58.472656 13.382812 58.472656 15.253906 Z M 58.472656 15.253906 "/>
<path style=" stroke:none;fill-rule:nonzero;fill:rgb(14.901961%,16.862745%,21.960784%);fill-opacity:1;" d="M 68.644531 15.253906 C 68.644531 17.125 67.125 18.644531 65.253906 18.644531 C 63.382812 18.644531 61.863281 17.125 61.863281 15.253906 C 61.863281 13.382812 63.382812 11.863281 65.253906 11.863281 C 67.125 11.863281 68.644531 13.382812 68.644531 15.253906 Z M 68.644531 15.253906 "/>
<path style=" stroke:none;fill-rule:nonzero;fill:rgb(68.627451%,71.372549%,73.333333%);fill-opacity:1;" d="M 65.253906 0 C 63.339844 0 61.589844 0.664062 60.167969 1.738281 C 61.074219 2.421875 61.828125 3.28125 62.398438 4.269531 C 63.214844 3.714844 64.195312 3.390625 65.253906 3.390625 C 68.058594 3.390625 70.339844 5.671875 70.339844 8.472656 C 70.339844 11.277344 68.058594 13.558594 65.253906 13.558594 C 64.316406 13.558594 63.558594 14.316406 63.558594 15.253906 C 63.558594 16.191406 64.316406 16.949219 65.253906 16.949219 C 69.925781 16.949219 73.730469 13.148438 73.730469 8.472656 C 73.730469 3.800781 69.925781 0 65.253906 0 Z M 65.253906 0 "/>
<path style=" stroke:none;fill-rule:nonzero;fill:rgb(51.372549%,58.431373%,58.039216%);fill-opacity:1;" d="M 57.941406 4.269531 C 57.222656 5.515625 56.78125 6.9375 56.78125 8.472656 L 60.167969 8.472656 C 60.167969 6.730469 59.285156 5.1875 57.941406 4.269531 Z M 57.941406 4.269531 "/>
<path style=" stroke:none;fill-rule:nonzero;fill:rgb(51.372549%,58.431373%,58.039216%);fill-opacity:1;" d="M 47.769531 4.269531 C 47.050781 5.515625 46.609375 6.9375 46.609375 8.472656 L 50 8.472656 C 50 6.730469 49.117188 5.1875 47.769531 4.269531 Z M 47.769531 4.269531 "/>
<path style=" stroke:none;fill-rule:nonzero;fill:rgb(68.627451%,71.372549%,73.333333%);fill-opacity:1;" d="M 62.398438 4.269531 C 61.828125 3.28125 61.074219 2.421875 60.167969 1.738281 C 58.75 0.664062 57 0 55.085938 0 C 53.167969 0 51.421875 0.664062 50 1.738281 C 50.90625 2.421875 51.660156 3.28125 52.230469 4.269531 C 53.042969 3.714844 54.027344 3.390625 55.085938 3.390625 C 56.140625 3.390625 57.125 3.714844 57.941406 4.269531 C 59.285156 5.1875 60.167969 6.730469 60.167969 8.472656 C 60.167969 11.277344 57.886719 13.558594 55.085938 13.558594 C 54.148438 13.558594 53.390625 14.316406 53.390625 15.253906 C 53.390625 16.191406 54.148438 16.949219 55.085938 16.949219 C 59.757812 16.949219 63.558594 13.148438 63.558594 8.472656 C 63.558594 6.9375 63.117188 5.515625 62.398438 4.269531 Z M 62.398438 4.269531 "/>
<path style=" stroke:none;fill-rule:nonzero;fill:rgb(51.372549%,58.431373%,58.039216%);fill-opacity:1;" d="M 37.601562 4.269531 C 36.882812 5.515625 36.441406 6.9375 36.441406 8.472656 L 39.832031 8.472656 C 39.832031 6.730469 38.945312 5.1875 37.601562 4.269531 Z M 37.601562 4.269531 "/>
<path style=" stroke:none;fill-rule:nonzero;fill:rgb(68.627451%,71.372549%,73.333333%);fill-opacity:1;" d="M 52.230469 4.269531 C 51.65625 3.28125 50.90625 2.421875 50 1.738281 C 48.578125 0.664062 46.832031 0 44.914062 0 C 43 0 41.25 0.664062 39.832031 1.738281 C 40.734375 2.421875 41.488281 3.28125 42.058594 4.269531 C 42.875 3.714844 43.859375 3.390625 44.914062 3.390625 C 45.972656 3.390625 46.957031 3.714844 47.769531 4.269531 C 49.117188 5.1875 50 6.730469 50 8.472656 C 50 11.277344 47.71875 13.558594 44.914062 13.558594 C 43.976562 13.558594 43.21875 14.316406 43.21875 15.253906 C 43.21875 16.191406 43.976562 16.949219 44.914062 16.949219 C 49.589844 16.949219 53.390625 13.148438 53.390625 8.472656 C 53.390625 6.9375 52.949219 5.515625 52.230469 4.269531 Z M 52.230469 4.269531 "/>
<path style=" stroke:none;fill-rule:nonzero;fill:rgb(68.627451%,71.372549%,73.333333%);fill-opacity:1;" d="M 42.058594 4.269531 C 41.488281 3.28125 40.734375 2.421875 39.832031 1.738281 C 38.410156 0.664062 36.660156 0 34.746094 0 C 30.074219 0 26.269531 3.800781 26.269531 8.472656 L 29.660156 8.472656 C 29.660156 5.671875 31.941406 3.390625 34.746094 3.390625 C 35.804688 3.390625 36.785156 3.714844 37.601562 4.269531 C 38.945312 5.1875 39.832031 6.730469 39.832031 8.472656 C 39.832031 11.277344 37.550781 13.558594 34.746094 13.558594 C 33.808594 13.558594 33.050781 14.316406 33.050781 15.253906 C 33.050781 16.191406 33.808594 16.949219 34.746094 16.949219 C 39.417969 16.949219 43.21875 13.148438 43.21875 8.472656 C 43.21875 6.9375 42.777344 5.515625 42.058594 4.269531 Z M 42.058594 4.269531 "/>
<path style="fill:none;stroke-width:2;stroke-linecap:round;stroke-linejoin:miter;stroke:rgb(6.27451%,50.588235%,87.843137%);stroke-opacity:1;stroke-miterlimit:10;" d="M 29.5 30.000117 L 43.500977 30.000117 L 43.500977 44.001094 L 29.5 44.001094 Z M 29.5 30.000117 " transform="matrix(1.694915,0,0,1.694915,0,0)"/>
<path style=" stroke:none;fill-rule:nonzero;fill:rgb(33.333333%,37.647059%,50.196078%);fill-opacity:1;" d="M 75.421875 25.421875 L 0.847656 25.421875 L 0.847656 100 L 99.152344 100 L 99.152344 25.421875 Z M 51.695312 28.8125 L 72.035156 28.8125 L 72.035156 49.152344 L 51.695312 49.152344 Z M 72.035156 72.882812 L 51.695312 72.882812 L 51.695312 52.542969 L 72.035156 52.542969 Z M 27.964844 52.542969 L 48.304688 52.542969 L 48.304688 72.882812 L 27.964844 72.882812 Z M 27.964844 28.8125 L 48.304688 28.8125 L 48.304688 49.152344 L 27.964844 49.152344 Z M 4.238281 28.8125 L 24.578125 28.8125 L 24.578125 49.152344 L 4.238281 49.152344 Z M 4.238281 52.542969 L 24.578125 52.542969 L 24.578125 72.882812 L 4.238281 72.882812 Z M 24.578125 96.609375 L 4.238281 96.609375 L 4.238281 76.269531 L 24.578125 76.269531 Z M 48.304688 96.609375 L 27.964844 96.609375 L 27.964844 76.269531 L 48.304688 76.269531 Z M 72.035156 96.609375 L 51.695312 96.609375 L 51.695312 76.269531 L 72.035156 76.269531 Z M 95.761719 96.609375 L 75.421875 96.609375 L 75.421875 76.269531 L 95.761719 76.269531 Z M 95.761719 72.882812 L 75.421875 72.882812 L 75.421875 52.542969 L 95.761719 52.542969 Z M 75.421875 49.152344 L 75.421875 28.8125 L 95.761719 28.8125 L 95.761719 49.152344 Z M 75.421875 49.152344 "/>
<path style=" stroke:none;fill-rule:nonzero;fill:rgb(92.156863%,72.941176%,8.627451%);fill-opacity:1;" d="M 51.695312 52.542969 L 72.035156 52.542969 L 72.035156 72.882812 L 51.695312 72.882812 Z M 51.695312 52.542969 "/>
<path style=" stroke:none;fill-rule:nonzero;fill:rgb(93.72549%,80.784314%,29.019608%);fill-opacity:1;" d="M 64.261719 62.710938 L 69.84375 57.128906 C 70.503906 56.46875 70.503906 55.398438 69.84375 54.734375 C 69.179688 54.070312 68.109375 54.070312 67.445312 54.734375 L 61.863281 60.316406 L 56.28125 54.734375 C 55.621094 54.070312 54.550781 54.070312 53.886719 54.734375 C 53.222656 55.398438 53.222656 56.46875 53.886719 57.128906 L 59.46875 62.710938 L 53.886719 68.292969 C 53.222656 68.957031 53.222656 70.027344 53.886719 70.691406 C 54.21875 71.019531 54.652344 71.1875 55.085938 71.1875 C 55.519531 71.1875 55.953125 71.019531 56.28125 70.691406 L 61.863281 65.109375 L 67.445312 70.691406 C 67.777344 71.019531 68.210938 71.1875 68.644531 71.1875 C 69.078125 71.1875 69.511719 71.019531 69.84375 70.691406 C 70.503906 70.027344 70.503906 68.957031 69.84375 68.292969 Z M 64.261719 62.710938 "/>
</g>
</svg>
<!-- iconic normalized -->