<?xml version="1.0" encoding="UTF-8"?>
<svg xmlns="http://www.w3.org/2000/svg" xmlns:xlink="http://www.w3.org/1999/xlink" width="100px" height="100px" viewBox="0 0 100 100" version="1.1">
<g id="surface1">
<path style=" stroke:none;fill-rule:nonzero;fill:rgb(25.882353%,29.019608%,37.647059%);fill-opacity:1;" d="M 85.355469 14.644531 C 65.828125 -4.882812 34.171875 -4.882812 14.644531 14.644531 C -4.882812 34.171875 -4.882812 65.828125 14.644531 85.355469 C 34.171875 104.882812 65.828125 104.882812 85.355469 85.355469 C 104.882812 65.828125 104.882812 34.171875 85.355469 14.644531 Z M 58.839844 58.839844 C 53.957031 63.722656 46.042969 63.722656 41.164062 58.839844 C 36.28125 53.957031 36.28125 46.042969 41.164062 41.164062 C 46.042969 36.28125 53.957031 36.28125 58.839844 41.164062 C 63.71875 46.042969 63.71875 53.957031 58.839844 58.839844 Z M 58.839844 58.839844 "/>
<path style=" stroke:none;fill-rule:nonzero;fill:rgb(90.588235%,92.54902%,92.941176%);fill-opacity:1;" d="M 63.890625 36.109375 C 56.21875 28.4375 43.78125 28.4375 36.109375 36.109375 C 28.4375 43.78125 28.4375 56.21875 36.109375 63.890625 C 43.78125 71.5625 56.21875 71.5625 63.890625 63.890625 C 71.5625 56.21875 71.5625 43.78125 63.890625 36.109375 Z M 53.789062 53.789062 C 51.695312 55.878906 48.304688 55.878906 46.210938 53.789062 C 44.117188 51.695312 44.117188 48.304688 46.210938 46.210938 C 48.304688 44.117188 51.695312 44.117188 53.789062 46.210938 C 55.878906 48.304688 55.878906 51.695312 53.789062 53.789062 Z M 53.789062 53.789062 "/>
<path style=" stroke:none;fill-rule:nonzero;fill:rgb(45.098039%,51.372549%,74.901961%);fill-opacity:1;" d="M 63.890625 63.890625 C 62.53125 65.246094 61.019531 66.351562 59.417969 67.230469 L 73.984375 93.871094 C 78.0625 91.640625 81.902344 88.808594 85.355469 85.355469 C 88.808594 81.902344 91.640625 78.0625 93.871094 73.984375 L 67.230469 59.417969 C 66.351562 61.019531 65.246094 62.53125 63.890625 63.890625 Z M 63.890625 63.890625 "/>
<path style=" stroke:none;fill-rule:nonzero;fill:rgb(45.098039%,51.372549%,74.901961%);fill-opacity:1;" d="M 36.109375 36.109375 C 37.46875 34.753906 38.980469 33.648438 40.582031 32.769531 L 26.015625 6.128906 C 21.9375 8.359375 18.097656 11.191406 14.644531 14.644531 C 11.191406 18.097656 8.359375 21.9375 6.128906 26.015625 L 32.769531 40.582031 C 33.648438 38.980469 34.753906 37.46875 36.109375 36.109375 Z M 36.109375 36.109375 "/>
</g>
</svg>
<!-- iconic normalized -->