<?xml version="1.0" encoding="UTF-8"?>
<svg xmlns="http://www.w3.org/2000/svg" xmlns:xlink="http://www.w3.org/1999/xlink" width="100px" height="100px" viewBox="0 0 100 100" version="1.1">
<g id="surface1">
<path style=" stroke:none;fill-rule:nonzero;fill:rgb(25.882353%,29.019608%,37.647059%);fill-opacity:1;" d="M 40 58.332031 L 40 42.082031 L 40.058594 42.082031 C 40.023438 42.289062 40 42.5 40 42.707031 C 40 38.648438 46.4375 35.121094 55.890625 33.332031 L 6.011719 33.332031 C 2.691406 33.332031 0 36.023438 0 39.347656 L 0 58.984375 C 0 62.308594 2.691406 65 6.011719 65 L 40 65 Z M 40 58.332031 "/>
<path style=" stroke:none;fill-rule:nonzero;fill:rgb(33.333333%,37.647059%,50.196078%);fill-opacity:1;" d="M 40.058594 88.332031 L 40 88.332031 L 40 65 L 6.011719 65 C 2.691406 65 0 67.691406 0 71.011719 L 0 90.652344 C 0 93.976562 2.691406 96.667969 6.011719 96.667969 L 53.875 96.667969 C 46 94.886719 40.628906 91.839844 40.058594 88.332031 Z M 40.058594 88.332031 "/>
<path style=" stroke:none;fill-rule:nonzero;fill:rgb(33.333333%,37.647059%,50.196078%);fill-opacity:1;" d="M 90.652344 33.332031 L 6.011719 33.332031 C 2.691406 33.332031 0 30.640625 0 27.320312 L 0 7.679688 C 0 4.359375 2.691406 1.667969 6.011719 1.667969 L 90.652344 1.667969 C 93.972656 1.667969 96.667969 4.359375 96.667969 7.679688 L 96.667969 27.316406 C 96.667969 30.640625 93.972656 33.332031 90.652344 33.332031 Z M 90.652344 33.332031 "/>
<path style=" stroke:none;fill-rule:nonzero;fill:rgb(45.098039%,51.372549%,74.901961%);fill-opacity:1;" d="M 21.667969 17.5 C 21.667969 20.722656 19.054688 23.332031 15.832031 23.332031 C 12.613281 23.332031 10 20.722656 10 17.5 C 10 14.277344 12.613281 11.667969 15.832031 11.667969 C 19.054688 11.667969 21.667969 14.277344 21.667969 17.5 Z M 21.667969 17.5 "/>
<path style=" stroke:none;fill-rule:nonzero;fill:rgb(45.098039%,51.372549%,74.901961%);fill-opacity:1;" d="M 83.332031 15 C 83.332031 15.921875 82.585938 16.667969 81.667969 16.667969 C 80.746094 16.667969 80 15.921875 80 15 C 80 14.078125 80.746094 13.332031 81.667969 13.332031 C 82.585938 13.332031 83.332031 14.078125 83.332031 15 Z M 83.332031 15 "/>
<path style=" stroke:none;fill-rule:nonzero;fill:rgb(45.098039%,51.372549%,74.901961%);fill-opacity:1;" d="M 76.667969 15 C 76.667969 15.921875 75.921875 16.667969 75 16.667969 C 74.078125 16.667969 73.332031 15.921875 73.332031 15 C 73.332031 14.078125 74.078125 13.332031 75 13.332031 C 75.921875 13.332031 76.667969 14.078125 76.667969 15 Z M 76.667969 15 "/>
<path style=" stroke:none;fill-rule:nonzero;fill:rgb(45.098039%,51.372549%,74.901961%);fill-opacity:1;" d="M 86.667969 20 C 86.667969 20.921875 85.921875 21.667969 85 21.667969 C 84.078125 21.667969 83.332031 20.921875 83.332031 20 C 83.332031 19.078125 84.078125 18.332031 85 18.332031 C 85.921875 18.332031 86.667969 19.078125 86.667969 20 Z M 86.667969 20 "/>
<path style=" stroke:none;fill-rule:nonzero;fill:rgb(45.098039%,51.372549%,74.901961%);fill-opacity:1;" d="M 80 20 C 80 20.921875 79.253906 21.667969 78.332031 21.667969 C 77.414062 21.667969 76.667969 20.921875 76.667969 20 C 76.667969 19.078125 77.414062 18.332031 78.332031 18.332031 C 79.253906 18.332031 80 19.078125 80 20 Z M 80 20 "/>
<path style=" stroke:none;fill-rule:nonzero;fill:rgb(45.098039%,51.372549%,74.901961%);fill-opacity:1;" d="M 70 15 C 70 15.921875 69.253906 16.667969 68.332031 16.667969 C 67.414062 16.667969 66.667969 15.921875 66.667969 15 C 66.667969 14.078125 67.414062 13.332031 68.332031 13.332031 C 69.253906 13.332031 70 14.078125 70 15 Z M 70 15 "/>
<path style=" stroke:none;fill-rule:nonzero;fill:rgb(45.098039%,51.372549%,74.901961%);fill-opacity:1;" d="M 73.332031 20 C 73.332031 20.921875 72.585938 21.667969 71.667969 21.667969 C 70.746094 21.667969 70 20.921875 70 20 C 70 19.078125 70.746094 18.332031 71.667969 18.332031 C 72.585938 18.332031 73.332031 19.078125 73.332031 20 Z M 73.332031 20 "/>
<path style=" stroke:none;fill-rule:nonzero;fill:rgb(45.098039%,51.372549%,74.901961%);fill-opacity:1;" d="M 63.332031 15 C 63.332031 15.921875 62.585938 16.667969 61.667969 16.667969 C 60.746094 16.667969 60 15.921875 60 15 C 60 14.078125 60.746094 13.332031 61.667969 13.332031 C 62.585938 13.332031 63.332031 14.078125 63.332031 15 Z M 63.332031 15 "/>
<path style=" stroke:none;fill-rule:nonzero;fill:rgb(45.098039%,51.372549%,74.901961%);fill-opacity:1;" d="M 66.667969 20 C 66.667969 20.921875 65.921875 21.667969 65 21.667969 C 64.078125 21.667969 63.332031 20.921875 63.332031 20 C 63.332031 19.078125 64.078125 18.332031 65 18.332031 C 65.921875 18.332031 66.667969 19.078125 66.667969 20 Z M 66.667969 20 "/>
<path style=" stroke:none;fill-rule:nonzero;fill:rgb(45.098039%,51.372549%,74.901961%);fill-opacity:1;" d="M 56.667969 15 C 56.667969 15.921875 55.921875 16.667969 55 16.667969 C 54.078125 16.667969 53.332031 15.921875 53.332031 15 C 53.332031 14.078125 54.078125 13.332031 55 13.332031 C 55.921875 13.332031 56.667969 14.078125 56.667969 15 Z M 56.667969 15 "/>
<path style=" stroke:none;fill-rule:nonzero;fill:rgb(45.098039%,51.372549%,74.901961%);fill-opacity:1;" d="M 60 20 C 60 20.921875 59.253906 21.667969 58.332031 21.667969 C 57.414062 21.667969 56.667969 20.921875 56.667969 20 C 56.667969 19.078125 57.414062 18.332031 58.332031 18.332031 C 59.253906 18.332031 60 19.078125 60 20 Z M 60 20 "/>
<path style=" stroke:none;fill-rule:nonzero;fill:rgb(45.098039%,51.372549%,74.901961%);fill-opacity:1;" d="M 21.667969 49.167969 C 21.667969 52.386719 19.054688 55 15.832031 55 C 12.613281 55 10 52.386719 10 49.167969 C 10 45.945312 12.613281 43.332031 15.832031 43.332031 C 19.054688 43.332031 21.667969 45.945312 21.667969 49.167969 Z M 21.667969 49.167969 "/>
<path style=" stroke:none;fill-rule:nonzero;fill:rgb(45.098039%,51.372549%,74.901961%);fill-opacity:1;" d="M 21.667969 80.832031 C 21.667969 84.054688 19.054688 86.667969 15.832031 86.667969 C 12.613281 86.667969 10 84.054688 10 80.832031 C 10 77.613281 12.613281 75 15.832031 75 C 19.054688 75 21.667969 77.613281 21.667969 80.832031 Z M 21.667969 80.832031 "/>
<path style=" stroke:none;fill-rule:nonzero;fill:rgb(10.196078%,56.862745%,44.705882%);fill-opacity:1;" d="M 70 81.25 C 53.433594 81.25 40 76.492188 40 70.625 L 40 88.332031 L 40.058594 88.332031 C 40.96875 93.910156 54.023438 98.332031 70 98.332031 C 85.976562 98.332031 99.03125 93.910156 99.941406 88.332031 L 100 88.332031 L 100 70.625 C 100 76.492188 86.566406 81.25 70 81.25 Z M 70 81.25 "/>
<path style=" stroke:none;fill-rule:nonzero;fill:rgb(10.196078%,56.862745%,44.705882%);fill-opacity:1;" d="M 40 70 L 40 70.625 C 40 70.414062 40.023438 70.207031 40.058594 70 Z M 40 70 "/>
<path style=" stroke:none;fill-rule:nonzero;fill:rgb(10.196078%,56.862745%,44.705882%);fill-opacity:1;" d="M 99.941406 70 C 99.976562 70.207031 100 70.414062 100 70.625 L 100 70 Z M 99.941406 70 "/>
<path style=" stroke:none;fill-rule:nonzero;fill:rgb(14.509804%,68.235294%,53.333333%);fill-opacity:1;" d="M 70 63.332031 C 53.433594 63.332031 40 58.578125 40 52.707031 L 40 71.25 L 40.058594 71.25 C 40.96875 76.828125 54.023438 81.25 70 81.25 C 85.976562 81.25 99.03125 76.828125 99.941406 71.25 L 100 71.25 L 100 52.707031 C 100 58.578125 86.566406 63.332031 70 63.332031 Z M 70 63.332031 "/>
<path style=" stroke:none;fill-rule:nonzero;fill:rgb(14.509804%,68.235294%,53.333333%);fill-opacity:1;" d="M 40 52.082031 L 40 52.707031 C 40 52.5 40.023438 52.289062 40.058594 52.082031 Z M 40 52.082031 "/>
<path style=" stroke:none;fill-rule:nonzero;fill:rgb(14.509804%,68.235294%,53.333333%);fill-opacity:1;" d="M 99.941406 52.082031 C 99.976562 52.289062 100 52.5 100 52.707031 L 100 52.082031 Z M 99.941406 52.082031 "/>
<path style=" stroke:none;fill-rule:nonzero;fill:rgb(53.333333%,75.294118%,34.117647%);fill-opacity:1;" d="M 100 35.625 C 100 29.757812 86.570312 25 70 25 C 53.429688 25 40 29.757812 40 35.625 C 40 41.492188 53.429688 46.25 70 46.25 C 86.570312 46.25 100 41.492188 100 35.625 Z M 100 35.625 "/>
<path style=" stroke:none;fill-rule:nonzero;fill:rgb(38.039216%,72.156863%,44.705882%);fill-opacity:1;" d="M 70 46.25 C 53.433594 46.25 40 41.492188 40 35.625 L 40 53.332031 L 40.058594 53.332031 C 40.96875 58.910156 54.023438 63.332031 70 63.332031 C 85.976562 63.332031 99.03125 58.910156 99.941406 53.332031 L 100 53.332031 L 100 35.625 C 100 41.492188 86.566406 46.25 70 46.25 Z M 70 46.25 "/>
<path style=" stroke:none;fill-rule:nonzero;fill:rgb(38.039216%,72.156863%,44.705882%);fill-opacity:1;" d="M 40 35 L 40 35.625 C 40 35.414062 40.023438 35.207031 40.058594 35 Z M 40 35 "/>
<path style=" stroke:none;fill-rule:nonzero;fill:rgb(38.039216%,72.156863%,44.705882%);fill-opacity:1;" d="M 99.941406 35 C 99.976562 35.207031 100 35.414062 100 35.625 L 100 35 Z M 99.941406 35 "/>
</g>
</svg>
<!-- iconic normalized -->