<?xml version="1.0" encoding="UTF-8"?>
<svg xmlns="http://www.w3.org/2000/svg" xmlns:xlink="http://www.w3.org/1999/xlink" width="100px" height="100px" viewBox="0 0 100 100" version="1.1">
<g id="surface1">
<path style=" stroke:none;fill-rule:nonzero;fill:rgb(90.588235%,92.54902%,92.941176%);fill-opacity:1;" d="M 77.445312 100 L 22.554688 100 C 19.65625 100 17.308594 97.648438 17.308594 94.75 L 17.308594 25 L 82.691406 25 L 82.691406 94.75 C 82.691406 97.648438 80.34375 100 77.445312 100 Z M 77.445312 100 "/>
<path style=" stroke:none;fill-rule:nonzero;fill:rgb(78.039216%,81.568627%,82.745098%);fill-opacity:1;" d="M 86.539062 25 L 13.460938 25 L 13.460938 18.378906 C 13.460938 15.664062 15.664062 13.460938 18.378906 13.460938 L 81.621094 13.460938 C 84.335938 13.460938 86.539062 15.664062 86.539062 18.378906 Z M 86.539062 25 "/>
<path style="fill-rule:nonzero;fill:rgb(100%,100%,100%);fill-opacity:1;stroke-width:2;stroke-linecap:round;stroke-linejoin:miter;stroke:rgb(33.333333%,37.647059%,50.196078%);stroke-opacity:1;stroke-miterlimit:10;" d="M 19.999688 6.999688 L 19.999688 3.000156 C 19.999688 1.899219 20.899531 0.999375 22.000469 0.999375 L 29.999531 0.999375 C 31.100469 0.999375 32.000312 1.899219 32.000312 3.000156 L 32.000312 6.999688 Z M 19.999688 6.999688 " transform="matrix(1.923077,0,0,1.923077,0,0)"/>
<path style=" stroke:none;fill-rule:nonzero;fill:rgb(78.039216%,81.568627%,82.745098%);fill-opacity:1;" d="M 28.847656 40.382812 C 28.847656 41.445312 27.984375 42.308594 26.921875 42.308594 C 25.859375 42.308594 25 41.445312 25 40.382812 C 25 39.324219 25.859375 38.460938 26.921875 38.460938 C 27.984375 38.460938 28.847656 39.324219 28.847656 40.382812 Z M 28.847656 40.382812 "/>
<path style=" stroke:none;fill-rule:nonzero;fill:rgb(78.039216%,81.568627%,82.745098%);fill-opacity:1;" d="M 28.847656 51.921875 C 28.847656 52.984375 27.984375 53.847656 26.921875 53.847656 C 25.859375 53.847656 25 52.984375 25 51.921875 C 25 50.859375 25.859375 50 26.921875 50 C 27.984375 50 28.847656 50.859375 28.847656 51.921875 Z M 28.847656 51.921875 "/>
<path style=" stroke:none;fill-rule:nonzero;fill:rgb(78.039216%,81.568627%,82.745098%);fill-opacity:1;" d="M 34.617188 34.617188 C 34.617188 35.675781 33.753906 36.539062 32.691406 36.539062 C 31.628906 36.539062 30.769531 35.675781 30.769531 34.617188 C 30.769531 33.554688 31.628906 32.691406 32.691406 32.691406 C 33.753906 32.691406 34.617188 33.554688 34.617188 34.617188 Z M 34.617188 34.617188 "/>
<path style=" stroke:none;fill-rule:nonzero;fill:rgb(78.039216%,81.568627%,82.745098%);fill-opacity:1;" d="M 46.152344 34.617188 C 46.152344 35.675781 45.292969 36.539062 44.230469 36.539062 C 43.167969 36.539062 42.308594 35.675781 42.308594 34.617188 C 42.308594 33.554688 43.167969 32.691406 44.230469 32.691406 C 45.292969 32.691406 46.152344 33.554688 46.152344 34.617188 Z M 46.152344 34.617188 "/>
<path style=" stroke:none;fill-rule:nonzero;fill:rgb(78.039216%,81.568627%,82.745098%);fill-opacity:1;" d="M 34.617188 46.152344 C 34.617188 47.214844 33.753906 48.078125 32.691406 48.078125 C 31.628906 48.078125 30.769531 47.214844 30.769531 46.152344 C 30.769531 45.089844 31.628906 44.230469 32.691406 44.230469 C 33.753906 44.230469 34.617188 45.089844 34.617188 46.152344 Z M 34.617188 46.152344 "/>
<path style=" stroke:none;fill-rule:nonzero;fill:rgb(78.039216%,81.568627%,82.745098%);fill-opacity:1;" d="M 46.152344 46.152344 C 46.152344 47.214844 45.292969 48.078125 44.230469 48.078125 C 43.167969 48.078125 42.308594 47.214844 42.308594 46.152344 C 42.308594 45.089844 43.167969 44.230469 44.230469 44.230469 C 45.292969 44.230469 46.152344 45.089844 46.152344 46.152344 Z M 46.152344 46.152344 "/>
<path style=" stroke:none;fill-rule:nonzero;fill:rgb(78.039216%,81.568627%,82.745098%);fill-opacity:1;" d="M 40.382812 40.382812 C 40.382812 41.445312 39.523438 42.308594 38.460938 42.308594 C 37.398438 42.308594 36.539062 41.445312 36.539062 40.382812 C 36.539062 39.324219 37.398438 38.460938 38.460938 38.460938 C 39.523438 38.460938 40.382812 39.324219 40.382812 40.382812 Z M 40.382812 40.382812 "/>
<path style=" stroke:none;fill-rule:nonzero;fill:rgb(78.039216%,81.568627%,82.745098%);fill-opacity:1;" d="M 51.921875 40.382812 C 51.921875 41.445312 51.0625 42.308594 50 42.308594 C 48.9375 42.308594 48.078125 41.445312 48.078125 40.382812 C 48.078125 39.324219 48.9375 38.460938 50 38.460938 C 51.0625 38.460938 51.921875 39.324219 51.921875 40.382812 Z M 51.921875 40.382812 "/>
<path style=" stroke:none;fill-rule:nonzero;fill:rgb(78.039216%,81.568627%,82.745098%);fill-opacity:1;" d="M 40.382812 51.921875 C 40.382812 52.984375 39.523438 53.847656 38.460938 53.847656 C 37.398438 53.847656 36.539062 52.984375 36.539062 51.921875 C 36.539062 50.859375 37.398438 50 38.460938 50 C 39.523438 50 40.382812 50.859375 40.382812 51.921875 Z M 40.382812 51.921875 "/>
<path style=" stroke:none;fill-rule:nonzero;fill:rgb(78.039216%,81.568627%,82.745098%);fill-opacity:1;" d="M 51.921875 51.921875 C 51.921875 52.984375 51.0625 53.847656 50 53.847656 C 48.9375 53.847656 48.078125 52.984375 48.078125 51.921875 C 48.078125 50.859375 48.9375 50 50 50 C 51.0625 50 51.921875 50.859375 51.921875 51.921875 Z M 51.921875 51.921875 "/>
<path style=" stroke:none;fill-rule:nonzero;fill:rgb(78.039216%,81.568627%,82.745098%);fill-opacity:1;" d="M 57.691406 34.617188 C 57.691406 35.675781 56.832031 36.539062 55.769531 36.539062 C 54.707031 36.539062 53.847656 35.675781 53.847656 34.617188 C 53.847656 33.554688 54.707031 32.691406 55.769531 32.691406 C 56.832031 32.691406 57.691406 33.554688 57.691406 34.617188 Z M 57.691406 34.617188 "/>
<path style=" stroke:none;fill-rule:nonzero;fill:rgb(78.039216%,81.568627%,82.745098%);fill-opacity:1;" d="M 69.230469 34.617188 C 69.230469 35.675781 68.371094 36.539062 67.308594 36.539062 C 66.246094 36.539062 65.382812 35.675781 65.382812 34.617188 C 65.382812 33.554688 66.246094 32.691406 67.308594 32.691406 C 68.371094 32.691406 69.230469 33.554688 69.230469 34.617188 Z M 69.230469 34.617188 "/>
<path style=" stroke:none;fill-rule:nonzero;fill:rgb(78.039216%,81.568627%,82.745098%);fill-opacity:1;" d="M 57.691406 46.152344 C 57.691406 47.214844 56.832031 48.078125 55.769531 48.078125 C 54.707031 48.078125 53.847656 47.214844 53.847656 46.152344 C 53.847656 45.089844 54.707031 44.230469 55.769531 44.230469 C 56.832031 44.230469 57.691406 45.089844 57.691406 46.152344 Z M 57.691406 46.152344 "/>
<path style=" stroke:none;fill-rule:nonzero;fill:rgb(78.039216%,81.568627%,82.745098%);fill-opacity:1;" d="M 69.230469 46.152344 C 69.230469 47.214844 68.371094 48.078125 67.308594 48.078125 C 66.246094 48.078125 65.382812 47.214844 65.382812 46.152344 C 65.382812 45.089844 66.246094 44.230469 67.308594 44.230469 C 68.371094 44.230469 69.230469 45.089844 69.230469 46.152344 Z M 69.230469 46.152344 "/>
<path style=" stroke:none;fill-rule:nonzero;fill:rgb(78.039216%,81.568627%,82.745098%);fill-opacity:1;" d="M 63.460938 40.382812 C 63.460938 41.445312 62.601562 42.308594 61.539062 42.308594 C 60.476562 42.308594 59.617188 41.445312 59.617188 40.382812 C 59.617188 39.324219 60.476562 38.460938 61.539062 38.460938 C 62.601562 38.460938 63.460938 39.324219 63.460938 40.382812 Z M 63.460938 40.382812 "/>
<path style=" stroke:none;fill-rule:nonzero;fill:rgb(78.039216%,81.568627%,82.745098%);fill-opacity:1;" d="M 75 40.382812 C 75 41.445312 74.140625 42.308594 73.078125 42.308594 C 72.015625 42.308594 71.152344 41.445312 71.152344 40.382812 C 71.152344 39.324219 72.015625 38.460938 73.078125 38.460938 C 74.140625 38.460938 75 39.324219 75 40.382812 Z M 75 40.382812 "/>
<path style=" stroke:none;fill-rule:nonzero;fill:rgb(78.039216%,81.568627%,82.745098%);fill-opacity:1;" d="M 63.460938 51.921875 C 63.460938 52.984375 62.601562 53.847656 61.539062 53.847656 C 60.476562 53.847656 59.617188 52.984375 59.617188 51.921875 C 59.617188 50.859375 60.476562 50 61.539062 50 C 62.601562 50 63.460938 50.859375 63.460938 51.921875 Z M 63.460938 51.921875 "/>
<path style=" stroke:none;fill-rule:nonzero;fill:rgb(78.039216%,81.568627%,82.745098%);fill-opacity:1;" d="M 75 51.921875 C 75 52.984375 74.140625 53.847656 73.078125 53.847656 C 72.015625 53.847656 71.152344 52.984375 71.152344 51.921875 C 71.152344 50.859375 72.015625 50 73.078125 50 C 74.140625 50 75 50.859375 75 51.921875 Z M 75 51.921875 "/>
<path style=" stroke:none;fill-rule:nonzero;fill:rgb(78.039216%,81.568627%,82.745098%);fill-opacity:1;" d="M 28.847656 63.460938 C 28.847656 64.523438 27.984375 65.382812 26.921875 65.382812 C 25.859375 65.382812 25 64.523438 25 63.460938 C 25 62.398438 25.859375 61.539062 26.921875 61.539062 C 27.984375 61.539062 28.847656 62.398438 28.847656 63.460938 Z M 28.847656 63.460938 "/>
<path style=" stroke:none;fill-rule:nonzero;fill:rgb(78.039216%,81.568627%,82.745098%);fill-opacity:1;" d="M 28.847656 75 C 28.847656 76.0625 27.984375 76.921875 26.921875 76.921875 C 25.859375 76.921875 25 76.0625 25 75 C 25 73.9375 25.859375 73.078125 26.921875 73.078125 C 27.984375 73.078125 28.847656 73.9375 28.847656 75 Z M 28.847656 75 "/>
<path style=" stroke:none;fill-rule:nonzero;fill:rgb(78.039216%,81.568627%,82.745098%);fill-opacity:1;" d="M 34.617188 57.691406 C 34.617188 58.753906 33.753906 59.617188 32.691406 59.617188 C 31.628906 59.617188 30.769531 58.753906 30.769531 57.691406 C 30.769531 56.628906 31.628906 55.769531 32.691406 55.769531 C 33.753906 55.769531 34.617188 56.628906 34.617188 57.691406 Z M 34.617188 57.691406 "/>
<path style=" stroke:none;fill-rule:nonzero;fill:rgb(78.039216%,81.568627%,82.745098%);fill-opacity:1;" d="M 46.152344 57.691406 C 46.152344 58.753906 45.292969 59.617188 44.230469 59.617188 C 43.167969 59.617188 42.308594 58.753906 42.308594 57.691406 C 42.308594 56.628906 43.167969 55.769531 44.230469 55.769531 C 45.292969 55.769531 46.152344 56.628906 46.152344 57.691406 Z M 46.152344 57.691406 "/>
<path style=" stroke:none;fill-rule:nonzero;fill:rgb(78.039216%,81.568627%,82.745098%);fill-opacity:1;" d="M 34.617188 69.230469 C 34.617188 70.292969 33.753906 71.152344 32.691406 71.152344 C 31.628906 71.152344 30.769531 70.292969 30.769531 69.230469 C 30.769531 68.167969 31.628906 67.308594 32.691406 67.308594 C 33.753906 67.308594 34.617188 68.167969 34.617188 69.230469 Z M 34.617188 69.230469 "/>
<path style=" stroke:none;fill-rule:nonzero;fill:rgb(78.039216%,81.568627%,82.745098%);fill-opacity:1;" d="M 46.152344 69.230469 C 46.152344 70.292969 45.292969 71.152344 44.230469 71.152344 C 43.167969 71.152344 42.308594 70.292969 42.308594 69.230469 C 42.308594 68.167969 43.167969 67.308594 44.230469 67.308594 C 45.292969 67.308594 46.152344 68.167969 46.152344 69.230469 Z M 46.152344 69.230469 "/>
<path style=" stroke:none;fill-rule:nonzero;fill:rgb(78.039216%,81.568627%,82.745098%);fill-opacity:1;" d="M 40.382812 63.460938 C 40.382812 64.523438 39.523438 65.382812 38.460938 65.382812 C 37.398438 65.382812 36.539062 64.523438 36.539062 63.460938 C 36.539062 62.398438 37.398438 61.539062 38.460938 61.539062 C 39.523438 61.539062 40.382812 62.398438 40.382812 63.460938 Z M 40.382812 63.460938 "/>
<path style=" stroke:none;fill-rule:nonzero;fill:rgb(78.039216%,81.568627%,82.745098%);fill-opacity:1;" d="M 51.921875 63.460938 C 51.921875 64.523438 51.0625 65.382812 50 65.382812 C 48.9375 65.382812 48.078125 64.523438 48.078125 63.460938 C 48.078125 62.398438 48.9375 61.539062 50 61.539062 C 51.0625 61.539062 51.921875 62.398438 51.921875 63.460938 Z M 51.921875 63.460938 "/>
<path style=" stroke:none;fill-rule:nonzero;fill:rgb(78.039216%,81.568627%,82.745098%);fill-opacity:1;" d="M 40.382812 75 C 40.382812 76.0625 39.523438 76.921875 38.460938 76.921875 C 37.398438 76.921875 36.539062 76.0625 36.539062 75 C 36.539062 73.9375 37.398438 73.078125 38.460938 73.078125 C 39.523438 73.078125 40.382812 73.9375 40.382812 75 Z M 40.382812 75 "/>
<path style=" stroke:none;fill-rule:nonzero;fill:rgb(78.039216%,81.568627%,82.745098%);fill-opacity:1;" d="M 51.921875 75 C 51.921875 76.0625 51.0625 76.921875 50 76.921875 C 48.9375 76.921875 48.078125 76.0625 48.078125 75 C 48.078125 73.9375 48.9375 73.078125 50 73.078125 C 51.0625 73.078125 51.921875 73.9375 51.921875 75 Z M 51.921875 75 "/>
<path style=" stroke:none;fill-rule:nonzero;fill:rgb(78.039216%,81.568627%,82.745098%);fill-opacity:1;" d="M 57.691406 57.691406 C 57.691406 58.753906 56.832031 59.617188 55.769531 59.617188 C 54.707031 59.617188 53.847656 58.753906 53.847656 57.691406 C 53.847656 56.628906 54.707031 55.769531 55.769531 55.769531 C 56.832031 55.769531 57.691406 56.628906 57.691406 57.691406 Z M 57.691406 57.691406 "/>
<path style=" stroke:none;fill-rule:nonzero;fill:rgb(78.039216%,81.568627%,82.745098%);fill-opacity:1;" d="M 69.230469 57.691406 C 69.230469 58.753906 68.371094 59.617188 67.308594 59.617188 C 66.246094 59.617188 65.382812 58.753906 65.382812 57.691406 C 65.382812 56.628906 66.246094 55.769531 67.308594 55.769531 C 68.371094 55.769531 69.230469 56.628906 69.230469 57.691406 Z M 69.230469 57.691406 "/>
<path style=" stroke:none;fill-rule:nonzero;fill:rgb(78.039216%,81.568627%,82.745098%);fill-opacity:1;" d="M 57.691406 69.230469 C 57.691406 70.292969 56.832031 71.152344 55.769531 71.152344 C 54.707031 71.152344 53.847656 70.292969 53.847656 69.230469 C 53.847656 68.167969 54.707031 67.308594 55.769531 67.308594 C 56.832031 67.308594 57.691406 68.167969 57.691406 69.230469 Z M 57.691406 69.230469 "/>
<path style=" stroke:none;fill-rule:nonzero;fill:rgb(78.039216%,81.568627%,82.745098%);fill-opacity:1;" d="M 69.230469 69.230469 C 69.230469 70.292969 68.371094 71.152344 67.308594 71.152344 C 66.246094 71.152344 65.382812 70.292969 65.382812 69.230469 C 65.382812 68.167969 66.246094 67.308594 67.308594 67.308594 C 68.371094 67.308594 69.230469 68.167969 69.230469 69.230469 Z M 69.230469 69.230469 "/>
<path style=" stroke:none;fill-rule:nonzero;fill:rgb(78.039216%,81.568627%,82.745098%);fill-opacity:1;" d="M 63.460938 63.460938 C 63.460938 64.523438 62.601562 65.382812 61.539062 65.382812 C 60.476562 65.382812 59.617188 64.523438 59.617188 63.460938 C 59.617188 62.398438 60.476562 61.539062 61.539062 61.539062 C 62.601562 61.539062 63.460938 62.398438 63.460938 63.460938 Z M 63.460938 63.460938 "/>
<path style=" stroke:none;fill-rule:nonzero;fill:rgb(78.039216%,81.568627%,82.745098%);fill-opacity:1;" d="M 75 63.460938 C 75 64.523438 74.140625 65.382812 73.078125 65.382812 C 72.015625 65.382812 71.152344 64.523438 71.152344 63.460938 C 71.152344 62.398438 72.015625 61.539062 73.078125 61.539062 C 74.140625 61.539062 75 62.398438 75 63.460938 Z M 75 63.460938 "/>
<path style=" stroke:none;fill-rule:nonzero;fill:rgb(78.039216%,81.568627%,82.745098%);fill-opacity:1;" d="M 63.460938 75 C 63.460938 76.0625 62.601562 76.921875 61.539062 76.921875 C 60.476562 76.921875 59.617188 76.0625 59.617188 75 C 59.617188 73.9375 60.476562 73.078125 61.539062 73.078125 C 62.601562 73.078125 63.460938 73.9375 63.460938 75 Z M 63.460938 75 "/>
<path style=" stroke:none;fill-rule:nonzero;fill:rgb(78.039216%,81.568627%,82.745098%);fill-opacity:1;" d="M 75 75 C 75 76.0625 74.140625 76.921875 73.078125 76.921875 C 72.015625 76.921875 71.152344 76.0625 71.152344 75 C 71.152344 73.9375 72.015625 73.078125 73.078125 73.078125 C 74.140625 73.078125 75 73.9375 75 75 Z M 75 75 "/>
<path style=" stroke:none;fill-rule:nonzero;fill:rgb(78.039216%,81.568627%,82.745098%);fill-opacity:1;" d="M 28.847656 86.539062 C 28.847656 87.601562 27.984375 88.460938 26.921875 88.460938 C 25.859375 88.460938 25 87.601562 25 86.539062 C 25 85.476562 25.859375 84.617188 26.921875 84.617188 C 27.984375 84.617188 28.847656 85.476562 28.847656 86.539062 Z M 28.847656 86.539062 "/>
<path style=" stroke:none;fill-rule:nonzero;fill:rgb(78.039216%,81.568627%,82.745098%);fill-opacity:1;" d="M 34.617188 80.769531 C 34.617188 81.832031 33.753906 82.691406 32.691406 82.691406 C 31.628906 82.691406 30.769531 81.832031 30.769531 80.769531 C 30.769531 79.707031 31.628906 78.847656 32.691406 78.847656 C 33.753906 78.847656 34.617188 79.707031 34.617188 80.769531 Z M 34.617188 80.769531 "/>
<path style=" stroke:none;fill-rule:nonzero;fill:rgb(78.039216%,81.568627%,82.745098%);fill-opacity:1;" d="M 46.152344 80.769531 C 46.152344 81.832031 45.292969 82.691406 44.230469 82.691406 C 43.167969 82.691406 42.308594 81.832031 42.308594 80.769531 C 42.308594 79.707031 43.167969 78.847656 44.230469 78.847656 C 45.292969 78.847656 46.152344 79.707031 46.152344 80.769531 Z M 46.152344 80.769531 "/>
<path style=" stroke:none;fill-rule:nonzero;fill:rgb(78.039216%,81.568627%,82.745098%);fill-opacity:1;" d="M 34.617188 92.308594 C 34.617188 93.371094 33.753906 94.230469 32.691406 94.230469 C 31.628906 94.230469 30.769531 93.371094 30.769531 92.308594 C 30.769531 91.246094 31.628906 90.382812 32.691406 90.382812 C 33.753906 90.382812 34.617188 91.246094 34.617188 92.308594 Z M 34.617188 92.308594 "/>
<path style=" stroke:none;fill-rule:nonzero;fill:rgb(78.039216%,81.568627%,82.745098%);fill-opacity:1;" d="M 46.152344 92.308594 C 46.152344 93.371094 45.292969 94.230469 44.230469 94.230469 C 43.167969 94.230469 42.308594 93.371094 42.308594 92.308594 C 42.308594 91.246094 43.167969 90.382812 44.230469 90.382812 C 45.292969 90.382812 46.152344 91.246094 46.152344 92.308594 Z M 46.152344 92.308594 "/>
<path style=" stroke:none;fill-rule:nonzero;fill:rgb(78.039216%,81.568627%,82.745098%);fill-opacity:1;" d="M 40.382812 86.539062 C 40.382812 87.601562 39.523438 88.460938 38.460938 88.460938 C 37.398438 88.460938 36.539062 87.601562 36.539062 86.539062 C 36.539062 85.476562 37.398438 84.617188 38.460938 84.617188 C 39.523438 84.617188 40.382812 85.476562 40.382812 86.539062 Z M 40.382812 86.539062 "/>
<path style=" stroke:none;fill-rule:nonzero;fill:rgb(78.039216%,81.568627%,82.745098%);fill-opacity:1;" d="M 51.921875 86.539062 C 51.921875 87.601562 51.0625 88.460938 50 88.460938 C 48.9375 88.460938 48.078125 87.601562 48.078125 86.539062 C 48.078125 85.476562 48.9375 84.617188 50 84.617188 C 51.0625 84.617188 51.921875 85.476562 51.921875 86.539062 Z M 51.921875 86.539062 "/>
<path style=" stroke:none;fill-rule:nonzero;fill:rgb(78.039216%,81.568627%,82.745098%);fill-opacity:1;" d="M 57.691406 80.769531 C 57.691406 81.832031 56.832031 82.691406 55.769531 82.691406 C 54.707031 82.691406 53.847656 81.832031 53.847656 80.769531 C 53.847656 79.707031 54.707031 78.847656 55.769531 78.847656 C 56.832031 78.847656 57.691406 79.707031 57.691406 80.769531 Z M 57.691406 80.769531 "/>
<path style=" stroke:none;fill-rule:nonzero;fill:rgb(78.039216%,81.568627%,82.745098%);fill-opacity:1;" d="M 69.230469 80.769531 C 69.230469 81.832031 68.371094 82.691406 67.308594 82.691406 C 66.246094 82.691406 65.382812 81.832031 65.382812 80.769531 C 65.382812 79.707031 66.246094 78.847656 67.308594 78.847656 C 68.371094 78.847656 69.230469 79.707031 69.230469 80.769531 Z M 69.230469 80.769531 "/>
<path style=" stroke:none;fill-rule:nonzero;fill:rgb(78.039216%,81.568627%,82.745098%);fill-opacity:1;" d="M 57.691406 92.308594 C 57.691406 93.371094 56.832031 94.230469 55.769531 94.230469 C 54.707031 94.230469 53.847656 93.371094 53.847656 92.308594 C 53.847656 91.246094 54.707031 90.382812 55.769531 90.382812 C 56.832031 90.382812 57.691406 91.246094 57.691406 92.308594 Z M 57.691406 92.308594 "/>
<path style=" stroke:none;fill-rule:nonzero;fill:rgb(78.039216%,81.568627%,82.745098%);fill-opacity:1;" d="M 69.230469 92.308594 C 69.230469 93.371094 68.371094 94.230469 67.308594 94.230469 C 66.246094 94.230469 65.382812 93.371094 65.382812 92.308594 C 65.382812 91.246094 66.246094 90.382812 67.308594 90.382812 C 68.371094 90.382812 69.230469 91.246094 69.230469 92.308594 Z M 69.230469 92.308594 "/>
<path style=" stroke:none;fill-rule:nonzero;fill:rgb(78.039216%,81.568627%,82.745098%);fill-opacity:1;" d="M 63.460938 86.539062 C 63.460938 87.601562 62.601562 88.460938 61.539062 88.460938 C 60.476562 88.460938 59.617188 87.601562 59.617188 86.539062 C 59.617188 85.476562 60.476562 84.617188 61.539062 84.617188 C 62.601562 84.617188 63.460938 85.476562 63.460938 86.539062 Z M 63.460938 86.539062 "/>
<path style=" stroke:none;fill-rule:nonzero;fill:rgb(78.039216%,81.568627%,82.745098%);fill-opacity:1;" d="M 75 86.539062 C 75 87.601562 74.140625 88.460938 73.078125 88.460938 C 72.015625 88.460938 71.152344 87.601562 71.152344 86.539062 C 71.152344 85.476562 72.015625 84.617188 73.078125 84.617188 C 74.140625 84.617188 75 85.476562 75 86.539062 Z M 75 86.539062 "/>
</g>
</svg>
<!-- iconic normalized -->