<?xml version="1.0" encoding="UTF-8"?>
<svg xmlns="http://www.w3.org/2000/svg" xmlns:xlink="http://www.w3.org/1999/xlink" width="100px" height="100px" viewBox="0 0 100 100" version="1.1">
<g id="surface1">
<path style=" stroke:none;fill-rule:nonzero;fill:rgb(45.098039%,51.372549%,74.901961%);fill-opacity:1;" d="M 31.445312 5.355469 L 30.550781 5.355469 C 29.566406 5.355469 28.765625 4.558594 28.765625 3.570312 C 28.765625 2.582031 29.566406 1.785156 30.550781 1.785156 L 31.445312 1.785156 C 32.429688 1.785156 33.230469 2.582031 33.230469 3.570312 C 33.230469 4.558594 32.433594 5.355469 31.445312 5.355469 Z M 31.445312 5.355469 "/>
<path style=" stroke:none;fill-rule:nonzero;fill:rgb(45.098039%,51.372549%,74.901961%);fill-opacity:1;" d="M 3.570312 25.335938 C 2.585938 25.335938 1.785156 24.539062 1.785156 23.550781 L 1.785156 21.804688 C 1.785156 20.816406 2.585938 20.019531 3.570312 20.019531 C 4.558594 20.019531 5.355469 20.816406 5.355469 21.804688 L 5.355469 23.550781 C 5.355469 24.539062 4.558594 25.335938 3.570312 25.335938 Z M 3.570312 16.613281 C 2.585938 16.613281 1.785156 15.816406 1.785156 14.828125 L 1.785156 13.082031 C 1.785156 12.09375 2.585938 11.296875 3.570312 11.296875 C 4.558594 11.296875 5.355469 12.09375 5.355469 13.082031 L 5.355469 14.828125 C 5.355469 15.8125 4.558594 16.613281 3.570312 16.613281 Z M 5.28125 8.285156 C 4.890625 8.285156 4.496094 8.15625 4.164062 7.890625 C 3.394531 7.269531 3.273438 6.144531 3.890625 5.378906 C 4.339844 4.820312 4.847656 4.3125 5.402344 3.871094 C 6.171875 3.257812 7.296875 3.382812 7.910156 4.15625 C 8.523438 4.925781 8.398438 6.050781 7.625 6.664062 C 7.277344 6.941406 6.957031 7.261719 6.671875 7.617188 C 6.320312 8.054688 5.804688 8.285156 5.28125 8.285156 Z M 23.574219 5.355469 L 21.828125 5.355469 C 20.84375 5.355469 20.042969 4.558594 20.042969 3.570312 C 20.042969 2.582031 20.84375 1.785156 21.828125 1.785156 L 23.574219 1.785156 C 24.558594 1.785156 25.359375 2.582031 25.359375 3.570312 C 25.359375 4.558594 24.558594 5.355469 23.574219 5.355469 Z M 14.851562 5.355469 L 13.105469 5.355469 C 12.121094 5.355469 11.320312 4.558594 11.320312 3.570312 C 11.320312 2.582031 12.121094 1.785156 13.105469 1.785156 L 14.851562 1.785156 C 15.835938 1.785156 16.636719 2.582031 16.636719 3.570312 C 16.636719 4.558594 15.835938 5.355469 14.851562 5.355469 Z M 14.851562 5.355469 "/>
<path style=" stroke:none;fill-rule:nonzero;fill:rgb(45.098039%,51.372549%,74.901961%);fill-opacity:1;" d="M 3.570312 33.230469 C 2.585938 33.230469 1.785156 32.433594 1.785156 31.445312 L 1.785156 30.550781 C 1.785156 29.5625 2.585938 28.765625 3.570312 28.765625 C 4.558594 28.765625 5.355469 29.5625 5.355469 30.550781 L 5.355469 31.445312 C 5.355469 32.433594 4.558594 33.230469 3.570312 33.230469 Z M 3.570312 33.230469 "/>
<path style=" stroke:none;fill-rule:nonzero;fill:rgb(45.098039%,51.372549%,74.901961%);fill-opacity:1;" d="M 96.429688 33.230469 C 95.441406 33.230469 94.644531 32.433594 94.644531 31.445312 L 94.644531 30.550781 C 94.644531 29.5625 95.441406 28.765625 96.429688 28.765625 C 97.414062 28.765625 98.214844 29.5625 98.214844 30.550781 L 98.214844 31.445312 C 98.214844 32.433594 97.414062 33.230469 96.429688 33.230469 Z M 96.429688 33.230469 "/>
<path style=" stroke:none;fill-rule:nonzero;fill:rgb(45.098039%,51.372549%,74.901961%);fill-opacity:1;" d="M 96.429688 25.359375 C 95.441406 25.359375 94.644531 24.5625 94.644531 23.574219 L 94.644531 21.828125 C 94.644531 20.839844 95.441406 20.042969 96.429688 20.042969 C 97.414062 20.042969 98.214844 20.839844 98.214844 21.828125 L 98.214844 23.574219 C 98.214844 24.5625 97.414062 25.359375 96.429688 25.359375 Z M 96.429688 16.636719 C 95.441406 16.636719 94.644531 15.835938 94.644531 14.851562 L 94.644531 13.105469 C 94.644531 12.117188 95.441406 11.320312 96.429688 11.320312 C 97.414062 11.320312 98.214844 12.117188 98.214844 13.105469 L 98.214844 14.851562 C 98.214844 15.835938 97.414062 16.636719 96.429688 16.636719 Z M 94.730469 8.300781 C 94.207031 8.300781 93.6875 8.070312 93.332031 7.625 C 93.054688 7.277344 92.734375 6.957031 92.382812 6.675781 C 91.613281 6.058594 91.492188 4.933594 92.109375 4.164062 C 92.726562 3.394531 93.851562 3.273438 94.621094 3.890625 C 95.175781 4.335938 95.683594 4.847656 96.128906 5.402344 C 96.742188 6.175781 96.617188 7.296875 95.84375 7.914062 C 95.515625 8.171875 95.125 8.300781 94.730469 8.300781 Z M 86.917969 5.355469 L 85.171875 5.355469 C 84.1875 5.355469 83.386719 4.558594 83.386719 3.570312 C 83.386719 2.582031 84.1875 1.785156 85.171875 1.785156 L 86.917969 1.785156 C 87.902344 1.785156 88.703125 2.582031 88.703125 3.570312 C 88.703125 4.558594 87.902344 5.355469 86.917969 5.355469 Z M 78.195312 5.355469 L 76.449219 5.355469 C 75.464844 5.355469 74.664062 4.558594 74.664062 3.570312 C 74.664062 2.582031 75.464844 1.785156 76.449219 1.785156 L 78.195312 1.785156 C 79.179688 1.785156 79.980469 2.582031 79.980469 3.570312 C 79.980469 4.558594 79.179688 5.355469 78.195312 5.355469 Z M 78.195312 5.355469 "/>
<path style=" stroke:none;fill-rule:nonzero;fill:rgb(45.098039%,51.372549%,74.901961%);fill-opacity:1;" d="M 69.449219 5.355469 L 68.554688 5.355469 C 67.570312 5.355469 66.769531 4.558594 66.769531 3.570312 C 66.769531 2.582031 67.570312 1.785156 68.554688 1.785156 L 69.449219 1.785156 C 70.433594 1.785156 71.234375 2.582031 71.234375 3.570312 C 71.234375 4.558594 70.433594 5.355469 69.449219 5.355469 Z M 69.449219 5.355469 "/>
<path style=" stroke:none;fill-rule:nonzero;fill:rgb(45.098039%,51.372549%,74.901961%);fill-opacity:1;" d="M 69.449219 98.214844 L 68.554688 98.214844 C 67.570312 98.214844 66.769531 97.417969 66.769531 96.429688 C 66.769531 95.441406 67.570312 94.644531 68.554688 94.644531 L 69.449219 94.644531 C 70.433594 94.644531 71.234375 95.441406 71.234375 96.429688 C 71.234375 97.417969 70.433594 98.214844 69.449219 98.214844 Z M 69.449219 98.214844 "/>
<path style=" stroke:none;fill-rule:nonzero;fill:rgb(45.098039%,51.372549%,74.901961%);fill-opacity:1;" d="M 86.894531 98.214844 L 85.148438 98.214844 C 84.164062 98.214844 83.363281 97.417969 83.363281 96.429688 C 83.363281 95.441406 84.164062 94.644531 85.148438 94.644531 L 86.894531 94.644531 C 87.878906 94.644531 88.679688 95.441406 88.679688 96.429688 C 88.679688 97.417969 87.878906 98.214844 86.894531 98.214844 Z M 78.171875 98.214844 L 76.425781 98.214844 C 75.441406 98.214844 74.640625 97.417969 74.640625 96.429688 C 74.640625 95.441406 75.441406 94.644531 76.425781 94.644531 L 78.171875 94.644531 C 79.15625 94.644531 79.957031 95.441406 79.957031 96.429688 C 79.957031 97.417969 79.15625 98.214844 78.171875 98.214844 Z M 93.484375 96.519531 C 92.960938 96.519531 92.441406 96.289062 92.085938 95.84375 C 91.472656 95.074219 91.601562 93.949219 92.371094 93.335938 C 92.71875 93.058594 93.042969 92.738281 93.324219 92.382812 C 93.941406 91.617188 95.070312 91.496094 95.835938 92.113281 C 96.605469 92.730469 96.726562 93.855469 96.109375 94.625 C 95.660156 95.183594 95.152344 95.6875 94.597656 96.128906 C 94.269531 96.390625 93.875 96.519531 93.484375 96.519531 Z M 96.429688 88.703125 C 95.441406 88.703125 94.644531 87.90625 94.644531 86.917969 L 94.644531 85.171875 C 94.644531 84.183594 95.441406 83.386719 96.429688 83.386719 C 97.414062 83.386719 98.214844 84.183594 98.214844 85.171875 L 98.214844 86.917969 C 98.214844 87.90625 97.414062 88.703125 96.429688 88.703125 Z M 96.429688 79.980469 C 95.441406 79.980469 94.644531 79.179688 94.644531 78.191406 L 94.644531 76.449219 C 94.644531 75.460938 95.441406 74.664062 96.429688 74.664062 C 97.414062 74.664062 98.214844 75.460938 98.214844 76.449219 L 98.214844 78.191406 C 98.214844 79.179688 97.414062 79.980469 96.429688 79.980469 Z M 96.429688 79.980469 "/>
<path style=" stroke:none;fill-rule:nonzero;fill:rgb(45.098039%,51.372549%,74.901961%);fill-opacity:1;" d="M 96.429688 71.234375 C 95.441406 71.234375 94.644531 70.4375 94.644531 69.449219 L 94.644531 68.554688 C 94.644531 67.566406 95.441406 66.769531 96.429688 66.769531 C 97.414062 66.769531 98.214844 67.566406 98.214844 68.554688 L 98.214844 69.449219 C 98.214844 70.433594 97.414062 71.234375 96.429688 71.234375 Z M 96.429688 71.234375 "/>
<path style=" stroke:none;fill-rule:nonzero;fill:rgb(45.098039%,51.372549%,74.901961%);fill-opacity:1;" d="M 3.570312 71.234375 C 2.585938 71.234375 1.785156 70.4375 1.785156 69.449219 L 1.785156 68.554688 C 1.785156 67.566406 2.585938 66.769531 3.570312 66.769531 C 4.558594 66.769531 5.355469 67.566406 5.355469 68.554688 L 5.355469 69.449219 C 5.355469 70.433594 4.558594 71.234375 3.570312 71.234375 Z M 3.570312 71.234375 "/>
<path style=" stroke:none;fill-rule:nonzero;fill:rgb(45.098039%,51.372549%,74.901961%);fill-opacity:1;" d="M 23.550781 98.214844 L 21.804688 98.214844 C 20.820312 98.214844 20.019531 97.417969 20.019531 96.429688 C 20.019531 95.441406 20.820312 94.644531 21.804688 94.644531 L 23.550781 94.644531 C 24.535156 94.644531 25.335938 95.441406 25.335938 96.429688 C 25.335938 97.417969 24.539062 98.214844 23.550781 98.214844 Z M 14.828125 98.214844 L 13.082031 98.214844 C 12.097656 98.214844 11.296875 97.417969 11.296875 96.429688 C 11.296875 95.441406 12.097656 94.644531 13.082031 94.644531 L 14.828125 94.644531 C 15.8125 94.644531 16.613281 95.441406 16.613281 96.429688 C 16.613281 97.417969 15.8125 98.214844 14.828125 98.214844 Z M 6.496094 96.503906 C 6.105469 96.503906 5.707031 96.375 5.378906 96.109375 C 4.824219 95.664062 4.316406 95.152344 3.871094 94.597656 C 3.257812 93.824219 3.382812 92.703125 4.15625 92.085938 C 4.925781 91.476562 6.050781 91.601562 6.664062 92.371094 C 6.941406 92.722656 7.261719 93.042969 7.613281 93.324219 C 8.382812 93.941406 8.507812 95.066406 7.890625 95.832031 C 7.539062 96.273438 7.019531 96.503906 6.496094 96.503906 Z M 3.570312 88.679688 C 2.585938 88.679688 1.785156 87.882812 1.785156 86.894531 L 1.785156 85.148438 C 1.785156 84.160156 2.585938 83.363281 3.570312 83.363281 C 4.558594 83.363281 5.355469 84.160156 5.355469 85.148438 L 5.355469 86.894531 C 5.355469 87.882812 4.558594 88.679688 3.570312 88.679688 Z M 3.570312 79.957031 C 2.585938 79.957031 1.785156 79.15625 1.785156 78.167969 L 1.785156 76.425781 C 1.785156 75.4375 2.585938 74.640625 3.570312 74.640625 C 4.558594 74.640625 5.355469 75.4375 5.355469 76.425781 L 5.355469 78.167969 C 5.355469 79.15625 4.558594 79.957031 3.570312 79.957031 Z M 3.570312 79.957031 "/>
<path style=" stroke:none;fill-rule:nonzero;fill:rgb(45.098039%,51.372549%,74.901961%);fill-opacity:1;" d="M 31.445312 98.214844 L 30.550781 98.214844 C 29.566406 98.214844 28.765625 97.417969 28.765625 96.429688 C 28.765625 95.441406 29.566406 94.644531 30.550781 94.644531 L 31.445312 94.644531 C 32.429688 94.644531 33.230469 95.441406 33.230469 96.429688 C 33.230469 97.417969 32.433594 98.214844 31.445312 98.214844 Z M 31.445312 98.214844 "/>
<path style=" stroke:none;fill-rule:nonzero;fill:rgb(93.72549%,80.784314%,29.019608%);fill-opacity:1;" d="M 50 0 C 22.386719 0 0 22.386719 0 50 C 0 77.613281 22.386719 100 50 100 C 77.613281 100 100 77.613281 100 50 C 100 22.386719 77.613281 0 50 0 Z M 50 76 C 35.640625 76 24 64.359375 24 50 C 24 35.640625 35.640625 24 50 24 C 64.359375 24 76 35.640625 76 50 C 76 64.359375 64.359375 76 50 76 Z M 50 76 "/>
<path style=" stroke:none;fill-rule:nonzero;fill:rgb(92.941176%,54.117647%,9.803922%);fill-opacity:1;" d="M 38.199219 1.4375 C 37.960938 0.480469 36.988281 -0.0976562 36.035156 0.136719 C 35.078125 0.375 34.496094 1.347656 34.734375 2.300781 L 40.558594 25.597656 C 40.761719 26.410156 41.488281 26.949219 42.289062 26.949219 C 42.433594 26.949219 42.578125 26.933594 42.722656 26.894531 C 43.679688 26.65625 44.261719 25.6875 44.023438 24.730469 Z M 38.199219 1.4375 "/>
<path style=" stroke:none;fill-rule:nonzero;fill:rgb(92.941176%,54.117647%,9.803922%);fill-opacity:1;" d="M 63.964844 0.136719 C 63.015625 -0.101562 62.039062 0.480469 61.800781 1.4375 L 55.976562 24.730469 C 55.738281 25.6875 56.320312 26.65625 57.277344 26.894531 C 57.421875 26.933594 57.566406 26.949219 57.710938 26.949219 C 58.511719 26.949219 59.238281 26.410156 59.441406 25.597656 L 65.265625 2.300781 C 65.503906 1.347656 64.921875 0.375 63.964844 0.136719 Z M 63.964844 0.136719 "/>
<path style=" stroke:none;fill-rule:nonzero;fill:rgb(92.941176%,54.117647%,9.803922%);fill-opacity:1;" d="M 59.441406 74.402344 C 59.203125 73.445312 58.230469 72.871094 57.277344 73.105469 C 56.320312 73.34375 55.738281 74.3125 55.976562 75.269531 L 61.800781 98.5625 C 62.003906 99.375 62.730469 99.917969 63.53125 99.917969 C 63.675781 99.917969 63.820312 99.898438 63.964844 99.863281 C 64.921875 99.625 65.503906 98.652344 65.265625 97.699219 Z M 59.441406 74.402344 "/>
<path style=" stroke:none;fill-rule:nonzero;fill:rgb(92.941176%,54.117647%,9.803922%);fill-opacity:1;" d="M 42.722656 73.105469 C 41.769531 72.871094 40.796875 73.441406 40.558594 74.402344 L 34.734375 97.699219 C 34.496094 98.652344 35.078125 99.625 36.035156 99.863281 C 36.179688 99.898438 36.324219 99.917969 36.46875 99.917969 C 37.269531 99.917969 37.996094 99.375 38.199219 98.5625 L 44.023438 75.269531 C 44.261719 74.3125 43.679688 73.34375 42.722656 73.105469 Z M 42.722656 73.105469 "/>
<path style=" stroke:none;fill-rule:nonzero;fill:rgb(92.941176%,54.117647%,9.803922%);fill-opacity:1;" d="M 74.835938 44.078125 C 74.980469 44.078125 75.125 44.058594 75.269531 44.023438 L 98.566406 38.199219 C 99.523438 37.960938 100.105469 36.992188 99.867188 36.035156 C 99.625 35.078125 98.65625 34.496094 97.699219 34.734375 L 74.40625 40.558594 C 73.449219 40.796875 72.867188 41.769531 73.105469 42.722656 C 73.308594 43.535156 74.035156 44.078125 74.835938 44.078125 Z M 74.835938 44.078125 "/>
<path style=" stroke:none;fill-rule:nonzero;fill:rgb(92.941176%,54.117647%,9.803922%);fill-opacity:1;" d="M 98.5625 61.800781 L 75.269531 55.976562 C 74.316406 55.738281 73.34375 56.316406 73.105469 57.277344 C 72.863281 58.230469 73.445312 59.203125 74.402344 59.441406 L 97.699219 65.265625 C 97.84375 65.300781 97.988281 65.316406 98.132812 65.316406 C 98.933594 65.316406 99.660156 64.777344 99.863281 63.964844 C 100.105469 63.007812 99.519531 62.039062 98.5625 61.800781 Z M 98.5625 61.800781 "/>
<path style=" stroke:none;fill-rule:nonzero;fill:rgb(92.941176%,54.117647%,9.803922%);fill-opacity:1;" d="M 24.730469 55.980469 L 1.4375 61.800781 C 0.480469 62.039062 -0.101562 63.007812 0.136719 63.964844 C 0.339844 64.777344 1.066406 65.316406 1.867188 65.316406 C 2.011719 65.316406 2.15625 65.300781 2.300781 65.265625 L 25.597656 59.441406 C 26.554688 59.203125 27.132812 58.230469 26.894531 57.277344 C 26.65625 56.320312 25.683594 55.742188 24.730469 55.980469 Z M 24.730469 55.980469 "/>
<path style=" stroke:none;fill-rule:nonzero;fill:rgb(92.941176%,54.117647%,9.803922%);fill-opacity:1;" d="M 25.597656 40.558594 L 2.300781 34.734375 C 1.351562 34.492188 0.375 35.074219 0.136719 36.035156 C -0.105469 36.992188 0.480469 37.960938 1.4375 38.199219 L 24.730469 44.023438 C 24.875 44.0625 25.019531 44.078125 25.167969 44.078125 C 25.964844 44.078125 26.691406 43.535156 26.894531 42.722656 C 27.132812 41.769531 26.554688 40.796875 25.597656 40.558594 Z M 25.597656 40.558594 "/>
</g>
</svg>
<!-- iconic normalized -->