<?xml version="1.0" encoding="UTF-8"?>
<svg xmlns="http://www.w3.org/2000/svg" xmlns:xlink="http://www.w3.org/1999/xlink" width="100px" height="100px" viewBox="0 0 100 100" version="1.1">
<g id="surface1">
<path style="fill-rule:nonzero;fill:rgb(78.039216%,79.215686%,78.039216%);fill-opacity:1;stroke-width:2;stroke-linecap:butt;stroke-linejoin:miter;stroke:rgb(78.039216%,79.215686%,78.039216%);stroke-opacity:1;stroke-miterlimit:10;" d="M 39.999609 28.000859 C 38.89625 28.000859 37.999063 27.103672 37.999063 26.000313 L 37.999063 13.600547 C 37.999063 8.858594 33.737422 5.000234 28.499297 5.000234 C 23.261172 5.000234 18.999531 8.858594 18.999531 13.600547 L 18.999531 16.82 C 18.999531 17.925625 18.104609 18.820547 16.998984 18.820547 C 15.895625 18.820547 15.000703 17.925625 15.000703 16.82 L 15.000703 13.600547 C 15.000703 6.651875 21.056719 0.999141 28.499297 0.999141 C 35.944141 0.999141 42.000156 6.651875 42.000156 13.600547 L 42.000156 26.000313 C 42.000156 27.103672 41.102969 28.000859 39.999609 28.000859 Z M 39.999609 28.000859 " transform="matrix(1.724138,0,0,1.724138,0,0)"/>
<path style=" stroke:none;fill-rule:nonzero;fill:rgb(45.098039%,51.372549%,74.901961%);fill-opacity:1;" d="M 13.792969 44.828125 L 86.207031 44.828125 L 86.207031 100 L 13.792969 100 Z M 13.792969 44.828125 "/>
<path style=" stroke:none;fill-rule:nonzero;fill:rgb(40.784314%,47.45098%,68.627451%);fill-opacity:1;" d="M 50 44.828125 L 86.207031 44.828125 L 86.207031 100 L 50 100 Z M 50 44.828125 "/>
<path style=" stroke:none;fill-rule:nonzero;fill:rgb(92.156863%,72.941176%,8.627451%);fill-opacity:1;" d="M 73.425781 98.277344 L 84.484375 87.21875 L 84.484375 81.035156 L 74.851562 81.035156 L 57.609375 98.277344 Z M 73.425781 98.277344 "/>
<path style=" stroke:none;fill-rule:nonzero;fill:rgb(30.980392%,34.901961%,43.921569%);fill-opacity:1;" d="M 15.515625 81.035156 L 15.515625 94.113281 L 28.597656 81.035156 Z M 15.515625 81.035156 "/>
<path style=" stroke:none;fill-rule:nonzero;fill:rgb(25.882353%,29.019608%,37.647059%);fill-opacity:1;" d="M 52.734375 98.277344 L 69.976562 81.035156 L 54.160156 81.035156 L 36.921875 98.277344 Z M 52.734375 98.277344 "/>
<path style=" stroke:none;fill-rule:nonzero;fill:rgb(91.764706%,80%,9.411765%);fill-opacity:1;" d="M 49.285156 81.035156 L 33.472656 81.035156 L 16.734375 97.769531 C 16.398438 98.105469 15.957031 98.277344 15.515625 98.277344 L 32.042969 98.277344 Z M 49.285156 81.035156 "/>
<path style=" stroke:none;fill-rule:nonzero;fill:rgb(25.882353%,29.019608%,37.647059%);fill-opacity:1;" d="M 84.484375 98.277344 L 84.484375 92.09375 L 78.300781 98.277344 Z M 84.484375 98.277344 "/>
<path style=" stroke:none;fill-rule:nonzero;fill:rgb(30.980392%,34.901961%,43.921569%);fill-opacity:1;" d="M 50 85.195312 L 36.921875 98.277344 L 50 98.277344 Z M 50 85.195312 "/>
</g>
</svg>
<!-- iconic normalized -->