<?xml version="1.0" encoding="UTF-8"?>
<svg xmlns="http://www.w3.org/2000/svg" xmlns:xlink="http://www.w3.org/1999/xlink" width="100px" height="100px" viewBox="0 0 100 100" version="1.1">
<g id="surface1">
<rect x="0" y="0" width="100" height="100" style="fill:rgb(90.588235%,92.54902%,92.941176%);fill-opacity:1;stroke:none;"/>
<path style="fill:none;stroke-width:2;stroke-linecap:butt;stroke-linejoin:miter;stroke:rgb(25.882353%,29.019608%,37.647059%);stroke-opacity:1;stroke-miterlimit:10;" d="M 10.999609 47.000391 L 47.000391 10.999609 " transform="matrix(1.724138,0,0,1.724138,0,0)"/>
<path style="fill:none;stroke-width:2;stroke-linecap:butt;stroke-linejoin:miter;stroke:rgb(25.882353%,29.019608%,37.647059%);stroke-opacity:1;stroke-miterlimit:10;" d="M 21.000078 15.999844 C 21.000078 18.761641 18.761641 21.000078 15.999844 21.000078 C 13.238047 21.000078 10.999609 18.761641 10.999609 15.999844 C 10.999609 13.238047 13.238047 10.999609 15.999844 10.999609 C 18.761641 10.999609 21.000078 13.238047 21.000078 15.999844 Z M 21.000078 15.999844 " transform="matrix(1.724138,0,0,1.724138,0,0)"/>
<path style="fill:none;stroke-width:2;stroke-linecap:butt;stroke-linejoin:miter;stroke:rgb(25.882353%,29.019608%,37.647059%);stroke-opacity:1;stroke-miterlimit:10;" d="M 47.000391 42.000156 C 47.000391 44.761953 44.761953 47.000391 42.000156 47.000391 C 39.238359 47.000391 36.999922 44.761953 36.999922 42.000156 C 36.999922 39.238359 39.238359 36.999922 42.000156 36.999922 C 44.761953 36.999922 47.000391 39.238359 47.000391 42.000156 Z M 47.000391 42.000156 " transform="matrix(1.724138,0,0,1.724138,0,0)"/>
</g>
</svg>
<!-- iconic normalized -->