<?xml version="1.0" encoding="UTF-8"?>
<svg xmlns="http://www.w3.org/2000/svg" xmlns:xlink="http://www.w3.org/1999/xlink" width="100px" height="100px" viewBox="0 0 100 100" version="1.1">
<g id="surface1">
<path style=" stroke:none;fill-rule:nonzero;fill:rgb(49.803922%,67.058824%,85.490196%);fill-opacity:1;" d="M 46.550781 5.871094 L 46.550781 44.828125 L 94.128906 44.828125 C 97.371094 44.828125 100 47.457031 100 50.699219 L 100 5.871094 C 100 2.628906 97.371094 0 94.128906 0 L 52.421875 0 C 49.179688 0 46.550781 2.628906 46.550781 5.871094 Z M 46.550781 5.871094 "/>
<path style="fill:none;stroke-width:2;stroke-linecap:round;stroke-linejoin:miter;stroke:rgb(53.333333%,75.294118%,34.117647%);stroke-opacity:1;stroke-miterlimit:10;" d="M 13.999297 7.000781 C 7.367813 7.000781 2.000547 12.368047 2.000547 18.999531 " transform="matrix(1.724138,0,0,1.724138,0,0)"/>
<path style="fill:none;stroke-width:2;stroke-linecap:round;stroke-linejoin:miter;stroke:rgb(53.333333%,75.294118%,34.117647%);stroke-opacity:1;stroke-miterlimit:10;" d="M 13.000156 13.000156 L 18.999531 7.000781 " transform="matrix(1.724138,0,0,1.724138,0,0)"/>
<path style="fill:none;stroke-width:2;stroke-linecap:round;stroke-linejoin:miter;stroke:rgb(53.333333%,75.294118%,34.117647%);stroke-opacity:1;stroke-miterlimit:10;" d="M 18.999531 7.000781 L 13.000156 0.999141 " transform="matrix(1.724138,0,0,1.724138,0,0)"/>
<path style="fill:none;stroke-width:2;stroke-linecap:round;stroke-linejoin:miter;stroke:rgb(53.333333%,75.294118%,34.117647%);stroke-opacity:1;stroke-miterlimit:10;" d="M 18.999531 7.000781 L 13.999297 7.000781 " transform="matrix(1.724138,0,0,1.724138,0,0)"/>
<path style=" stroke:none;fill-rule:nonzero;fill:rgb(90.588235%,92.54902%,92.941176%);fill-opacity:1;" d="M 100 50.699219 L 100 94.128906 C 100 97.371094 97.371094 100 94.128906 100 L 5.871094 100 C 2.628906 100 0 97.371094 0 94.128906 L 0 50.699219 C 0 47.457031 2.628906 44.828125 5.871094 44.828125 L 94.128906 44.828125 C 97.371094 44.828125 100 47.457031 100 50.699219 Z M 100 50.699219 "/>
<path style=" stroke:none;fill-rule:nonzero;fill:rgb(100%,100%,100%);fill-opacity:1;" d="M 96.550781 72.414062 C 96.550781 75.269531 94.234375 77.585938 91.378906 77.585938 C 88.523438 77.585938 86.207031 75.269531 86.207031 72.414062 C 86.207031 69.558594 88.523438 67.242188 91.378906 67.242188 C 94.234375 67.242188 96.550781 69.558594 96.550781 72.414062 Z M 96.550781 72.414062 "/>
<path style=" stroke:none;fill-rule:nonzero;fill:rgb(25.882353%,29.019608%,37.647059%);fill-opacity:1;" d="M 6.898438 72.414062 L 6.898438 79.308594 C 6.898438 80.265625 6.125 81.035156 5.171875 81.035156 C 4.21875 81.035156 3.449219 80.265625 3.449219 79.308594 L 3.449219 72.414062 C 3.449219 71.460938 4.21875 70.691406 5.171875 70.691406 C 6.125 70.691406 6.898438 71.460938 6.898438 72.414062 Z M 6.898438 72.414062 "/>
<path style=" stroke:none;fill-rule:nonzero;fill:rgb(25.882353%,29.019608%,37.647059%);fill-opacity:1;" d="M 6.898438 65.515625 L 6.898438 67.242188 C 6.898438 68.195312 6.125 68.964844 5.171875 68.964844 C 4.21875 68.964844 3.449219 68.195312 3.449219 67.242188 L 3.449219 65.515625 C 3.449219 64.5625 4.21875 63.792969 5.171875 63.792969 C 6.125 63.792969 6.898438 64.5625 6.898438 65.515625 Z M 6.898438 65.515625 "/>
<path style=" stroke:none;fill-rule:nonzero;fill:rgb(25.882353%,29.019608%,37.647059%);fill-opacity:1;" d="M 10.34375 44.828125 L 82.757812 44.828125 L 82.757812 100 L 10.34375 100 Z M 10.34375 44.828125 "/>
<path style=" stroke:none;fill-rule:nonzero;fill:rgb(90.588235%,92.54902%,92.941176%);fill-opacity:1;" d="M 46.550781 5.871094 L 46.550781 10.34375 L 100 10.34375 L 100 5.871094 C 100 2.628906 97.371094 0 94.128906 0 L 52.421875 0 C 49.179688 0 46.550781 2.628906 46.550781 5.871094 Z M 46.550781 5.871094 "/>
</g>
</svg>
<!-- iconic normalized -->