<?xml version="1.0" encoding="UTF-8"?>
<svg xmlns="http://www.w3.org/2000/svg" xmlns:xlink="http://www.w3.org/1999/xlink" width="100px" height="100px" viewBox="0 0 100 100" version="1.1">
<g id="surface1">
<path style="fill-rule:nonzero;fill:rgb(90.588235%,92.54902%,92.941176%);fill-opacity:1;stroke-width:2;stroke-linecap:round;stroke-linejoin:round;stroke:rgb(78.039216%,79.215686%,78.039216%);stroke-opacity:1;stroke-miterlimit:10;" d="M 0.999894 16.012529 L 0.999894 35.012545 L 12.000759 35.008481 L 25.830593 47.712417 C 27.232883 48.557856 29.000988 47.521381 29.000988 45.858955 L 29.000988 6.168045 C 29.000988 4.503587 27.232883 3.469144 25.830593 4.314583 L 12.000759 16.012529 Z M 0.999894 16.012529 " transform="matrix(1.922079,0,0,1.922079,0,0)"/>
<path style="fill:none;stroke-width:2;stroke-linecap:round;stroke-linejoin:miter;stroke:rgb(78.039216%,79.215686%,78.039216%);stroke-opacity:1;stroke-miterlimit:10;" d="M 12.000759 16.012529 L 12.000759 21.011998 " transform="matrix(1.922079,0,0,1.922079,0,0)"/>
<path style="fill:none;stroke-width:2;stroke-linecap:round;stroke-linejoin:miter;stroke:rgb(78.039216%,79.215686%,78.039216%);stroke-opacity:1;stroke-miterlimit:10;" d="M 12.000759 30.013076 L 12.000759 35.012545 " transform="matrix(1.922079,0,0,1.922079,0,0)"/>
<path style="fill:none;stroke-width:2;stroke-linecap:round;stroke-linejoin:round;stroke:rgb(78.039216%,79.215686%,78.039216%);stroke-opacity:1;stroke-miterlimit:10;" d="M 38.502012 43.013729 C 45.785792 40.530252 51.027106 33.638707 51.027106 25.513553 C 51.027106 17.38027 45.771566 10.492789 38.475592 8.013377 " transform="matrix(1.922079,0,0,1.922079,0,0)"/>
<path style="fill:none;stroke-width:2;stroke-linecap:round;stroke-linejoin:round;stroke:rgb(78.039216%,79.215686%,78.039216%);stroke-opacity:1;stroke-miterlimit:10;" d="M 33.000564 37.514312 C 38.211393 36.008374 42.026029 31.210103 42.026029 25.513553 C 42.026029 19.817003 38.211393 15.018732 33.000564 13.512794 " transform="matrix(1.922079,0,0,1.922079,0,0)"/>
</g>
</svg>
<!-- iconic normalized -->