<?xml version="1.0" encoding="UTF-8"?>
<svg xmlns="http://www.w3.org/2000/svg" xmlns:xlink="http://www.w3.org/1999/xlink" width="100px" height="100px" viewBox="0 0 100 100" version="1.1">
<g id="surface1">
<path style=" stroke:none;fill-rule:nonzero;fill:rgb(14.509804%,68.235294%,53.333333%);fill-opacity:1;" d="M 100 50 C 100 77.613281 77.613281 100 50 100 C 22.386719 100 0 77.613281 0 50 C 0 22.386719 22.386719 0 50 0 C 77.613281 0 100 22.386719 100 50 Z M 100 50 "/>
<path style=" stroke:none;fill-rule:nonzero;fill:rgb(98.431373%,80.784314%,61.568627%);fill-opacity:1;" d="M 91.261719 78.234375 C 90.128906 67.214844 80.820312 58.621094 69.5 58.621094 L 59.25 58.621094 C 57.949219 58.621094 56.898438 57.566406 56.898438 56.265625 L 56.898438 55.15625 C 56.898438 54.148438 57.550781 53.289062 58.492188 52.9375 C 68.5 49.175781 75.351562 32.757812 73.957031 21.15625 C 72.644531 10.207031 63.742188 1.382812 52.78125 0.15625 C 51.890625 0.0546875 51.007812 0.0078125 50.136719 0.00390625 C 50.109375 0.00390625 50.082031 0 50.054688 0 C 36.699219 -0.0273438 25.863281 10.789062 25.863281 24.136719 C 25.863281 34.523438 32.425781 49.578125 41.628906 52.980469 C 42.53125 53.3125 43.101562 54.210938 43.101562 55.171875 L 43.101562 56.265625 C 43.101562 57.566406 42.050781 58.621094 40.75 58.621094 L 30.5 58.621094 C 19.179688 58.621094 9.871094 67.214844 8.738281 78.234375 C 17.746094 91.375 32.863281 100 50 100 C 67.136719 100 82.253906 91.375 91.261719 78.234375 Z M 91.261719 78.234375 "/>
<path style=" stroke:none;fill-rule:nonzero;fill:rgb(41.960784%,35.686275%,29.411765%);fill-opacity:1;" d="M 57.746094 11.398438 C 64.148438 13.15625 70.179688 17.097656 74.042969 22.296875 C 74.015625 21.914062 74.003906 21.527344 73.957031 21.152344 C 72.644531 10.207031 63.742188 1.382812 52.78125 0.15625 C 51.890625 0.0546875 51.007812 0.0078125 50.136719 0.00390625 C 50.109375 0.00390625 50.082031 0 50.054688 0 C 38.121094 -0.0234375 28.226562 8.613281 26.246094 19.972656 L 26.253906 19.972656 C 26.5625 20.40625 26.867188 20.847656 27.195312 21.265625 C 27.316406 21.117188 27.4375 20.96875 27.5625 20.820312 C 31.011719 16.71875 36.769531 15.765625 41.671875 17.941406 C 43.160156 18.597656 44.8125 18.964844 46.550781 18.964844 C 51.625 18.964844 55.957031 15.832031 57.746094 11.398438 Z M 57.746094 11.398438 "/>
<path style=" stroke:none;fill-rule:nonzero;fill:rgb(33.333333%,37.647059%,50.196078%);fill-opacity:1;" d="M 91.261719 78.234375 C 90.128906 67.214844 80.820312 58.621094 69.5 58.621094 L 63.792969 58.621094 L 50 72.414062 L 36.207031 58.621094 L 30.5 58.621094 C 19.179688 58.621094 9.871094 67.214844 8.738281 78.234375 C 17.746094 91.375 32.863281 100 50 100 C 67.136719 100 82.253906 91.375 91.261719 78.234375 Z M 91.261719 78.234375 "/>
<path style=" stroke:none;fill-rule:nonzero;fill:rgb(25.882353%,29.019608%,37.647059%);fill-opacity:1;" d="M 74.136719 93.78125 C 75.320312 93.125 76.464844 92.417969 77.585938 91.675781 L 77.585938 81.035156 L 74.136719 81.035156 Z M 74.136719 93.78125 "/>
<path style=" stroke:none;fill-rule:nonzero;fill:rgb(25.882353%,29.019608%,37.647059%);fill-opacity:1;" d="M 25.863281 93.78125 L 25.863281 81.035156 L 22.414062 81.035156 L 22.414062 91.675781 C 23.535156 92.417969 24.679688 93.125 25.863281 93.78125 Z M 25.863281 93.78125 "/>
</g>
</svg>
<!-- iconic normalized -->