<?xml version="1.0" encoding="UTF-8"?>
<svg xmlns="http://www.w3.org/2000/svg" xmlns:xlink="http://www.w3.org/1999/xlink" width="100px" height="100px" viewBox="0 0 100 100" version="1.1">
<g id="surface1">
<path style=" stroke:none;fill-rule:nonzero;fill:rgb(44.313725%,76.470588%,66.27451%);fill-opacity:1;" d="M 24.136719 10.34375 L 100 10.34375 L 100 65.515625 L 24.136719 65.515625 Z M 24.136719 10.34375 "/>
<path style=" stroke:none;fill-rule:nonzero;fill:rgb(7.843137%,62.745098%,52.156863%);fill-opacity:1;" d="M 12.070312 77.585938 L 12.070312 34.484375 L 0 34.484375 L 0 89.65625 L 75.863281 89.65625 L 75.863281 77.585938 Z M 12.070312 77.585938 "/>
<path style=" stroke:none;fill-rule:nonzero;fill:rgb(14.901961%,72.54902%,60.392157%);fill-opacity:1;" d="M 24.136719 65.515625 L 24.136719 22.414062 L 12.070312 22.414062 L 12.070312 77.585938 L 87.929688 77.585938 L 87.929688 65.515625 Z M 24.136719 65.515625 "/>
<path style=" stroke:none;fill-rule:nonzero;fill:rgb(22.352941%,91.764706%,68.627451%);fill-opacity:1;" d="M 58.621094 74.136719 C 58.621094 75.089844 57.847656 75.863281 56.898438 75.863281 C 55.945312 75.863281 55.171875 75.089844 55.171875 74.136719 C 55.171875 73.1875 55.945312 72.414062 56.898438 72.414062 C 57.847656 72.414062 58.621094 73.1875 58.621094 74.136719 Z M 58.621094 74.136719 "/>
<path style=" stroke:none;fill-rule:nonzero;fill:rgb(22.352941%,91.764706%,68.627451%);fill-opacity:1;" d="M 63.792969 68.964844 C 63.792969 69.917969 63.019531 70.691406 62.070312 70.691406 C 61.117188 70.691406 60.34375 69.917969 60.34375 68.964844 C 60.34375 68.011719 61.117188 67.242188 62.070312 67.242188 C 63.019531 67.242188 63.792969 68.011719 63.792969 68.964844 Z M 63.792969 68.964844 "/>
<path style=" stroke:none;fill-rule:nonzero;fill:rgb(22.352941%,91.764706%,68.627451%);fill-opacity:1;" d="M 68.964844 74.136719 C 68.964844 75.089844 68.195312 75.863281 67.242188 75.863281 C 66.289062 75.863281 65.515625 75.089844 65.515625 74.136719 C 65.515625 73.1875 66.289062 72.414062 67.242188 72.414062 C 68.195312 72.414062 68.964844 73.1875 68.964844 74.136719 Z M 68.964844 74.136719 "/>
<path style=" stroke:none;fill-rule:nonzero;fill:rgb(22.352941%,91.764706%,68.627451%);fill-opacity:1;" d="M 79.308594 74.136719 C 79.308594 75.089844 78.539062 75.863281 77.585938 75.863281 C 76.632812 75.863281 75.863281 75.089844 75.863281 74.136719 C 75.863281 73.1875 76.632812 72.414062 77.585938 72.414062 C 78.539062 72.414062 79.308594 73.1875 79.308594 74.136719 Z M 79.308594 74.136719 "/>
<path style=" stroke:none;fill-rule:nonzero;fill:rgb(22.352941%,91.764706%,68.627451%);fill-opacity:1;" d="M 74.136719 68.964844 C 74.136719 69.917969 73.367188 70.691406 72.414062 70.691406 C 71.460938 70.691406 70.691406 69.917969 70.691406 68.964844 C 70.691406 68.011719 71.460938 67.242188 72.414062 67.242188 C 73.367188 67.242188 74.136719 68.011719 74.136719 68.964844 Z M 74.136719 68.964844 "/>
<path style=" stroke:none;fill-rule:nonzero;fill:rgb(22.352941%,91.764706%,68.627451%);fill-opacity:1;" d="M 84.484375 68.964844 C 84.484375 69.917969 83.710938 70.691406 82.757812 70.691406 C 81.804688 70.691406 81.035156 69.917969 81.035156 68.964844 C 81.035156 68.011719 81.804688 67.242188 82.757812 67.242188 C 83.710938 67.242188 84.484375 68.011719 84.484375 68.964844 Z M 84.484375 68.964844 "/>
<path style=" stroke:none;fill-rule:nonzero;fill:rgb(22.352941%,91.764706%,68.627451%);fill-opacity:1;" d="M 48.277344 74.136719 C 48.277344 75.089844 47.503906 75.863281 46.550781 75.863281 C 45.597656 75.863281 44.828125 75.089844 44.828125 74.136719 C 44.828125 73.1875 45.597656 72.414062 46.550781 72.414062 C 47.503906 72.414062 48.277344 73.1875 48.277344 74.136719 Z M 48.277344 74.136719 "/>
<path style=" stroke:none;fill-rule:nonzero;fill:rgb(22.352941%,91.764706%,68.627451%);fill-opacity:1;" d="M 53.449219 68.964844 C 53.449219 69.917969 52.675781 70.691406 51.722656 70.691406 C 50.773438 70.691406 50 69.917969 50 68.964844 C 50 68.011719 50.773438 67.242188 51.722656 67.242188 C 52.675781 67.242188 53.449219 68.011719 53.449219 68.964844 Z M 53.449219 68.964844 "/>
<path style=" stroke:none;fill-rule:nonzero;fill:rgb(22.352941%,91.764706%,68.627451%);fill-opacity:1;" d="M 17.242188 74.136719 C 17.242188 75.089844 16.46875 75.863281 15.515625 75.863281 C 14.566406 75.863281 13.792969 75.089844 13.792969 74.136719 C 13.792969 73.1875 14.566406 72.414062 15.515625 72.414062 C 16.46875 72.414062 17.242188 73.1875 17.242188 74.136719 Z M 17.242188 74.136719 "/>
<path style=" stroke:none;fill-rule:nonzero;fill:rgb(22.352941%,91.764706%,68.627451%);fill-opacity:1;" d="M 17.242188 63.792969 C 17.242188 64.746094 16.46875 65.515625 15.515625 65.515625 C 14.566406 65.515625 13.792969 64.746094 13.792969 63.792969 C 13.792969 62.839844 14.566406 62.070312 15.515625 62.070312 C 16.46875 62.070312 17.242188 62.839844 17.242188 63.792969 Z M 17.242188 63.792969 "/>
<path style=" stroke:none;fill-rule:nonzero;fill:rgb(22.352941%,91.764706%,68.627451%);fill-opacity:1;" d="M 22.414062 68.964844 C 22.414062 69.917969 21.640625 70.691406 20.691406 70.691406 C 19.738281 70.691406 18.964844 69.917969 18.964844 68.964844 C 18.964844 68.011719 19.738281 67.242188 20.691406 67.242188 C 21.640625 67.242188 22.414062 68.011719 22.414062 68.964844 Z M 22.414062 68.964844 "/>
<path style=" stroke:none;fill-rule:nonzero;fill:rgb(22.352941%,91.764706%,68.627451%);fill-opacity:1;" d="M 22.414062 58.621094 C 22.414062 59.574219 21.640625 60.34375 20.691406 60.34375 C 19.738281 60.34375 18.964844 59.574219 18.964844 58.621094 C 18.964844 57.667969 19.738281 56.898438 20.691406 56.898438 C 21.640625 56.898438 22.414062 57.667969 22.414062 58.621094 Z M 22.414062 58.621094 "/>
<path style=" stroke:none;fill-rule:nonzero;fill:rgb(22.352941%,91.764706%,68.627451%);fill-opacity:1;" d="M 27.585938 74.136719 C 27.585938 75.089844 26.8125 75.863281 25.863281 75.863281 C 24.910156 75.863281 24.136719 75.089844 24.136719 74.136719 C 24.136719 73.1875 24.910156 72.414062 25.863281 72.414062 C 26.8125 72.414062 27.585938 73.1875 27.585938 74.136719 Z M 27.585938 74.136719 "/>
<path style=" stroke:none;fill-rule:nonzero;fill:rgb(22.352941%,91.764706%,68.627451%);fill-opacity:1;" d="M 37.929688 74.136719 C 37.929688 75.089844 37.160156 75.863281 36.207031 75.863281 C 35.253906 75.863281 34.484375 75.089844 34.484375 74.136719 C 34.484375 73.1875 35.253906 72.414062 36.207031 72.414062 C 37.160156 72.414062 37.929688 73.1875 37.929688 74.136719 Z M 37.929688 74.136719 "/>
<path style=" stroke:none;fill-rule:nonzero;fill:rgb(22.352941%,91.764706%,68.627451%);fill-opacity:1;" d="M 32.757812 68.964844 C 32.757812 69.917969 31.988281 70.691406 31.035156 70.691406 C 30.082031 70.691406 29.308594 69.917969 29.308594 68.964844 C 29.308594 68.011719 30.082031 67.242188 31.035156 67.242188 C 31.988281 67.242188 32.757812 68.011719 32.757812 68.964844 Z M 32.757812 68.964844 "/>
<path style=" stroke:none;fill-rule:nonzero;fill:rgb(22.352941%,91.764706%,68.627451%);fill-opacity:1;" d="M 43.101562 68.964844 C 43.101562 69.917969 42.332031 70.691406 41.378906 70.691406 C 40.425781 70.691406 39.65625 69.917969 39.65625 68.964844 C 39.65625 68.011719 40.425781 67.242188 41.378906 67.242188 C 42.332031 67.242188 43.101562 68.011719 43.101562 68.964844 Z M 43.101562 68.964844 "/>
<path style=" stroke:none;fill-rule:nonzero;fill:rgb(22.352941%,91.764706%,68.627451%);fill-opacity:1;" d="M 17.242188 53.449219 C 17.242188 54.402344 16.46875 55.171875 15.515625 55.171875 C 14.566406 55.171875 13.792969 54.402344 13.792969 53.449219 C 13.792969 52.496094 14.566406 51.722656 15.515625 51.722656 C 16.46875 51.722656 17.242188 52.496094 17.242188 53.449219 Z M 17.242188 53.449219 "/>
<path style=" stroke:none;fill-rule:nonzero;fill:rgb(22.352941%,91.764706%,68.627451%);fill-opacity:1;" d="M 17.242188 43.101562 C 17.242188 44.054688 16.46875 44.828125 15.515625 44.828125 C 14.566406 44.828125 13.792969 44.054688 13.792969 43.101562 C 13.792969 42.152344 14.566406 41.378906 15.515625 41.378906 C 16.46875 41.378906 17.242188 42.152344 17.242188 43.101562 Z M 17.242188 43.101562 "/>
<path style=" stroke:none;fill-rule:nonzero;fill:rgb(22.352941%,91.764706%,68.627451%);fill-opacity:1;" d="M 22.414062 48.277344 C 22.414062 49.226562 21.640625 50 20.691406 50 C 19.738281 50 18.964844 49.226562 18.964844 48.277344 C 18.964844 47.324219 19.738281 46.550781 20.691406 46.550781 C 21.640625 46.550781 22.414062 47.324219 22.414062 48.277344 Z M 22.414062 48.277344 "/>
<path style=" stroke:none;fill-rule:nonzero;fill:rgb(22.352941%,91.764706%,68.627451%);fill-opacity:1;" d="M 22.414062 37.929688 C 22.414062 38.882812 21.640625 39.65625 20.691406 39.65625 C 19.738281 39.65625 18.964844 38.882812 18.964844 37.929688 C 18.964844 36.980469 19.738281 36.207031 20.691406 36.207031 C 21.640625 36.207031 22.414062 36.980469 22.414062 37.929688 Z M 22.414062 37.929688 "/>
<path style=" stroke:none;fill-rule:nonzero;fill:rgb(22.352941%,91.764706%,68.627451%);fill-opacity:1;" d="M 17.242188 32.757812 C 17.242188 33.710938 16.46875 34.484375 15.515625 34.484375 C 14.566406 34.484375 13.792969 33.710938 13.792969 32.757812 C 13.792969 31.804688 14.566406 31.035156 15.515625 31.035156 C 16.46875 31.035156 17.242188 31.804688 17.242188 32.757812 Z M 17.242188 32.757812 "/>
<path style=" stroke:none;fill-rule:nonzero;fill:rgb(22.352941%,91.764706%,68.627451%);fill-opacity:1;" d="M 22.414062 27.585938 C 22.414062 28.539062 21.640625 29.308594 20.691406 29.308594 C 19.738281 29.308594 18.964844 28.539062 18.964844 27.585938 C 18.964844 26.632812 19.738281 25.863281 20.691406 25.863281 C 21.640625 25.863281 22.414062 26.632812 22.414062 27.585938 Z M 22.414062 27.585938 "/>
</g>
</svg>
<!-- iconic normalized -->