<?xml version="1.0" encoding="UTF-8"?>
<svg xmlns="http://www.w3.org/2000/svg" xmlns:xlink="http://www.w3.org/1999/xlink" width="100px" height="100px" viewBox="0 0 100 100" version="1.1">
<g id="surface1">
<path style=" stroke:none;fill-rule:nonzero;fill:rgb(16.078431%,67.058824%,88.627451%);fill-opacity:1;" d="M 77.214844 13.992188 L 77.214844 62.296875 C 77.214844 64.386719 75.519531 66.078125 73.433594 66.078125 L 3.78125 66.078125 C 1.695312 66.078125 0 64.386719 0 62.296875 L 0 13.992188 C 0 11.601562 1.9375 9.664062 4.328125 9.664062 L 72.886719 9.664062 C 75.277344 9.664062 77.214844 11.601562 77.214844 13.992188 "/>
<path style=" stroke:none;fill-rule:nonzero;fill:rgb(100%,100%,100%);fill-opacity:1;" d="M 5.253906 60.824219 L 5.253906 14.917969 L 71.960938 14.917969 L 71.960938 60.824219 L 5.253906 60.824219 "/>
<path style=" stroke:none;fill-rule:nonzero;fill:rgb(14.901961%,61.568627%,77.647059%);fill-opacity:1;" d="M 47.851562 71.859375 L 29.363281 71.859375 L 29.363281 66.078125 L 47.851562 66.078125 L 47.851562 71.859375 "/>
<path style=" stroke:none;fill-rule:nonzero;fill:rgb(50.196078%,50.196078%,50.196078%);fill-opacity:1;" d="M 29.410156 35.40625 C 26.113281 35.40625 23.429688 32.722656 23.429688 29.421875 C 23.429688 26.125 26.113281 23.441406 29.410156 23.441406 C 32.707031 23.441406 35.390625 26.125 35.390625 29.421875 C 35.390625 32.722656 32.707031 35.40625 29.410156 35.40625 M 29.410156 25.988281 C 27.515625 25.988281 25.972656 27.527344 25.972656 29.421875 C 25.972656 31.316406 27.515625 32.859375 29.410156 32.859375 C 31.304688 32.859375 32.84375 31.316406 32.84375 29.421875 C 32.84375 27.527344 31.304688 25.988281 29.410156 25.988281 "/>
<path style=" stroke:none;fill-rule:nonzero;fill:rgb(50.196078%,50.196078%,50.196078%);fill-opacity:1;" d="M 47.804688 51.613281 C 44.507812 51.613281 41.824219 48.929688 41.824219 45.628906 C 41.824219 42.332031 44.507812 39.648438 47.804688 39.648438 C 51.105469 39.648438 53.789062 42.332031 53.789062 45.628906 C 53.789062 48.929688 51.105469 51.613281 47.804688 51.613281 M 47.804688 42.195312 C 45.910156 42.195312 44.371094 43.734375 44.371094 45.628906 C 44.371094 47.523438 45.910156 49.066406 47.804688 49.066406 C 49.699219 49.066406 51.242188 47.523438 51.242188 45.628906 C 51.242188 43.734375 49.699219 42.195312 47.804688 42.195312 "/>
<path style=" stroke:none;fill-rule:nonzero;fill:rgb(50.196078%,50.196078%,50.196078%);fill-opacity:1;" d="M 36.898438 52.667969 L 34.402344 52.171875 L 40.316406 22.386719 L 42.8125 22.882812 L 36.898438 52.667969 "/>
<path style=" stroke:none;fill-rule:nonzero;fill:rgb(16.078431%,67.058824%,88.627451%);fill-opacity:1;" d="M 61.753906 75.640625 L 15.460938 75.640625 C 15.460938 74.597656 15.886719 73.652344 16.570312 72.964844 C 17.253906 72.285156 18.199219 71.859375 19.246094 71.859375 L 57.972656 71.859375 C 60.058594 71.859375 61.753906 73.550781 61.753906 75.640625 "/>
<path style=" stroke:none;fill-rule:nonzero;fill:rgb(43.137255%,77.647059%,92.156863%);fill-opacity:1;" d="M 72.886719 9.664062 L 24.769531 9.664062 L 26.371094 14.917969 L 71.960938 14.917969 L 71.960938 35.550781 L 77.214844 35.550781 L 77.214844 13.992188 C 77.214844 11.601562 75.277344 9.664062 72.886719 9.664062 "/>
<path style=" stroke:none;fill-rule:nonzero;fill:rgb(100%,100%,100%);fill-opacity:1;" d="M 29.75 26.003906 L 31.601562 32.070312 C 32.359375 31.4375 32.84375 30.488281 32.84375 29.421875 C 32.84375 27.644531 31.484375 26.175781 29.75 26.003906 M 71.960938 14.917969 L 26.371094 14.917969 L 28.976562 23.457031 C 29.117188 23.445312 29.261719 23.441406 29.410156 23.441406 C 32.707031 23.441406 35.390625 26.125 35.390625 29.421875 C 35.390625 31.644531 34.175781 33.582031 32.375 34.617188 L 35.714844 45.566406 L 40.316406 22.386719 L 42.8125 22.882812 L 37.285156 50.722656 L 39.546875 58.144531 C 39.738281 57.316406 40.480469 56.699219 41.363281 56.699219 L 47.121094 56.699219 L 47.296875 51.589844 C 44.234375 51.332031 41.824219 48.757812 41.824219 45.628906 C 41.824219 42.363281 44.457031 39.699219 47.710938 39.648438 L 47.851562 35.550781 L 71.960938 35.550781 L 71.960938 14.917969 "/>
<path style=" stroke:none;fill-rule:nonzero;fill:rgb(66.27451%,66.27451%,66.27451%);fill-opacity:1;" d="M 29.410156 23.441406 C 29.261719 23.441406 29.117188 23.449219 28.976562 23.457031 L 29.75 26.003906 C 31.484375 26.175781 32.84375 27.644531 32.84375 29.421875 C 32.84375 30.488281 32.359375 31.4375 31.597656 32.070312 L 32.375 34.617188 C 34.175781 33.585938 35.390625 31.644531 35.390625 29.421875 C 35.390625 26.125 32.707031 23.441406 29.410156 23.441406 "/>
<path style=" stroke:none;fill-rule:nonzero;fill:rgb(100%,100%,100%);fill-opacity:1;" d="M 47.621094 42.199219 C 45.8125 42.296875 44.371094 43.796875 44.371094 45.628906 C 44.371094 47.382812 45.6875 48.832031 47.386719 49.039062 L 47.621094 42.199219 "/>
<path style=" stroke:none;fill-rule:nonzero;fill:rgb(66.27451%,66.27451%,66.27451%);fill-opacity:1;" d="M 47.710938 39.648438 C 44.457031 39.699219 41.824219 42.363281 41.824219 45.628906 C 41.824219 48.757812 44.234375 51.332031 47.296875 51.589844 L 47.386719 49.039062 C 45.6875 48.832031 44.371094 47.382812 44.371094 45.628906 C 44.371094 43.796875 45.8125 42.296875 47.621094 42.199219 L 47.710938 39.648438 "/>
<path style=" stroke:none;fill-rule:nonzero;fill:rgb(66.27451%,66.27451%,66.27451%);fill-opacity:1;" d="M 40.316406 22.386719 L 35.714844 45.566406 L 37.285156 50.726562 L 42.8125 22.882812 L 40.316406 22.386719 "/>
<path style=" stroke:none;fill-rule:nonzero;fill:rgb(43.137255%,77.647059%,92.156863%);fill-opacity:1;" d="M 39.5 71.859375 L 31.558594 71.859375 L 32.710938 75.640625 L 39.5 75.640625 L 39.5 71.859375 "/>
<path style=" stroke:none;fill-rule:nonzero;fill:rgb(97.647059%,87.058824%,34.509804%);fill-opacity:1;" d="M 89.609375 84.90625 L 46.144531 84.90625 L 47.011719 59.816406 L 47.851562 35.550781 L 87.902344 35.550781 L 89.609375 84.90625 "/>
<path style=" stroke:none;fill-rule:nonzero;fill:rgb(84.313725%,75.686275%,33.72549%);fill-opacity:1;" d="M 59 59.816406 L 57.921875 59.816406 L 57.921875 84.90625 L 70.40625 84.90625 L 70.484375 82.589844 L 60.867188 82.589844 L 60.867188 61.679688 C 60.867188 60.652344 60.027344 59.816406 59 59.816406 "/>
<path style=" stroke:none;fill-rule:nonzero;fill:rgb(50.196078%,50.196078%,50.196078%);fill-opacity:1;" d="M 57.921875 58.5625 L 57.921875 88.472656 C 57.921875 89.503906 57.085938 90.335938 56.054688 90.335938 L 41.363281 90.335938 C 40.335938 90.335938 39.5 89.503906 39.5 88.472656 L 39.5 58.5625 C 39.5 57.535156 40.335938 56.699219 41.363281 56.699219 L 56.054688 56.699219 C 57.085938 56.699219 57.921875 57.535156 57.921875 58.5625 "/>
<path style=" stroke:none;fill-rule:nonzero;fill:rgb(100%,100%,100%);fill-opacity:1;" d="M 56.265625 61.140625 L 56.265625 85.304688 L 41.15625 85.304688 L 41.15625 61.140625 L 56.265625 61.140625 "/>
<path style=" stroke:none;fill-rule:nonzero;fill:rgb(30.196078%,30.196078%,30.196078%);fill-opacity:1;" d="M 50.15625 87.941406 C 50.15625 88.738281 49.507812 89.386719 48.710938 89.386719 C 47.914062 89.386719 47.265625 88.738281 47.265625 87.941406 C 47.265625 87.144531 47.914062 86.496094 48.710938 86.496094 C 49.507812 86.496094 50.15625 87.144531 50.15625 87.941406 Z M 50.15625 87.941406 "/>
<path style=" stroke:none;fill-rule:nonzero;fill:rgb(52.54902%,82.745098%,34.901961%);fill-opacity:1;" d="M 52.988281 75.792969 C 52.988281 73.433594 51.070312 71.515625 48.710938 71.515625 C 47.925781 71.515625 47.289062 70.875 47.289062 70.09375 C 47.289062 69.308594 47.925781 68.671875 48.710938 68.671875 L 51.5625 68.671875 L 51.5625 65.8125 L 50.140625 65.8125 L 50.140625 63.359375 L 47.28125 63.359375 L 47.28125 66.0625 C 45.625 66.652344 44.433594 68.234375 44.433594 70.09375 C 44.433594 72.453125 46.351562 74.371094 48.710938 74.371094 C 49.496094 74.371094 50.132812 75.007812 50.132812 75.792969 C 50.132812 76.578125 49.496094 77.214844 48.710938 77.214844 L 45.859375 77.214844 L 45.859375 80.070312 L 47.28125 80.070312 L 47.28125 82.523438 L 50.140625 82.523438 L 50.140625 79.820312 C 51.796875 79.230469 52.988281 77.652344 52.988281 75.792969 "/>
<path style=" stroke:none;fill-rule:nonzero;fill:rgb(100%,100%,100%);fill-opacity:1;" d="M 57.921875 84.90625 L 57.921875 88.472656 C 57.921875 89.503906 57.085938 90.335938 56.054688 90.335938 L 57.921875 90.335938 L 57.921875 84.90625 "/>
<path style=" stroke:none;fill-rule:nonzero;fill:rgb(66.27451%,66.27451%,66.27451%);fill-opacity:1;" d="M 56.054688 56.699219 L 43.839844 56.699219 L 45.191406 61.140625 L 56.265625 61.140625 L 56.265625 85.304688 L 52.554688 85.304688 L 54.089844 90.335938 L 56.054688 90.335938 C 57.085938 90.335938 57.921875 89.503906 57.921875 88.472656 L 57.921875 58.5625 C 57.921875 57.535156 57.085938 56.699219 56.054688 56.699219 "/>
<path style=" stroke:none;fill-rule:nonzero;fill:rgb(100%,100%,100%);fill-opacity:1;" d="M 49.257812 74.480469 L 49.894531 76.578125 C 50.046875 76.351562 50.132812 76.082031 50.132812 75.792969 C 50.132812 75.203125 49.769531 74.695312 49.257812 74.480469 M 56.265625 61.140625 L 45.191406 61.140625 L 46.761719 66.289062 C 46.929688 66.203125 47.101562 66.128906 47.28125 66.0625 L 47.28125 63.359375 L 50.140625 63.359375 L 50.140625 65.8125 L 51.5625 65.8125 L 51.5625 68.671875 L 48.710938 68.671875 C 48.28125 68.671875 47.898438 68.863281 47.636719 69.160156 L 48.339844 71.464844 C 48.457031 71.496094 48.582031 71.515625 48.710938 71.515625 C 51.070312 71.515625 52.988281 73.433594 52.988281 75.792969 C 52.988281 77.394531 52.101562 78.792969 50.792969 79.523438 L 52.554688 85.304688 L 56.265625 85.304688 L 56.265625 61.140625 "/>
<path style=" stroke:none;fill-rule:nonzero;fill:rgb(67.843137%,88.235294%,55.686275%);fill-opacity:1;" d="M 48.339844 71.464844 L 49.257812 74.480469 C 49.769531 74.695312 50.132812 75.203125 50.132812 75.792969 C 50.132812 76.082031 50.046875 76.351562 49.894531 76.578125 L 50.792969 79.523438 C 52.101562 78.792969 52.988281 77.394531 52.988281 75.792969 C 52.988281 73.433594 51.070312 71.515625 48.710938 71.515625 C 48.582031 71.515625 48.457031 71.496094 48.339844 71.464844 M 50.140625 63.359375 L 47.28125 63.359375 L 47.28125 66.0625 C 47.101562 66.128906 46.929688 66.203125 46.761719 66.289062 L 47.636719 69.160156 C 47.898438 68.859375 48.28125 68.671875 48.710938 68.671875 L 51.5625 68.671875 L 51.5625 65.8125 L 50.136719 65.8125 L 50.140625 63.359375 "/>
<path style=" stroke:none;fill-rule:nonzero;fill:rgb(97.647059%,87.058824%,34.509804%);fill-opacity:1;" d="M 9.292969 67.609375 L 21.902344 67.609375 L 21.902344 82.542969 L 9.292969 82.542969 Z M 9.292969 67.609375 "/>
<path style=" stroke:none;fill-rule:nonzero;fill:rgb(87.843137%,74.901961%,12.54902%);fill-opacity:1;" d="M 18.59375 67.609375 L 21.902344 67.609375 L 21.902344 82.492188 L 18.59375 82.492188 Z M 18.59375 67.609375 "/>
<path style=" stroke:none;fill-rule:nonzero;fill:rgb(87.843137%,74.901961%,12.54902%);fill-opacity:1;" d="M 9.292969 67.609375 L 10.945312 67.609375 L 10.945312 82.492188 L 9.292969 82.492188 Z M 9.292969 67.609375 "/>
<path style=" stroke:none;fill-rule:nonzero;fill:rgb(97.647059%,87.058824%,34.509804%);fill-opacity:1;" d="M 14.59375 80.589844 L 27.203125 80.589844 L 27.203125 83.195312 L 14.59375 83.195312 Z M 14.59375 80.589844 "/>
<path style=" stroke:none;fill-rule:nonzero;fill:rgb(87.843137%,74.901961%,12.54902%);fill-opacity:1;" d="M 23.894531 80.589844 L 27.203125 80.589844 L 27.203125 83.1875 L 23.894531 83.1875 Z M 23.894531 80.589844 "/>
<path style=" stroke:none;fill-rule:nonzero;fill:rgb(87.843137%,74.901961%,12.54902%);fill-opacity:1;" d="M 14.59375 80.589844 L 16.246094 80.589844 L 16.246094 83.1875 L 14.59375 83.1875 Z M 14.59375 80.589844 "/>
<path style=" stroke:none;fill-rule:nonzero;fill:rgb(97.647059%,87.058824%,34.509804%);fill-opacity:1;" d="M 4.167969 85.078125 L 16.777344 85.078125 L 16.777344 87.683594 L 4.167969 87.683594 Z M 4.167969 85.078125 "/>
<path style=" stroke:none;fill-rule:nonzero;fill:rgb(87.843137%,74.901961%,12.54902%);fill-opacity:1;" d="M 13.46875 85.078125 L 16.777344 85.078125 L 16.777344 87.675781 L 13.46875 87.675781 Z M 13.46875 85.078125 "/>
<path style=" stroke:none;fill-rule:nonzero;fill:rgb(87.843137%,74.901961%,12.54902%);fill-opacity:1;" d="M 4.167969 85.078125 L 5.820312 85.078125 L 5.820312 87.675781 L 4.167969 87.675781 Z M 4.167969 85.078125 "/>
<path style=" stroke:none;fill-rule:nonzero;fill:rgb(98.431373%,91.372549%,55.686275%);fill-opacity:1;" d="M 87.902344 35.550781 L 64.617188 35.550781 L 71.347656 57.628906 L 71.390625 56.457031 L 88.625 56.457031 L 87.902344 35.550781 "/>
<path style=" stroke:none;fill-rule:nonzero;fill:rgb(98.823529%,47.843137%,31.764706%);fill-opacity:1;" d="M 100 90.273438 L 70.21875 90.273438 L 70.394531 85.1875 L 71.390625 56.457031 L 98.832031 56.457031 L 99.824219 85.1875 L 100 90.273438 "/>
<path style=" stroke:none;fill-rule:nonzero;fill:rgb(100%,100%,100%);fill-opacity:1;" d="M 98.832031 56.457031 L 99.824219 85.1875 L 100 90.273438 L 93.234375 90.273438 L 100 90.273438 L 98.832031 56.457031 "/>
<path style=" stroke:none;fill-rule:nonzero;fill:rgb(99.215686%,64.705882%,53.72549%);fill-opacity:1;" d="M 98.832031 56.457031 L 82.925781 56.457031 L 92.527344 87.960938 L 99.917969 87.960938 L 100 90.273438 L 99.824219 85.1875 L 98.832031 56.457031 "/>
<path style=" stroke:none;fill-rule:nonzero;fill:rgb(16.862745%,87.843137%,77.647059%);fill-opacity:1;" d="M 77.921875 38.59375 C 77.21875 38.59375 76.648438 39.164062 76.648438 39.867188 L 76.648438 44.488281 C 76.648438 49.28125 72.878906 53.308594 68.089844 53.421875 C 63.15625 53.539062 59.105469 49.5625 59.105469 44.65625 L 59.105469 39.867188 C 59.105469 39.164062 58.539062 38.59375 57.835938 38.59375 C 57.132812 38.59375 56.5625 39.164062 56.5625 39.867188 L 56.5625 44.464844 C 56.5625 50.660156 61.464844 55.851562 67.660156 55.96875 C 74 56.089844 79.195312 50.96875 79.195312 44.65625 L 79.195312 39.867188 C 79.195312 39.164062 78.625 38.59375 77.921875 38.59375 Z M 77.921875 38.59375 "/>
<path style=" stroke:none;fill-rule:nonzero;fill:rgb(97.647059%,87.058824%,34.509804%);fill-opacity:1;" d="M 78.226562 59.925781 C 78.929688 59.925781 79.5 60.496094 79.5 61.199219 L 79.5 63.949219 C 79.5 67.089844 82.070312 69.738281 85.207031 69.6875 C 88.253906 69.632812 90.71875 67.136719 90.71875 64.078125 L 90.71875 61.199219 C 90.71875 60.496094 91.289062 59.925781 91.992188 59.925781 C 92.695312 59.925781 93.265625 60.496094 93.265625 61.199219 L 93.265625 63.925781 C 93.265625 68.378906 89.757812 72.125 85.304688 72.230469 C 80.71875 72.339844 76.957031 68.640625 76.957031 64.078125 L 76.957031 61.199219 C 76.957031 60.496094 77.523438 59.925781 78.226562 59.925781 Z M 78.226562 59.925781 "/>
<path style=" stroke:none;fill-rule:nonzero;fill:rgb(85.098039%,44.313725%,31.372549%);fill-opacity:1;" d="M 92.527344 87.960938 L 70.300781 87.960938 L 70.21875 90.273438 L 93.234375 90.273438 L 92.527344 87.960938 "/>
<path style=" stroke:none;fill-rule:nonzero;fill:rgb(85.490196%,57.647059%,49.019608%);fill-opacity:1;" d="M 99.917969 87.960938 L 92.527344 87.960938 L 93.234375 90.273438 L 100 90.273438 L 99.917969 87.960938 "/>
</g>
</svg>
<!-- iconic normalized -->