<?xml version="1.0" encoding="UTF-8"?>
<svg xmlns="http://www.w3.org/2000/svg" xmlns:xlink="http://www.w3.org/1999/xlink" width="100px" height="100px" viewBox="0 0 100 100" version="1.1">
<g id="surface1">
<path style=" stroke:none;fill-rule:nonzero;fill:rgb(56.862745%,86.27451%,35.294118%);fill-opacity:1;" d="M 50 33.75 L 50 55 L 57.5 55 L 57.5 0 C 49.214844 0 42.5 6.714844 42.5 15 L 42.5 23.140625 C 46.867188 24.6875 50 28.851562 50 33.75 Z M 50 33.75 "/>
<path style=" stroke:none;fill-rule:nonzero;fill:rgb(42.745098%,64.705882%,26.666667%);fill-opacity:1;" d="M 72.5 55 L 72.5 15 C 72.5 6.714844 65.785156 0 57.5 0 L 57.5 55 Z M 72.5 55 "/>
<path style=" stroke:none;fill-rule:nonzero;fill:rgb(56.862745%,86.27451%,35.294118%);fill-opacity:1;" d="M 38.75 22.5 C 32.535156 22.5 27.5 27.535156 27.5 33.75 L 27.5 55 L 38.75 55 Z M 38.75 22.5 "/>
<path style=" stroke:none;fill-rule:nonzero;fill:rgb(42.745098%,64.705882%,26.666667%);fill-opacity:1;" d="M 42.5 55 L 50 55 L 50 33.75 C 50 28.851562 46.867188 24.6875 42.5 23.140625 C 41.328125 22.726562 40.066406 22.5 38.75 22.5 L 38.75 55 Z M 42.5 55 "/>
<path style=" stroke:none;fill-rule:nonzero;fill:rgb(100%,85.490196%,26.666667%);fill-opacity:1;" d="M 26.175781 67.5 L 30 100 L 50 100 L 50 67.5 Z M 26.175781 67.5 "/>
<path style=" stroke:none;fill-rule:nonzero;fill:rgb(100%,59.607843%,6.666667%);fill-opacity:1;" d="M 50 100 L 70 100 L 73.824219 67.5 L 50 67.5 Z M 50 100 "/>
<path style=" stroke:none;fill-rule:nonzero;fill:rgb(100%,31.372549%,13.72549%);fill-opacity:1;" d="M 80 55 L 20 55 L 20 67.5 L 80 67.5 Z M 80 55 "/>
</g>
</svg>
<!-- iconic normalized -->