<?xml version="1.0" encoding="UTF-8"?>
<svg xmlns="http://www.w3.org/2000/svg" xmlns:xlink="http://www.w3.org/1999/xlink" width="100px" height="100px" viewBox="0 0 100 100" version="1.1">
<g id="surface1">
<path style=" stroke:none;fill-rule:nonzero;fill:rgb(87.058824%,86.666667%,87.843137%);fill-opacity:1;" d="M 44.871094 89.742188 C 44.871094 86.910156 47.167969 84.617188 50 84.617188 L 50 79.488281 L 26.921875 79.488281 L 26.921875 20.511719 L 50 20.511719 L 50 12.820312 L 42.308594 12.820312 L 42.308594 7.691406 L 50 7.691406 L 50 0 L 21.792969 0 L 21.792969 100 L 50 100 L 50 94.871094 C 47.167969 94.871094 44.871094 92.574219 44.871094 89.742188 Z M 44.871094 89.742188 "/>
<path style=" stroke:none;fill-rule:nonzero;fill:rgb(67.45098%,67.058824%,69.411765%);fill-opacity:1;" d="M 50 0 L 50 7.691406 L 57.691406 7.691406 L 57.691406 12.820312 L 50 12.820312 L 50 20.511719 L 73.078125 20.511719 L 73.078125 79.488281 L 50 79.488281 L 50 84.617188 C 52.832031 84.617188 55.128906 86.910156 55.128906 89.742188 C 55.128906 92.574219 52.832031 94.871094 50 94.871094 L 50 100 L 78.207031 100 L 78.207031 0 Z M 50 0 "/>
<path style=" stroke:none;fill-rule:nonzero;fill:rgb(100%,100%,100%);fill-opacity:1;" d="M 26.921875 28.207031 L 73.078125 28.207031 L 73.078125 20.511719 L 26.921875 20.511719 Z M 26.921875 28.207031 "/>
<path style=" stroke:none;fill-rule:nonzero;fill:rgb(100%,100%,100%);fill-opacity:1;" d="M 53.847656 71.792969 L 26.921875 71.792969 L 26.921875 79.488281 L 73.078125 79.488281 L 73.078125 71.792969 Z M 53.847656 71.792969 "/>
<path style=" stroke:none;fill-rule:nonzero;fill:rgb(100%,85.490196%,26.666667%);fill-opacity:1;" d="M 26.921875 28.207031 L 26.921875 71.792969 L 38.460938 71.792969 L 38.460938 43.589844 L 46.152344 43.589844 L 46.152344 71.792969 L 53.847656 71.792969 L 53.847656 35.898438 L 61.539062 35.898438 L 61.539062 71.792969 L 73.078125 71.792969 L 73.078125 28.207031 Z M 26.921875 28.207031 "/>
<path style=" stroke:none;fill-rule:nonzero;fill:rgb(100%,100%,100%);fill-opacity:1;" d="M 42.308594 12.820312 L 57.691406 12.820312 L 57.691406 7.691406 L 42.308594 7.691406 Z M 42.308594 12.820312 "/>
<path style=" stroke:none;fill-rule:nonzero;fill:rgb(100%,100%,100%);fill-opacity:1;" d="M 55.128906 89.742188 C 55.128906 92.574219 52.832031 94.871094 50 94.871094 C 47.167969 94.871094 44.871094 92.574219 44.871094 89.742188 C 44.871094 86.910156 47.167969 84.617188 50 84.617188 C 52.832031 84.617188 55.128906 86.910156 55.128906 89.742188 Z M 55.128906 89.742188 "/>
<path style=" stroke:none;fill-rule:nonzero;fill:rgb(100%,59.607843%,6.666667%);fill-opacity:1;" d="M 38.460938 64.101562 L 46.152344 64.101562 L 46.152344 71.796875 L 38.460938 71.796875 Z M 38.460938 64.101562 "/>
<path style=" stroke:none;fill-rule:nonzero;fill:rgb(100%,100%,100%);fill-opacity:1;" d="M 46.152344 64.101562 L 46.152344 43.589844 L 38.460938 43.589844 L 38.460938 64.101562 Z M 46.152344 64.101562 "/>
<path style=" stroke:none;fill-rule:nonzero;fill:rgb(100%,31.372549%,13.72549%);fill-opacity:1;" d="M 53.847656 65.285156 L 61.539062 65.285156 L 61.539062 71.792969 L 53.847656 71.792969 Z M 53.847656 65.285156 "/>
<path style=" stroke:none;fill-rule:nonzero;fill:rgb(100%,100%,100%);fill-opacity:1;" d="M 53.847656 35.898438 L 61.539062 35.898438 L 61.539062 65.285156 L 53.847656 65.285156 Z M 53.847656 35.898438 "/>
</g>
</svg>
<!-- iconic normalized -->