<?xml version="1.0" encoding="UTF-8"?>
<svg xmlns="http://www.w3.org/2000/svg" xmlns:xlink="http://www.w3.org/1999/xlink" width="100px" height="100px" viewBox="0 0 100 100" version="1.1">
<g id="surface1">
<path style=" stroke:none;fill-rule:nonzero;fill:rgb(32.941176%,36.862745%,45.098039%);fill-opacity:1;" d="M 87.359375 100 L 4.019531 100 C 2.277344 100 0.863281 98.585938 0.863281 96.839844 L 0.863281 3.160156 C 0.863281 1.414062 2.277344 0 4.019531 0 L 87.355469 0 C 89.101562 0 90.515625 1.414062 90.515625 3.160156 L 90.515625 96.839844 C 90.515625 98.585938 89.101562 100 87.359375 100 Z M 87.359375 100 "/>
<path style=" stroke:none;fill-rule:nonzero;fill:rgb(92.54902%,94.117647%,94.509804%);fill-opacity:1;" d="M 55.164062 29.308594 L 36.214844 29.308594 C 32.882812 29.308594 30.171875 26.601562 30.171875 23.265625 L 30.171875 20.691406 C 30.171875 19.734375 30.941406 18.964844 31.898438 18.964844 C 32.851562 18.964844 33.621094 19.734375 33.621094 20.691406 L 33.621094 23.265625 C 33.621094 24.699219 34.785156 25.863281 36.214844 25.863281 L 55.164062 25.863281 C 56.59375 25.863281 57.757812 24.699219 57.757812 23.265625 L 57.757812 20.691406 C 57.757812 19.734375 58.53125 18.964844 59.484375 18.964844 C 60.4375 18.964844 61.207031 19.734375 61.207031 20.691406 L 61.207031 23.265625 C 61.207031 26.601562 58.496094 29.308594 55.164062 29.308594 Z M 55.164062 29.308594 "/>
<path style=" stroke:none;fill-rule:nonzero;fill:rgb(92.54902%,94.117647%,94.509804%);fill-opacity:1;" d="M 55.164062 79.308594 L 36.214844 79.308594 C 32.882812 79.308594 30.171875 76.601562 30.171875 73.265625 L 30.171875 70.691406 C 30.171875 69.734375 30.941406 68.964844 31.898438 68.964844 C 32.851562 68.964844 33.621094 69.734375 33.621094 70.691406 L 33.621094 73.265625 C 33.621094 74.699219 34.785156 75.863281 36.214844 75.863281 L 55.164062 75.863281 C 56.59375 75.863281 57.757812 74.699219 57.757812 73.265625 L 57.757812 70.691406 C 57.757812 69.734375 58.53125 68.964844 59.484375 68.964844 C 60.4375 68.964844 61.207031 69.734375 61.207031 70.691406 L 61.207031 73.265625 C 61.207031 76.601562 58.496094 79.308594 55.164062 79.308594 Z M 55.164062 79.308594 "/>
<path style=" stroke:none;fill-rule:nonzero;fill:rgb(22.352941%,25.098039%,31.372549%);fill-opacity:1;" d="M 0.863281 48.277344 L 90.515625 48.277344 L 90.515625 51.722656 L 0.863281 51.722656 Z M 0.863281 48.277344 "/>
<path style=" stroke:none;fill-rule:nonzero;fill:rgb(94.901961%,61.176471%,12.941176%);fill-opacity:1;" d="M 99.136719 79.308594 C 99.136719 90.738281 89.875 100 78.449219 100 C 67.023438 100 57.757812 90.738281 57.757812 79.308594 C 57.757812 67.882812 67.023438 58.621094 78.449219 58.621094 C 89.875 58.621094 99.136719 67.882812 99.136719 79.308594 Z M 99.136719 79.308594 "/>
<path style=" stroke:none;fill-rule:nonzero;fill:rgb(100%,100%,100%);fill-opacity:1;" d="M 88.792969 81.035156 L 68.101562 81.035156 C 67.152344 81.035156 66.378906 80.261719 66.378906 79.308594 C 66.378906 78.359375 67.152344 77.585938 68.101562 77.585938 L 88.792969 77.585938 C 89.746094 77.585938 90.515625 78.359375 90.515625 79.308594 C 90.515625 80.261719 89.746094 81.035156 88.792969 81.035156 Z M 88.792969 81.035156 "/>
</g>
</svg>
<!-- iconic normalized -->