<?xml version="1.0" encoding="UTF-8"?>
<svg xmlns="http://www.w3.org/2000/svg" xmlns:xlink="http://www.w3.org/1999/xlink" width="100px" height="100px" viewBox="0 0 100 100" version="1.1">
<g id="surface1">
<path style=" stroke:none;fill-rule:nonzero;fill:rgb(32.941176%,36.862745%,45.098039%);fill-opacity:1;" d="M 87.359375 100 L 4.019531 100 C 2.277344 100 0.863281 98.585938 0.863281 96.839844 L 0.863281 3.160156 C 0.863281 1.414062 2.277344 0 4.019531 0 L 87.355469 0 C 89.101562 0 90.515625 1.414062 90.515625 3.160156 L 90.515625 96.839844 C 90.515625 98.585938 89.101562 100 87.359375 100 Z M 87.359375 100 "/>
<path style=" stroke:none;fill-rule:nonzero;fill:rgb(92.54902%,94.117647%,94.509804%);fill-opacity:1;" d="M 55.164062 29.308594 L 36.214844 29.308594 C 32.882812 29.308594 30.171875 26.601562 30.171875 23.265625 L 30.171875 20.691406 C 30.171875 19.734375 30.941406 18.964844 31.898438 18.964844 C 32.851562 18.964844 33.621094 19.734375 33.621094 20.691406 L 33.621094 23.265625 C 33.621094 24.699219 34.785156 25.863281 36.214844 25.863281 L 55.164062 25.863281 C 56.59375 25.863281 57.757812 24.699219 57.757812 23.265625 L 57.757812 20.691406 C 57.757812 19.734375 58.53125 18.964844 59.484375 18.964844 C 60.4375 18.964844 61.207031 19.734375 61.207031 20.691406 L 61.207031 23.265625 C 61.207031 26.601562 58.496094 29.308594 55.164062 29.308594 Z M 55.164062 29.308594 "/>
<path style=" stroke:none;fill-rule:nonzero;fill:rgb(92.54902%,94.117647%,94.509804%);fill-opacity:1;" d="M 55.164062 79.308594 L 36.214844 79.308594 C 32.882812 79.308594 30.171875 76.601562 30.171875 73.265625 L 30.171875 70.691406 C 30.171875 69.734375 30.941406 68.964844 31.898438 68.964844 C 32.851562 68.964844 33.621094 69.734375 33.621094 70.691406 L 33.621094 73.265625 C 33.621094 74.699219 34.785156 75.863281 36.214844 75.863281 L 55.164062 75.863281 C 56.59375 75.863281 57.757812 74.699219 57.757812 73.265625 L 57.757812 70.691406 C 57.757812 69.734375 58.53125 68.964844 59.484375 68.964844 C 60.4375 68.964844 61.207031 69.734375 61.207031 70.691406 L 61.207031 73.265625 C 61.207031 76.601562 58.496094 79.308594 55.164062 79.308594 Z M 55.164062 79.308594 "/>
<path style=" stroke:none;fill-rule:nonzero;fill:rgb(22.352941%,25.098039%,31.372549%);fill-opacity:1;" d="M 0.863281 48.277344 L 90.515625 48.277344 L 90.515625 51.722656 L 0.863281 51.722656 Z M 0.863281 48.277344 "/>
<path style=" stroke:none;fill-rule:nonzero;fill:rgb(69.411765%,82.745098%,93.72549%);fill-opacity:1;" d="M 64.65625 72.414062 L 99.136719 72.414062 L 99.136719 100 L 64.65625 100 Z M 64.65625 72.414062 "/>
<path style=" stroke:none;fill-rule:nonzero;fill:rgb(33.333333%,37.647059%,50.196078%);fill-opacity:1;" d="M 87.070312 84.484375 C 87.070312 81.625 84.753906 79.308594 81.898438 79.308594 C 79.039062 79.308594 76.722656 81.625 76.722656 84.484375 C 76.722656 86.753906 78.195312 88.660156 80.234375 89.355469 C 80.214844 89.457031 80.171875 89.550781 80.171875 89.65625 L 80.171875 93.101562 C 80.171875 94.054688 80.945312 94.828125 81.898438 94.828125 C 82.847656 94.828125 83.621094 94.054688 83.621094 93.101562 L 83.621094 89.65625 C 83.621094 89.550781 83.578125 89.457031 83.558594 89.355469 C 85.597656 88.660156 87.070312 86.753906 87.070312 84.484375 Z M 87.070312 84.484375 "/>
<path style=" stroke:none;fill-rule:nonzero;fill:rgb(100%,100%,100%);fill-opacity:1;" d="M 73.277344 68.964844 C 73.277344 64.210938 77.144531 60.34375 81.898438 60.34375 C 86.648438 60.34375 90.515625 64.210938 90.515625 68.964844 L 90.515625 72.414062 L 93.964844 72.414062 L 93.964844 68.964844 C 93.964844 62.308594 88.550781 56.898438 81.898438 56.898438 C 75.242188 56.898438 69.828125 62.308594 69.828125 68.964844 L 69.828125 72.414062 L 73.277344 72.414062 Z M 73.277344 68.964844 "/>
</g>
</svg>
<!-- iconic normalized -->