<?xml version="1.0" encoding="UTF-8"?>
<svg xmlns="http://www.w3.org/2000/svg" xmlns:xlink="http://www.w3.org/1999/xlink" width="100px" height="100px" viewBox="0 0 100 100" version="1.1">
<g id="surface1">
<path style=" stroke:none;fill-rule:nonzero;fill:rgb(92.54902%,94.117647%,94.509804%);fill-opacity:1;" d="M 0 27.585938 L 86.207031 27.585938 L 86.207031 87.929688 L 0 87.929688 Z M 0 27.585938 "/>
<path style=" stroke:none;fill-rule:nonzero;fill:rgb(32.941176%,41.568627%,47.45098%);fill-opacity:1;" d="M 0 3.449219 L 86.207031 3.449219 L 86.207031 27.585938 L 0 27.585938 Z M 0 3.449219 "/>
<path style=" stroke:none;fill-rule:nonzero;fill:rgb(92.941176%,44.313725%,38.039216%);fill-opacity:1;" d="M 17.242188 15.515625 C 17.242188 18.375 14.925781 20.691406 12.070312 20.691406 C 9.210938 20.691406 6.898438 18.375 6.898438 15.515625 C 6.898438 12.660156 9.210938 10.34375 12.070312 10.34375 C 14.925781 10.34375 17.242188 12.660156 17.242188 15.515625 Z M 17.242188 15.515625 "/>
<path style=" stroke:none;fill-rule:nonzero;fill:rgb(93.72549%,76.862745%,10.196078%);fill-opacity:1;" d="M 32.757812 15.515625 C 32.757812 18.375 30.441406 20.691406 27.585938 20.691406 C 24.730469 20.691406 22.414062 18.375 22.414062 15.515625 C 22.414062 12.660156 24.730469 10.34375 27.585938 10.34375 C 30.441406 10.34375 32.757812 12.660156 32.757812 15.515625 Z M 32.757812 15.515625 "/>
<path style=" stroke:none;fill-rule:nonzero;fill:rgb(30.980392%,72.941176%,43.137255%);fill-opacity:1;" d="M 48.277344 15.515625 C 48.277344 18.375 45.960938 20.691406 43.101562 20.691406 C 40.246094 20.691406 37.929688 18.375 37.929688 15.515625 C 37.929688 12.660156 40.246094 10.34375 43.101562 10.34375 C 45.960938 10.34375 48.277344 12.660156 48.277344 15.515625 Z M 48.277344 15.515625 "/>
<path style=" stroke:none;fill-rule:nonzero;fill:rgb(14.901961%,72.54902%,60%);fill-opacity:1;" d="M 100 75.863281 C 100 87.289062 90.738281 96.550781 79.308594 96.550781 C 67.882812 96.550781 58.621094 87.289062 58.621094 75.863281 C 58.621094 64.433594 67.882812 55.171875 79.308594 55.171875 C 90.738281 55.171875 100 64.433594 100 75.863281 Z M 100 75.863281 "/>
<path style=" stroke:none;fill-rule:nonzero;fill:rgb(100%,100%,100%);fill-opacity:1;" d="M 90.640625 65.824219 C 89.855469 65.28125 88.78125 65.472656 88.238281 66.257812 L 78.589844 80.117188 L 71.78125 74.53125 C 71.046875 73.925781 69.960938 74.03125 69.355469 74.769531 C 68.75 75.503906 68.859375 76.589844 69.597656 77.195312 L 77.847656 83.96875 C 78.160156 84.222656 78.542969 84.359375 78.941406 84.359375 C 79.019531 84.359375 79.097656 84.355469 79.175781 84.34375 C 79.652344 84.277344 80.082031 84.015625 80.355469 83.621094 L 91.070312 68.226562 C 91.613281 67.445312 91.421875 66.371094 90.640625 65.824219 Z M 90.640625 65.824219 "/>
</g>
</svg>
<!-- iconic normalized -->