<?xml version="1.0" encoding="UTF-8"?>
<svg xmlns="http://www.w3.org/2000/svg" xmlns:xlink="http://www.w3.org/1999/xlink" width="100px" height="100px" viewBox="0 0 100 100" version="1.1">
<g id="surface1">
<path style=" stroke:none;fill-rule:nonzero;fill:rgb(92.54902%,94.117647%,94.509804%);fill-opacity:1;" d="M 0 27.585938 L 86.207031 27.585938 L 86.207031 87.929688 L 0 87.929688 Z M 0 27.585938 "/>
<path style=" stroke:none;fill-rule:nonzero;fill:rgb(32.941176%,41.568627%,47.45098%);fill-opacity:1;" d="M 0 3.449219 L 86.207031 3.449219 L 86.207031 27.585938 L 0 27.585938 Z M 0 3.449219 "/>
<path style=" stroke:none;fill-rule:nonzero;fill:rgb(92.941176%,44.313725%,38.039216%);fill-opacity:1;" d="M 17.242188 15.515625 C 17.242188 18.375 14.925781 20.691406 12.070312 20.691406 C 9.210938 20.691406 6.898438 18.375 6.898438 15.515625 C 6.898438 12.660156 9.210938 10.34375 12.070312 10.34375 C 14.925781 10.34375 17.242188 12.660156 17.242188 15.515625 Z M 17.242188 15.515625 "/>
<path style=" stroke:none;fill-rule:nonzero;fill:rgb(93.72549%,76.862745%,10.196078%);fill-opacity:1;" d="M 32.757812 15.515625 C 32.757812 18.375 30.441406 20.691406 27.585938 20.691406 C 24.730469 20.691406 22.414062 18.375 22.414062 15.515625 C 22.414062 12.660156 24.730469 10.34375 27.585938 10.34375 C 30.441406 10.34375 32.757812 12.660156 32.757812 15.515625 Z M 32.757812 15.515625 "/>
<path style=" stroke:none;fill-rule:nonzero;fill:rgb(30.980392%,72.941176%,43.137255%);fill-opacity:1;" d="M 48.277344 15.515625 C 48.277344 18.375 45.960938 20.691406 43.101562 20.691406 C 40.246094 20.691406 37.929688 18.375 37.929688 15.515625 C 37.929688 12.660156 40.246094 10.34375 43.101562 10.34375 C 45.960938 10.34375 48.277344 12.660156 48.277344 15.515625 Z M 48.277344 15.515625 "/>
<path style=" stroke:none;fill-rule:nonzero;fill:rgb(69.411765%,82.745098%,93.72549%);fill-opacity:1;" d="M 100 75 C 100 86.902344 90.351562 96.550781 78.449219 96.550781 C 66.546875 96.550781 56.898438 86.902344 56.898438 75 C 56.898438 63.097656 66.546875 53.449219 78.449219 53.449219 C 90.351562 53.449219 100 63.097656 100 75 Z M 100 75 "/>
<path style=" stroke:none;fill-rule:nonzero;fill:rgb(33.333333%,37.647059%,50.196078%);fill-opacity:1;" d="M 78.449219 56.898438 C 70.3125 56.898438 63.136719 62.382812 61 70.234375 C 60.746094 71.15625 61.289062 72.101562 62.207031 72.351562 C 63.117188 72.601562 64.074219 72.0625 64.324219 71.144531 C 66.058594 64.785156 71.867188 60.34375 78.449219 60.34375 C 86.53125 60.34375 93.101562 66.917969 93.101562 75 C 93.101562 83.082031 86.53125 89.65625 78.449219 89.65625 C 72.648438 89.65625 67.453125 86.207031 65.113281 81.035156 L 74.136719 81.035156 L 74.136719 77.585938 L 60.34375 77.585938 L 60.34375 91.378906 L 63.792969 91.378906 L 63.792969 85.578125 C 67.125 90.191406 72.527344 93.101562 78.449219 93.101562 C 88.429688 93.101562 96.550781 84.984375 96.550781 75 C 96.550781 65.015625 88.429688 56.898438 78.449219 56.898438 Z M 78.449219 56.898438 "/>
</g>
</svg>
<!-- iconic normalized -->