<?xml version="1.0" encoding="UTF-8"?>
<svg xmlns="http://www.w3.org/2000/svg" xmlns:xlink="http://www.w3.org/1999/xlink" width="100px" height="100px" viewBox="0 0 100 100" version="1.1">
<g id="surface1">
<path style=" stroke:none;fill-rule:nonzero;fill:rgb(94.117647%,33.333333%,39.607843%);fill-opacity:1;" d="M 80.171875 6.898438 L 80.171875 13.792969 L 68.101562 13.792969 L 68.101562 6.898438 L 26.722656 6.898438 L 26.722656 13.792969 L 14.65625 13.792969 L 14.65625 6.898438 L 0.863281 6.898438 L 0.863281 25.863281 L 93.964844 25.863281 L 93.964844 6.898438 Z M 80.171875 6.898438 "/>
<path style=" stroke:none;fill-rule:nonzero;fill:rgb(93.72549%,92.156863%,87.058824%);fill-opacity:1;" d="M 14.65625 25.863281 L 0.863281 25.863281 L 0.863281 100 L 93.964844 100 L 93.964844 25.863281 Z M 14.65625 25.863281 "/>
<path style=" stroke:none;fill-rule:nonzero;fill:rgb(83.529412%,81.568627%,73.333333%);fill-opacity:1;" d="M 64.65625 37.929688 L 14.65625 37.929688 L 14.65625 87.929688 L 80.171875 87.929688 L 80.171875 37.929688 Z M 49.136719 41.378906 L 61.207031 41.378906 L 61.207031 53.449219 L 49.136719 53.449219 Z M 61.207031 68.964844 L 49.136719 68.964844 L 49.136719 56.898438 L 61.207031 56.898438 Z M 33.621094 56.898438 L 45.691406 56.898438 L 45.691406 68.964844 L 33.621094 68.964844 Z M 33.621094 41.378906 L 45.691406 41.378906 L 45.691406 53.449219 L 33.621094 53.449219 Z M 18.101562 41.378906 L 30.171875 41.378906 L 30.171875 53.449219 L 18.101562 53.449219 Z M 18.101562 56.898438 L 30.171875 56.898438 L 30.171875 68.964844 L 18.101562 68.964844 Z M 30.171875 84.484375 L 18.101562 84.484375 L 18.101562 72.414062 L 30.171875 72.414062 Z M 45.691406 84.484375 L 33.621094 84.484375 L 33.621094 72.414062 L 45.691406 72.414062 Z M 61.207031 84.484375 L 49.136719 84.484375 L 49.136719 72.414062 L 61.207031 72.414062 Z M 76.722656 84.484375 L 64.65625 84.484375 L 64.65625 72.414062 L 76.722656 72.414062 Z M 76.722656 68.964844 L 64.65625 68.964844 L 64.65625 56.898438 L 76.722656 56.898438 Z M 64.65625 53.449219 L 64.65625 41.378906 L 76.722656 41.378906 L 76.722656 53.449219 Z M 64.65625 53.449219 "/>
<path style=" stroke:none;fill-rule:nonzero;fill:rgb(21.176471%,28.627451%,36.862745%);fill-opacity:1;" d="M 14.65625 0 L 26.722656 0 L 26.722656 13.792969 L 14.65625 13.792969 Z M 14.65625 0 "/>
<path style=" stroke:none;fill-rule:nonzero;fill:rgb(21.176471%,28.627451%,36.862745%);fill-opacity:1;" d="M 68.101562 0 L 80.171875 0 L 80.171875 13.792969 L 68.101562 13.792969 Z M 68.101562 0 "/>
<path style=" stroke:none;fill-rule:nonzero;fill:rgb(49.803922%,43.137255%,36.470588%);fill-opacity:1;" d="M 33.621094 56.898438 L 45.691406 56.898438 L 45.691406 68.964844 L 33.621094 68.964844 Z M 33.621094 56.898438 "/>
<path style=" stroke:none;fill-rule:nonzero;fill:rgb(14.901961%,72.54902%,60%);fill-opacity:1;" d="M 99.136719 77.585938 C 99.136719 89.011719 89.875 98.277344 78.449219 98.277344 C 67.023438 98.277344 57.757812 89.011719 57.757812 77.585938 C 57.757812 66.160156 67.023438 56.898438 78.449219 56.898438 C 89.875 56.898438 99.136719 66.160156 99.136719 77.585938 Z M 99.136719 77.585938 "/>
<path style=" stroke:none;fill-rule:nonzero;fill:rgb(100%,100%,100%);fill-opacity:1;" d="M 89.777344 67.550781 C 88.992188 67.003906 87.921875 67.199219 87.378906 67.980469 L 77.730469 81.84375 L 70.921875 76.253906 C 70.1875 75.648438 69.097656 75.757812 68.496094 76.492188 C 67.890625 77.230469 67.996094 78.316406 68.734375 78.917969 L 76.984375 85.691406 C 77.296875 85.945312 77.683594 86.085938 78.078125 86.085938 C 78.15625 86.085938 78.234375 86.078125 78.316406 86.070312 C 78.792969 86 79.21875 85.742188 79.496094 85.347656 L 90.207031 69.953125 C 90.75 69.167969 90.558594 68.09375 89.777344 67.550781 Z M 89.777344 67.550781 "/>
</g>
</svg>
<!-- iconic normalized -->