<?xml version="1.0" encoding="UTF-8"?>
<svg xmlns="http://www.w3.org/2000/svg" xmlns:xlink="http://www.w3.org/1999/xlink" width="100px" height="100px" viewBox="0 0 100 100" version="1.1">
<g id="surface1">
<path style=" stroke:none;fill-rule:nonzero;fill:rgb(92.54902%,94.117647%,94.509804%);fill-opacity:1;" d="M 1.667969 21.667969 L 95 21.667969 L 95 86.667969 L 1.667969 86.667969 Z M 1.667969 21.667969 "/>
<path style=" stroke:none;fill-rule:nonzero;fill:rgb(12.941176%,68.235294%,36.862745%);fill-opacity:1;" d="M 70 0 L 1.667969 0 L 1.667969 21.667969 L 95 21.667969 L 95 0 Z M 70 0 "/>
<path style=" stroke:none;fill-rule:nonzero;fill:rgb(33.333333%,37.647059%,50.196078%);fill-opacity:1;" d="M 31.667969 76.667969 C 30.746094 76.667969 30 75.921875 30 75 L 30 31.667969 C 30 30.746094 30.746094 30 31.667969 30 C 32.585938 30 33.332031 30.746094 33.332031 31.667969 L 33.332031 75 C 33.332031 75.921875 32.585938 76.667969 31.667969 76.667969 Z M 31.667969 76.667969 "/>
<path style=" stroke:none;fill-rule:nonzero;fill:rgb(33.333333%,37.647059%,50.196078%);fill-opacity:1;" d="M 21.667969 43.332031 C 21.238281 43.332031 20.8125 43.171875 20.488281 42.84375 C 19.835938 42.191406 19.835938 41.140625 20.488281 40.488281 L 30.488281 30.488281 C 31.140625 29.835938 32.191406 29.835938 32.84375 30.488281 C 33.496094 31.140625 33.496094 32.191406 32.84375 32.84375 L 22.84375 42.84375 C 22.519531 43.171875 22.09375 43.332031 21.667969 43.332031 Z M 21.667969 43.332031 "/>
<path style=" stroke:none;fill-rule:nonzero;fill:rgb(33.333333%,37.647059%,50.196078%);fill-opacity:1;" d="M 63.332031 53.332031 C 56.898438 53.332031 51.667969 48.097656 51.667969 41.667969 C 51.667969 35.234375 56.898438 30 63.332031 30 C 69.765625 30 75 35.234375 75 41.667969 C 75 48.097656 69.765625 53.332031 63.332031 53.332031 Z M 63.332031 33.332031 C 58.738281 33.332031 55 37.070312 55 41.667969 C 55 46.261719 58.738281 50 63.332031 50 C 67.929688 50 71.667969 46.261719 71.667969 41.667969 C 71.667969 37.070312 67.929688 33.332031 63.332031 33.332031 Z M 63.332031 33.332031 "/>
<path style=" stroke:none;fill-rule:nonzero;fill:rgb(33.333333%,37.647059%,50.196078%);fill-opacity:1;" d="M 63.332031 76.667969 C 56.898438 76.667969 51.667969 71.433594 51.667969 65 C 51.667969 64.078125 52.414062 63.332031 53.332031 63.332031 C 54.253906 63.332031 55 64.078125 55 65 C 55 69.59375 58.738281 73.332031 63.332031 73.332031 C 67.929688 73.332031 71.667969 69.59375 71.667969 65 L 71.667969 41.667969 C 71.667969 40.746094 72.414062 40 73.332031 40 C 74.253906 40 75 40.746094 75 41.667969 L 75 65 C 75 71.433594 69.765625 76.667969 63.332031 76.667969 Z M 63.332031 76.667969 "/>
<path style=" stroke:none;fill-rule:nonzero;fill:rgb(14.901961%,72.54902%,60%);fill-opacity:1;" d="M 98.332031 80 C 98.332031 91.046875 89.378906 100 78.332031 100 C 67.289062 100 58.332031 91.046875 58.332031 80 C 58.332031 68.953125 67.289062 60 78.332031 60 C 89.378906 60 98.332031 68.953125 98.332031 80 Z M 98.332031 80 "/>
<path style=" stroke:none;fill-rule:nonzero;fill:rgb(100%,100%,100%);fill-opacity:1;" d="M 89.285156 70.296875 C 88.527344 69.773438 87.488281 69.957031 86.964844 70.714844 L 77.636719 84.113281 L 71.058594 78.710938 C 70.347656 78.125 69.296875 78.230469 68.710938 78.941406 C 68.125 79.65625 68.230469 80.703125 68.941406 81.289062 L 76.921875 87.835938 C 77.21875 88.082031 77.59375 88.214844 77.976562 88.214844 C 78.050781 88.214844 78.128906 88.210938 78.203125 88.199219 C 78.664062 88.136719 79.078125 87.882812 79.34375 87.5 L 89.703125 72.621094 C 90.226562 71.863281 90.039062 70.824219 89.285156 70.296875 Z M 89.285156 70.296875 "/>
</g>
</svg>
<!-- iconic normalized -->