<?xml version="1.0" encoding="UTF-8"?>
<svg xmlns="http://www.w3.org/2000/svg" xmlns:xlink="http://www.w3.org/1999/xlink" width="100px" height="100px" viewBox="0 0 100 100" version="1.1">
<g id="surface1">
<path style=" stroke:none;fill-rule:nonzero;fill:rgb(56.862745%,72.941176%,88.235294%);fill-opacity:1;" d="M 83.339844 35.832031 C 83.148438 21.335938 71.351562 9.167969 56.808594 9.167969 C 47.542969 9.167969 38.839844 14.175781 34.039062 21.394531 C 31.929688 19.988281 29.394531 19.167969 26.667969 19.167969 C 19.304688 19.167969 13.332031 25.136719 13.332031 32.5 C 13.332031 32.753906 13.355469 33.003906 13.371094 33.257812 C 13.355469 33.558594 13.332031 33.867188 13.332031 34.167969 C 6.6875 37.351562 1.667969 44.929688 1.667969 52.757812 C 1.667969 63.617188 10.550781 72.5 21.410156 72.5 L 62.253906 72.5 C 62.484375 72.5 62.707031 72.472656 62.933594 72.464844 C 63.160156 72.472656 63.386719 72.5 63.613281 72.5 L 79.953125 72.5 C 90.0625 72.5 98.332031 64.226562 98.332031 54.121094 C 98.332031 45.167969 91.84375 37.433594 83.339844 35.832031 Z M 83.339844 35.832031 "/>
<path style=" stroke:none;fill-rule:nonzero;fill:rgb(52.54902%,59.215686%,79.607843%);fill-opacity:1;" d="M 79.953125 74.167969 L 63.613281 74.167969 C 63.441406 74.167969 63.269531 74.15625 63.097656 74.144531 L 62.875 74.128906 L 62.769531 74.144531 C 62.597656 74.15625 62.425781 74.167969 62.25 74.167969 L 21.410156 74.167969 C 9.601562 74.167969 0 64.5625 0 52.757812 C 0 44.832031 4.761719 36.914062 11.691406 33.136719 L 11.691406 33.128906 C 11.679688 32.921875 11.667969 32.710938 11.667969 32.5 C 11.667969 24.226562 18.394531 17.5 26.667969 17.5 C 29.082031 17.5 31.4375 18.078125 33.566406 19.179688 C 38.992188 11.9375 47.757812 7.5 56.808594 7.5 C 71.714844 7.5 84.078125 19.488281 84.960938 34.488281 C 93.621094 36.765625 100 44.972656 100 54.121094 C 100 65.171875 91.007812 74.167969 79.953125 74.167969 Z M 62.875 70.800781 L 63.328125 70.816406 C 63.421875 70.824219 63.519531 70.832031 63.617188 70.832031 L 79.953125 70.832031 C 89.167969 70.832031 96.667969 63.335938 96.667969 54.121094 C 96.667969 46.09375 90.804688 38.9375 83.03125 37.472656 L 81.691406 37.21875 L 81.671875 35.859375 C 81.492188 22.058594 70.335938 10.832031 56.808594 10.832031 C 48.460938 10.832031 40.070312 15.339844 35.425781 22.316406 L 34.503906 23.703125 L 33.117188 22.78125 C 31.203125 21.507812 28.96875 20.832031 26.667969 20.832031 C 20.234375 20.832031 15 26.066406 15 32.5 C 15 32.636719 15.011719 32.773438 15.019531 32.90625 L 15.039062 33.257812 L 15.023438 33.523438 C 15.011719 33.738281 15 33.953125 15 34.167969 L 15 35.214844 L 14.054688 35.667969 C 7.839844 38.648438 3.332031 45.832031 3.332031 52.757812 C 3.332031 62.726562 11.441406 70.832031 21.410156 70.832031 L 62.253906 70.832031 C 62.351562 70.832031 62.449219 70.824219 62.546875 70.816406 Z M 62.875 70.800781 "/>
<path style=" stroke:none;fill-rule:nonzero;fill:rgb(56.862745%,72.941176%,88.235294%);fill-opacity:1;" d="M 83.339844 35.832031 C 83.339844 35.832031 79.113281 35.207031 75 35.832031 "/>
<path style=" stroke:none;fill-rule:nonzero;fill:rgb(52.54902%,59.215686%,79.607843%);fill-opacity:1;" d="M 75 37.5 C 74.1875 37.5 73.476562 36.910156 73.351562 36.082031 C 73.214844 35.171875 73.839844 34.324219 74.75 34.183594 C 79.070312 33.527344 83.398438 34.15625 83.582031 34.183594 C 84.492188 34.316406 85.121094 35.164062 84.988281 36.074219 C 84.855469 36.988281 84 37.601562 83.097656 37.480469 C 83.054688 37.476562 79.058594 36.90625 75.25 37.480469 C 75.167969 37.492188 75.082031 37.5 75 37.5 Z M 75 37.5 "/>
<path style=" stroke:none;fill-rule:nonzero;fill:rgb(56.862745%,72.941176%,88.235294%);fill-opacity:1;" d="M 13.332031 32.5 C 13.332031 25.136719 19.304688 19.167969 26.667969 19.167969 C 34.03125 19.167969 40 25.136719 40 32.5 "/>
<path style=" stroke:none;fill-rule:nonzero;fill:rgb(52.54902%,59.215686%,79.607843%);fill-opacity:1;" d="M 40 34.167969 C 39.078125 34.167969 38.332031 33.421875 38.332031 32.5 C 38.332031 26.066406 33.097656 20.832031 26.667969 20.832031 C 20.234375 20.832031 15 26.066406 15 32.5 C 15 33.421875 14.253906 34.167969 13.332031 34.167969 C 12.410156 34.167969 11.667969 33.421875 11.667969 32.5 C 11.667969 24.226562 18.394531 17.5 26.667969 17.5 C 34.9375 17.5 41.667969 24.226562 41.667969 32.5 C 41.667969 33.421875 40.921875 34.167969 40 34.167969 Z M 40 34.167969 "/>
<path style=" stroke:none;fill-rule:nonzero;fill:rgb(33.333333%,37.647059%,50.196078%);fill-opacity:1;" d="M 71.667969 70.578125 L 69.261719 70.113281 C 65.6875 69.425781 64.050781 65.253906 66.203125 62.320312 L 67.714844 60.261719 L 64.449219 57 L 62.421875 58.375 C 59.410156 60.414062 55.300781 58.621094 54.75 55.027344 L 54.359375 52.5 L 49.742188 52.5 L 49.144531 55.609375 C 48.472656 59.101562 44.449219 60.769531 41.503906 58.773438 L 38.882812 57 L 35.621094 60.261719 L 37.132812 62.320312 C 39.28125 65.253906 37.644531 69.425781 34.074219 70.113281 L 31.667969 70.578125 L 31.667969 75.191406 L 34.191406 75.578125 C 37.785156 76.132812 39.578125 80.242188 37.539062 83.253906 L 36.164062 85.28125 L 39.425781 88.546875 L 41.488281 87.035156 C 44.421875 84.882812 48.589844 86.519531 49.277344 90.089844 L 49.742188 92.5 L 54.355469 92.5 L 54.628906 90.722656 C 55.195312 87.046875 59.457031 85.285156 62.453125 87.480469 L 63.902344 88.546875 L 67.164062 85.28125 L 65.789062 83.253906 C 63.75 80.242188 65.542969 76.132812 69.136719 75.578125 L 71.667969 75.191406 Z M 71.667969 70.578125 "/>
<path style=" stroke:none;fill-rule:nonzero;fill:rgb(100%,100%,100%);fill-opacity:1;" d="M 58.332031 72.5 C 58.332031 76.183594 55.347656 79.167969 51.667969 79.167969 C 47.984375 79.167969 45 76.183594 45 72.5 C 45 68.816406 47.984375 65.832031 51.667969 65.832031 C 55.347656 65.832031 58.332031 68.816406 58.332031 72.5 Z M 58.332031 72.5 "/>
<path style=" stroke:none;fill-rule:nonzero;fill:rgb(92.54902%,94.117647%,94.509804%);fill-opacity:1;" d="M 51.667969 80.832031 C 47.070312 80.832031 43.332031 77.09375 43.332031 72.5 C 43.332031 67.90625 47.070312 64.167969 51.667969 64.167969 C 56.261719 64.167969 60 67.90625 60 72.5 C 60 77.09375 56.261719 80.832031 51.667969 80.832031 Z M 51.667969 67.5 C 48.910156 67.5 46.667969 69.742188 46.667969 72.5 C 46.667969 75.257812 48.910156 77.5 51.667969 77.5 C 54.421875 77.5 56.667969 75.257812 56.667969 72.5 C 56.667969 69.742188 54.421875 67.5 51.667969 67.5 Z M 51.667969 67.5 "/>
</g>
</svg>
<!-- iconic normalized -->