<?xml version="1.0" encoding="UTF-8"?>
<svg xmlns="http://www.w3.org/2000/svg" xmlns:xlink="http://www.w3.org/1999/xlink" width="100px" height="100px" viewBox="0 0 100 100" version="1.1">
<g id="surface1">
<path style=" stroke:none;fill-rule:nonzero;fill:rgb(32.941176%,36.862745%,45.098039%);fill-opacity:1;" d="M 88.3125 14.285156 C 87.007812 6.316406 68.359375 0 45.535156 0 C 22.710938 0 4.0625 6.316406 2.757812 14.285156 L 2.679688 14.285156 L 2.679688 80.355469 L 2.757812 80.355469 C 4.0625 88.324219 22.714844 94.644531 45.535156 94.644531 C 68.355469 94.644531 87.007812 88.324219 88.3125 80.355469 L 88.394531 80.355469 L 88.394531 14.285156 Z M 88.3125 14.285156 "/>
<path style=" stroke:none;fill-rule:nonzero;fill:rgb(21.960784%,27.058824%,30.980392%);fill-opacity:1;" d="M 45.535156 73.214844 C 21.867188 73.214844 2.679688 66.417969 2.679688 58.035156 L 2.679688 80.355469 L 2.757812 80.355469 C 4.0625 88.324219 22.714844 94.644531 45.535156 94.644531 C 68.355469 94.644531 87.007812 88.324219 88.3125 80.355469 L 88.394531 80.355469 L 88.394531 58.035156 C 88.394531 66.417969 69.207031 73.214844 45.535156 73.214844 Z M 45.535156 73.214844 "/>
<path style=" stroke:none;fill-rule:nonzero;fill:rgb(21.960784%,27.058824%,30.980392%);fill-opacity:1;" d="M 2.679688 57.144531 L 2.679688 58.035156 C 2.679688 57.734375 2.710938 57.4375 2.757812 57.144531 Z M 2.679688 57.144531 "/>
<path style=" stroke:none;fill-rule:nonzero;fill:rgb(21.960784%,27.058824%,30.980392%);fill-opacity:1;" d="M 88.3125 57.144531 C 88.359375 57.4375 88.394531 57.734375 88.394531 58.035156 L 88.394531 57.144531 Z M 88.3125 57.144531 "/>
<path style=" stroke:none;fill-rule:nonzero;fill:rgb(33.333333%,37.647059%,50.196078%);fill-opacity:1;" d="M 45.535156 51.785156 C 21.867188 51.785156 2.679688 44.988281 2.679688 36.605469 L 2.679688 58.929688 L 2.757812 58.929688 C 4.0625 66.894531 22.714844 73.214844 45.535156 73.214844 C 68.355469 73.214844 87.007812 66.894531 88.3125 58.929688 L 88.394531 58.929688 L 88.394531 36.605469 C 88.394531 44.988281 69.207031 51.785156 45.535156 51.785156 Z M 45.535156 51.785156 "/>
<path style=" stroke:none;fill-rule:nonzero;fill:rgb(33.333333%,37.647059%,50.196078%);fill-opacity:1;" d="M 2.679688 35.714844 L 2.679688 36.605469 C 2.679688 36.308594 2.710938 36.011719 2.757812 35.714844 Z M 2.679688 35.714844 "/>
<path style=" stroke:none;fill-rule:nonzero;fill:rgb(33.333333%,37.647059%,50.196078%);fill-opacity:1;" d="M 88.3125 35.714844 C 88.359375 36.011719 88.394531 36.308594 88.394531 36.605469 L 88.394531 35.714844 Z M 88.3125 35.714844 "/>
<path style=" stroke:none;fill-rule:nonzero;fill:rgb(56.862745%,72.941176%,88.235294%);fill-opacity:1;" d="M 88.394531 15.179688 C 88.394531 6.796875 69.203125 0 45.535156 0 C 21.867188 0 2.679688 6.796875 2.679688 15.179688 C 2.679688 23.5625 21.867188 30.355469 45.535156 30.355469 C 69.203125 30.355469 88.394531 23.5625 88.394531 15.179688 Z M 88.394531 15.179688 "/>
<path style=" stroke:none;fill-rule:nonzero;fill:rgb(52.54902%,59.215686%,79.607843%);fill-opacity:1;" d="M 45.535156 30.355469 C 21.867188 30.355469 2.679688 23.5625 2.679688 15.179688 L 2.679688 37.5 L 2.757812 37.5 C 4.0625 45.464844 22.714844 51.785156 45.535156 51.785156 C 68.355469 51.785156 87.007812 45.464844 88.3125 37.5 L 88.394531 37.5 L 88.394531 15.179688 C 88.394531 23.5625 69.207031 30.355469 45.535156 30.355469 Z M 45.535156 30.355469 "/>
<path style=" stroke:none;fill-rule:nonzero;fill:rgb(52.54902%,59.215686%,79.607843%);fill-opacity:1;" d="M 2.679688 14.285156 L 2.679688 15.179688 C 2.679688 14.878906 2.710938 14.582031 2.757812 14.285156 Z M 2.679688 14.285156 "/>
<path style=" stroke:none;fill-rule:nonzero;fill:rgb(52.54902%,59.215686%,79.607843%);fill-opacity:1;" d="M 88.3125 14.285156 C 88.359375 14.582031 88.394531 14.878906 88.394531 15.179688 L 88.394531 14.285156 Z M 88.3125 14.285156 "/>
<path style=" stroke:none;fill-rule:nonzero;fill:rgb(92.941176%,44.313725%,38.039216%);fill-opacity:1;" d="M 97.320312 78.570312 C 97.320312 90.40625 87.726562 100 75.894531 100 C 64.058594 100 54.464844 90.40625 54.464844 78.570312 C 54.464844 66.738281 64.058594 57.144531 75.894531 57.144531 C 87.726562 57.144531 97.320312 66.738281 97.320312 78.570312 Z M 97.320312 78.570312 "/>
<path style=" stroke:none;fill-rule:nonzero;fill:rgb(100%,100%,100%);fill-opacity:1;" d="M 78.417969 78.570312 L 84.730469 72.257812 C 85.429688 71.558594 85.429688 70.429688 84.730469 69.730469 C 84.035156 69.035156 82.90625 69.035156 82.207031 69.730469 L 75.894531 76.046875 L 69.578125 69.730469 C 68.878906 69.035156 67.75 69.035156 67.054688 69.730469 C 66.355469 70.429688 66.355469 71.558594 67.054688 72.257812 L 73.367188 78.570312 L 67.054688 84.886719 C 66.355469 85.582031 66.355469 86.710938 67.054688 87.410156 C 67.402344 87.757812 67.859375 87.933594 68.316406 87.933594 C 68.773438 87.933594 69.230469 87.757812 69.578125 87.410156 L 75.894531 81.097656 L 82.207031 87.410156 C 82.554688 87.757812 83.011719 87.933594 83.46875 87.933594 C 83.925781 87.933594 84.382812 87.757812 84.730469 87.410156 C 85.429688 86.710938 85.429688 85.582031 84.730469 84.886719 Z M 78.417969 78.570312 "/>
</g>
</svg>
<!-- iconic normalized -->