<?xml version="1.0" encoding="UTF-8"?>
<svg xmlns="http://www.w3.org/2000/svg" xmlns:xlink="http://www.w3.org/1999/xlink" width="100px" height="100px" viewBox="0 0 100 100" version="1.1">
<g id="surface1">
<path style=" stroke:none;fill-rule:nonzero;fill:rgb(32.941176%,36.862745%,45.098039%);fill-opacity:1;" d="M 89.6875 14.550781 C 88.359375 6.433594 69.363281 0 46.117188 0 C 22.871094 0 3.878906 6.433594 2.546875 14.550781 L 2.464844 14.550781 L 2.464844 81.847656 L 2.546875 81.847656 C 3.878906 89.960938 22.875 96.398438 46.117188 96.398438 C 69.363281 96.398438 88.359375 89.960938 89.6875 81.847656 L 89.769531 81.847656 L 89.769531 14.550781 Z M 89.6875 14.550781 "/>
<path style=" stroke:none;fill-rule:nonzero;fill:rgb(21.960784%,27.058824%,30.980392%);fill-opacity:1;" d="M 46.117188 74.570312 C 22.007812 74.570312 2.464844 67.648438 2.464844 59.113281 L 2.464844 81.847656 L 2.546875 81.847656 C 3.878906 89.960938 22.875 96.398438 46.117188 96.398438 C 69.363281 96.398438 88.359375 89.960938 89.6875 81.847656 L 89.769531 81.847656 L 89.769531 59.113281 C 89.769531 67.648438 70.226562 74.570312 46.117188 74.570312 Z M 46.117188 74.570312 "/>
<path style=" stroke:none;fill-rule:nonzero;fill:rgb(21.960784%,27.058824%,30.980392%);fill-opacity:1;" d="M 2.464844 58.203125 L 2.464844 59.113281 C 2.464844 58.804688 2.5 58.503906 2.546875 58.203125 Z M 2.464844 58.203125 "/>
<path style=" stroke:none;fill-rule:nonzero;fill:rgb(21.960784%,27.058824%,30.980392%);fill-opacity:1;" d="M 89.6875 58.203125 C 89.738281 58.503906 89.769531 58.804688 89.769531 59.113281 L 89.769531 58.203125 Z M 89.6875 58.203125 "/>
<path style=" stroke:none;fill-rule:nonzero;fill:rgb(33.333333%,37.647059%,50.196078%);fill-opacity:1;" d="M 46.117188 52.746094 C 22.007812 52.746094 2.464844 45.824219 2.464844 37.285156 L 2.464844 60.019531 L 2.546875 60.019531 C 3.878906 68.132812 22.875 74.570312 46.117188 74.570312 C 69.363281 74.570312 88.359375 68.132812 89.6875 60.019531 L 89.769531 60.019531 L 89.769531 37.285156 C 89.769531 45.824219 70.226562 52.746094 46.117188 52.746094 Z M 46.117188 52.746094 "/>
<path style=" stroke:none;fill-rule:nonzero;fill:rgb(33.333333%,37.647059%,50.196078%);fill-opacity:1;" d="M 2.464844 36.375 L 2.464844 37.285156 C 2.464844 36.980469 2.5 36.679688 2.546875 36.375 Z M 2.464844 36.375 "/>
<path style=" stroke:none;fill-rule:nonzero;fill:rgb(33.333333%,37.647059%,50.196078%);fill-opacity:1;" d="M 89.6875 36.375 C 89.738281 36.679688 89.769531 36.980469 89.769531 37.285156 L 89.769531 36.375 Z M 89.6875 36.375 "/>
<path style=" stroke:none;fill-rule:nonzero;fill:rgb(56.862745%,72.941176%,88.235294%);fill-opacity:1;" d="M 89.769531 15.460938 C 89.769531 6.921875 70.226562 0 46.117188 0 C 22.007812 0 2.464844 6.921875 2.464844 15.460938 C 2.464844 24 22.007812 30.917969 46.117188 30.917969 C 70.226562 30.917969 89.769531 24 89.769531 15.460938 Z M 89.769531 15.460938 "/>
<path style=" stroke:none;fill-rule:nonzero;fill:rgb(52.54902%,59.215686%,79.607843%);fill-opacity:1;" d="M 46.117188 30.917969 C 22.007812 30.917969 2.464844 23.996094 2.464844 15.460938 L 2.464844 38.195312 L 2.546875 38.195312 C 3.878906 46.308594 22.875 52.746094 46.117188 52.746094 C 69.363281 52.746094 88.359375 46.308594 89.6875 38.195312 L 89.769531 38.195312 L 89.769531 15.460938 C 89.769531 23.996094 70.226562 30.917969 46.117188 30.917969 Z M 46.117188 30.917969 "/>
<path style=" stroke:none;fill-rule:nonzero;fill:rgb(52.54902%,59.215686%,79.607843%);fill-opacity:1;" d="M 2.464844 14.550781 L 2.464844 15.460938 C 2.464844 15.15625 2.5 14.851562 2.546875 14.550781 Z M 2.464844 14.550781 "/>
<path style=" stroke:none;fill-rule:nonzero;fill:rgb(52.54902%,59.215686%,79.607843%);fill-opacity:1;" d="M 89.6875 14.550781 C 89.738281 14.851562 89.769531 15.15625 89.769531 15.460938 L 89.769531 14.550781 Z M 89.6875 14.550781 "/>
<path style=" stroke:none;fill-rule:nonzero;fill:rgb(92.941176%,86.27451%,78.039216%);fill-opacity:1;" d="M 58.550781 82.734375 L 58.535156 82.75 L 54.921875 96.007812 L 63.371094 87.554688 Z M 58.550781 82.734375 "/>
<path style=" stroke:none;fill-rule:nonzero;fill:rgb(84.313725%,35.294118%,29.019608%);fill-opacity:1;" d="M 93.5625 57.367188 L 91.296875 55.097656 C 89.886719 53.6875 87.597656 53.6875 86.191406 55.097656 L 79.675781 61.613281 L 84.496094 66.433594 Z M 93.5625 57.367188 "/>
<path style=" stroke:none;fill-rule:nonzero;fill:rgb(94.901961%,61.176471%,12.941176%);fill-opacity:1;" d="M 79.675781 61.613281 L 84.496094 66.433594 L 63.375 87.554688 L 58.550781 82.734375 Z M 79.675781 61.613281 "/>
<path style=" stroke:none;fill-rule:nonzero;fill:rgb(83.921569%,76.862745%,69.411765%);fill-opacity:1;" d="M 68.824219 93.039062 L 68.839844 93.023438 L 63.371094 87.554688 L 54.921875 96.007812 L 54.679688 96.894531 Z M 68.824219 93.039062 "/>
<path style=" stroke:none;fill-rule:nonzero;fill:rgb(63.921569%,27.843137%,25.098039%);fill-opacity:1;" d="M 89.960938 71.902344 L 96.476562 65.386719 C 97.886719 63.976562 97.886719 61.691406 96.476562 60.28125 L 93.5625 57.367188 L 84.496094 66.433594 Z M 89.960938 71.902344 "/>
<path style=" stroke:none;fill-rule:nonzero;fill:rgb(88.235294%,54.901961%,14.509804%);fill-opacity:1;" d="M 68.839844 93.023438 L 63.371094 87.558594 L 84.492188 66.433594 L 89.960938 71.902344 Z M 68.839844 93.023438 "/>
<path style=" stroke:none;fill-rule:nonzero;fill:rgb(36.862745%,36.862745%,36.862745%);fill-opacity:1;" d="M 53.394531 100 C 52.925781 100 52.460938 99.820312 52.105469 99.46875 C 51.394531 98.757812 51.394531 97.605469 52.105469 96.894531 L 56.121094 92.882812 C 56.832031 92.171875 57.980469 92.171875 58.691406 92.882812 C 59.402344 93.59375 59.402344 94.742188 58.691406 95.453125 L 54.679688 99.46875 C 54.324219 99.824219 53.859375 100 53.394531 100 Z M 53.394531 100 "/>
</g>
</svg>
<!-- iconic normalized -->