<?xml version="1.0" encoding="UTF-8"?>
<svg xmlns="http://www.w3.org/2000/svg" xmlns:xlink="http://www.w3.org/1999/xlink" width="100px" height="100px" viewBox="0 0 100 100" version="1.1">
<g id="surface1">
<path style=" stroke:none;fill-rule:nonzero;fill:rgb(32.941176%,36.862745%,45.098039%);fill-opacity:1;" d="M 89.007812 14.546875 C 87.679688 6.433594 68.691406 0 45.453125 0 C 22.214844 0 3.230469 6.433594 1.898438 14.546875 L 1.816406 14.546875 L 1.816406 81.816406 L 1.898438 81.816406 C 3.230469 89.929688 22.214844 96.363281 45.453125 96.363281 C 68.691406 96.363281 87.679688 89.929688 89.007812 81.816406 L 89.089844 81.816406 L 89.089844 14.546875 Z M 89.007812 14.546875 "/>
<path style=" stroke:none;fill-rule:nonzero;fill:rgb(21.960784%,27.058824%,30.980392%);fill-opacity:1;" d="M 45.453125 74.546875 C 21.355469 74.546875 1.816406 67.625 1.816406 59.089844 L 1.816406 81.816406 L 1.898438 81.816406 C 3.230469 89.929688 22.214844 96.363281 45.453125 96.363281 C 68.691406 96.363281 87.679688 89.929688 89.007812 81.816406 L 89.089844 81.816406 L 89.089844 59.089844 C 89.089844 67.625 69.554688 74.546875 45.453125 74.546875 Z M 45.453125 74.546875 "/>
<path style=" stroke:none;fill-rule:nonzero;fill:rgb(21.960784%,27.058824%,30.980392%);fill-opacity:1;" d="M 1.816406 58.183594 L 1.816406 59.089844 C 1.816406 58.785156 1.851562 58.484375 1.898438 58.183594 Z M 1.816406 58.183594 "/>
<path style=" stroke:none;fill-rule:nonzero;fill:rgb(21.960784%,27.058824%,30.980392%);fill-opacity:1;" d="M 89.007812 58.183594 C 89.058594 58.484375 89.089844 58.785156 89.089844 59.089844 L 89.089844 58.183594 Z M 89.007812 58.183594 "/>
<path style=" stroke:none;fill-rule:nonzero;fill:rgb(33.333333%,37.647059%,50.196078%);fill-opacity:1;" d="M 45.453125 52.726562 C 21.355469 52.726562 1.816406 45.808594 1.816406 37.273438 L 1.816406 60 L 1.898438 60 C 3.230469 68.109375 22.214844 74.546875 45.453125 74.546875 C 68.691406 74.546875 87.679688 68.109375 89.007812 60 L 89.089844 60 L 89.089844 37.273438 C 89.089844 45.808594 69.554688 52.726562 45.453125 52.726562 Z M 45.453125 52.726562 "/>
<path style=" stroke:none;fill-rule:nonzero;fill:rgb(33.333333%,37.647059%,50.196078%);fill-opacity:1;" d="M 1.816406 36.363281 L 1.816406 37.273438 C 1.816406 36.96875 1.851562 36.664062 1.898438 36.363281 Z M 1.816406 36.363281 "/>
<path style=" stroke:none;fill-rule:nonzero;fill:rgb(33.333333%,37.647059%,50.196078%);fill-opacity:1;" d="M 89.007812 36.363281 C 89.058594 36.664062 89.089844 36.96875 89.089844 37.273438 L 89.089844 36.363281 Z M 89.007812 36.363281 "/>
<path style=" stroke:none;fill-rule:nonzero;fill:rgb(56.862745%,72.941176%,88.235294%);fill-opacity:1;" d="M 89.089844 15.453125 C 89.089844 6.917969 69.554688 0 45.453125 0 C 21.355469 0 1.816406 6.917969 1.816406 15.453125 C 1.816406 23.988281 21.355469 30.910156 45.453125 30.910156 C 69.554688 30.910156 89.089844 23.988281 89.089844 15.453125 Z M 89.089844 15.453125 "/>
<path style=" stroke:none;fill-rule:nonzero;fill:rgb(52.54902%,59.215686%,79.607843%);fill-opacity:1;" d="M 45.453125 30.910156 C 21.355469 30.910156 1.816406 23.988281 1.816406 15.453125 L 1.816406 38.183594 L 1.898438 38.183594 C 3.230469 46.292969 22.214844 52.726562 45.453125 52.726562 C 68.691406 52.726562 87.679688 46.292969 89.007812 38.183594 L 89.089844 38.183594 L 89.089844 15.453125 C 89.089844 23.988281 69.554688 30.910156 45.453125 30.910156 Z M 45.453125 30.910156 "/>
<path style=" stroke:none;fill-rule:nonzero;fill:rgb(52.54902%,59.215686%,79.607843%);fill-opacity:1;" d="M 1.816406 14.546875 L 1.816406 15.453125 C 1.816406 15.148438 1.851562 14.847656 1.898438 14.546875 Z M 1.816406 14.546875 "/>
<path style=" stroke:none;fill-rule:nonzero;fill:rgb(52.54902%,59.215686%,79.607843%);fill-opacity:1;" d="M 89.007812 14.546875 C 89.058594 14.847656 89.089844 15.148438 89.089844 15.453125 L 89.089844 14.546875 Z M 89.007812 14.546875 "/>
<path style=" stroke:none;fill-rule:nonzero;fill:rgb(56.862745%,72.941176%,88.235294%);fill-opacity:1;" d="M 80 76.363281 L 76.363281 76.363281 C 69.757812 73.722656 65.453125 67.527344 65.453125 60.65625 L 65.453125 54.546875 L 90.910156 54.546875 L 90.910156 60.65625 C 90.910156 67.527344 86.605469 73.722656 80 76.363281 Z M 80 76.363281 "/>
<path style=" stroke:none;fill-rule:nonzero;fill:rgb(56.862745%,72.941176%,88.235294%);fill-opacity:1;" d="M 76.363281 76.363281 L 80 76.363281 C 86.605469 79.003906 90.910156 85.203125 90.910156 92.074219 L 90.910156 98.183594 L 65.453125 98.183594 L 65.453125 92.074219 C 65.453125 85.203125 69.757812 79.003906 76.363281 76.363281 Z M 76.363281 76.363281 "/>
<path style=" stroke:none;fill-rule:nonzero;fill:rgb(81.568627%,90.980392%,97.647059%);fill-opacity:1;" d="M 60 56.363281 L 96.363281 56.363281 C 97.367188 56.363281 98.183594 55.550781 98.183594 54.546875 C 98.183594 53.542969 97.367188 52.726562 96.363281 52.726562 L 60 52.726562 C 58.996094 52.726562 58.183594 53.542969 58.183594 54.546875 C 58.183594 55.550781 58.996094 56.363281 60 56.363281 Z M 60 56.363281 "/>
<path style=" stroke:none;fill-rule:nonzero;fill:rgb(81.568627%,90.980392%,97.647059%);fill-opacity:1;" d="M 96.363281 96.359375 L 63.632812 96.359375 C 63.628906 96.359375 63.625 96.363281 63.617188 96.363281 L 60 96.363281 C 58.996094 96.363281 58.183594 97.179688 58.183594 98.183594 C 58.183594 99.183594 58.996094 100 60 100 L 65.453125 100 C 65.460938 100 65.464844 99.996094 65.472656 99.996094 L 96.363281 99.996094 C 97.367188 99.996094 98.179688 99.183594 98.179688 98.179688 C 98.179688 97.175781 97.367188 96.359375 96.363281 96.359375 Z M 96.363281 96.359375 "/>
</g>
</svg>
<!-- iconic normalized -->