<?xml version="1.0" encoding="UTF-8"?>
<svg xmlns="http://www.w3.org/2000/svg" xmlns:xlink="http://www.w3.org/1999/xlink" width="100px" height="100px" viewBox="0 0 100 100" version="1.1">
<g id="surface1">
<path style=" stroke:none;fill-rule:nonzero;fill:rgb(33.333333%,37.647059%,50.196078%);fill-opacity:1;" d="M 42.09375 18.007812 L 33.675781 6.222656 L 0 6.222656 L 0 92.09375 L 97.660156 92.09375 L 97.660156 29.792969 L 50.511719 29.792969 Z M 42.09375 18.007812 "/>
<path style=" stroke:none;fill-rule:nonzero;fill:rgb(23.921569%,26.666667%,31.764706%);fill-opacity:1;" d="M 50.511719 29.792969 L 97.660156 29.792969 L 97.660156 18.007812 L 42.09375 18.007812 Z M 50.511719 29.792969 "/>
<path style=" stroke:none;fill-rule:nonzero;fill:rgb(28.235294%,62.745098%,86.27451%);fill-opacity:1;" d="M 91.65625 75.445312 C 91.570312 68.816406 86.332031 63.46875 79.871094 63.46875 C 75.546875 63.46875 71.777344 65.871094 69.726562 69.441406 C 69.015625 69.203125 68.261719 69.070312 67.472656 69.070312 C 64 69.070312 61.101562 71.582031 60.390625 74.9375 C 57.4375 76.394531 55.378906 79.492188 55.378906 83.070312 C 55.378906 88.035156 59.324219 92.09375 64.148438 92.09375 L 82.292969 92.09375 C 82.394531 92.09375 82.492188 92.082031 82.59375 92.078125 C 82.695312 92.082031 82.796875 92.09375 82.898438 92.09375 L 90.15625 92.09375 C 94.644531 92.09375 98.320312 88.316406 98.320312 83.695312 C 98.316406 79.601562 95.433594 76.175781 91.65625 75.445312 Z M 91.65625 75.445312 "/>
<path style=" stroke:none;fill-rule:nonzero;fill:rgb(69.411765%,82.745098%,93.72549%);fill-opacity:1;" d="M 90.152344 93.777344 L 82.894531 93.777344 C 82.789062 93.777344 82.683594 93.773438 82.578125 93.765625 C 82.496094 93.773438 82.394531 93.777344 82.289062 93.777344 L 64.148438 93.777344 C 58.386719 93.777344 53.695312 88.972656 53.695312 83.074219 C 53.695312 79.265625 55.730469 75.710938 58.941406 73.808594 C 60.097656 70.042969 63.566406 67.386719 67.472656 67.386719 C 67.972656 67.386719 68.46875 67.429688 68.960938 67.515625 C 71.476562 63.953125 75.550781 61.785156 79.871094 61.785156 C 86.777344 61.785156 92.539062 67.214844 93.261719 74.132812 C 97.234375 75.488281 100 79.316406 100 83.695312 C 100 89.253906 95.582031 93.777344 90.152344 93.777344 Z M 82.511719 90.394531 L 82.824219 90.40625 L 90.152344 90.410156 C 93.726562 90.410156 96.632812 87.398438 96.632812 83.695312 C 96.632812 80.464844 94.40625 77.691406 91.335938 77.09375 L 89.992188 76.835938 L 89.972656 75.464844 C 89.898438 69.78125 85.371094 65.15625 79.871094 65.15625 C 76.277344 65.15625 73.03125 67.074219 71.1875 70.28125 L 70.5 71.480469 L 69.191406 71.039062 C 68.632812 70.851562 68.054688 70.757812 67.472656 70.757812 C 64.882812 70.757812 62.59375 72.664062 62.039062 75.289062 L 61.867188 76.089844 L 61.132812 76.449219 C 58.660156 77.667969 57.0625 80.269531 57.0625 83.074219 C 57.0625 87.121094 60.242188 90.414062 64.148438 90.414062 Z M 82.511719 90.394531 "/>
</g>
</svg>
<!-- iconic normalized -->