<?xml version="1.0" encoding="UTF-8"?>
<svg xmlns="http://www.w3.org/2000/svg" xmlns:xlink="http://www.w3.org/1999/xlink" width="100px" height="100px" viewBox="0 0 100 100" version="1.1">
<g id="surface1">
<path style=" stroke:none;fill-rule:nonzero;fill:rgb(92.54902%,94.117647%,94.509804%);fill-opacity:1;" d="M 1.667969 6.667969 L 93.332031 6.667969 L 93.332031 76.667969 L 1.667969 76.667969 Z M 1.667969 6.667969 "/>
<path style=" stroke:none;fill-rule:nonzero;fill:rgb(32.941176%,36.862745%,45.098039%);fill-opacity:1;" d="M 95 78.332031 L 0 78.332031 L 0 5 L 95 5 Z M 3.332031 75 L 91.667969 75 L 91.667969 8.332031 L 3.332031 8.332031 Z M 3.332031 75 "/>
<path style=" stroke:none;fill-rule:nonzero;fill:rgb(32.941176%,36.862745%,45.098039%);fill-opacity:1;" d="M 8.332031 13.332031 L 86.667969 13.332031 L 86.667969 70 L 8.332031 70 Z M 8.332031 13.332031 "/>
<path style=" stroke:none;fill-rule:nonzero;fill:rgb(92.54902%,94.117647%,94.509804%);fill-opacity:1;" d="M 88.332031 71.667969 L 6.667969 71.667969 L 6.667969 11.667969 L 88.332031 11.667969 Z M 10 68.332031 L 85 68.332031 L 85 15 L 10 15 Z M 10 68.332031 "/>
<path style=" stroke:none;fill-rule:nonzero;fill:rgb(95.294118%,83.529412%,35.294118%);fill-opacity:1;" d="M 32.613281 27.613281 C 32.613281 31.820312 29.207031 35.230469 25 35.230469 C 20.792969 35.230469 17.386719 31.820312 17.386719 27.613281 C 17.386719 23.410156 20.792969 20 25 20 C 29.207031 20 32.613281 23.410156 32.613281 27.613281 Z M 32.613281 27.613281 "/>
<path style=" stroke:none;fill-rule:nonzero;fill:rgb(6.666667%,62.745098%,52.156863%);fill-opacity:1;" d="M 85 53.519531 L 83.332031 51.667969 L 63.332031 33.332031 L 45.832031 52.5 L 54.972656 61.636719 L 61.667969 68.332031 L 85 68.332031 Z M 85 53.519531 "/>
<path style=" stroke:none;fill-rule:nonzero;fill:rgb(14.901961%,72.54902%,60%);fill-opacity:1;" d="M 10 68.332031 L 61.667969 68.332031 L 54.972656 61.636719 L 36.695312 43.363281 L 10 66.667969 Z M 10 68.332031 "/>
<path style=" stroke:none;fill-rule:nonzero;fill:rgb(28.235294%,62.745098%,86.27451%);fill-opacity:1;" d="M 63.332031 58.332031 L 100 58.332031 L 100 95 L 63.332031 95 Z M 63.332031 58.332031 "/>
<path style=" stroke:none;fill-rule:nonzero;fill:rgb(100%,100%,100%);fill-opacity:1;" d="M 80 68.332031 L 83.332031 68.332031 L 83.332031 95 L 80 95 Z M 80 68.332031 "/>
<path style=" stroke:none;fill-rule:nonzero;fill:rgb(100%,100%,100%);fill-opacity:1;" d="M 90.488281 79.511719 L 81.667969 70.691406 L 72.84375 79.511719 L 70.488281 77.15625 L 81.667969 65.976562 L 92.84375 77.15625 Z M 90.488281 79.511719 "/>
</g>
</svg>
<!-- iconic normalized -->