<?xml version="1.0" encoding="UTF-8"?>
<svg xmlns="http://www.w3.org/2000/svg" xmlns:xlink="http://www.w3.org/1999/xlink" width="100px" height="100px" viewBox="0 0 100 100" version="1.1">
<g id="surface1">
<path style=" stroke:none;fill-rule:nonzero;fill:rgb(86.27451%,83.921569%,80.392157%);fill-opacity:1;" d="M 0 11.015625 L 0 77.117188 L 94.914062 77.117188 L 94.914062 11.015625 Z M 0 11.015625 "/>
<path style=" stroke:none;fill-rule:nonzero;fill:rgb(90.980392%,89.019608%,85.098039%);fill-opacity:1;" d="M 52.484375 48.488281 C 49.707031 50.964844 45.207031 50.964844 42.433594 48.488281 L 38.894531 45.363281 C 27.828125 55.238281 0 77.117188 0 77.117188 L 94.914062 77.117188 C 94.914062 77.117188 67.085938 55.238281 56.019531 45.363281 Z M 52.484375 48.488281 "/>
<path style=" stroke:none;fill-rule:nonzero;fill:rgb(93.72549%,92.156863%,87.058824%);fill-opacity:1;" d="M 0 11.015625 L 42.433594 48.488281 C 45.207031 50.964844 49.707031 50.964844 52.484375 48.488281 L 94.914062 11.015625 Z M 0 11.015625 "/>
<path style=" stroke:none;fill-rule:nonzero;fill:rgb(56.862745%,72.941176%,88.235294%);fill-opacity:1;" d="M 91.601562 70.527344 C 91.515625 63.859375 86.242188 58.472656 79.738281 58.472656 C 75.386719 58.472656 71.59375 60.890625 69.527344 64.484375 C 68.8125 64.246094 68.050781 64.113281 67.261719 64.113281 C 63.765625 64.113281 60.847656 66.640625 60.128906 70.015625 C 57.15625 71.484375 55.085938 74.601562 55.085938 78.207031 C 55.085938 83.199219 59.058594 87.289062 63.914062 87.289062 L 82.175781 87.289062 C 82.28125 87.289062 82.378906 87.277344 82.480469 87.273438 C 82.582031 87.277344 82.683594 87.289062 82.785156 87.289062 L 90.089844 87.289062 C 94.613281 87.289062 98.308594 83.484375 98.308594 78.832031 C 98.304688 74.714844 95.402344 71.265625 91.601562 70.527344 Z M 91.601562 70.527344 "/>
<path style=" stroke:none;fill-rule:nonzero;fill:rgb(52.54902%,59.215686%,79.607843%);fill-opacity:1;" d="M 90.085938 88.984375 L 82.78125 88.984375 C 82.679688 88.984375 82.582031 88.976562 82.484375 88.972656 C 82.371094 88.976562 82.269531 88.984375 82.171875 88.984375 L 63.910156 88.984375 C 58.109375 88.984375 53.390625 84.148438 53.390625 78.207031 C 53.390625 74.375 55.4375 70.796875 58.671875 68.878906 C 59.832031 65.089844 63.324219 62.417969 67.257812 62.417969 C 67.761719 62.417969 68.261719 62.460938 68.757812 62.546875 C 71.289062 58.960938 75.390625 56.78125 79.738281 56.78125 C 86.691406 56.78125 92.488281 62.246094 93.21875 69.207031 C 97.214844 70.574219 100 74.425781 100 78.832031 C 100 84.429688 95.550781 88.984375 90.085938 88.984375 Z M 82.421875 85.578125 L 82.726562 85.589844 L 90.089844 85.589844 C 93.683594 85.589844 96.613281 82.558594 96.613281 78.832031 C 96.613281 75.582031 94.371094 72.789062 91.28125 72.191406 L 89.925781 71.925781 L 89.90625 70.546875 C 89.832031 64.824219 85.273438 60.167969 79.738281 60.167969 C 76.121094 60.167969 72.851562 62.097656 70.996094 65.328125 L 70.304688 66.535156 L 68.988281 66.089844 C 68.425781 65.902344 67.84375 65.804688 67.257812 65.804688 C 64.648438 65.804688 62.347656 67.722656 61.785156 70.367188 L 61.613281 71.171875 L 60.875 71.535156 C 58.386719 72.761719 56.78125 75.382812 56.78125 78.203125 C 56.78125 82.277344 59.980469 85.589844 63.910156 85.589844 Z M 82.421875 85.578125 "/>
</g>
</svg>
<!-- iconic normalized -->