<?xml version="1.0" encoding="UTF-8"?>
<svg xmlns="http://www.w3.org/2000/svg" xmlns:xlink="http://www.w3.org/1999/xlink" width="100px" height="100px" viewBox="0 0 100 100" version="1.1">
<g id="surface1">
<path style=" stroke:none;fill-rule:nonzero;fill:rgb(30.980392%,72.941176%,43.137255%);fill-opacity:1;" d="M 33.035156 37.933594 L 4.921875 9.820312 L 0.894531 10.714844 L 0.894531 87.5 L 4.640625 86.667969 L 33.035156 58.269531 Z M 33.035156 37.933594 "/>
<path style=" stroke:none;fill-rule:nonzero;fill:rgb(28.235294%,62.745098%,86.27451%);fill-opacity:1;" d="M 17.628906 83.78125 L 33.035156 80.355469 L 33.035156 68.375 Z M 17.628906 83.78125 "/>
<path style=" stroke:none;fill-rule:nonzero;fill:rgb(30.980392%,72.941176%,43.137255%);fill-opacity:1;" d="M 33.035156 3.570312 L 13.1875 7.980469 L 33.035156 27.832031 Z M 33.035156 3.570312 "/>
<path style=" stroke:none;fill-rule:nonzero;fill:rgb(30.980392%,72.941176%,43.137255%);fill-opacity:1;" d="M 89.195312 2.113281 L 63.394531 10.714844 L 63.394531 27.914062 Z M 89.195312 2.113281 "/>
<path style=" stroke:none;fill-rule:nonzero;fill:rgb(28.235294%,62.745098%,86.27451%);fill-opacity:1;" d="M 63.394531 38.015625 L 63.394531 85.714844 L 95.535156 73.214844 L 95.535156 5.875 Z M 63.394531 38.015625 "/>
<path style=" stroke:none;fill-rule:nonzero;fill:rgb(29.019608%,64.313725%,38.039216%);fill-opacity:1;" d="M 48.253906 43.050781 L 63.394531 27.914062 L 63.394531 10.714844 L 33.035156 3.570312 L 33.035156 27.832031 Z M 48.253906 43.050781 "/>
<path style=" stroke:none;fill-rule:nonzero;fill:rgb(29.019608%,64.313725%,38.039216%);fill-opacity:1;" d="M 33.035156 37.933594 L 33.035156 58.269531 L 43.207031 48.105469 Z M 33.035156 37.933594 "/>
<path style=" stroke:none;fill-rule:nonzero;fill:rgb(31.764706%,63.529412%,78.823529%);fill-opacity:1;" d="M 33.035156 68.375 L 33.035156 80.355469 L 63.394531 85.714844 L 63.394531 38.015625 Z M 33.035156 68.375 "/>
<path style=" stroke:none;fill-rule:nonzero;fill:rgb(95.294118%,83.529412%,35.294118%);fill-opacity:1;" d="M 33.035156 27.832031 L 13.1875 7.980469 L 4.921875 9.820312 L 33.035156 37.933594 Z M 33.035156 27.832031 "/>
<path style=" stroke:none;fill-rule:nonzero;fill:rgb(95.294118%,83.529412%,35.294118%);fill-opacity:1;" d="M 33.035156 58.269531 L 4.640625 86.667969 L 17.628906 83.78125 L 33.035156 68.375 Z M 33.035156 58.269531 "/>
<path style=" stroke:none;fill-rule:nonzero;fill:rgb(95.294118%,83.529412%,35.294118%);fill-opacity:1;" d="M 63.394531 38.015625 L 95.535156 5.875 L 95.535156 0 L 89.195312 2.113281 L 63.394531 27.914062 Z M 63.394531 38.015625 "/>
<path style=" stroke:none;fill-rule:nonzero;fill:rgb(86.27451%,74.117647%,33.72549%);fill-opacity:1;" d="M 48.253906 43.050781 L 33.035156 27.832031 L 33.035156 37.933594 L 43.207031 48.105469 L 33.035156 58.269531 L 33.035156 68.375 L 63.394531 38.015625 L 63.394531 27.914062 Z M 48.253906 43.050781 "/>
<path style=" stroke:none;fill-rule:nonzero;fill:rgb(94.117647%,57.647059%,44.705882%);fill-opacity:1;" d="M 77.679688 70 C 79.410156 66.101562 83.230469 62.5 87.828125 62.5 C 94.019531 62.5 98.480469 67.539062 99.039062 73.542969 C 99.039062 73.542969 99.34375 75.03125 98.675781 77.714844 C 97.769531 81.367188 95.640625 84.613281 92.765625 87.089844 L 77.679688 100 L 62.59375 87.089844 C 59.71875 84.613281 57.589844 81.367188 56.683594 77.714844 C 56.015625 75.03125 56.320312 73.542969 56.320312 73.542969 C 56.878906 67.539062 61.335938 62.5 67.527344 62.5 C 72.125 62.5 75.949219 66.101562 77.679688 70 Z M 77.679688 70 "/>
</g>
</svg>
<!-- iconic normalized -->