<?xml version="1.0" encoding="UTF-8"?>
<svg xmlns="http://www.w3.org/2000/svg" xmlns:xlink="http://www.w3.org/1999/xlink" width="100px" height="100px" viewBox="0 0 100 100" version="1.1">
<g id="surface1">
<path style=" stroke:none;fill-rule:nonzero;fill:rgb(87.45098%,30.196078%,37.647059%);fill-opacity:1;" d="M 0 1.636719 L 0 82.128906 L 95.90625 82.128906 L 95.90625 1.636719 Z M 0 1.636719 "/>
<path style=" stroke:none;fill-rule:nonzero;fill:rgb(100%,100%,100%);fill-opacity:1;" d="M 67.921875 17.476562 C 67.550781 17.148438 67.054688 17 66.566406 17.066406 L 35.742188 21.121094 C 34.890625 21.230469 34.253906 21.957031 34.253906 22.816406 L 34.253906 56.101562 C 32.25 54.355469 29.535156 53.277344 26.546875 53.277344 C 20.40625 53.277344 15.414062 57.800781 15.414062 63.363281 C 15.414062 68.921875 20.40625 73.449219 26.546875 73.449219 C 32.683594 73.449219 37.675781 68.921875 37.675781 63.363281 L 37.675781 32.882812 L 65.078125 29.277344 L 65.078125 47.09375 C 63.140625 45.4375 60.535156 44.417969 57.667969 44.417969 C 51.695312 44.417969 46.835938 48.824219 46.835938 54.238281 C 46.835938 59.652344 51.695312 64.0625 57.667969 64.0625 C 63.644531 64.0625 68.503906 59.652344 68.503906 54.238281 L 68.503906 18.761719 C 68.503906 18.269531 68.292969 17.800781 67.921875 17.476562 Z M 67.921875 17.476562 "/>
<path style=" stroke:none;fill-rule:nonzero;fill:rgb(100%,100%,100%);fill-opacity:1;" d="M 97.953125 82.398438 L 97.769531 82.679688 C 85.574219 101.304688 65.617188 101.304688 53.425781 82.679688 L 53.609375 82.398438 C 65.800781 63.773438 85.757812 63.773438 97.953125 82.398438 Z M 97.953125 82.398438 "/>
<path style=" stroke:none;fill-rule:nonzero;fill:rgb(33.333333%,37.647059%,50.196078%);fill-opacity:1;" d="M 85.402344 78.492188 C 85.402344 84.082031 80.871094 88.609375 75.285156 88.609375 C 69.695312 88.609375 65.164062 84.082031 65.164062 78.492188 C 65.164062 72.902344 69.695312 68.371094 75.285156 68.371094 C 80.871094 68.371094 85.402344 72.902344 85.402344 78.492188 Z M 85.402344 78.492188 "/>
<path style=" stroke:none;fill-rule:nonzero;fill:rgb(69.411765%,82.745098%,93.72549%);fill-opacity:1;" d="M 75.597656 98.363281 C 66.601562 98.363281 58.21875 93.125 51.992188 83.617188 L 51.378906 82.679688 L 52.175781 81.460938 C 58.402344 71.953125 66.785156 66.71875 75.78125 66.71875 C 84.777344 66.71875 93.160156 71.953125 99.386719 81.460938 L 100 82.398438 L 99.203125 83.617188 C 92.976562 93.125 84.59375 98.363281 75.597656 98.363281 Z M 55.484375 82.671875 C 60.976562 90.589844 68.082031 94.9375 75.597656 94.9375 C 83.195312 94.9375 90.378906 90.492188 95.894531 82.40625 C 90.402344 74.484375 83.296875 70.140625 75.78125 70.140625 C 68.183594 70.140625 61 74.585938 55.484375 82.671875 Z M 55.484375 82.671875 "/>
</g>
</svg>
<!-- iconic normalized -->