<?xml version="1.0" encoding="UTF-8"?>
<svg xmlns="http://www.w3.org/2000/svg" xmlns:xlink="http://www.w3.org/1999/xlink" width="100px" height="100px" viewBox="0 0 100 100" version="1.1">
<g id="surface1">
<path style=" stroke:none;fill-rule:nonzero;fill:rgb(32.941176%,36.862745%,45.098039%);fill-opacity:1;" d="M 59.484375 3.449219 L 52.585938 3.449219 L 52.585938 8.621094 L 37.070312 8.621094 L 37.070312 3.449219 L 4.308594 3.449219 L 4.308594 100 L 85.34375 100 L 85.34375 3.449219 Z M 59.484375 3.449219 "/>
<path style=" stroke:none;fill-rule:nonzero;fill:rgb(25.098039%,27.45098%,33.72549%);fill-opacity:1;" d="M 37.070312 0 L 52.585938 0 L 52.585938 8.621094 L 37.070312 8.621094 Z M 37.070312 0 "/>
<path style=" stroke:none;fill-rule:nonzero;fill:rgb(93.72549%,92.156863%,87.058824%);fill-opacity:1;" d="M 64.65625 8.621094 L 64.65625 13.792969 L 25 13.792969 L 25 8.621094 L 9.484375 8.621094 L 9.484375 94.828125 L 80.171875 94.828125 L 80.171875 8.621094 Z M 64.65625 8.621094 "/>
<path style=" stroke:none;fill-rule:nonzero;fill:rgb(52.54902%,59.215686%,79.607843%);fill-opacity:1;" d="M 52.585938 3.449219 L 52.585938 8.621094 L 37.070312 8.621094 L 37.070312 3.449219 L 25 3.449219 L 25 13.792969 L 64.65625 13.792969 L 64.65625 3.449219 Z M 52.585938 3.449219 "/>
<path style=" stroke:none;fill-rule:nonzero;fill:rgb(83.529412%,81.568627%,73.333333%);fill-opacity:1;" d="M 42.242188 27.585938 L 19.828125 27.585938 C 18.875 27.585938 18.101562 26.816406 18.101562 25.863281 C 18.101562 24.910156 18.875 24.136719 19.828125 24.136719 L 42.242188 24.136719 C 43.195312 24.136719 43.964844 24.910156 43.964844 25.863281 C 43.964844 26.816406 43.195312 27.585938 42.242188 27.585938 Z M 42.242188 27.585938 "/>
<path style=" stroke:none;fill-rule:nonzero;fill:rgb(83.529412%,81.568627%,73.333333%);fill-opacity:1;" d="M 42.242188 81.035156 L 19.828125 81.035156 C 18.875 81.035156 18.101562 80.265625 18.101562 79.308594 C 18.101562 78.355469 18.875 77.585938 19.828125 77.585938 L 42.242188 77.585938 C 43.195312 77.585938 43.964844 78.355469 43.964844 79.308594 C 43.964844 80.265625 43.195312 81.035156 42.242188 81.035156 Z M 42.242188 81.035156 "/>
<path style=" stroke:none;fill-rule:nonzero;fill:rgb(83.529412%,81.568627%,73.333333%);fill-opacity:1;" d="M 69.828125 37.929688 L 19.828125 37.929688 C 18.875 37.929688 18.101562 37.160156 18.101562 36.207031 C 18.101562 35.253906 18.875 34.484375 19.828125 34.484375 L 69.828125 34.484375 C 70.78125 34.484375 71.550781 35.253906 71.550781 36.207031 C 71.550781 37.160156 70.78125 37.929688 69.828125 37.929688 Z M 69.828125 37.929688 "/>
<path style=" stroke:none;fill-rule:nonzero;fill:rgb(83.529412%,81.568627%,73.333333%);fill-opacity:1;" d="M 69.828125 58.621094 L 19.828125 58.621094 C 18.875 58.621094 18.101562 57.851562 18.101562 56.898438 C 18.101562 55.941406 18.875 55.171875 19.828125 55.171875 L 69.828125 55.171875 C 70.78125 55.171875 71.550781 55.941406 71.550781 56.898438 C 71.550781 57.851562 70.78125 58.621094 69.828125 58.621094 Z M 69.828125 58.621094 "/>
<path style=" stroke:none;fill-rule:nonzero;fill:rgb(83.529412%,81.568627%,73.333333%);fill-opacity:1;" d="M 69.828125 70.691406 L 19.828125 70.691406 C 18.875 70.691406 18.101562 69.917969 18.101562 68.964844 C 18.101562 68.011719 18.875 67.242188 19.828125 67.242188 L 69.828125 67.242188 C 70.78125 67.242188 71.550781 68.011719 71.550781 68.964844 C 71.550781 69.917969 70.78125 70.691406 69.828125 70.691406 Z M 69.828125 70.691406 "/>
<path style=" stroke:none;fill-rule:nonzero;fill:rgb(83.529412%,81.568627%,73.333333%);fill-opacity:1;" d="M 43.964844 48.277344 L 19.828125 48.277344 C 18.875 48.277344 18.101562 47.503906 18.101562 46.550781 C 18.101562 45.597656 18.875 44.828125 19.828125 44.828125 L 43.964844 44.828125 C 44.917969 44.828125 45.691406 45.597656 45.691406 46.550781 C 45.691406 47.503906 44.917969 48.277344 43.964844 48.277344 Z M 43.964844 48.277344 "/>
<path style=" stroke:none;fill-rule:nonzero;fill:rgb(83.529412%,81.568627%,73.333333%);fill-opacity:1;" d="M 69.828125 48.277344 L 57.757812 48.277344 C 56.804688 48.277344 56.035156 47.503906 56.035156 46.550781 C 56.035156 45.597656 56.804688 44.828125 57.757812 44.828125 L 69.828125 44.828125 C 70.78125 44.828125 71.550781 45.597656 71.550781 46.550781 C 71.550781 47.503906 70.78125 48.277344 69.828125 48.277344 Z M 69.828125 48.277344 "/>
<path style=" stroke:none;fill-rule:nonzero;fill:rgb(83.529412%,81.568627%,73.333333%);fill-opacity:1;" d="M 50.863281 48.277344 C 50.394531 48.277344 49.964844 48.101562 49.636719 47.777344 C 49.324219 47.449219 49.136719 47 49.136719 46.550781 C 49.136719 46.085938 49.308594 45.652344 49.636719 45.328125 C 50.292969 44.671875 51.429688 44.691406 52.085938 45.328125 C 52.410156 45.652344 52.585938 46.085938 52.585938 46.550781 C 52.585938 47.015625 52.398438 47.449219 52.085938 47.777344 C 51.757812 48.085938 51.328125 48.277344 50.863281 48.277344 Z M 50.863281 48.277344 "/>
<path style=" stroke:none;fill-rule:nonzero;fill:rgb(23.921569%,19.607843%,29.803922%);fill-opacity:1;" d="M 95.183594 97.058594 L 83.464844 85.339844 L 94.644531 79.75 L 64.234375 68.546875 L 75.441406 98.957031 L 81.027344 87.777344 L 92.746094 99.496094 C 93.082031 99.832031 93.523438 100 93.964844 100 C 94.40625 100 94.847656 99.832031 95.183594 99.496094 C 95.859375 98.820312 95.859375 97.730469 95.183594 97.058594 Z M 95.183594 97.058594 "/>
</g>
</svg>
<!-- iconic normalized -->