<?xml version="1.0" encoding="UTF-8"?>
<svg xmlns="http://www.w3.org/2000/svg" xmlns:xlink="http://www.w3.org/1999/xlink" width="100px" height="100px" viewBox="0 0 100 100" version="1.1">
<g id="surface1">
<path style=" stroke:none;fill-rule:nonzero;fill:rgb(41.176471%,73.72549%,27.058824%);fill-opacity:1;" d="M 97.296875 76.648438 C 93.785156 70.011719 80.832031 62.421875 80.832031 62.421875 C 77.902344 60.75 74.367188 60.5625 72.695312 63.542969 C 72.695312 63.542969 68.488281 68.589844 67.417969 69.3125 C 62.527344 72.628906 58 72.5 53.429688 67.925781 L 42.804688 57.300781 L 32.179688 46.679688 C 27.609375 42.105469 27.480469 37.578125 30.792969 32.691406 C 31.519531 31.617188 36.566406 27.410156 36.566406 27.410156 C 39.542969 25.738281 39.355469 22.203125 37.6875 19.273438 C 37.6875 19.273438 30.097656 6.324219 23.460938 2.8125 C 20.636719 1.316406 17.171875 1.839844 14.910156 4.097656 L 10.214844 8.785156 C -4.667969 23.667969 2.660156 40.472656 17.542969 55.355469 L 31.144531 68.957031 L 44.746094 82.5625 C 59.628906 97.445312 76.433594 104.773438 91.316406 89.886719 L 96.011719 85.195312 C 98.269531 82.9375 98.789062 79.46875 97.296875 76.648438 Z M 97.296875 76.648438 "/>
<path style=" stroke:none;fill-rule:nonzero;fill:rgb(26.666667%,61.960784%,27.45098%);fill-opacity:1;" d="M 98.929688 75.78125 C 95.214844 68.757812 82.316406 61.144531 81.75 60.8125 C 80.09375 59.867188 78.363281 59.367188 76.746094 59.367188 C 74.339844 59.367188 72.367188 60.472656 71.175781 62.476562 C 69.289062 64.734375 66.945312 67.371094 66.378906 67.78125 C 61.984375 70.761719 58.542969 70.421875 54.738281 66.617188 L 33.484375 45.367188 C 29.703125 41.585938 29.355469 38.101562 32.316406 33.734375 C 32.730469 33.160156 35.367188 30.820312 37.625 28.929688 C 39.066406 28.070312 40.054688 26.800781 40.484375 25.238281 C 41.0625 23.164062 40.636719 20.71875 39.277344 18.335938 C 38.957031 17.789062 31.34375 4.886719 24.324219 1.175781 C 23.011719 0.480469 21.535156 0.113281 20.054688 0.113281 C 17.617188 0.113281 15.324219 1.066406 13.601562 2.789062 L 8.90625 7.480469 C 1.480469 14.902344 -1.207031 23.316406 0.914062 32.488281 C 2.683594 40.132812 7.835938 48.265625 16.234375 56.664062 L 43.4375 83.867188 C 54.066406 94.496094 64.199219 99.886719 73.558594 99.886719 C 80.441406 99.886719 86.855469 96.960938 92.621094 91.195312 L 97.316406 86.503906 C 100.167969 83.652344 100.816406 79.347656 98.929688 75.78125 Z M 94.703125 83.886719 L 90.007812 88.582031 C 84.960938 93.628906 79.425781 96.1875 73.5625 96.1875 C 65.21875 96.1875 55.964844 91.160156 46.054688 81.25 L 18.851562 54.046875 C 10.953125 46.148438 6.128906 38.613281 4.519531 31.65625 C 2.679688 23.699219 4.96875 16.648438 11.523438 10.097656 L 16.214844 5.402344 C 17.242188 4.375 18.605469 3.8125 20.054688 3.8125 C 20.933594 3.8125 21.808594 4.03125 22.589844 4.445312 C 28.683594 7.667969 36.015625 20.082031 36.078125 20.1875 C 36.90625 21.644531 37.222656 23.164062 36.921875 24.25 C 36.738281 24.917969 36.324219 25.421875 35.660156 25.796875 L 35.378906 25.988281 C 33.800781 27.300781 30.046875 30.488281 29.261719 31.648438 C 28.128906 33.320312 27.375 34.964844 26.984375 36.582031 C 25.667969 33.957031 24.605469 30.917969 24.257812 27.550781 C 24.152344 26.539062 23.246094 25.832031 22.226562 25.902344 C 21.210938 26.007812 20.46875 26.917969 20.574219 27.933594 C 21.910156 40.796875 31.914062 49.171875 32.339844 49.519531 C 32.382812 49.558594 32.441406 49.574219 32.488281 49.605469 L 52.117188 69.234375 C 52.199219 69.316406 52.285156 69.386719 52.367188 69.46875 C 52.433594 69.566406 52.476562 69.671875 52.5625 69.757812 C 52.914062 70.105469 61.265625 78.207031 74.019531 79.53125 C 74.085938 79.535156 74.148438 79.539062 74.210938 79.539062 C 75.148438 79.539062 75.953125 78.832031 76.050781 77.882812 C 76.15625 76.863281 75.417969 75.957031 74.402344 75.847656 C 70.492188 75.445312 67.03125 74.300781 64.148438 72.972656 C 65.558594 72.542969 66.992188 71.835938 68.453125 70.84375 C 69.617188 70.058594 72.800781 66.304688 74.117188 64.726562 L 74.308594 64.445312 C 74.828125 63.523438 75.625 63.070312 76.746094 63.070312 C 77.707031 63.070312 78.832031 63.414062 79.898438 64.019531 C 83.375 66.054688 92.980469 72.453125 95.660156 77.515625 C 96.78125 79.628906 96.394531 82.191406 94.703125 83.886719 Z M 94.703125 83.886719 "/>
<path style=" stroke:none;fill-rule:nonzero;fill:rgb(92.941176%,44.313725%,38.039216%);fill-opacity:1;" d="M 44.398438 73.988281 C 44.398438 86.25 34.457031 96.1875 22.199219 96.1875 C 9.9375 96.1875 0 86.25 0 73.988281 C 0 61.726562 9.9375 51.789062 22.199219 51.789062 C 34.457031 51.789062 44.398438 61.726562 44.398438 73.988281 Z M 44.398438 73.988281 "/>
<path style=" stroke:none;fill-rule:nonzero;fill:rgb(100%,100%,100%);fill-opacity:1;" d="M 24.816406 73.988281 L 31.355469 67.449219 C 32.078125 66.722656 32.078125 65.554688 31.355469 64.832031 C 30.632812 64.109375 29.464844 64.109375 28.738281 64.832031 L 22.199219 71.371094 L 15.65625 64.832031 C 14.933594 64.109375 13.765625 64.109375 13.042969 64.832031 C 12.320312 65.554688 12.320312 66.722656 13.042969 67.449219 L 19.582031 73.988281 L 13.042969 80.53125 C 12.320312 81.253906 12.320312 82.421875 13.042969 83.144531 C 13.402344 83.507812 13.875 83.6875 14.351562 83.6875 C 14.824219 83.6875 15.296875 83.507812 15.65625 83.144531 L 22.199219 76.605469 L 28.738281 83.148438 C 29.101562 83.507812 29.574219 83.6875 30.046875 83.6875 C 30.523438 83.6875 30.996094 83.507812 31.355469 83.148438 C 32.078125 82.425781 32.078125 81.253906 31.355469 80.53125 Z M 24.816406 73.988281 "/>
</g>
</svg>
<!-- iconic normalized -->