<?xml version="1.0" encoding="UTF-8"?>
<svg xmlns="http://www.w3.org/2000/svg" xmlns:xlink="http://www.w3.org/1999/xlink" width="100px" height="100px" viewBox="0 0 100 100" version="1.1">
<g id="surface1">
<path style=" stroke:none;fill-rule:nonzero;fill:rgb(90.588235%,83.137255%,69.411765%);fill-opacity:1;" d="M 79.949219 0 L 55.988281 0 L 11.542969 44.304688 L 54.695312 87.550781 L 99.089844 43.296875 L 99.089844 19.097656 Z M 77.300781 27.035156 C 74.351562 27.035156 71.964844 24.648438 71.964844 21.699219 C 71.964844 18.753906 74.351562 16.363281 77.300781 16.363281 C 80.246094 16.363281 82.636719 18.753906 82.636719 21.699219 C 82.636719 24.648438 80.246094 27.035156 77.300781 27.035156 Z M 77.300781 27.035156 "/>
<path style=" stroke:none;fill-rule:nonzero;fill:rgb(82.745098%,76.078431%,64.313725%);fill-opacity:1;" d="M 11.59375 44.28125 L 0.910156 54.9375 L 44.0625 98.183594 L 54.792969 87.476562 Z M 11.59375 44.28125 "/>
<path style=" stroke:none;fill-rule:nonzero;fill:rgb(79.607843%,69.803922%,57.254902%);fill-opacity:1;" d="M 77.300781 16.363281 C 80.246094 16.363281 82.636719 18.753906 82.636719 21.699219 C 82.636719 24.648438 80.246094 27.035156 77.300781 27.035156 C 74.351562 27.035156 71.964844 24.648438 71.964844 21.699219 C 71.964844 18.753906 74.351562 16.363281 77.300781 16.363281 M 77.300781 9.089844 C 70.347656 9.089844 64.691406 14.746094 64.691406 21.699219 C 64.691406 28.652344 70.347656 34.308594 77.300781 34.308594 C 84.253906 34.308594 89.910156 28.652344 89.910156 21.699219 C 89.910156 14.746094 84.253906 9.089844 77.300781 9.089844 Z M 77.300781 9.089844 "/>
<path style=" stroke:none;fill-rule:nonzero;fill:rgb(28.235294%,62.745098%,86.27451%);fill-opacity:1;" d="M 48.183594 60 L 88.183594 60 L 88.183594 100 L 48.183594 100 Z M 48.183594 60 "/>
<path style=" stroke:none;fill-rule:nonzero;fill:rgb(100%,100%,100%);fill-opacity:1;" d="M 66.363281 70.910156 L 70 70.910156 L 70 100 L 66.363281 100 Z M 66.363281 70.910156 "/>
<path style=" stroke:none;fill-rule:nonzero;fill:rgb(100%,100%,100%);fill-opacity:1;" d="M 77.804688 83.105469 L 68.183594 73.480469 L 58.558594 83.105469 L 55.988281 80.53125 L 68.183594 68.339844 L 80.375 80.53125 Z M 77.804688 83.105469 "/>
</g>
</svg>
<!-- iconic normalized -->