<?xml version="1.0" encoding="UTF-8"?>
<svg xmlns="http://www.w3.org/2000/svg" xmlns:xlink="http://www.w3.org/1999/xlink" width="100px" height="100px" viewBox="0 0 100 100" version="1.1">
<g id="surface1">
<path style=" stroke:none;fill-rule:nonzero;fill:rgb(33.333333%,37.647059%,50.196078%);fill-opacity:1;" d="M 93.039062 32.203125 L 6.960938 32.203125 C 3.585938 32.203125 0.847656 29.464844 0.847656 26.089844 L 0.847656 6.117188 C 0.847656 2.738281 3.585938 0 6.960938 0 L 93.035156 0 C 96.414062 0 99.152344 2.738281 99.152344 6.117188 L 99.152344 26.085938 C 99.152344 29.464844 96.414062 32.203125 93.039062 32.203125 Z M 93.039062 32.203125 "/>
<path style=" stroke:none;fill-rule:nonzero;fill:rgb(21.960784%,27.058824%,30.980392%);fill-opacity:1;" d="M 93.039062 64.40625 L 6.960938 64.40625 C 3.585938 64.40625 0.847656 61.667969 0.847656 58.292969 L 0.847656 38.320312 C 0.847656 34.941406 3.585938 32.203125 6.960938 32.203125 L 93.035156 32.203125 C 96.414062 32.203125 99.152344 34.941406 99.152344 38.320312 L 99.152344 58.289062 C 99.152344 61.667969 96.414062 64.40625 93.039062 64.40625 Z M 93.039062 64.40625 "/>
<path style=" stroke:none;fill-rule:nonzero;fill:rgb(33.333333%,37.647059%,50.196078%);fill-opacity:1;" d="M 93.039062 96.609375 L 6.960938 96.609375 C 3.585938 96.609375 0.847656 93.871094 0.847656 90.496094 L 0.847656 70.523438 C 0.847656 67.144531 3.585938 64.40625 6.960938 64.40625 L 93.035156 64.40625 C 96.414062 64.40625 99.152344 67.144531 99.152344 70.523438 L 99.152344 90.492188 C 99.152344 93.871094 96.414062 96.609375 93.039062 96.609375 Z M 93.039062 96.609375 "/>
<path style=" stroke:none;fill-rule:nonzero;fill:rgb(52.54902%,59.215686%,79.607843%);fill-opacity:1;" d="M 22.882812 16.101562 C 22.882812 19.378906 20.226562 22.035156 16.949219 22.035156 C 13.671875 22.035156 11.015625 19.378906 11.015625 16.101562 C 11.015625 12.824219 13.671875 10.167969 16.949219 10.167969 C 20.226562 10.167969 22.882812 12.824219 22.882812 16.101562 Z M 22.882812 16.101562 "/>
<path style=" stroke:none;fill-rule:nonzero;fill:rgb(52.54902%,59.215686%,79.607843%);fill-opacity:1;" d="M 85.59375 13.558594 C 85.59375 14.496094 84.835938 15.253906 83.898438 15.253906 C 82.960938 15.253906 82.203125 14.496094 82.203125 13.558594 C 82.203125 12.625 82.960938 11.863281 83.898438 11.863281 C 84.835938 11.863281 85.59375 12.625 85.59375 13.558594 Z M 85.59375 13.558594 "/>
<path style=" stroke:none;fill-rule:nonzero;fill:rgb(52.54902%,59.215686%,79.607843%);fill-opacity:1;" d="M 78.8125 13.558594 C 78.8125 14.496094 78.054688 15.253906 77.117188 15.253906 C 76.183594 15.253906 75.421875 14.496094 75.421875 13.558594 C 75.421875 12.625 76.183594 11.863281 77.117188 11.863281 C 78.054688 11.863281 78.8125 12.625 78.8125 13.558594 Z M 78.8125 13.558594 "/>
<path style=" stroke:none;fill-rule:nonzero;fill:rgb(52.54902%,59.215686%,79.607843%);fill-opacity:1;" d="M 88.984375 18.644531 C 88.984375 19.582031 88.222656 20.339844 87.289062 20.339844 C 86.351562 20.339844 85.59375 19.582031 85.59375 18.644531 C 85.59375 17.707031 86.351562 16.949219 87.289062 16.949219 C 88.222656 16.949219 88.984375 17.707031 88.984375 18.644531 Z M 88.984375 18.644531 "/>
<path style=" stroke:none;fill-rule:nonzero;fill:rgb(52.54902%,59.215686%,79.607843%);fill-opacity:1;" d="M 82.203125 18.644531 C 82.203125 19.582031 81.445312 20.339844 80.507812 20.339844 C 79.574219 20.339844 78.8125 19.582031 78.8125 18.644531 C 78.8125 17.707031 79.574219 16.949219 80.507812 16.949219 C 81.445312 16.949219 82.203125 17.707031 82.203125 18.644531 Z M 82.203125 18.644531 "/>
<path style=" stroke:none;fill-rule:nonzero;fill:rgb(52.54902%,59.215686%,79.607843%);fill-opacity:1;" d="M 72.035156 13.558594 C 72.035156 14.496094 71.273438 15.253906 70.339844 15.253906 C 69.402344 15.253906 68.644531 14.496094 68.644531 13.558594 C 68.644531 12.625 69.402344 11.863281 70.339844 11.863281 C 71.273438 11.863281 72.035156 12.625 72.035156 13.558594 Z M 72.035156 13.558594 "/>
<path style=" stroke:none;fill-rule:nonzero;fill:rgb(52.54902%,59.215686%,79.607843%);fill-opacity:1;" d="M 75.421875 18.644531 C 75.421875 19.582031 74.664062 20.339844 73.730469 20.339844 C 72.792969 20.339844 72.035156 19.582031 72.035156 18.644531 C 72.035156 17.707031 72.792969 16.949219 73.730469 16.949219 C 74.664062 16.949219 75.421875 17.707031 75.421875 18.644531 Z M 75.421875 18.644531 "/>
<path style=" stroke:none;fill-rule:nonzero;fill:rgb(52.54902%,59.215686%,79.607843%);fill-opacity:1;" d="M 65.253906 13.558594 C 65.253906 14.496094 64.496094 15.253906 63.558594 15.253906 C 62.625 15.253906 61.863281 14.496094 61.863281 13.558594 C 61.863281 12.625 62.625 11.863281 63.558594 11.863281 C 64.496094 11.863281 65.253906 12.625 65.253906 13.558594 Z M 65.253906 13.558594 "/>
<path style=" stroke:none;fill-rule:nonzero;fill:rgb(52.54902%,59.215686%,79.607843%);fill-opacity:1;" d="M 68.644531 18.644531 C 68.644531 19.582031 67.886719 20.339844 66.949219 20.339844 C 66.011719 20.339844 65.253906 19.582031 65.253906 18.644531 C 65.253906 17.707031 66.011719 16.949219 66.949219 16.949219 C 67.886719 16.949219 68.644531 17.707031 68.644531 18.644531 Z M 68.644531 18.644531 "/>
<path style=" stroke:none;fill-rule:nonzero;fill:rgb(52.54902%,59.215686%,79.607843%);fill-opacity:1;" d="M 58.472656 13.558594 C 58.472656 14.496094 57.714844 15.253906 56.78125 15.253906 C 55.84375 15.253906 55.085938 14.496094 55.085938 13.558594 C 55.085938 12.625 55.84375 11.863281 56.78125 11.863281 C 57.714844 11.863281 58.472656 12.625 58.472656 13.558594 Z M 58.472656 13.558594 "/>
<path style=" stroke:none;fill-rule:nonzero;fill:rgb(52.54902%,59.215686%,79.607843%);fill-opacity:1;" d="M 61.863281 18.644531 C 61.863281 19.582031 61.105469 20.339844 60.167969 20.339844 C 59.234375 20.339844 58.472656 19.582031 58.472656 18.644531 C 58.472656 17.707031 59.234375 16.949219 60.167969 16.949219 C 61.105469 16.949219 61.863281 17.707031 61.863281 18.644531 Z M 61.863281 18.644531 "/>
<path style=" stroke:none;fill-rule:nonzero;fill:rgb(52.54902%,59.215686%,79.607843%);fill-opacity:1;" d="M 22.882812 48.304688 C 22.882812 51.582031 20.226562 54.238281 16.949219 54.238281 C 13.671875 54.238281 11.015625 51.582031 11.015625 48.304688 C 11.015625 45.027344 13.671875 42.371094 16.949219 42.371094 C 20.226562 42.371094 22.882812 45.027344 22.882812 48.304688 Z M 22.882812 48.304688 "/>
<path style=" stroke:none;fill-rule:nonzero;fill:rgb(52.54902%,59.215686%,79.607843%);fill-opacity:1;" d="M 85.59375 45.761719 C 85.59375 46.699219 84.835938 47.457031 83.898438 47.457031 C 82.960938 47.457031 82.203125 46.699219 82.203125 45.761719 C 82.203125 44.828125 82.960938 44.066406 83.898438 44.066406 C 84.835938 44.066406 85.59375 44.828125 85.59375 45.761719 Z M 85.59375 45.761719 "/>
<path style=" stroke:none;fill-rule:nonzero;fill:rgb(52.54902%,59.215686%,79.607843%);fill-opacity:1;" d="M 78.8125 45.761719 C 78.8125 46.699219 78.054688 47.457031 77.117188 47.457031 C 76.183594 47.457031 75.421875 46.699219 75.421875 45.761719 C 75.421875 44.828125 76.183594 44.066406 77.117188 44.066406 C 78.054688 44.066406 78.8125 44.828125 78.8125 45.761719 Z M 78.8125 45.761719 "/>
<path style=" stroke:none;fill-rule:nonzero;fill:rgb(52.54902%,59.215686%,79.607843%);fill-opacity:1;" d="M 88.984375 50.847656 C 88.984375 51.785156 88.222656 52.542969 87.289062 52.542969 C 86.351562 52.542969 85.59375 51.785156 85.59375 50.847656 C 85.59375 49.910156 86.351562 49.152344 87.289062 49.152344 C 88.222656 49.152344 88.984375 49.910156 88.984375 50.847656 Z M 88.984375 50.847656 "/>
<path style=" stroke:none;fill-rule:nonzero;fill:rgb(52.54902%,59.215686%,79.607843%);fill-opacity:1;" d="M 82.203125 50.847656 C 82.203125 51.785156 81.445312 52.542969 80.507812 52.542969 C 79.574219 52.542969 78.8125 51.785156 78.8125 50.847656 C 78.8125 49.910156 79.574219 49.152344 80.507812 49.152344 C 81.445312 49.152344 82.203125 49.910156 82.203125 50.847656 Z M 82.203125 50.847656 "/>
<path style=" stroke:none;fill-rule:nonzero;fill:rgb(52.54902%,59.215686%,79.607843%);fill-opacity:1;" d="M 72.035156 45.761719 C 72.035156 46.699219 71.273438 47.457031 70.339844 47.457031 C 69.402344 47.457031 68.644531 46.699219 68.644531 45.761719 C 68.644531 44.828125 69.402344 44.066406 70.339844 44.066406 C 71.273438 44.066406 72.035156 44.828125 72.035156 45.761719 Z M 72.035156 45.761719 "/>
<path style=" stroke:none;fill-rule:nonzero;fill:rgb(52.54902%,59.215686%,79.607843%);fill-opacity:1;" d="M 75.421875 50.847656 C 75.421875 51.785156 74.664062 52.542969 73.730469 52.542969 C 72.792969 52.542969 72.035156 51.785156 72.035156 50.847656 C 72.035156 49.910156 72.792969 49.152344 73.730469 49.152344 C 74.664062 49.152344 75.421875 49.910156 75.421875 50.847656 Z M 75.421875 50.847656 "/>
<path style=" stroke:none;fill-rule:nonzero;fill:rgb(52.54902%,59.215686%,79.607843%);fill-opacity:1;" d="M 65.253906 45.761719 C 65.253906 46.699219 64.496094 47.457031 63.558594 47.457031 C 62.625 47.457031 61.863281 46.699219 61.863281 45.761719 C 61.863281 44.828125 62.625 44.066406 63.558594 44.066406 C 64.496094 44.066406 65.253906 44.828125 65.253906 45.761719 Z M 65.253906 45.761719 "/>
<path style=" stroke:none;fill-rule:nonzero;fill:rgb(52.54902%,59.215686%,79.607843%);fill-opacity:1;" d="M 68.644531 50.847656 C 68.644531 51.785156 67.886719 52.542969 66.949219 52.542969 C 66.011719 52.542969 65.253906 51.785156 65.253906 50.847656 C 65.253906 49.910156 66.011719 49.152344 66.949219 49.152344 C 67.886719 49.152344 68.644531 49.910156 68.644531 50.847656 Z M 68.644531 50.847656 "/>
<path style=" stroke:none;fill-rule:nonzero;fill:rgb(52.54902%,59.215686%,79.607843%);fill-opacity:1;" d="M 58.472656 45.761719 C 58.472656 46.699219 57.714844 47.457031 56.78125 47.457031 C 55.84375 47.457031 55.085938 46.699219 55.085938 45.761719 C 55.085938 44.828125 55.84375 44.066406 56.78125 44.066406 C 57.714844 44.066406 58.472656 44.828125 58.472656 45.761719 Z M 58.472656 45.761719 "/>
<path style=" stroke:none;fill-rule:nonzero;fill:rgb(52.54902%,59.215686%,79.607843%);fill-opacity:1;" d="M 61.863281 50.847656 C 61.863281 51.785156 61.105469 52.542969 60.167969 52.542969 C 59.234375 52.542969 58.472656 51.785156 58.472656 50.847656 C 58.472656 49.910156 59.234375 49.152344 60.167969 49.152344 C 61.105469 49.152344 61.863281 49.910156 61.863281 50.847656 Z M 61.863281 50.847656 "/>
<path style=" stroke:none;fill-rule:nonzero;fill:rgb(52.54902%,59.215686%,79.607843%);fill-opacity:1;" d="M 22.882812 80.507812 C 22.882812 83.785156 20.226562 86.441406 16.949219 86.441406 C 13.671875 86.441406 11.015625 83.785156 11.015625 80.507812 C 11.015625 77.230469 13.671875 74.578125 16.949219 74.578125 C 20.226562 74.578125 22.882812 77.230469 22.882812 80.507812 Z M 22.882812 80.507812 "/>
<path style=" stroke:none;fill-rule:nonzero;fill:rgb(52.54902%,59.215686%,79.607843%);fill-opacity:1;" d="M 85.59375 77.964844 C 85.59375 78.902344 84.835938 79.660156 83.898438 79.660156 C 82.960938 79.660156 82.203125 78.902344 82.203125 77.964844 C 82.203125 77.03125 82.960938 76.269531 83.898438 76.269531 C 84.835938 76.269531 85.59375 77.03125 85.59375 77.964844 Z M 85.59375 77.964844 "/>
<path style=" stroke:none;fill-rule:nonzero;fill:rgb(52.54902%,59.215686%,79.607843%);fill-opacity:1;" d="M 78.8125 77.964844 C 78.8125 78.902344 78.054688 79.660156 77.117188 79.660156 C 76.183594 79.660156 75.421875 78.902344 75.421875 77.964844 C 75.421875 77.03125 76.183594 76.269531 77.117188 76.269531 C 78.054688 76.269531 78.8125 77.03125 78.8125 77.964844 Z M 78.8125 77.964844 "/>
<path style=" stroke:none;fill-rule:nonzero;fill:rgb(52.54902%,59.215686%,79.607843%);fill-opacity:1;" d="M 88.984375 83.050781 C 88.984375 83.988281 88.222656 84.746094 87.289062 84.746094 C 86.351562 84.746094 85.59375 83.988281 85.59375 83.050781 C 85.59375 82.113281 86.351562 81.355469 87.289062 81.355469 C 88.222656 81.355469 88.984375 82.113281 88.984375 83.050781 Z M 88.984375 83.050781 "/>
<path style=" stroke:none;fill-rule:nonzero;fill:rgb(52.54902%,59.215686%,79.607843%);fill-opacity:1;" d="M 82.203125 83.050781 C 82.203125 83.988281 81.445312 84.746094 80.507812 84.746094 C 79.574219 84.746094 78.8125 83.988281 78.8125 83.050781 C 78.8125 82.113281 79.574219 81.355469 80.507812 81.355469 C 81.445312 81.355469 82.203125 82.113281 82.203125 83.050781 Z M 82.203125 83.050781 "/>
<path style=" stroke:none;fill-rule:nonzero;fill:rgb(52.54902%,59.215686%,79.607843%);fill-opacity:1;" d="M 72.035156 77.964844 C 72.035156 78.902344 71.273438 79.660156 70.339844 79.660156 C 69.402344 79.660156 68.644531 78.902344 68.644531 77.964844 C 68.644531 77.03125 69.402344 76.269531 70.339844 76.269531 C 71.273438 76.269531 72.035156 77.03125 72.035156 77.964844 Z M 72.035156 77.964844 "/>
<path style=" stroke:none;fill-rule:nonzero;fill:rgb(52.54902%,59.215686%,79.607843%);fill-opacity:1;" d="M 75.421875 83.050781 C 75.421875 83.988281 74.664062 84.746094 73.730469 84.746094 C 72.792969 84.746094 72.035156 83.988281 72.035156 83.050781 C 72.035156 82.113281 72.792969 81.355469 73.730469 81.355469 C 74.664062 81.355469 75.421875 82.113281 75.421875 83.050781 Z M 75.421875 83.050781 "/>
<path style=" stroke:none;fill-rule:nonzero;fill:rgb(52.54902%,59.215686%,79.607843%);fill-opacity:1;" d="M 65.253906 77.964844 C 65.253906 78.902344 64.496094 79.660156 63.558594 79.660156 C 62.625 79.660156 61.863281 78.902344 61.863281 77.964844 C 61.863281 77.03125 62.625 76.269531 63.558594 76.269531 C 64.496094 76.269531 65.253906 77.03125 65.253906 77.964844 Z M 65.253906 77.964844 "/>
<path style=" stroke:none;fill-rule:nonzero;fill:rgb(52.54902%,59.215686%,79.607843%);fill-opacity:1;" d="M 68.644531 83.050781 C 68.644531 83.988281 67.886719 84.746094 66.949219 84.746094 C 66.011719 84.746094 65.253906 83.988281 65.253906 83.050781 C 65.253906 82.113281 66.011719 81.355469 66.949219 81.355469 C 67.886719 81.355469 68.644531 82.113281 68.644531 83.050781 Z M 68.644531 83.050781 "/>
<path style=" stroke:none;fill-rule:nonzero;fill:rgb(52.54902%,59.215686%,79.607843%);fill-opacity:1;" d="M 58.472656 77.964844 C 58.472656 78.902344 57.714844 79.660156 56.78125 79.660156 C 55.84375 79.660156 55.085938 78.902344 55.085938 77.964844 C 55.085938 77.03125 55.84375 76.269531 56.78125 76.269531 C 57.714844 76.269531 58.472656 77.03125 58.472656 77.964844 Z M 58.472656 77.964844 "/>
<path style=" stroke:none;fill-rule:nonzero;fill:rgb(52.54902%,59.215686%,79.607843%);fill-opacity:1;" d="M 61.863281 83.050781 C 61.863281 83.988281 61.105469 84.746094 60.167969 84.746094 C 59.234375 84.746094 58.472656 83.988281 58.472656 83.050781 C 58.472656 82.113281 59.234375 81.355469 60.167969 81.355469 C 61.105469 81.355469 61.863281 82.113281 61.863281 83.050781 Z M 61.863281 83.050781 "/>
<path style=" stroke:none;fill-rule:nonzero;fill:rgb(28.235294%,62.745098%,86.27451%);fill-opacity:1;" d="M 90.753906 81.542969 C 90.667969 74.871094 85.394531 69.492188 78.890625 69.492188 C 74.539062 69.492188 70.746094 71.910156 68.679688 75.5 C 67.964844 75.261719 67.207031 75.128906 66.414062 75.128906 C 62.917969 75.128906 60 77.65625 59.28125 81.035156 C 56.308594 82.5 54.238281 85.621094 54.238281 89.222656 C 54.238281 94.21875 58.207031 98.304688 63.0625 98.304688 L 81.328125 98.304688 C 81.429688 98.304688 81.527344 98.292969 81.632812 98.289062 C 81.734375 98.292969 81.832031 98.304688 81.9375 98.304688 L 89.242188 98.304688 C 93.761719 98.304688 97.460938 94.5 97.460938 89.847656 C 97.457031 85.730469 94.554688 82.28125 90.753906 81.542969 Z M 90.753906 81.542969 "/>
<path style=" stroke:none;fill-rule:nonzero;fill:rgb(69.411765%,82.745098%,93.72549%);fill-opacity:1;" d="M 89.238281 100 L 81.933594 100 C 81.828125 100 81.71875 99.992188 81.617188 99.988281 C 81.535156 99.992188 81.433594 100 81.324219 100 L 63.0625 100 C 57.261719 100 52.542969 95.164062 52.542969 89.222656 C 52.542969 85.390625 54.589844 81.8125 57.824219 79.898438 C 58.988281 76.109375 62.476562 73.433594 66.410156 73.433594 C 66.910156 73.433594 67.414062 73.476562 67.910156 73.5625 C 70.445312 69.976562 74.542969 67.796875 78.890625 67.796875 C 85.84375 67.796875 91.644531 73.261719 92.371094 80.222656 C 96.371094 81.589844 99.152344 85.441406 99.152344 89.847656 C 99.152344 95.445312 94.707031 100 89.238281 100 Z M 81.550781 96.59375 L 81.863281 96.605469 L 89.238281 96.609375 C 92.835938 96.609375 95.761719 93.578125 95.761719 89.847656 C 95.761719 86.601562 93.519531 83.808594 90.429688 83.207031 L 89.078125 82.945312 L 89.058594 81.566406 C 88.984375 75.84375 84.425781 71.1875 78.890625 71.1875 C 75.273438 71.1875 72.003906 73.117188 70.148438 76.347656 L 69.457031 77.550781 L 68.140625 77.109375 C 67.578125 76.921875 66.996094 76.824219 66.410156 76.824219 C 63.800781 76.824219 61.5 78.742188 60.9375 81.386719 L 60.765625 82.191406 L 60.027344 82.554688 C 57.539062 83.78125 55.933594 86.398438 55.933594 89.222656 C 55.933594 93.296875 59.132812 96.609375 63.0625 96.609375 Z M 81.550781 96.59375 "/>
</g>
</svg>
<!-- iconic normalized -->