<?xml version="1.0" encoding="UTF-8"?>
<svg xmlns="http://www.w3.org/2000/svg" xmlns:xlink="http://www.w3.org/1999/xlink" width="100px" height="100px" viewBox="0 0 100 100" version="1.1">
<g id="surface1">
<path style=" stroke:none;fill-rule:nonzero;fill:rgb(32.941176%,36.862745%,45.098039%);fill-opacity:1;" d="M 60.003906 98.335938 L 17.296875 98.335938 C 14.105469 98.335938 11.523438 95.75 11.523438 92.5625 L 11.523438 5.773438 C 11.523438 2.585938 14.109375 0 17.296875 0 L 60.003906 0 C 63.191406 0 65.777344 2.585938 65.777344 5.773438 L 65.777344 92.5625 C 65.777344 95.75 63.191406 98.335938 60.003906 98.335938 Z M 60.003906 98.335938 "/>
<path style=" stroke:none;fill-rule:nonzero;fill:rgb(52.54902%,59.215686%,79.607843%);fill-opacity:1;" d="M 11.523438 10.171875 L 65.777344 10.171875 L 65.777344 77.992188 L 11.523438 77.992188 Z M 11.523438 10.171875 "/>
<path style=" stroke:none;fill-rule:nonzero;fill:rgb(19.607843%,22.745098%,27.058824%);fill-opacity:1;" d="M 43.734375 88.164062 C 43.734375 90.972656 41.457031 93.25 38.648438 93.25 C 35.839844 93.25 33.5625 90.972656 33.5625 88.164062 C 33.5625 85.355469 35.839844 83.078125 38.648438 83.078125 C 41.457031 83.078125 43.734375 85.355469 43.734375 88.164062 Z M 43.734375 88.164062 "/>
<path style=" stroke:none;fill-rule:nonzero;fill:rgb(19.607843%,22.745098%,27.058824%);fill-opacity:1;" d="M 38.648438 6.78125 L 31.867188 6.78125 C 30.929688 6.78125 30.171875 6.023438 30.171875 5.085938 C 30.171875 4.148438 30.929688 3.390625 31.867188 3.390625 L 38.648438 3.390625 C 39.585938 3.390625 40.34375 4.148438 40.34375 5.085938 C 40.34375 6.023438 39.585938 6.78125 38.648438 6.78125 Z M 38.648438 6.78125 "/>
<path style=" stroke:none;fill-rule:nonzero;fill:rgb(19.607843%,22.745098%,27.058824%);fill-opacity:1;" d="M 45.429688 6.78125 L 43.734375 6.78125 C 42.796875 6.78125 42.039062 6.023438 42.039062 5.085938 C 42.039062 4.148438 42.796875 3.390625 43.734375 3.390625 L 45.429688 3.390625 C 46.371094 3.390625 47.128906 4.148438 47.128906 5.085938 C 47.128906 6.023438 46.371094 6.78125 45.429688 6.78125 Z M 45.429688 6.78125 "/>
<path style=" stroke:none;fill-rule:nonzero;fill:rgb(74.117647%,76.470588%,78.039216%);fill-opacity:1;" d="M 88.480469 77.699219 L 86.03125 77.226562 C 82.398438 76.53125 80.734375 72.285156 82.921875 69.300781 L 84.457031 67.207031 L 81.136719 63.886719 L 79.074219 65.285156 C 76.011719 67.359375 71.832031 65.535156 71.269531 61.882812 L 70.875 59.3125 L 66.179688 59.3125 L 65.570312 62.472656 C 64.886719 66.027344 60.792969 67.722656 57.796875 65.695312 L 55.132812 63.886719 L 51.8125 67.207031 L 53.347656 69.304688 C 55.535156 72.289062 53.871094 76.53125 50.238281 77.230469 L 47.789062 77.703125 L 47.789062 82.394531 L 50.359375 82.792969 C 54.015625 83.355469 55.839844 87.535156 53.761719 90.597656 L 52.363281 92.660156 L 55.683594 95.980469 L 57.78125 94.441406 C 60.761719 92.253906 65.007812 93.921875 65.707031 97.554688 L 66.175781 100 L 70.871094 100 L 71.148438 98.195312 C 71.726562 94.457031 76.058594 92.660156 79.109375 94.898438 L 80.582031 95.980469 L 83.902344 92.660156 L 82.503906 90.597656 C 80.425781 87.535156 82.25 83.355469 85.90625 82.792969 L 88.476562 82.394531 L 88.476562 77.699219 Z M 88.480469 77.699219 "/>
<path style=" stroke:none;fill-rule:nonzero;fill:rgb(100%,100%,100%);fill-opacity:1;" d="M 74.914062 79.65625 C 74.914062 83.398438 71.878906 86.4375 68.132812 86.4375 C 64.386719 86.4375 61.351562 83.398438 61.351562 79.65625 C 61.351562 75.910156 64.386719 72.871094 68.132812 72.871094 C 71.878906 72.871094 74.914062 75.910156 74.914062 79.65625 Z M 74.914062 79.65625 "/>
<path style=" stroke:none;fill-rule:nonzero;fill:rgb(92.54902%,94.117647%,94.509804%);fill-opacity:1;" d="M 68.132812 88.132812 C 63.460938 88.132812 59.65625 84.328125 59.65625 79.65625 C 59.65625 74.980469 63.460938 71.175781 68.132812 71.175781 C 72.808594 71.175781 76.609375 74.980469 76.609375 79.65625 C 76.609375 84.328125 72.804688 88.132812 68.132812 88.132812 Z M 68.132812 74.566406 C 65.328125 74.566406 63.046875 76.851562 63.046875 79.65625 C 63.046875 82.457031 65.328125 84.742188 68.132812 84.742188 C 70.9375 84.742188 73.21875 82.457031 73.21875 79.65625 C 73.21875 76.851562 70.9375 74.566406 68.132812 74.566406 Z M 68.132812 74.566406 "/>
</g>
</svg>
<!-- iconic normalized -->