<?xml version="1.0" encoding="UTF-8"?>
<svg xmlns="http://www.w3.org/2000/svg" xmlns:xlink="http://www.w3.org/1999/xlink" width="100px" height="100px" viewBox="0 0 100 100" version="1.1">
<g id="surface1">
<path style=" stroke:none;fill-rule:nonzero;fill:rgb(41.176471%,73.72549%,27.058824%);fill-opacity:1;" d="M 96.550781 29.667969 C 96.550781 14.457031 84.175781 2.082031 68.964844 2.082031 L 27.585938 2.082031 C 12.375 2.082031 0 14.457031 0 29.667969 L 0 53.804688 C 0 68.433594 11.457031 80.40625 25.863281 81.304688 L 25.863281 74.496094 C 25.863281 73.542969 26.632812 72.769531 27.585938 72.769531 C 28.539062 72.769531 29.308594 73.542969 29.308594 74.496094 L 29.308594 97.917969 L 31.652344 95.574219 C 40.800781 86.429688 52.960938 81.390625 65.894531 81.390625 L 68.964844 81.390625 C 84.175781 81.390625 96.550781 69.015625 96.550781 53.804688 Z M 96.550781 29.667969 "/>
<path style=" stroke:none;fill-rule:nonzero;fill:rgb(100%,100%,100%);fill-opacity:1;" d="M 97.941406 81.847656 L 97.753906 82.128906 C 85.476562 100.882812 65.386719 100.882812 53.113281 82.128906 L 53.296875 81.847656 C 65.574219 63.097656 85.664062 63.097656 97.941406 81.847656 Z M 97.941406 81.847656 "/>
<path style=" stroke:none;fill-rule:nonzero;fill:rgb(33.333333%,37.647059%,50.196078%);fill-opacity:1;" d="M 85.308594 77.914062 C 85.308594 83.539062 80.746094 88.101562 75.117188 88.101562 C 69.492188 88.101562 64.929688 83.539062 64.929688 77.914062 C 64.929688 72.289062 69.492188 67.726562 75.117188 67.726562 C 80.746094 67.726562 85.308594 72.289062 85.308594 77.914062 Z M 85.308594 77.914062 "/>
<path style=" stroke:none;fill-rule:nonzero;fill:rgb(69.411765%,82.745098%,93.72549%);fill-opacity:1;" d="M 75.433594 97.917969 C 66.375 97.917969 57.9375 92.648438 51.671875 83.074219 L 51.054688 82.132812 L 51.855469 80.90625 C 58.121094 71.335938 66.5625 66.0625 75.621094 66.0625 C 84.675781 66.0625 93.117188 71.335938 99.382812 80.90625 L 100 81.847656 L 99.199219 83.074219 C 92.929688 92.648438 84.492188 97.917969 75.433594 97.917969 Z M 55.1875 82.125 C 60.714844 90.097656 67.867188 94.46875 75.433594 94.46875 C 83.082031 94.46875 90.3125 90 95.867188 81.855469 C 90.339844 73.882812 83.183594 69.507812 75.617188 69.507812 C 67.96875 69.507812 60.738281 73.980469 55.1875 82.125 Z M 55.1875 82.125 "/>
</g>
</svg>
<!-- iconic normalized -->