<?xml version="1.0" encoding="UTF-8"?>
<svg xmlns="http://www.w3.org/2000/svg" xmlns:xlink="http://www.w3.org/1999/xlink" width="100px" height="100px" viewBox="0 0 100 100" version="1.1">
<g id="surface1">
<path style=" stroke:none;fill-rule:nonzero;fill:rgb(41.176471%,73.72549%,27.058824%);fill-opacity:1;" d="M 94.914062 30.011719 C 94.914062 15.058594 82.75 2.894531 67.796875 2.894531 L 27.117188 2.894531 C 12.167969 2.894531 0 15.058594 0 30.011719 L 0 53.742188 C 0 68.121094 11.261719 79.890625 25.421875 80.773438 L 25.421875 74.078125 C 25.421875 73.140625 26.183594 72.382812 27.117188 72.382812 C 28.054688 72.382812 28.8125 73.140625 28.8125 74.078125 L 28.8125 97.105469 L 31.117188 94.804688 C 40.109375 85.8125 52.0625 80.859375 64.777344 80.859375 L 67.796875 80.859375 C 82.75 80.859375 94.914062 68.691406 94.914062 53.742188 Z M 94.914062 30.011719 "/>
<path style=" stroke:none;fill-rule:nonzero;fill:rgb(28.235294%,62.745098%,86.27451%);fill-opacity:1;" d="M 91.601562 75.988281 C 91.515625 69.320312 86.242188 63.9375 79.738281 63.9375 C 75.386719 63.9375 71.59375 66.351562 69.527344 69.945312 C 68.8125 69.707031 68.050781 69.574219 67.261719 69.574219 C 63.765625 69.574219 60.847656 72.101562 60.128906 75.476562 C 57.15625 76.945312 55.085938 80.0625 55.085938 83.667969 C 55.085938 88.660156 59.058594 92.75 63.914062 92.75 L 82.175781 92.75 C 82.28125 92.75 82.378906 92.738281 82.480469 92.734375 C 82.582031 92.738281 82.683594 92.75 82.785156 92.75 L 90.089844 92.75 C 94.613281 92.75 98.308594 88.945312 98.308594 84.292969 C 98.304688 80.175781 95.402344 76.726562 91.601562 75.988281 Z M 91.601562 75.988281 "/>
<path style=" stroke:none;fill-rule:nonzero;fill:rgb(69.411765%,82.745098%,93.72549%);fill-opacity:1;" d="M 90.085938 94.445312 L 82.78125 94.445312 C 82.675781 94.445312 82.566406 94.4375 82.460938 94.433594 C 82.382812 94.4375 82.277344 94.445312 82.171875 94.445312 L 63.910156 94.445312 C 58.109375 94.445312 53.390625 89.609375 53.390625 83.667969 C 53.390625 79.835938 55.4375 76.257812 58.671875 74.34375 C 59.832031 70.554688 63.324219 67.878906 67.257812 67.878906 C 67.757812 67.878906 68.261719 67.921875 68.757812 68.007812 C 71.289062 64.421875 75.390625 62.242188 79.738281 62.242188 C 86.691406 62.242188 92.488281 67.707031 93.21875 74.667969 C 97.214844 76.035156 100 79.886719 100 84.292969 C 100 89.890625 95.550781 94.445312 90.085938 94.445312 Z M 82.398438 91.039062 L 82.710938 91.050781 L 90.089844 91.054688 C 93.683594 91.054688 96.613281 88.023438 96.613281 84.292969 C 96.613281 81.046875 94.371094 78.253906 91.28125 77.652344 L 89.925781 77.390625 L 89.90625 76.011719 C 89.832031 70.289062 85.273438 65.632812 79.738281 65.632812 C 76.121094 65.632812 72.851562 67.5625 70.996094 70.792969 L 70.304688 72 L 68.988281 71.558594 C 68.421875 71.367188 67.84375 71.269531 67.257812 71.269531 C 64.648438 71.269531 62.347656 73.191406 61.785156 75.832031 L 61.613281 76.640625 L 60.875 77 C 58.386719 78.230469 56.78125 80.847656 56.78125 83.671875 C 56.78125 87.742188 59.980469 91.058594 63.910156 91.058594 Z M 82.398438 91.039062 "/>
</g>
</svg>
<!-- iconic normalized -->