<?xml version="1.0" encoding="UTF-8"?>
<svg xmlns="http://www.w3.org/2000/svg" xmlns:xlink="http://www.w3.org/1999/xlink" width="100px" height="100px" viewBox="0 0 100 100" version="1.1">
<g id="surface1">
<path style=" stroke:none;fill-rule:nonzero;fill:rgb(52.54902%,59.215686%,79.607843%);fill-opacity:1;" d="M 90.789062 75.054688 L 74.601562 66.960938 C 72.507812 65.914062 71.1875 63.777344 71.1875 61.4375 L 71.1875 55.085938 C 71.640625 54.566406 72.164062 53.902344 72.71875 53.117188 C 74.925781 50 76.59375 46.570312 77.75 42.972656 C 79.828125 42.332031 81.355469 40.414062 81.355469 38.136719 L 81.355469 31.355469 C 81.355469 29.863281 80.691406 28.53125 79.660156 27.597656 L 79.660156 17.796875 C 79.660156 17.796875 81.671875 2.542969 61.015625 2.542969 C 40.359375 2.542969 42.371094 17.796875 42.371094 17.796875 L 42.371094 27.597656 C 41.339844 28.53125 40.679688 29.863281 40.679688 31.355469 L 40.679688 38.136719 C 40.679688 39.921875 41.617188 41.492188 43.023438 42.402344 C 44.714844 49.777344 49.152344 55.085938 49.152344 55.085938 L 49.152344 61.28125 C 49.152344 63.539062 47.917969 65.617188 45.933594 66.699219 L 30.8125 74.949219 C 26.445312 77.332031 23.730469 81.910156 23.730469 86.882812 L 23.730469 92.371094 L 98.304688 92.371094 L 98.304688 87.214844 C 98.304688 82.066406 95.394531 77.359375 90.789062 75.054688 Z M 90.789062 75.054688 "/>
<path style=" stroke:none;fill-rule:nonzero;fill:rgb(33.333333%,37.647059%,50.196078%);fill-opacity:1;" d="M 30.8125 74.949219 L 40.890625 69.453125 C 40.832031 69.398438 40.882812 69.378906 41 69.390625 L 45.933594 66.703125 C 47.917969 65.617188 49.152344 63.539062 49.152344 61.28125 L 49.152344 55.085938 C 49.152344 55.085938 47.351562 52.921875 45.605469 49.453125 C 45.605469 49.449219 45.605469 49.449219 45.605469 49.449219 C 45.375 48.992188 45.152344 48.511719 44.929688 48.015625 C 44.898438 47.949219 44.867188 47.882812 44.835938 47.8125 C 44.613281 47.296875 44.390625 46.769531 44.183594 46.210938 C 44.167969 46.175781 44.15625 46.136719 44.144531 46.101562 C 43.960938 45.609375 43.789062 45.101562 43.625 44.582031 C 43.582031 44.441406 43.539062 44.300781 43.496094 44.15625 C 43.324219 43.585938 43.164062 43 43.023438 42.398438 C 41.617188 41.492188 40.679688 39.921875 40.679688 38.136719 L 40.679688 31.355469 C 40.679688 29.863281 41.339844 28.53125 42.371094 27.597656 L 42.371094 18.027344 C 39.976562 16.167969 36.265625 14.40625 30.507812 14.40625 C 14.300781 14.40625 13.558594 27.964844 13.558594 27.964844 L 13.558594 36.433594 C 12.667969 37.238281 11.863281 38.386719 11.863281 39.675781 L 11.863281 45.53125 C 11.863281 47.078125 12.675781 48.433594 13.886719 49.21875 C 15.351562 55.585938 20.261719 60.171875 20.261719 60.171875 L 20.261719 65.523438 C 20.261719 67.472656 19.195312 69.269531 17.480469 70.203125 L 6.117188 77.324219 C 2.347656 79.382812 0 83.335938 0 87.632812 L 0 92.371094 L 23.730469 92.371094 L 23.730469 86.882812 C 23.730469 81.910156 26.445312 77.332031 30.8125 74.949219 Z M 30.8125 74.949219 "/>
<path style=" stroke:none;fill-rule:nonzero;fill:rgb(44.313725%,76.470588%,52.54902%);fill-opacity:1;" d="M 100 77.117188 C 100 88.351562 90.894531 97.457031 79.660156 97.457031 C 68.429688 97.457031 59.320312 88.351562 59.320312 77.117188 C 59.320312 65.886719 68.429688 56.78125 79.660156 56.78125 C 90.894531 56.78125 100 65.886719 100 77.117188 Z M 100 77.117188 "/>
<path style=" stroke:none;fill-rule:nonzero;fill:rgb(100%,100%,100%);fill-opacity:1;" d="M 89.832031 75.421875 L 81.355469 75.421875 L 81.355469 66.949219 C 81.355469 66.011719 80.597656 65.253906 79.660156 65.253906 C 78.726562 65.253906 77.964844 66.011719 77.964844 66.949219 L 77.964844 75.421875 L 69.492188 75.421875 C 68.554688 75.421875 67.796875 76.183594 67.796875 77.117188 C 67.796875 78.054688 68.554688 78.8125 69.492188 78.8125 L 77.964844 78.8125 L 77.964844 87.289062 C 77.964844 88.222656 78.726562 88.984375 79.660156 88.984375 C 80.597656 88.984375 81.355469 88.222656 81.355469 87.289062 L 81.355469 78.8125 L 89.832031 78.8125 C 90.765625 78.8125 91.527344 78.054688 91.527344 77.117188 C 91.527344 76.183594 90.765625 75.421875 89.832031 75.421875 Z M 89.832031 75.421875 "/>
</g>
</svg>
<!-- iconic normalized -->