<?xml version="1.0" encoding="UTF-8"?>
<svg xmlns="http://www.w3.org/2000/svg" xmlns:xlink="http://www.w3.org/1999/xlink" width="100px" height="100px" viewBox="0 0 100 100" version="1.1">
<g id="surface1">
<path style=" stroke:none;fill-rule:nonzero;fill:rgb(92.54902%,94.117647%,94.509804%);fill-opacity:1;" d="M 19.46875 77.359375 L 34.914062 70.734375 C 35.753906 70.316406 36.433594 68.960938 36.914062 68 C 37.347656 67.128906 36.699219 66.101562 35.726562 66.101562 L 24.804688 66.101562 C 24.804688 66.101562 20.855469 65.714844 17.808594 64.40625 C 16.023438 63.640625 15.410156 62.628906 16.527344 61.039062 C 19.789062 56.398438 26.53125 45.460938 26.75 34.167969 C 26.75 34.167969 27.125 16.78125 44.277344 16.640625 C 54.28125 16.726562 59.007812 22.613281 61.207031 27.507812 C 62.4375 30.238281 62.960938 33.214844 63.160156 36.199219 C 63.871094 46.964844 69.351562 56.808594 71.90625 61.015625 C 72.773438 62.445312 72.355469 64.34375 70.921875 65.203125 C 68.574219 66.605469 65.695312 66.101562 65.695312 66.101562 L 54.699219 66.101562 C 53.625 66.101562 53.152344 67.601562 53.996094 68.269531 C 54.683594 68.8125 55.339844 69.300781 55.691406 69.496094 L 68.539062 77.269531 C 70.394531 78.28125 71.875 79.78125 72.882812 81.554688 C 65.171875 87.789062 55.363281 91.527344 44.675781 91.527344 C 33.535156 91.527344 23.347656 87.460938 15.496094 80.742188 C 16.523438 79.34375 17.859375 78.164062 19.46875 77.359375 Z M 19.46875 77.359375 "/>
<path style=" stroke:none;fill-rule:nonzero;fill:rgb(33.333333%,37.647059%,50.196078%);fill-opacity:1;" d="M 44.914062 1.695312 C 20.109375 1.695312 0 21.804688 0 46.609375 C 0 60.207031 6.050781 72.382812 15.597656 80.621094 C 16.609375 79.277344 17.910156 78.140625 19.472656 77.359375 L 34.917969 70.734375 C 35.753906 70.316406 36.4375 68.960938 36.914062 68 C 37.347656 67.128906 36.703125 66.101562 35.730469 66.101562 L 24.804688 66.101562 C 24.804688 66.101562 20.855469 65.714844 17.808594 64.40625 C 16.027344 63.640625 15.410156 62.628906 16.527344 61.039062 C 19.789062 56.398438 26.535156 45.460938 26.753906 34.167969 C 26.753906 34.167969 27.128906 16.78125 44.277344 16.640625 C 54.28125 16.726562 59.007812 22.613281 61.210938 27.507812 C 62.4375 30.238281 62.964844 33.214844 63.160156 36.199219 C 63.871094 46.964844 69.355469 56.808594 71.910156 61.015625 C 72.773438 62.445312 72.355469 64.34375 70.921875 65.203125 C 68.574219 66.605469 65.695312 66.101562 65.695312 66.101562 L 54.699219 66.101562 C 53.625 66.101562 53.152344 67.601562 53.996094 68.269531 C 54.683594 68.8125 55.339844 69.300781 55.691406 69.496094 L 68.539062 77.269531 C 70.382812 78.273438 71.847656 79.757812 72.855469 81.515625 C 72.898438 81.558594 72.949219 81.597656 72.988281 81.640625 C 83.25 73.410156 89.832031 60.785156 89.832031 46.609375 C 89.832031 21.804688 69.722656 1.695312 44.914062 1.695312 Z M 44.914062 1.695312 "/>
<path style=" stroke:none;fill-rule:nonzero;fill:rgb(93.72549%,76.862745%,10.196078%);fill-opacity:1;" d="M 97.898438 98.304688 L 57.746094 98.304688 C 56.128906 98.304688 55.117188 96.550781 55.933594 95.152344 L 76.011719 60.734375 C 76.820312 59.347656 78.824219 59.347656 79.632812 60.734375 L 99.710938 95.152344 C 100.527344 96.550781 99.519531 98.304688 97.898438 98.304688 Z M 97.898438 98.304688 "/>
<path style=" stroke:none;fill-rule:nonzero;fill:rgb(100%,100%,100%);fill-opacity:1;" d="M 77.964844 86.441406 C 77.03125 86.441406 76.269531 85.679688 76.269531 84.746094 L 76.269531 71.1875 C 76.269531 70.25 77.03125 69.492188 77.964844 69.492188 C 78.902344 69.492188 79.660156 70.25 79.660156 71.1875 L 79.660156 84.746094 C 79.660156 85.679688 78.902344 86.441406 77.964844 86.441406 Z M 77.964844 86.441406 "/>
<path style=" stroke:none;fill-rule:nonzero;fill:rgb(100%,100%,100%);fill-opacity:1;" d="M 77.964844 93.21875 C 77.527344 93.21875 77.085938 93.035156 76.761719 92.730469 C 76.457031 92.40625 76.269531 91.964844 76.269531 91.527344 C 76.269531 91.085938 76.457031 90.644531 76.761719 90.320312 C 77.40625 89.695312 78.527344 89.695312 79.167969 90.320312 C 79.472656 90.644531 79.660156 91.085938 79.660156 91.527344 C 79.660156 91.964844 79.472656 92.40625 79.167969 92.730469 C 78.847656 93.035156 78.421875 93.21875 77.964844 93.21875 Z M 77.964844 93.21875 "/>
</g>
</svg>
<!-- iconic normalized -->