<?xml version="1.0" encoding="UTF-8"?>
<svg xmlns="http://www.w3.org/2000/svg" xmlns:xlink="http://www.w3.org/1999/xlink" width="100px" height="100px" viewBox="0 0 100 100" version="1.1">
<g id="surface1">
<path style=" stroke:none;fill-rule:nonzero;fill:rgb(52.54902%,59.215686%,79.607843%);fill-opacity:1;" d="M 1.667969 6.667969 L 95 6.667969 L 95 80 L 1.667969 80 Z M 1.667969 6.667969 "/>
<path style=" stroke:none;fill-rule:nonzero;fill:rgb(32.54902%,36.470588%,45.098039%);fill-opacity:1;" d="M 96.667969 81.667969 L 0 81.667969 L 0 5 L 96.667969 5 Z M 3.332031 78.332031 L 93.332031 78.332031 L 93.332031 8.332031 L 3.332031 8.332031 Z M 3.332031 78.332031 "/>
<path style=" stroke:none;fill-rule:nonzero;fill:rgb(100%,100%,100%);fill-opacity:1;" d="M 41.667969 55 L 41.667969 31.667969 L 60 43.332031 Z M 41.667969 55 "/>
<path style=" stroke:none;fill-rule:nonzero;fill:rgb(40.784314%,45.490196%,57.254902%);fill-opacity:1;" d="M 1.667969 6.667969 L 18.332031 6.667969 L 18.332031 25 L 1.667969 25 Z M 1.667969 6.667969 "/>
<path style=" stroke:none;fill-rule:nonzero;fill:rgb(32.54902%,36.470588%,45.098039%);fill-opacity:1;" d="M 20 26.667969 L 0 26.667969 L 0 5 L 20 5 Z M 3.332031 23.332031 L 16.667969 23.332031 L 16.667969 8.332031 L 3.332031 8.332031 Z M 3.332031 23.332031 "/>
<path style=" stroke:none;fill-rule:nonzero;fill:rgb(40.784314%,45.490196%,57.254902%);fill-opacity:1;" d="M 1.667969 25 L 18.332031 25 L 18.332031 43.332031 L 1.667969 43.332031 Z M 1.667969 25 "/>
<path style=" stroke:none;fill-rule:nonzero;fill:rgb(32.54902%,36.470588%,45.098039%);fill-opacity:1;" d="M 20 45 L 0 45 L 0 23.332031 L 20 23.332031 Z M 3.332031 41.667969 L 16.667969 41.667969 L 16.667969 26.667969 L 3.332031 26.667969 Z M 3.332031 41.667969 "/>
<path style=" stroke:none;fill-rule:nonzero;fill:rgb(40.784314%,45.490196%,57.254902%);fill-opacity:1;" d="M 1.667969 43.332031 L 18.332031 43.332031 L 18.332031 61.667969 L 1.667969 61.667969 Z M 1.667969 43.332031 "/>
<path style=" stroke:none;fill-rule:nonzero;fill:rgb(32.54902%,36.470588%,45.098039%);fill-opacity:1;" d="M 20 63.332031 L 0 63.332031 L 0 41.667969 L 20 41.667969 Z M 3.332031 60 L 16.667969 60 L 16.667969 45 L 3.332031 45 Z M 3.332031 60 "/>
<path style=" stroke:none;fill-rule:nonzero;fill:rgb(40.784314%,45.490196%,57.254902%);fill-opacity:1;" d="M 1.667969 61.667969 L 18.332031 61.667969 L 18.332031 80 L 1.667969 80 Z M 1.667969 61.667969 "/>
<path style=" stroke:none;fill-rule:nonzero;fill:rgb(32.54902%,36.470588%,45.098039%);fill-opacity:1;" d="M 20 81.667969 L 0 81.667969 L 0 60 L 20 60 Z M 3.332031 78.332031 L 16.667969 78.332031 L 16.667969 63.332031 L 3.332031 63.332031 Z M 3.332031 78.332031 "/>
<path style=" stroke:none;fill-rule:nonzero;fill:rgb(40.784314%,45.490196%,57.254902%);fill-opacity:1;" d="M 78.332031 6.667969 L 95 6.667969 L 95 25 L 78.332031 25 Z M 78.332031 6.667969 "/>
<path style=" stroke:none;fill-rule:nonzero;fill:rgb(32.54902%,36.470588%,45.098039%);fill-opacity:1;" d="M 96.667969 26.667969 L 76.667969 26.667969 L 76.667969 5 L 96.667969 5 Z M 80 23.332031 L 93.332031 23.332031 L 93.332031 8.332031 L 80 8.332031 Z M 80 23.332031 "/>
<path style=" stroke:none;fill-rule:nonzero;fill:rgb(40.784314%,45.490196%,57.254902%);fill-opacity:1;" d="M 78.332031 25 L 95 25 L 95 43.332031 L 78.332031 43.332031 Z M 78.332031 25 "/>
<path style=" stroke:none;fill-rule:nonzero;fill:rgb(32.54902%,36.470588%,45.098039%);fill-opacity:1;" d="M 96.667969 45 L 76.667969 45 L 76.667969 23.332031 L 96.667969 23.332031 Z M 80 41.667969 L 93.332031 41.667969 L 93.332031 26.667969 L 80 26.667969 Z M 80 41.667969 "/>
<path style=" stroke:none;fill-rule:nonzero;fill:rgb(40.784314%,45.490196%,57.254902%);fill-opacity:1;" d="M 78.332031 43.332031 L 95 43.332031 L 95 61.667969 L 78.332031 61.667969 Z M 78.332031 43.332031 "/>
<path style=" stroke:none;fill-rule:nonzero;fill:rgb(32.54902%,36.470588%,45.098039%);fill-opacity:1;" d="M 96.667969 63.332031 L 76.667969 63.332031 L 76.667969 41.667969 L 96.667969 41.667969 Z M 80 60 L 93.332031 60 L 93.332031 45 L 80 45 Z M 80 60 "/>
<path style=" stroke:none;fill-rule:nonzero;fill:rgb(40.784314%,45.490196%,57.254902%);fill-opacity:1;" d="M 78.332031 61.667969 L 95 61.667969 L 95 80 L 78.332031 80 Z M 78.332031 61.667969 "/>
<path style=" stroke:none;fill-rule:nonzero;fill:rgb(32.54902%,36.470588%,45.098039%);fill-opacity:1;" d="M 96.667969 81.667969 L 76.667969 81.667969 L 76.667969 60 L 96.667969 60 Z M 80 78.332031 L 93.332031 78.332031 L 93.332031 63.332031 L 80 63.332031 Z M 80 78.332031 "/>
<path style=" stroke:none;fill-rule:nonzero;fill:rgb(12.941176%,68.235294%,36.862745%);fill-opacity:1;" d="M 63.332031 58.332031 L 100 58.332031 L 100 95 L 63.332031 95 Z M 63.332031 58.332031 "/>
<path style=" stroke:none;fill-rule:nonzero;fill:rgb(100%,100%,100%);fill-opacity:1;" d="M 80 60.976562 L 83.332031 60.976562 L 83.332031 87.644531 L 80 87.644531 Z M 80 60.976562 "/>
<path style=" stroke:none;fill-rule:nonzero;fill:rgb(100%,100%,100%);fill-opacity:1;" d="M 81.667969 90 L 70 78.820312 L 72.460938 76.464844 L 81.667969 85.285156 L 90.875 76.464844 L 93.332031 78.820312 Z M 81.667969 90 "/>
</g>
</svg>
<!-- iconic normalized -->