<?xml version="1.0" encoding="UTF-8"?>
<svg xmlns="http://www.w3.org/2000/svg" xmlns:xlink="http://www.w3.org/1999/xlink" width="100px" height="100px" viewBox="0 0 100 100" version="1.1">
<g id="surface1">
<path style=" stroke:none;fill-rule:nonzero;fill:rgb(14.901961%,72.54902%,60.392157%);fill-opacity:1;" d="M 50 0 C 50 0 38.503906 13.792969 12.070312 13.792969 L 12.070312 46.699219 C 12.070312 63.882812 19.53125 80.453125 33.042969 91.070312 C 37.824219 94.828125 43.460938 98.058594 50 100 C 56.539062 98.058594 62.175781 94.828125 66.957031 91.070312 C 80.46875 80.453125 87.929688 63.882812 87.929688 46.699219 L 87.929688 13.792969 C 61.496094 13.792969 50 0 50 0 Z M 50 0 "/>
<path style=" stroke:none;fill-rule:nonzero;fill:rgb(13.333333%,58.823529%,47.843137%);fill-opacity:1;" d="M 12.070312 13.792969 L 12.070312 46.699219 C 12.070312 63.882812 19.53125 80.453125 33.042969 91.070312 C 37.824219 94.828125 43.460938 98.058594 50 100 L 50 0 C 50 0 38.503906 13.792969 12.070312 13.792969 Z M 12.070312 13.792969 "/>
<path style=" stroke:none;fill-rule:nonzero;fill:rgb(7.843137%,62.745098%,52.156863%);fill-opacity:1;" d="M 50 89.070312 C 46.339844 87.632812 42.796875 85.578125 39.433594 82.9375 C 28.777344 74.558594 22.414062 61.015625 22.414062 46.699219 L 22.414062 23.496094 C 35.15625 21.871094 44.207031 17.4375 50 13.5 C 55.792969 17.4375 64.84375 21.871094 77.585938 23.496094 L 77.585938 46.699219 C 77.585938 61.015625 71.222656 74.558594 60.566406 82.9375 C 57.203125 85.578125 53.660156 87.632812 50 89.070312 Z M 50 89.070312 "/>
<path style=" stroke:none;fill-rule:nonzero;fill:rgb(14.901961%,72.54902%,60.392157%);fill-opacity:1;" d="M 22.414062 23.496094 L 22.414062 46.699219 C 22.414062 61.015625 28.777344 74.558594 39.433594 82.9375 C 42.796875 85.578125 46.339844 87.632812 50 89.070312 L 50 13.5 C 44.207031 17.4375 35.15625 21.871094 22.414062 23.496094 Z M 22.414062 23.496094 "/>
</g>
</svg>
<!-- iconic normalized -->