<?xml version="1.0" encoding="UTF-8"?>
<svg xmlns="http://www.w3.org/2000/svg" xmlns:xlink="http://www.w3.org/1999/xlink" width="100px" height="100px" viewBox="0 0 100 100" version="1.1">
<g id="surface1">
<path style=" stroke:none;fill-rule:nonzero;fill:rgb(5.490196%,60.392157%,65.490196%);fill-opacity:1;" d="M 75.863281 62.070312 C 75.863281 83.019531 58.878906 100 37.929688 100 C 16.980469 100 0 83.019531 0 62.070312 C 0 41.121094 16.980469 24.136719 37.929688 24.136719 C 58.878906 24.136719 75.863281 41.121094 75.863281 62.070312 Z M 75.863281 62.070312 "/>
<path style=" stroke:none;fill-rule:nonzero;fill:rgb(90.196078%,90.588235%,90.980392%);fill-opacity:1;" d="M 55.171875 62.070312 C 55.171875 71.589844 47.453125 79.308594 37.929688 79.308594 C 28.410156 79.308594 20.691406 71.589844 20.691406 62.070312 C 20.691406 52.546875 28.410156 44.828125 37.929688 44.828125 C 47.453125 44.828125 55.171875 52.546875 55.171875 62.070312 Z M 55.171875 62.070312 "/>
<path style=" stroke:none;fill-rule:nonzero;fill:rgb(40.392157%,72.54902%,80%);fill-opacity:1;" d="M 37.929688 27.585938 C 36.980469 27.585938 36.207031 28.355469 36.207031 29.308594 L 36.207031 36.207031 C 36.207031 37.160156 36.980469 37.929688 37.929688 37.929688 C 38.882812 37.929688 39.65625 37.160156 39.65625 36.207031 L 39.65625 29.308594 C 39.65625 28.355469 38.882812 27.585938 37.929688 27.585938 Z M 37.929688 27.585938 "/>
<path style=" stroke:none;fill-rule:nonzero;fill:rgb(40.392157%,72.54902%,80%);fill-opacity:1;" d="M 37.929688 86.207031 C 36.980469 86.207031 36.207031 86.976562 36.207031 87.929688 L 36.207031 94.828125 C 36.207031 95.78125 36.980469 96.550781 37.929688 96.550781 C 38.882812 96.550781 39.65625 95.78125 39.65625 94.828125 L 39.65625 87.929688 C 39.65625 86.976562 38.882812 86.207031 37.929688 86.207031 Z M 37.929688 86.207031 "/>
<path style=" stroke:none;fill-rule:nonzero;fill:rgb(40.392157%,72.54902%,80%);fill-opacity:1;" d="M 70.691406 60.34375 L 63.792969 60.34375 C 62.839844 60.34375 62.070312 61.117188 62.070312 62.070312 C 62.070312 63.023438 62.839844 63.792969 63.792969 63.792969 L 70.691406 63.792969 C 71.640625 63.792969 72.414062 63.023438 72.414062 62.070312 C 72.414062 61.117188 71.640625 60.34375 70.691406 60.34375 Z M 70.691406 60.34375 "/>
<path style=" stroke:none;fill-rule:nonzero;fill:rgb(40.392157%,72.54902%,80%);fill-opacity:1;" d="M 12.070312 63.792969 C 13.019531 63.792969 13.792969 63.023438 13.792969 62.070312 C 13.792969 61.117188 13.019531 60.34375 12.070312 60.34375 L 5.171875 60.34375 C 4.21875 60.34375 3.449219 61.117188 3.449219 62.070312 C 3.449219 63.023438 4.21875 63.792969 5.171875 63.792969 Z M 12.070312 63.792969 "/>
<path style=" stroke:none;fill-rule:nonzero;fill:rgb(40.392157%,72.54902%,80%);fill-opacity:1;" d="M 55 45 C 55.335938 45.339844 55.777344 45.507812 56.21875 45.507812 C 56.660156 45.507812 57.101562 45.339844 57.4375 45 L 62.3125 40.125 C 62.988281 39.453125 62.988281 38.363281 62.3125 37.6875 C 61.640625 37.015625 60.550781 37.015625 59.875 37.6875 L 55 42.5625 C 54.324219 43.234375 54.324219 44.328125 55 45 Z M 55 45 "/>
<path style=" stroke:none;fill-rule:nonzero;fill:rgb(40.392157%,72.54902%,80%);fill-opacity:1;" d="M 20.863281 79.136719 C 20.191406 78.460938 19.101562 78.460938 18.425781 79.136719 L 13.546875 84.011719 C 12.875 84.6875 12.875 85.777344 13.546875 86.449219 C 13.882812 86.785156 14.324219 86.957031 14.765625 86.957031 C 15.207031 86.957031 15.648438 86.785156 15.984375 86.449219 L 20.863281 81.574219 C 21.535156 80.902344 21.535156 79.808594 20.863281 79.136719 Z M 20.863281 79.136719 "/>
<path style=" stroke:none;fill-rule:nonzero;fill:rgb(40.392157%,72.54902%,80%);fill-opacity:1;" d="M 57.4375 79.136719 C 56.761719 78.460938 55.671875 78.460938 55 79.136719 C 54.324219 79.808594 54.324219 80.898438 55 81.574219 L 59.875 86.449219 C 60.210938 86.785156 60.652344 86.957031 61.09375 86.957031 C 61.535156 86.957031 61.976562 86.785156 62.3125 86.449219 C 62.988281 85.777344 62.988281 84.6875 62.3125 84.011719 Z M 57.4375 79.136719 "/>
<path style=" stroke:none;fill-rule:nonzero;fill:rgb(40.392157%,72.54902%,80%);fill-opacity:1;" d="M 18.425781 45 C 18.761719 45.339844 19.203125 45.507812 19.644531 45.507812 C 20.085938 45.507812 20.527344 45.339844 20.863281 45 C 21.539062 44.328125 21.539062 43.238281 20.863281 42.5625 L 15.984375 37.6875 C 15.3125 37.015625 14.222656 37.015625 13.546875 37.6875 C 12.875 38.363281 12.875 39.453125 13.546875 40.125 Z M 18.425781 45 "/>
<path style=" stroke:none;fill-rule:nonzero;fill:rgb(40.392157%,72.54902%,80%);fill-opacity:1;" d="M 50 41.164062 C 50.269531 41.324219 50.570312 41.398438 50.859375 41.398438 C 51.457031 41.398438 52.035156 41.089844 52.355469 40.535156 L 55.804688 34.5625 C 56.28125 33.734375 55.996094 32.683594 55.171875 32.207031 C 54.347656 31.730469 53.292969 32.011719 52.816406 32.839844 L 49.367188 38.808594 C 48.894531 39.632812 49.175781 40.691406 50 41.164062 Z M 50 41.164062 "/>
<path style=" stroke:none;fill-rule:nonzero;fill:rgb(40.392157%,72.54902%,80%);fill-opacity:1;" d="M 25.863281 82.972656 C 25.035156 82.496094 23.984375 82.777344 23.507812 83.601562 L 20.058594 89.574219 C 19.582031 90.402344 19.867188 91.457031 20.691406 91.929688 C 20.960938 92.089844 21.257812 92.160156 21.550781 92.160156 C 22.148438 92.160156 22.726562 91.851562 23.042969 91.300781 L 26.492188 85.328125 C 26.96875 84.503906 26.6875 83.449219 25.863281 82.972656 Z M 25.863281 82.972656 "/>
<path style=" stroke:none;fill-rule:nonzero;fill:rgb(40.392157%,72.54902%,80%);fill-opacity:1;" d="M 67.164062 76.957031 L 61.191406 73.507812 C 60.363281 73.03125 59.3125 73.316406 58.835938 74.136719 C 58.359375 74.964844 58.644531 76.015625 59.46875 76.492188 L 65.441406 79.941406 C 65.710938 80.097656 66.007812 80.171875 66.300781 80.171875 C 66.898438 80.171875 67.476562 79.863281 67.792969 79.308594 C 68.269531 78.484375 67.988281 77.429688 67.164062 76.957031 Z M 67.164062 76.957031 "/>
<path style=" stroke:none;fill-rule:nonzero;fill:rgb(40.392157%,72.54902%,80%);fill-opacity:1;" d="M 8.699219 47.183594 L 14.671875 50.632812 C 14.941406 50.789062 15.238281 50.863281 15.53125 50.863281 C 16.128906 50.863281 16.707031 50.550781 17.027344 50 C 17.5 49.175781 17.21875 48.121094 16.394531 47.644531 L 10.421875 44.195312 C 9.597656 43.71875 8.542969 44 8.066406 44.828125 C 7.589844 45.652344 7.875 46.707031 8.699219 47.183594 Z M 8.699219 47.183594 "/>
<path style=" stroke:none;fill-rule:nonzero;fill:rgb(40.392157%,72.54902%,80%);fill-opacity:1;" d="M 46.855469 28.761719 C 45.929688 28.515625 44.988281 29.0625 44.742188 29.980469 L 42.957031 36.640625 C 42.710938 37.558594 43.257812 38.507812 44.175781 38.753906 C 44.328125 38.792969 44.476562 38.8125 44.625 38.8125 C 45.382812 38.8125 46.082031 38.304688 46.289062 37.535156 L 48.074219 30.875 C 48.320312 29.953125 47.777344 29.007812 46.855469 28.761719 Z M 46.855469 28.761719 "/>
<path style=" stroke:none;fill-rule:nonzero;fill:rgb(40.392157%,72.54902%,80%);fill-opacity:1;" d="M 31.683594 85.382812 C 30.757812 85.132812 29.816406 85.683594 29.570312 86.601562 L 27.785156 93.265625 C 27.539062 94.183594 28.085938 95.128906 29.003906 95.375 C 29.15625 95.414062 29.304688 95.433594 29.453125 95.433594 C 30.210938 95.433594 30.910156 94.925781 31.117188 94.15625 L 32.898438 87.496094 C 33.148438 86.578125 32.601562 85.632812 31.683594 85.382812 Z M 31.683594 85.382812 "/>
<path style=" stroke:none;fill-rule:nonzero;fill:rgb(40.392157%,72.54902%,80%);fill-opacity:1;" d="M 70.019531 68.882812 L 63.355469 67.097656 C 62.4375 66.847656 61.492188 67.394531 61.246094 68.316406 C 61 69.234375 61.542969 70.179688 62.464844 70.425781 L 69.125 72.214844 C 69.273438 72.253906 69.425781 72.273438 69.574219 72.273438 C 70.332031 72.273438 71.03125 71.765625 71.234375 70.996094 C 71.484375 70.074219 70.941406 69.128906 70.019531 68.882812 Z M 70.019531 68.882812 "/>
<path style=" stroke:none;fill-rule:nonzero;fill:rgb(40.392157%,72.54902%,80%);fill-opacity:1;" d="M 5.84375 55.253906 L 12.503906 57.042969 C 12.652344 57.082031 12.804688 57.101562 12.953125 57.101562 C 13.710938 57.101562 14.410156 56.59375 14.617188 55.824219 C 14.863281 54.902344 14.316406 53.957031 13.398438 53.710938 L 6.734375 51.925781 C 5.820312 51.675781 4.867188 52.222656 4.621094 53.144531 C 4.378906 54.0625 4.921875 55.007812 5.84375 55.253906 Z M 5.84375 55.253906 "/>
<path style=" stroke:none;fill-rule:nonzero;fill:rgb(40.392157%,72.54902%,80%);fill-opacity:1;" d="M 31.117188 29.980469 C 30.871094 29.058594 29.925781 28.511719 29.003906 28.761719 C 28.085938 29.007812 27.539062 29.953125 27.785156 30.875 L 29.570312 37.535156 C 29.777344 38.304688 30.472656 38.8125 31.234375 38.8125 C 31.382812 38.8125 31.53125 38.792969 31.679688 38.753906 C 32.601562 38.507812 33.148438 37.5625 32.898438 36.640625 Z M 31.117188 29.980469 "/>
<path style=" stroke:none;fill-rule:nonzero;fill:rgb(40.392157%,72.54902%,80%);fill-opacity:1;" d="M 46.289062 86.601562 C 46.042969 85.683594 45.09375 85.132812 44.175781 85.382812 C 43.257812 85.632812 42.710938 86.574219 42.957031 87.496094 L 44.742188 94.15625 C 44.949219 94.925781 45.644531 95.433594 46.40625 95.433594 C 46.554688 95.433594 46.707031 95.414062 46.851562 95.375 C 47.773438 95.128906 48.320312 94.183594 48.074219 93.265625 Z M 46.289062 86.601562 "/>
<path style=" stroke:none;fill-rule:nonzero;fill:rgb(40.392157%,72.54902%,80%);fill-opacity:1;" d="M 61.246094 55.824219 C 61.453125 56.59375 62.148438 57.101562 62.910156 57.101562 C 63.058594 57.101562 63.207031 57.082031 63.355469 57.042969 L 70.019531 55.253906 C 70.941406 55.007812 71.484375 54.0625 71.238281 53.144531 C 70.992188 52.222656 70.046875 51.675781 69.125 51.925781 L 62.464844 53.710938 C 61.542969 53.957031 61 54.902344 61.246094 55.824219 Z M 61.246094 55.824219 "/>
<path style=" stroke:none;fill-rule:nonzero;fill:rgb(40.392157%,72.54902%,80%);fill-opacity:1;" d="M 14.617188 68.316406 C 14.367188 67.394531 13.421875 66.847656 12.503906 67.097656 L 5.839844 68.882812 C 4.921875 69.128906 4.375 70.074219 4.621094 70.996094 C 4.828125 71.765625 5.527344 72.273438 6.285156 72.273438 C 6.433594 72.273438 6.585938 72.253906 6.734375 72.214844 L 13.394531 70.425781 C 14.316406 70.179688 14.863281 69.234375 14.617188 68.316406 Z M 14.617188 68.316406 "/>
<path style=" stroke:none;fill-rule:nonzero;fill:rgb(40.392157%,72.54902%,80%);fill-opacity:1;" d="M 23.042969 32.839844 C 22.570312 32.011719 21.515625 31.730469 20.691406 32.207031 C 19.863281 32.683594 19.582031 33.738281 20.058594 34.5625 L 23.507812 40.535156 C 23.828125 41.089844 24.40625 41.398438 25 41.398438 C 25.292969 41.398438 25.589844 41.324219 25.863281 41.164062 C 26.6875 40.691406 26.96875 39.632812 26.492188 38.808594 Z M 23.042969 32.839844 "/>
<path style=" stroke:none;fill-rule:nonzero;fill:rgb(40.392157%,72.54902%,80%);fill-opacity:1;" d="M 52.355469 83.601562 C 51.878906 82.777344 50.824219 82.496094 50 82.972656 C 49.175781 83.449219 48.894531 84.503906 49.367188 85.328125 L 52.816406 91.300781 C 53.136719 91.851562 53.714844 92.160156 54.3125 92.160156 C 54.601562 92.160156 54.902344 92.089844 55.171875 91.929688 C 56 91.457031 56.28125 90.398438 55.804688 89.574219 Z M 52.355469 83.601562 "/>
<path style=" stroke:none;fill-rule:nonzero;fill:rgb(40.392157%,72.54902%,80%);fill-opacity:1;" d="M 58.835938 50 C 59.15625 50.554688 59.734375 50.863281 60.328125 50.863281 C 60.621094 50.863281 60.917969 50.789062 61.191406 50.632812 L 67.160156 47.183594 C 67.988281 46.707031 68.269531 45.652344 67.792969 44.828125 C 67.316406 44 66.265625 43.71875 65.4375 44.195312 L 59.464844 47.644531 C 58.640625 48.121094 58.359375 49.175781 58.835938 50 Z M 58.835938 50 "/>
<path style=" stroke:none;fill-rule:nonzero;fill:rgb(40.392157%,72.54902%,80%);fill-opacity:1;" d="M 17.027344 74.136719 C 16.550781 73.3125 15.5 73.03125 14.671875 73.507812 L 8.699219 76.957031 C 7.875 77.429688 7.589844 78.484375 8.066406 79.308594 C 8.386719 79.863281 8.964844 80.171875 9.5625 80.171875 C 9.851562 80.171875 10.148438 80.097656 10.421875 79.941406 L 16.394531 76.492188 C 17.21875 76.015625 17.503906 74.964844 17.027344 74.136719 Z M 17.027344 74.136719 "/>
<path style=" stroke:none;fill-rule:nonzero;fill:rgb(74.117647%,76.470588%,78.039216%);fill-opacity:1;" d="M 39.65625 62.070312 C 39.214844 62.070312 38.773438 61.898438 38.4375 61.5625 C 37.761719 60.890625 37.761719 59.800781 38.4375 59.125 L 43.609375 53.953125 C 44.28125 53.28125 45.371094 53.28125 46.046875 53.953125 C 46.71875 54.628906 46.71875 55.71875 46.046875 56.390625 L 40.875 61.5625 C 40.539062 61.898438 40.097656 62.070312 39.65625 62.070312 Z M 39.65625 62.070312 "/>
<path style=" stroke:none;fill-rule:nonzero;fill:rgb(90.196078%,90.588235%,90.980392%);fill-opacity:1;" d="M 75.863281 0 C 62.550781 0 51.722656 9.847656 51.722656 22.414062 L 51.722656 26.734375 C 54.15625 27.6875 56.464844 28.878906 58.621094 30.285156 L 58.621094 22.414062 C 58.621094 13.671875 66.378906 6.898438 75.863281 6.898438 C 85.34375 6.898438 93.101562 13.671875 93.101562 22.414062 L 93.101562 32.757812 L 100 32.808594 L 100 22.414062 C 100 9.847656 89.171875 0 75.863281 0 Z M 75.863281 0 "/>
<path style=" stroke:none;fill-rule:nonzero;fill:rgb(78.823529%,79.215686%,77.647059%);fill-opacity:1;" d="M 75.863281 3.449219 C 63.953125 3.449219 54.261719 12.261719 54.261719 23.507812 L 54.261719 27.882812 C 55.765625 28.601562 57.234375 29.378906 58.621094 30.285156 L 58.621094 22.414062 C 58.621094 13.671875 66.378906 6.898438 75.863281 6.898438 C 85.34375 6.898438 93.101562 13.671875 93.101562 22.414062 L 93.101562 32.757812 L 97.464844 32.789062 L 97.464844 23.503906 C 97.464844 12.261719 87.773438 3.449219 75.863281 3.449219 Z M 75.863281 3.449219 "/>
</g>
</svg>
<!-- iconic normalized -->