<?xml version="1.0" encoding="UTF-8"?>
<svg xmlns="http://www.w3.org/2000/svg" xmlns:xlink="http://www.w3.org/1999/xlink" width="100px" height="100px" viewBox="0 0 100 100" version="1.1">
<g id="surface1">
<path style=" stroke:none;fill-rule:nonzero;fill:rgb(33.333333%,37.647059%,50.196078%);fill-opacity:1;" d="M 72.765625 37.074219 C 72.765625 57.164062 56.476562 73.457031 36.382812 73.457031 C 16.289062 73.457031 0 57.164062 0 37.074219 C 0 16.980469 16.289062 0.691406 36.382812 0.691406 C 56.476562 0.691406 72.765625 16.980469 72.765625 37.074219 Z M 72.765625 37.074219 "/>
<path style=" stroke:none;fill-rule:nonzero;fill:rgb(52.54902%,59.215686%,79.607843%);fill-opacity:1;" d="M 97.867188 86.886719 L 78.792969 67.8125 L 76.222656 70.386719 L 64.972656 59.523438 C 63.46875 61.4375 61.789062 63.195312 59.933594 64.773438 L 71.074219 75.53125 L 68.503906 78.105469 L 87.578125 97.179688 C 90.417969 100.019531 95.027344 100.019531 97.867188 97.179688 C 100.710938 94.335938 100.710938 89.730469 97.867188 86.886719 Z M 97.867188 86.886719 "/>
<path style=" stroke:none;fill-rule:nonzero;fill:rgb(69.019608%,82.745098%,94.117647%);fill-opacity:1;" d="M 65.488281 37.074219 C 65.488281 53.148438 52.457031 66.179688 36.382812 66.179688 C 20.308594 66.179688 7.277344 53.148438 7.277344 37.074219 C 7.277344 20.996094 20.308594 7.964844 36.382812 7.964844 C 52.457031 7.964844 65.488281 20.996094 65.488281 37.074219 Z M 65.488281 37.074219 "/>
</g>
</svg>
<!-- iconic normalized -->