<?xml version="1.0" encoding="UTF-8"?>
<svg xmlns="http://www.w3.org/2000/svg" xmlns:xlink="http://www.w3.org/1999/xlink" width="100px" height="100px" viewBox="0 0 100 100" version="1.1">
<g id="surface1">
<path style=" stroke:none;fill-rule:nonzero;fill:rgb(21.960784%,40.784314%,58.431373%);fill-opacity:1;" d="M 100 50 C 100 77.613281 77.613281 100 50 100 C 22.386719 100 0 77.613281 0 50 C 0 22.386719 22.386719 0 50 0 C 77.613281 0 100 22.386719 100 50 Z M 100 50 "/>
<path style=" stroke:none;fill-rule:nonzero;fill:rgb(15.294118%,23.137255%,47.843137%);fill-opacity:1;" d="M 99.984375 48.707031 L 71.351562 20.074219 L 28.800781 78.996094 L 49.8125 99.996094 C 49.875 99.996094 49.9375 100 50 100 C 77.613281 100 100 77.613281 100 50 C 100 49.566406 99.996094 49.136719 99.984375 48.707031 Z M 99.984375 48.707031 "/>
<path style=" stroke:none;fill-rule:nonzero;fill:rgb(99.215686%,87.843137%,52.156863%);fill-opacity:1;" d="M 31.257812 80.007812 L 68.742188 80.007812 C 70.664062 80.007812 72.222656 78.449219 72.222656 76.53125 L 72.222656 22.375 C 72.222656 20.457031 70.664062 18.898438 68.742188 18.898438 L 31.257812 18.898438 C 29.335938 18.898438 27.777344 20.457031 27.777344 22.375 L 27.777344 76.53125 C 27.777344 78.449219 29.335938 80.007812 31.257812 80.007812 Z M 31.257812 80.007812 "/>
<path style=" stroke:none;fill-rule:nonzero;fill:rgb(100%,78.823529%,10.588235%);fill-opacity:1;" d="M 68.742188 18.898438 L 49.886719 18.898438 L 49.886719 80.007812 L 68.742188 80.007812 C 70.664062 80.007812 72.222656 78.449219 72.222656 76.53125 L 72.222656 22.375 C 72.222656 20.453125 70.664062 18.898438 68.742188 18.898438 Z M 68.742188 18.898438 "/>
<path style=" stroke:none;fill-rule:nonzero;fill:rgb(100%,100%,100%);fill-opacity:1;" d="M 33.332031 24.453125 L 66.667969 24.453125 L 66.667969 74.453125 L 33.332031 74.453125 Z M 33.332031 24.453125 "/>
<path style=" stroke:none;fill-rule:nonzero;fill:rgb(100%,92.941176%,70.980392%);fill-opacity:1;" d="M 49.890625 24.453125 L 66.667969 24.453125 L 66.667969 74.453125 L 49.890625 74.453125 Z M 49.890625 24.453125 "/>
<path style=" stroke:none;fill-rule:nonzero;fill:rgb(83.137255%,54.509804%,2.745098%);fill-opacity:1;" d="M 58.402344 16.792969 L 55.554688 16.792969 C 55.554688 13.726562 53.066406 11.238281 50 11.238281 C 46.929688 11.238281 44.445312 13.726562 44.445312 16.792969 L 41.597656 16.792969 C 40.101562 16.792969 38.886719 18.003906 38.886719 19.5 L 38.886719 25.195312 C 38.886719 26.691406 40.101562 27.90625 41.597656 27.90625 L 58.402344 27.90625 C 59.898438 27.90625 61.109375 26.691406 61.109375 25.195312 L 61.109375 19.5 C 61.109375 18.003906 59.898438 16.792969 58.402344 16.792969 Z M 50 18.8125 C 48.882812 18.8125 47.980469 17.910156 47.980469 16.792969 C 47.980469 15.675781 48.882812 14.773438 50 14.773438 C 51.117188 14.773438 52.019531 15.675781 52.019531 16.792969 C 52.019531 17.910156 51.117188 18.8125 50 18.8125 Z M 50 18.8125 "/>
<path style=" stroke:none;fill-rule:nonzero;fill:rgb(73.72549%,46.666667%,3.137255%);fill-opacity:1;" d="M 58.402344 16.792969 L 55.554688 16.792969 C 55.554688 13.726562 53.066406 11.238281 50 11.238281 C 49.960938 11.238281 49.925781 11.242188 49.886719 11.242188 L 49.886719 14.777344 C 49.925781 14.777344 49.960938 14.773438 50 14.773438 C 51.117188 14.773438 52.019531 15.675781 52.019531 16.792969 C 52.019531 17.910156 51.117188 18.8125 50 18.8125 C 49.960938 18.8125 49.925781 18.808594 49.886719 18.808594 L 49.886719 27.902344 L 58.402344 27.902344 C 59.898438 27.902344 61.113281 26.691406 61.113281 25.195312 L 61.113281 19.5 C 61.109375 18.003906 59.898438 16.792969 58.402344 16.792969 Z M 58.402344 16.792969 "/>
</g>
</svg>
<!-- iconic normalized -->