<?xml version="1.0" encoding="UTF-8"?>
<svg xmlns="http://www.w3.org/2000/svg" xmlns:xlink="http://www.w3.org/1999/xlink" width="100px" height="100px" viewBox="0 0 100 100" version="1.1">
<g id="surface1">
<path style=" stroke:none;fill-rule:nonzero;fill:rgb(76.078431%,0%,10.588235%);fill-opacity:1;" d="M 100 50 C 100 77.613281 77.613281 100 50 100 C 22.386719 100 0 77.613281 0 50 C 0 22.386719 22.386719 0 50 0 C 77.613281 0 100 22.386719 100 50 Z M 100 50 "/>
<path style=" stroke:none;fill-rule:nonzero;fill:rgb(58.039216%,0%,18.823529%);fill-opacity:1;" d="M 81.332031 34.503906 L 23.171875 71.003906 L 52.121094 99.953125 C 77.726562 98.882812 98.355469 78.554688 99.902344 53.074219 Z M 81.332031 34.503906 "/>
<path style=" stroke:none;fill-rule:nonzero;fill:rgb(100%,92.941176%,70.980392%);fill-opacity:1;" d="M 27.777344 72.222656 L 68.457031 72.222656 C 70.707031 72.222656 72.703125 70.785156 73.414062 68.648438 L 82.101562 37.722656 C 82.71875 35.519531 81.0625 33.332031 78.773438 33.332031 L 43.515625 33.332031 C 40.777344 33.332031 38.371094 35.148438 37.617188 37.78125 Z M 27.777344 72.222656 "/>
<path style=" stroke:none;fill-rule:nonzero;fill:rgb(94.901961%,85.490196%,59.215686%);fill-opacity:1;" d="M 78.773438 33.332031 L 50.113281 33.332031 L 50.113281 72.222656 L 68.457031 72.222656 C 70.707031 72.222656 72.703125 70.785156 73.414062 68.648438 L 82.101562 37.722656 C 82.71875 35.519531 81.0625 33.332031 78.773438 33.332031 Z M 78.773438 33.332031 "/>
<path style=" stroke:none;fill-rule:nonzero;fill:rgb(100%,78.823529%,10.588235%);fill-opacity:1;" d="M 25.898438 72.222656 L 68.546875 72.222656 C 70.578125 72.222656 72.222656 70.578125 72.222656 68.546875 L 72.222656 38.890625 L 38.890625 38.890625 L 33.332031 33.332031 L 22.222656 33.332031 L 22.222656 68.546875 C 22.222656 70.578125 23.867188 72.222656 25.898438 72.222656 Z M 25.898438 72.222656 "/>
<path style=" stroke:none;fill-rule:nonzero;fill:rgb(85.882353%,64.705882%,11.372549%);fill-opacity:1;" d="M 50.113281 38.890625 L 50.113281 72.222656 L 68.546875 72.222656 C 70.578125 72.222656 72.222656 70.578125 72.222656 68.546875 L 72.222656 38.890625 Z M 50.113281 38.890625 "/>
</g>
</svg>
<!-- iconic normalized -->