<?xml version="1.0" encoding="UTF-8"?>
<svg xmlns="http://www.w3.org/2000/svg" xmlns:xlink="http://www.w3.org/1999/xlink" width="100px" height="100px" viewBox="0 0 100 100" version="1.1">
<g id="surface1">
<path style=" stroke:none;fill-rule:nonzero;fill:rgb(76.078431%,0%,10.588235%);fill-opacity:1;" d="M 100 50 C 100 77.613281 77.613281 100 50 100 C 22.386719 100 0 77.613281 0 50 C 0 22.386719 22.386719 0 50 0 C 77.613281 0 100 22.386719 100 50 Z M 100 50 "/>
<path style=" stroke:none;fill-rule:nonzero;fill:rgb(58.039216%,0%,18.823529%);fill-opacity:1;" d="M 99.96875 48.289062 L 71.65625 19.976562 L 28.332031 80.015625 L 48.289062 99.96875 C 48.855469 99.988281 49.425781 100 50 100 C 77.613281 100 100 77.613281 100 50 C 100 49.425781 99.988281 48.859375 99.96875 48.289062 Z M 99.96875 48.289062 "/>
<path style=" stroke:none;fill-rule:nonzero;fill:rgb(100%,100%,100%);fill-opacity:1;" d="M 29.644531 80.554688 L 70.355469 80.554688 C 71.386719 80.554688 72.222656 79.71875 72.222656 78.6875 L 72.222656 21.308594 C 72.222656 20.28125 71.386719 19.445312 70.355469 19.445312 L 29.644531 19.445312 C 28.613281 19.445312 27.777344 20.28125 27.777344 21.308594 L 27.777344 78.6875 C 27.777344 79.71875 28.613281 80.554688 29.644531 80.554688 Z M 29.644531 80.554688 "/>
<path style=" stroke:none;fill-rule:nonzero;fill:rgb(80.784314%,80.784314%,80.784314%);fill-opacity:1;" d="M 70.355469 19.445312 L 50 19.445312 L 50 80.554688 L 70.355469 80.554688 C 71.386719 80.554688 72.222656 79.71875 72.222656 78.6875 L 72.222656 21.308594 C 72.222656 20.28125 71.386719 19.445312 70.355469 19.445312 Z M 70.355469 19.445312 "/>
<path style=" stroke:none;fill-rule:nonzero;fill:rgb(83.137255%,54.509804%,2.745098%);fill-opacity:1;" d="M 24.746094 24.914062 L 30.808594 24.914062 C 31.550781 24.914062 32.15625 24.3125 32.15625 23.570312 C 32.15625 22.824219 31.550781 22.222656 30.808594 22.222656 L 24.746094 22.222656 C 24.003906 22.222656 23.402344 22.824219 23.402344 23.570312 C 23.402344 24.3125 24.003906 24.914062 24.746094 24.914062 Z M 24.746094 24.914062 "/>
<path style=" stroke:none;fill-rule:nonzero;fill:rgb(83.137255%,54.509804%,2.745098%);fill-opacity:1;" d="M 24.746094 33.332031 L 30.808594 33.332031 C 31.550781 33.332031 32.15625 32.730469 32.15625 31.988281 C 32.15625 31.242188 31.550781 30.640625 30.808594 30.640625 L 24.746094 30.640625 C 24.003906 30.640625 23.402344 31.242188 23.402344 31.988281 C 23.402344 32.730469 24.003906 33.332031 24.746094 33.332031 Z M 24.746094 33.332031 "/>
<path style=" stroke:none;fill-rule:nonzero;fill:rgb(83.137255%,54.509804%,2.745098%);fill-opacity:1;" d="M 24.746094 41.582031 L 30.808594 41.582031 C 31.550781 41.582031 32.15625 40.980469 32.15625 40.234375 C 32.15625 39.492188 31.550781 38.886719 30.808594 38.886719 L 24.746094 38.886719 C 24.003906 38.886719 23.402344 39.492188 23.402344 40.234375 C 23.402344 40.980469 24.003906 41.582031 24.746094 41.582031 Z M 24.746094 41.582031 "/>
<path style=" stroke:none;fill-rule:nonzero;fill:rgb(83.137255%,54.509804%,2.745098%);fill-opacity:1;" d="M 24.746094 50 L 30.808594 50 C 31.550781 50 32.15625 49.398438 32.15625 48.652344 C 32.15625 47.910156 31.550781 47.304688 30.808594 47.304688 L 24.746094 47.304688 C 24.003906 47.304688 23.402344 47.910156 23.402344 48.652344 C 23.402344 49.398438 24.003906 50 24.746094 50 Z M 24.746094 50 "/>
<path style=" stroke:none;fill-rule:nonzero;fill:rgb(83.137255%,54.509804%,2.745098%);fill-opacity:1;" d="M 24.746094 58.25 L 30.808594 58.25 C 31.550781 58.25 32.15625 57.644531 32.15625 56.902344 C 32.15625 56.160156 31.550781 55.554688 30.808594 55.554688 L 24.746094 55.554688 C 24.003906 55.554688 23.402344 56.160156 23.402344 56.902344 C 23.402344 57.644531 24.003906 58.25 24.746094 58.25 Z M 24.746094 58.25 "/>
<path style=" stroke:none;fill-rule:nonzero;fill:rgb(83.137255%,54.509804%,2.745098%);fill-opacity:1;" d="M 24.746094 66.667969 L 30.808594 66.667969 C 31.550781 66.667969 32.15625 66.0625 32.15625 65.320312 C 32.15625 64.574219 31.550781 63.972656 30.808594 63.972656 L 24.746094 63.972656 C 24.003906 63.972656 23.402344 64.574219 23.402344 65.320312 C 23.402344 66.0625 24.003906 66.667969 24.746094 66.667969 Z M 24.746094 66.667969 "/>
<path style=" stroke:none;fill-rule:nonzero;fill:rgb(83.137255%,54.509804%,2.745098%);fill-opacity:1;" d="M 24.746094 74.914062 L 30.808594 74.914062 C 31.550781 74.914062 32.15625 74.3125 32.15625 73.570312 C 32.15625 72.824219 31.550781 72.222656 30.808594 72.222656 L 24.746094 72.222656 C 24.003906 72.222656 23.402344 72.824219 23.402344 73.570312 C 23.402344 74.3125 24.003906 74.914062 24.746094 74.914062 Z M 24.746094 74.914062 "/>
<path style=" stroke:none;fill-rule:nonzero;fill:rgb(100%,49.803922%,30.980392%);fill-opacity:1;" d="M 41.386719 44.445312 L 58.613281 44.445312 C 59.992188 44.445312 61.109375 43.328125 61.109375 41.949219 L 61.109375 35.832031 C 61.109375 34.453125 59.992188 33.332031 58.613281 33.332031 L 41.386719 33.332031 C 40.007812 33.332031 38.890625 34.453125 38.890625 35.832031 L 38.890625 41.949219 C 38.890625 43.328125 40.007812 44.445312 41.386719 44.445312 Z M 41.386719 44.445312 "/>
<path style=" stroke:none;fill-rule:nonzero;fill:rgb(89.803922%,36.862745%,20.784314%);fill-opacity:1;" d="M 58.613281 33.332031 L 50 33.332031 L 50 44.445312 L 58.613281 44.445312 C 59.992188 44.445312 61.109375 43.328125 61.109375 41.949219 L 61.109375 35.832031 C 61.109375 34.453125 59.992188 33.332031 58.613281 33.332031 Z M 58.613281 33.332031 "/>
</g>
</svg>
<!-- iconic normalized -->