<?xml version="1.0" encoding="UTF-8"?>
<svg xmlns="http://www.w3.org/2000/svg" xmlns:xlink="http://www.w3.org/1999/xlink" width="100px" height="100px" viewBox="0 0 100 100" version="1.1">
<g id="surface1">
<path style=" stroke:none;fill-rule:nonzero;fill:rgb(20.784314%,29.019608%,40.392157%);fill-opacity:1;" d="M 0 0 L 0 100 L 50 100 L 52.175781 50 L 50 0 Z M 0 0 "/>
<path style=" stroke:none;fill-rule:nonzero;fill:rgb(13.72549%,19.215686%,27.058824%);fill-opacity:1;" d="M 50 0 L 100 0 L 100 100 L 50 100 Z M 50 0 "/>
<path style=" stroke:none;fill-rule:nonzero;fill:rgb(52.941176%,60%,70.196078%);fill-opacity:1;" d="M 9.78125 9.78125 L 9.78125 90.21875 L 50 90.21875 L 52.175781 50 L 50 9.78125 Z M 9.78125 9.78125 "/>
<path style=" stroke:none;fill-rule:nonzero;fill:rgb(41.960784%,50.588235%,63.137255%);fill-opacity:1;" d="M 50 9.78125 L 90.21875 9.78125 L 90.21875 90.21875 L 50 90.21875 Z M 50 9.78125 "/>
<path style=" stroke:none;fill-rule:nonzero;fill:rgb(7.058824%,9.803922%,13.72549%);fill-opacity:1;" d="M 6.523438 16.304688 L 13.042969 16.304688 L 13.042969 35.871094 L 6.523438 35.871094 Z M 6.523438 16.304688 "/>
<path style=" stroke:none;fill-rule:nonzero;fill:rgb(7.058824%,9.803922%,13.72549%);fill-opacity:1;" d="M 6.523438 64.128906 L 13.042969 64.128906 L 13.042969 83.695312 L 6.523438 83.695312 Z M 6.523438 64.128906 "/>
<path style=" stroke:none;fill-rule:nonzero;fill:rgb(20.784314%,29.019608%,40.392157%);fill-opacity:1;" d="M 50 28.261719 C 41.953125 28.261719 34.929688 32.632812 31.171875 39.128906 L 39.019531 45.832031 L 50 50 L 52.175781 39.128906 Z M 50 28.261719 "/>
<path style=" stroke:none;fill-rule:nonzero;fill:rgb(20.784314%,29.019608%,40.392157%);fill-opacity:1;" d="M 31.171875 60.871094 C 34.929688 67.367188 41.953125 71.738281 50 71.738281 L 52.175781 60.871094 L 50 50 L 38.703125 54.347656 Z M 31.171875 60.871094 "/>
<path style=" stroke:none;fill-rule:nonzero;fill:rgb(27.45098%,38.431373%,53.72549%);fill-opacity:1;" d="M 31.171875 39.128906 C 29.320312 42.328125 28.261719 46.039062 28.261719 50 C 28.261719 53.960938 29.320312 57.671875 31.171875 60.871094 L 50 50 Z M 31.171875 39.128906 "/>
<path style=" stroke:none;fill-rule:nonzero;fill:rgb(13.72549%,19.215686%,27.058824%);fill-opacity:1;" d="M 68.828125 39.128906 C 65.070312 32.632812 58.046875 28.261719 50 28.261719 L 50 50 L 61.324219 45.636719 Z M 68.828125 39.128906 "/>
<path style=" stroke:none;fill-rule:nonzero;fill:rgb(13.72549%,19.215686%,27.058824%);fill-opacity:1;" d="M 50 71.738281 C 58.046875 71.738281 65.070312 67.367188 68.828125 60.871094 L 61.453125 54.4375 L 50 50 Z M 50 71.738281 "/>
<path style=" stroke:none;fill-rule:nonzero;fill:rgb(20.784314%,29.019608%,40.392157%);fill-opacity:1;" d="M 68.828125 39.128906 L 50 50 L 68.828125 60.871094 C 70.679688 57.671875 71.738281 53.960938 71.738281 50 C 71.738281 46.039062 70.679688 42.328125 68.828125 39.128906 Z M 68.828125 39.128906 "/>
<path style=" stroke:none;fill-rule:nonzero;fill:rgb(13.72549%,19.215686%,27.058824%);fill-opacity:1;" d="M 36.957031 50 C 36.957031 57.203125 42.796875 63.042969 50 63.042969 L 52.175781 50 L 50 36.957031 C 42.796875 36.957031 36.957031 42.796875 36.957031 50 Z M 36.957031 50 "/>
<path style=" stroke:none;fill-rule:nonzero;fill:rgb(7.058824%,9.803922%,13.72549%);fill-opacity:1;" d="M 50 36.957031 L 50 63.042969 C 57.203125 63.042969 63.042969 57.203125 63.042969 50 C 63.042969 42.796875 57.203125 36.957031 50 36.957031 Z M 50 36.957031 "/>
</g>
</svg>
<!-- iconic normalized -->