<?xml version="1.0" encoding="UTF-8"?>
<svg xmlns="http://www.w3.org/2000/svg" xmlns:xlink="http://www.w3.org/1999/xlink" width="100px" height="100px" viewBox="0 0 100 100" version="1.1">
<g id="surface1">
<path style=" stroke:none;fill-rule:nonzero;fill:rgb(76.470588%,84.313725%,86.666667%);fill-opacity:1;" d="M 51.351562 62.191406 C 51.03125 62.191406 50.554688 61.875 50.554688 61.558594 C 50.554688 61.082031 50.875 60.761719 51.191406 60.605469 C 52.144531 60.445312 53.097656 60.285156 54.050781 59.808594 C 54.367188 59.652344 54.84375 59.808594 55.164062 60.285156 C 55.320312 60.761719 55.164062 61.082031 54.6875 61.398438 C 53.574219 61.714844 52.460938 62.035156 51.351562 62.191406 Z M 48.171875 62.035156 C 48.015625 62.035156 48.015625 62.035156 48.171875 62.035156 C 46.902344 61.875 45.789062 61.558594 44.835938 60.921875 C 44.519531 60.761719 44.203125 60.285156 44.519531 59.808594 C 44.835938 59.332031 45.15625 59.332031 45.632812 59.492188 C 46.585938 59.96875 47.378906 60.285156 48.492188 60.445312 C 48.96875 60.445312 49.285156 60.921875 49.125 61.398438 C 48.808594 61.714844 48.492188 62.035156 48.171875 62.035156 Z M 57.070312 59.652344 C 56.910156 59.652344 56.59375 59.492188 56.433594 59.332031 C 56.117188 59.015625 56.117188 58.539062 56.59375 58.222656 C 57.386719 57.585938 58.023438 56.792969 58.5 55.996094 C 58.816406 55.679688 59.292969 55.519531 59.609375 55.839844 C 59.929688 56.15625 60.085938 56.632812 59.769531 56.949219 C 59.132812 57.902344 58.339844 58.699219 57.546875 59.492188 C 57.386719 59.492188 57.226562 59.652344 57.070312 59.652344 Z M 42.453125 59.332031 C 42.296875 59.332031 42.136719 59.332031 41.976562 59.175781 C 41.183594 58.378906 40.390625 57.585938 39.753906 56.472656 C 39.59375 56.15625 39.59375 55.679688 40.070312 55.363281 C 40.390625 55.203125 40.867188 55.203125 41.183594 55.679688 C 41.660156 56.472656 42.296875 57.269531 43.089844 57.902344 C 43.40625 58.222656 43.40625 58.699219 43.089844 59.015625 C 42.929688 59.175781 42.773438 59.332031 42.453125 59.332031 Z M 60.40625 54.410156 L 60.246094 54.410156 C 59.769531 54.25 59.609375 53.773438 59.769531 53.457031 C 60.085938 52.503906 60.246094 51.550781 60.246094 50.597656 C 60.246094 50.121094 60.5625 49.800781 61.039062 49.800781 C 61.515625 49.800781 61.835938 50.121094 61.835938 50.597656 C 61.835938 51.707031 61.675781 52.820312 61.359375 53.933594 C 61.039062 54.089844 60.722656 54.410156 60.40625 54.410156 Z M 39.277344 53.933594 C 38.960938 53.933594 38.640625 53.613281 38.484375 53.296875 C 38.164062 52.34375 38.164062 51.390625 38.164062 50.4375 L 38.164062 49.960938 C 38.164062 49.484375 38.484375 49.164062 38.960938 49.164062 C 39.4375 49.164062 39.753906 49.484375 39.753906 49.960938 L 39.753906 50.277344 C 39.753906 51.074219 39.914062 52.027344 40.070312 52.820312 C 40.230469 53.296875 39.914062 53.613281 39.4375 53.773438 C 39.4375 53.933594 39.277344 53.933594 39.277344 53.933594 Z M 60.722656 48.847656 C 60.40625 48.847656 60.085938 48.53125 59.929688 48.210938 C 59.769531 47.257812 59.453125 46.304688 58.976562 45.511719 C 58.816406 45.195312 58.976562 44.71875 59.292969 44.398438 C 59.609375 44.242188 60.085938 44.398438 60.40625 44.71875 C 60.882812 45.671875 61.359375 46.78125 61.515625 47.894531 C 61.675781 48.371094 61.359375 48.6875 60.882812 48.847656 C 60.722656 48.847656 60.722656 48.847656 60.722656 48.847656 Z M 39.4375 47.734375 C 39.277344 47.734375 39.277344 47.734375 39.117188 47.734375 C 38.640625 47.578125 38.484375 47.101562 38.640625 46.78125 C 38.960938 45.671875 39.59375 44.71875 40.230469 43.765625 C 40.546875 43.445312 41.023438 43.289062 41.34375 43.605469 C 41.660156 43.921875 41.820312 44.398438 41.5 44.71875 C 40.867188 45.511719 40.546875 46.464844 40.230469 47.257812 C 40.230469 47.417969 39.914062 47.734375 39.4375 47.734375 Z M 57.703125 43.445312 C 57.546875 43.445312 57.226562 43.445312 57.070312 43.289062 C 56.433594 42.652344 55.640625 42.015625 54.6875 41.539062 C 54.367188 41.382812 54.210938 40.90625 54.367188 40.429688 C 54.527344 40.109375 55.003906 39.953125 55.480469 40.109375 C 56.433594 40.585938 57.386719 41.382812 58.179688 42.175781 C 58.5 42.492188 58.5 42.96875 58.179688 43.289062 C 58.023438 43.289062 57.863281 43.445312 57.703125 43.445312 Z M 43.089844 42.492188 C 42.929688 42.492188 42.613281 42.335938 42.453125 42.175781 C 42.136719 41.859375 42.296875 41.382812 42.613281 41.0625 C 43.566406 40.429688 44.519531 39.792969 45.472656 39.316406 C 45.949219 39.15625 46.265625 39.316406 46.585938 39.792969 C 46.742188 40.269531 46.585938 40.585938 46.109375 40.90625 C 45.15625 41.222656 44.359375 41.699219 43.566406 42.335938 C 43.40625 42.492188 43.25 42.492188 43.089844 42.492188 Z M 52.144531 40.429688 L 51.984375 40.429688 C 51.351562 40.269531 50.554688 40.269531 49.921875 40.269531 C 49.601562 40.269531 49.285156 40.269531 49.125 40.269531 C 48.648438 40.269531 48.332031 39.953125 48.332031 39.476562 C 48.332031 39 48.648438 38.679688 49.125 38.679688 C 49.445312 38.679688 49.761719 38.679688 50.238281 38.679688 C 51.03125 38.679688 51.828125 38.679688 52.621094 38.839844 C 53.097656 39 53.257812 39.316406 53.257812 39.792969 C 52.78125 40.109375 52.460938 40.429688 52.144531 40.429688 Z M 52.144531 40.429688 "/>
<path style=" stroke:none;fill-rule:nonzero;fill:rgb(76.470588%,84.313725%,86.666667%);fill-opacity:1;" d="M 91.539062 74.742188 C 91.222656 74.742188 90.90625 74.582031 90.746094 74.265625 L 89.316406 71.722656 C 89.15625 71.40625 89.15625 70.929688 89.632812 70.613281 C 89.953125 70.453125 90.429688 70.453125 90.746094 70.929688 L 92.335938 73.628906 C 92.492188 73.949219 92.492188 74.105469 92.335938 74.425781 C 92.015625 74.582031 91.859375 74.742188 91.539062 74.742188 Z M 88.363281 75.378906 L 85.1875 75.378906 C 84.710938 75.378906 84.390625 75.058594 84.390625 74.582031 C 84.390625 74.105469 84.710938 73.789062 85.1875 73.789062 L 88.363281 73.789062 C 88.839844 73.789062 89.15625 74.105469 89.15625 74.582031 C 89.15625 75.058594 88.679688 75.378906 88.363281 75.378906 Z M 82.007812 75.378906 L 78.832031 75.378906 C 78.355469 75.378906 78.039062 75.058594 78.039062 74.582031 C 78.039062 74.105469 78.355469 73.789062 78.832031 73.789062 L 82.007812 73.789062 C 82.484375 73.789062 82.804688 74.105469 82.804688 74.582031 C 82.804688 75.058594 82.328125 75.378906 82.007812 75.378906 Z M 75.65625 75.378906 L 72.476562 75.378906 C 72 75.378906 71.683594 75.058594 71.683594 74.582031 C 71.683594 74.105469 72 73.789062 72.476562 73.789062 L 75.65625 73.789062 C 76.132812 73.789062 76.449219 74.105469 76.449219 74.582031 C 76.449219 75.058594 75.972656 75.378906 75.65625 75.378906 Z M 69.300781 75.378906 L 66.125 75.378906 C 65.648438 75.378906 65.328125 75.058594 65.328125 74.582031 C 65.328125 74.105469 65.648438 73.789062 66.125 73.789062 L 69.300781 73.789062 C 69.777344 73.789062 70.09375 74.105469 70.09375 74.582031 C 70.09375 75.058594 69.617188 75.378906 69.300781 75.378906 Z M 62.945312 75.378906 L 59.769531 75.378906 C 59.292969 75.378906 58.976562 75.058594 58.976562 74.582031 C 58.976562 74.105469 59.292969 73.789062 59.769531 73.789062 L 62.945312 73.789062 C 63.421875 73.789062 63.742188 74.105469 63.742188 74.582031 C 63.742188 75.058594 63.265625 75.378906 62.945312 75.378906 Z M 56.59375 75.378906 L 53.414062 75.378906 C 52.9375 75.378906 52.621094 75.058594 52.621094 74.582031 C 52.621094 74.105469 52.9375 73.789062 53.414062 73.789062 L 56.59375 73.789062 C 57.070312 73.789062 57.386719 74.105469 57.386719 74.582031 C 57.386719 75.058594 56.910156 75.378906 56.59375 75.378906 Z M 50.238281 75.378906 L 47.0625 75.378906 C 46.585938 75.378906 46.265625 75.058594 46.265625 74.582031 C 46.265625 74.105469 46.585938 73.789062 47.0625 73.789062 L 50.238281 73.789062 C 50.714844 73.789062 51.03125 74.105469 51.03125 74.582031 C 51.03125 75.058594 50.554688 75.378906 50.238281 75.378906 Z M 43.882812 75.378906 L 40.707031 75.378906 C 40.230469 75.378906 39.914062 75.058594 39.914062 74.582031 C 39.914062 74.105469 40.230469 73.789062 40.707031 73.789062 L 43.882812 73.789062 C 44.359375 73.789062 44.679688 74.105469 44.679688 74.582031 C 44.679688 75.058594 44.203125 75.378906 43.882812 75.378906 Z M 37.53125 75.378906 L 34.351562 75.378906 C 33.875 75.378906 33.558594 75.058594 33.558594 74.582031 C 33.558594 74.105469 33.875 73.789062 34.351562 73.789062 L 37.53125 73.789062 C 38.007812 73.789062 38.324219 74.105469 38.324219 74.582031 C 38.324219 75.058594 37.847656 75.378906 37.53125 75.378906 Z M 31.175781 75.378906 L 28 75.378906 C 27.523438 75.378906 27.203125 75.058594 27.203125 74.582031 C 27.203125 74.105469 27.523438 73.789062 28 73.789062 L 31.175781 73.789062 C 31.652344 73.789062 31.96875 74.105469 31.96875 74.582031 C 31.96875 75.058594 31.492188 75.378906 31.175781 75.378906 Z M 24.820312 75.378906 L 21.644531 75.378906 C 21.167969 75.378906 20.851562 75.058594 20.851562 74.582031 C 20.851562 74.105469 21.167969 73.789062 21.644531 73.789062 L 24.820312 73.789062 C 25.296875 73.789062 25.617188 74.105469 25.617188 74.582031 C 25.617188 75.058594 25.140625 75.378906 24.820312 75.378906 Z M 18.46875 75.378906 L 15.289062 75.378906 C 14.8125 75.378906 14.496094 75.058594 14.496094 74.582031 C 14.496094 74.105469 14.8125 73.789062 15.289062 73.789062 L 18.46875 73.789062 C 18.945312 73.789062 19.261719 74.105469 19.261719 74.582031 C 19.261719 75.058594 18.785156 75.378906 18.46875 75.378906 Z M 12.113281 75.378906 L 8.9375 75.378906 C 8.460938 75.378906 8.140625 75.058594 8.140625 74.582031 C 8.140625 74.105469 8.460938 73.789062 8.9375 73.789062 L 12.113281 73.789062 C 12.589844 73.789062 12.90625 74.105469 12.90625 74.582031 C 12.90625 75.058594 12.429688 75.378906 12.113281 75.378906 Z M 9.730469 72.359375 C 9.570312 72.359375 9.414062 72.359375 9.253906 72.199219 C 8.9375 72.042969 8.777344 71.566406 8.9375 71.089844 L 10.523438 68.386719 C 10.683594 68.070312 11.160156 67.910156 11.636719 68.070312 C 11.953125 68.230469 12.113281 68.707031 11.953125 69.183594 L 10.367188 71.882812 C 10.207031 72.359375 9.890625 72.359375 9.730469 72.359375 Z M 88.363281 69.339844 C 88.046875 69.339844 87.886719 69.183594 87.726562 69.023438 L 86.140625 66.324219 C 85.980469 66.003906 85.980469 65.527344 86.457031 65.210938 C 86.773438 65.050781 87.25 65.050781 87.570312 65.527344 L 89.15625 68.230469 C 89.316406 68.546875 89.316406 69.023438 88.839844 69.339844 C 88.523438 69.183594 88.523438 69.339844 88.363281 69.339844 Z M 12.90625 66.957031 C 12.75 66.957031 12.589844 66.957031 12.429688 66.800781 C 12.113281 66.640625 11.953125 66.164062 12.113281 65.6875 L 13.703125 62.988281 C 14.019531 62.667969 14.496094 62.511719 14.972656 62.667969 C 15.289062 62.828125 15.449219 63.304688 15.289062 63.78125 L 13.703125 66.480469 C 13.382812 66.800781 13.226562 66.957031 12.90625 66.957031 Z M 85.027344 63.78125 C 84.710938 63.78125 84.550781 63.621094 84.390625 63.464844 L 82.804688 60.761719 C 82.644531 60.445312 82.644531 59.96875 83.121094 59.652344 C 83.4375 59.492188 83.914062 59.492188 84.234375 59.96875 L 85.820312 62.667969 C 85.980469 62.988281 85.980469 63.464844 85.503906 63.78125 C 85.34375 63.78125 85.1875 63.78125 85.027344 63.78125 Z M 16.085938 61.398438 C 15.925781 61.398438 15.765625 61.398438 15.609375 61.238281 C 15.289062 61.082031 15.132812 60.605469 15.289062 60.128906 L 16.878906 57.425781 C 17.039062 57.109375 17.515625 56.949219 17.992188 57.109375 C 18.308594 57.269531 18.46875 57.746094 18.308594 58.222656 L 16.71875 60.921875 C 16.71875 61.398438 16.402344 61.398438 16.085938 61.398438 Z M 81.851562 58.378906 C 81.53125 58.378906 81.375 58.222656 81.214844 58.0625 L 79.625 55.363281 C 79.46875 55.042969 79.46875 54.566406 79.945312 54.25 C 80.261719 54.089844 80.738281 54.089844 81.054688 54.566406 L 82.644531 57.269531 C 82.804688 57.585938 82.804688 58.0625 82.328125 58.378906 C 82.167969 58.222656 82.007812 58.378906 81.851562 58.378906 Z M 19.261719 55.996094 C 19.101562 55.996094 18.945312 55.996094 18.785156 55.839844 C 18.46875 55.679688 18.308594 55.203125 18.46875 54.726562 L 20.054688 52.027344 C 20.214844 51.707031 20.851562 51.550781 21.167969 51.707031 C 21.484375 51.867188 21.644531 52.34375 21.484375 52.820312 L 19.898438 55.519531 C 19.898438 55.839844 19.578125 55.996094 19.261719 55.996094 Z M 78.671875 52.820312 C 78.355469 52.820312 78.195312 52.660156 78.039062 52.503906 L 76.449219 49.800781 C 76.289062 49.484375 76.289062 49.007812 76.765625 48.6875 C 77.085938 48.53125 77.5625 48.53125 77.878906 49.007812 L 79.46875 51.707031 C 79.625 52.027344 79.625 52.503906 79.148438 52.820312 C 78.992188 52.820312 78.832031 52.820312 78.671875 52.820312 Z M 22.597656 50.597656 C 22.4375 50.597656 22.28125 50.597656 22.121094 50.4375 C 21.804688 50.277344 21.644531 49.800781 21.804688 49.324219 L 23.390625 46.625 C 23.550781 46.304688 24.027344 46.148438 24.503906 46.304688 C 24.820312 46.464844 24.980469 46.941406 24.820312 47.417969 L 23.234375 50.121094 C 23.074219 50.4375 22.757812 50.597656 22.597656 50.597656 Z M 75.496094 47.417969 C 75.179688 47.417969 75.019531 47.257812 74.859375 47.101562 L 73.273438 44.398438 C 73.113281 44.082031 73.113281 43.605469 73.589844 43.289062 C 73.90625 43.128906 74.382812 43.128906 74.703125 43.605469 L 76.289062 46.304688 C 76.449219 46.625 76.449219 47.101562 75.972656 47.417969 C 75.65625 47.257812 75.496094 47.417969 75.496094 47.417969 Z M 25.773438 45.035156 C 25.617188 45.035156 25.457031 45.035156 25.296875 44.875 C 24.980469 44.71875 24.820312 44.242188 24.980469 43.765625 L 26.570312 41.0625 C 26.726562 40.746094 27.203125 40.585938 27.679688 40.746094 C 28 40.90625 28.15625 41.382812 28 41.859375 L 26.410156 44.558594 C 26.25 44.875 26.09375 45.035156 25.773438 45.035156 Z M 72.160156 41.859375 C 71.84375 41.859375 71.683594 41.699219 71.523438 41.539062 L 69.9375 38.839844 C 69.777344 38.523438 69.777344 38.046875 70.253906 37.726562 C 70.570312 37.570312 71.046875 37.570312 71.367188 38.046875 L 72.953125 40.746094 C 73.113281 41.0625 73.113281 41.539062 72.636719 41.859375 C 72.476562 41.859375 72.320312 41.859375 72.160156 41.859375 Z M 28.953125 39.632812 C 28.792969 39.632812 28.632812 39.632812 28.476562 39.476562 C 28.15625 39.316406 28 38.839844 28.15625 38.363281 L 29.746094 35.664062 C 29.90625 35.34375 30.382812 35.1875 30.859375 35.34375 C 31.175781 35.503906 31.335938 35.980469 31.175781 36.457031 L 29.585938 39.15625 C 29.585938 39.476562 29.269531 39.632812 28.953125 39.632812 Z M 68.984375 36.457031 C 68.664062 36.457031 68.507812 36.296875 68.347656 36.140625 L 66.757812 33.4375 C 66.601562 33.121094 66.601562 32.644531 67.078125 32.328125 C 67.394531 32.167969 67.871094 32.167969 68.1875 32.644531 L 69.777344 35.34375 C 69.9375 35.664062 69.9375 36.140625 69.460938 36.457031 C 69.300781 36.296875 69.140625 36.457031 68.984375 36.457031 Z M 32.289062 34.074219 C 32.128906 34.074219 31.96875 34.074219 31.8125 33.914062 C 31.492188 33.757812 31.335938 33.28125 31.492188 32.804688 L 33.082031 30.101562 C 33.242188 29.785156 33.71875 29.625 34.195312 29.785156 C 34.511719 29.945312 34.671875 30.421875 34.511719 30.898438 L 32.921875 33.597656 C 32.765625 33.914062 32.445312 34.074219 32.289062 34.074219 Z M 65.804688 30.898438 C 65.488281 30.898438 65.328125 30.738281 65.171875 30.578125 L 63.582031 27.878906 C 63.421875 27.5625 63.421875 27.085938 63.898438 26.765625 C 64.21875 26.609375 64.695312 26.609375 65.011719 27.085938 L 66.601562 29.785156 C 66.757812 30.101562 66.757812 30.578125 66.28125 30.898438 C 66.125 30.898438 65.964844 30.898438 65.804688 30.898438 Z M 35.464844 28.671875 C 35.304688 28.671875 35.148438 28.671875 34.988281 28.515625 C 34.671875 28.355469 34.511719 27.878906 34.671875 27.402344 L 36.257812 24.703125 C 36.417969 24.382812 36.894531 24.226562 37.371094 24.382812 C 37.6875 24.542969 37.847656 25.019531 37.6875 25.496094 L 36.101562 28.195312 C 35.941406 28.515625 35.78125 28.671875 35.464844 28.671875 Z M 62.628906 25.496094 C 62.3125 25.496094 62.152344 25.335938 61.992188 25.179688 L 60.40625 22.476562 C 60.246094 22.160156 60.246094 21.683594 60.722656 21.367188 C 61.039062 21.207031 61.515625 21.207031 61.835938 21.683594 L 63.421875 24.382812 C 63.582031 24.703125 63.582031 25.179688 63.105469 25.496094 C 62.789062 25.496094 62.628906 25.496094 62.628906 25.496094 Z M 38.640625 23.113281 C 38.484375 23.113281 38.324219 23.113281 38.164062 22.953125 C 37.847656 22.796875 37.6875 22.320312 37.847656 21.84375 L 39.4375 19.140625 C 39.59375 18.824219 40.070312 18.664062 40.546875 18.824219 C 40.867188 18.984375 41.023438 19.460938 40.867188 19.9375 L 39.277344 22.636719 C 39.117188 22.953125 38.960938 23.113281 38.640625 23.113281 Z M 59.292969 19.9375 C 58.976562 19.9375 58.816406 19.777344 58.65625 19.617188 L 57.070312 16.917969 C 56.910156 16.601562 56.910156 16.125 57.386719 15.804688 C 57.703125 15.648438 58.179688 15.648438 58.5 16.125 L 60.085938 18.824219 C 60.246094 19.140625 60.246094 19.617188 59.769531 19.9375 C 59.609375 19.9375 59.453125 19.9375 59.292969 19.9375 Z M 41.820312 17.710938 C 41.660156 17.710938 41.5 17.710938 41.34375 17.554688 C 41.023438 17.394531 40.867188 16.917969 41.023438 16.441406 L 42.613281 13.742188 C 43.089844 13.265625 43.566406 13.265625 43.882812 13.421875 C 44.203125 13.582031 44.359375 14.058594 44.203125 14.535156 L 42.613281 17.234375 C 42.453125 17.554688 42.136719 17.710938 41.820312 17.710938 Z M 56.117188 14.535156 C 55.796875 14.535156 55.640625 14.375 55.480469 14.21875 L 53.890625 11.515625 C 53.734375 11.199219 53.734375 10.722656 54.210938 10.40625 C 54.527344 10.246094 55.003906 10.246094 55.320312 10.722656 L 56.910156 13.421875 C 57.070312 13.742188 57.070312 14.21875 56.59375 14.535156 C 56.433594 14.535156 56.273438 14.535156 56.117188 14.535156 Z M 45.15625 12.152344 C 44.996094 12.152344 44.835938 12.152344 44.679688 11.992188 C 44.359375 11.835938 44.203125 11.359375 44.359375 10.882812 L 45.949219 8.179688 C 46.109375 7.863281 46.585938 7.703125 47.0625 7.863281 C 47.378906 8.023438 47.539062 8.5 47.378906 8.976562 L 45.789062 11.675781 C 45.632812 11.992188 45.3125 12.152344 45.15625 12.152344 Z M 52.9375 8.976562 C 52.621094 8.976562 52.460938 8.816406 52.304688 8.65625 L 50.714844 5.957031 C 50.554688 5.640625 50.554688 5.164062 51.03125 4.84375 C 51.351562 4.6875 51.828125 4.6875 52.144531 5.164062 L 53.734375 7.863281 C 53.890625 8.179688 53.890625 8.65625 53.414062 8.976562 C 53.097656 8.976562 53.097656 8.976562 52.9375 8.976562 Z M 48.332031 6.75 C 48.171875 6.75 48.015625 6.75 47.855469 6.59375 C 47.539062 6.433594 47.378906 5.957031 47.539062 5.480469 L 49.125 2.78125 C 49.445312 2.304688 49.921875 2.304688 50.398438 2.460938 C 50.714844 2.621094 50.875 3.097656 50.714844 3.574219 L 49.125 6.273438 C 48.808594 6.59375 48.648438 6.75 48.332031 6.75 Z M 48.332031 6.75 "/>
<path style=" stroke:none;fill-rule:nonzero;fill:rgb(91.764706%,47.058824%,60.784314%);fill-opacity:1;" d="M 49.921875 98.730469 C 48.96875 98.730469 48.332031 98.09375 48.332031 97.140625 L 48.332031 49.640625 C 48.332031 48.6875 48.96875 48.054688 49.921875 48.054688 C 50.875 48.054688 51.507812 48.6875 51.507812 49.640625 L 51.507812 97.140625 C 51.507812 97.933594 50.875 98.730469 49.921875 98.730469 Z M 49.921875 98.730469 "/>
<path style=" stroke:none;fill-rule:nonzero;fill:rgb(91.764706%,47.058824%,60.784314%);fill-opacity:1;" d="M 49.921875 100 C 49.601562 100 49.445312 100 49.125 99.839844 L 7.507812 75.535156 C 7.03125 75.21875 7.03125 74.742188 7.03125 74.105469 L 7.03125 25.8125 C 7.03125 25.179688 7.03125 24.703125 7.507812 24.382812 L 49.285156 0.238281 C 49.761719 -0.078125 50.238281 -0.078125 50.875 0.238281 L 92.492188 24.382812 C 92.96875 24.703125 92.96875 25.179688 92.96875 25.8125 L 92.96875 74.265625 C 92.96875 74.902344 92.96875 75.378906 92.492188 75.695312 L 50.554688 99.683594 C 50.398438 99.839844 50.238281 100 49.921875 100 Z M 10.207031 73.3125 L 49.921875 96.664062 L 89.632812 73.3125 L 89.632812 26.609375 L 49.921875 3.414062 L 10.207031 26.609375 Z M 10.207031 73.3125 "/>
<path style=" stroke:none;fill-rule:nonzero;fill:rgb(91.764706%,47.058824%,60.784314%);fill-opacity:1;" d="M 49.921875 75.535156 C 49.601562 75.535156 49.445312 75.535156 49.125 75.378906 L 28.632812 63.621094 C 28.15625 63.304688 27.679688 62.667969 27.679688 62.191406 L 27.679688 38.679688 C 27.679688 38.046875 28.15625 37.570312 28.632812 37.25 L 49.125 25.496094 C 49.601562 25.179688 50.238281 25.179688 50.714844 25.496094 L 71.207031 37.25 C 71.683594 37.570312 72.160156 38.046875 72.160156 38.679688 L 72.160156 62.191406 C 72.160156 62.828125 71.683594 63.304688 71.207031 63.621094 L 50.714844 75.378906 C 50.554688 75.378906 50.238281 75.535156 49.921875 75.535156 Z M 30.859375 61.238281 L 49.921875 72.042969 L 68.984375 61.238281 L 68.984375 39.632812 L 49.921875 28.832031 L 30.859375 39.632812 Z M 30.859375 61.238281 "/>
<path style=" stroke:none;fill-rule:nonzero;fill:rgb(91.764706%,47.058824%,60.784314%);fill-opacity:1;" d="M 49.921875 51.390625 C 49.601562 51.390625 49.445312 51.390625 49.125 51.230469 L 7.664062 27.242188 C 6.871094 26.765625 7.984375 25.972656 8.460938 25.335938 C 8.9375 24.542969 9.09375 24.382812 9.890625 24.859375 L 49.921875 48.054688 L 90.429688 24.703125 C 91.222656 24.226562 92.015625 24.382812 92.492188 25.179688 C 92.96875 25.972656 92.652344 27.085938 91.859375 27.5625 L 50.714844 51.390625 C 50.398438 51.390625 50.238281 51.390625 49.921875 51.390625 Z M 49.921875 51.390625 "/>
</g>
</svg>
<!-- iconic normalized -->