<?xml version="1.0" encoding="UTF-8"?>
<svg xmlns="http://www.w3.org/2000/svg" xmlns:xlink="http://www.w3.org/1999/xlink" width="100px" height="100px" viewBox="0 0 100 100" version="1.1">
<g id="surface1">
<path style=" stroke:none;fill-rule:nonzero;fill:rgb(46.27451%,90.980392%,22.745098%);fill-opacity:1;" d="M 98.414062 50 C 98.414062 76.738281 76.738281 98.414062 50 98.414062 C 23.261719 98.414062 1.585938 76.738281 1.585938 50 C 1.585938 23.261719 23.261719 1.585938 50 1.585938 C 76.738281 1.585938 98.414062 23.261719 98.414062 50 Z M 98.414062 50 "/>
<path style=" stroke:none;fill-rule:nonzero;fill:rgb(66.666667%,98.823529%,47.843137%);fill-opacity:1;" d="M 1.585938 50 C 1.585938 23.332031 23.332031 1.585938 50 1.585938 "/>
<path style=" stroke:none;fill-rule:nonzero;fill:rgb(38.431373%,81.960784%,13.333333%);fill-opacity:1;" d="M 84.285156 15.714844 C 103.175781 34.601562 103.175781 65.238281 84.285156 84.128906 C 65.398438 103.015625 34.761719 103.015625 15.871094 84.128906 "/>
<path style=" stroke:none;fill-rule:nonzero;fill:rgb(18.431373%,31.372549%,40.784314%);fill-opacity:1;" d="M 50 100 C 22.382812 100 0 77.617188 0 50 C 0 22.382812 22.382812 0 50 0 C 77.617188 0 100 22.382812 100 50 C 100 77.617188 77.617188 100 50 100 Z M 50 3.175781 C 24.128906 3.175781 3.175781 24.128906 3.175781 50 C 3.175781 75.871094 24.128906 96.824219 50 96.824219 C 75.871094 96.824219 96.824219 75.871094 96.824219 50 C 96.824219 24.128906 75.871094 3.175781 50 3.175781 Z M 50 3.175781 "/>
<path style=" stroke:none;fill-rule:nonzero;fill:rgb(100%,56.862745%,0%);fill-opacity:1;" d="M 50 49.207031 L 8.414062 73.175781 L 50 2.539062 Z M 50 49.207031 "/>
<path style=" stroke:none;fill-rule:nonzero;fill:rgb(18.431373%,31.372549%,40.784314%);fill-opacity:1;" d="M 8.414062 74.761719 C 7.9375 74.761719 7.617188 74.601562 7.300781 74.285156 C 6.824219 73.808594 6.667969 73.015625 7.144531 72.382812 L 48.570312 1.746094 C 48.890625 1.109375 49.683594 0.792969 50.316406 0.953125 C 50.953125 1.109375 51.429688 1.746094 51.429688 2.539062 L 51.429688 49.207031 C 51.429688 49.839844 51.109375 50.316406 50.636719 50.636719 L 9.207031 74.601562 C 9.046875 74.761719 8.730469 74.761719 8.414062 74.761719 Z M 48.414062 8.414062 L 12.855469 68.890625 L 48.414062 48.253906 Z M 48.414062 8.414062 "/>
<path style=" stroke:none;fill-rule:nonzero;fill:rgb(100%,73.72549%,0%);fill-opacity:1;" d="M 50 49.207031 L 91.585938 73.175781 L 50 2.539062 Z M 50 49.207031 "/>
<path style=" stroke:none;fill-rule:nonzero;fill:rgb(100%,56.862745%,0%);fill-opacity:1;" d="M 50.476562 49.523438 L 91.585938 73.175781 L 67.617188 32.382812 Z M 50.476562 49.523438 "/>
<path style=" stroke:none;fill-rule:nonzero;fill:rgb(18.431373%,31.372549%,40.784314%);fill-opacity:1;" d="M 91.585938 74.761719 C 91.269531 74.761719 91.109375 74.761719 90.792969 74.601562 L 49.207031 50.636719 C 48.730469 50.316406 48.414062 49.839844 48.414062 49.207031 L 48.414062 2.539062 C 48.414062 1.746094 48.890625 1.269531 49.523438 0.953125 C 50.160156 0.792969 50.953125 1.109375 51.269531 1.746094 L 92.855469 72.382812 C 93.175781 73.015625 93.175781 73.808594 92.539062 74.285156 C 92.382812 74.601562 91.90625 74.761719 91.585938 74.761719 Z M 51.585938 48.253906 L 87.144531 68.730469 L 51.585938 8.414062 Z M 51.585938 48.253906 "/>
<path style=" stroke:none;fill-rule:nonzero;fill:rgb(100%,73.72549%,0%);fill-opacity:1;" d="M 8.414062 73.808594 L 50 49.839844 L 91.585938 73.808594 Z M 8.414062 73.808594 "/>
<path style=" stroke:none;fill-rule:nonzero;fill:rgb(18.431373%,31.372549%,40.784314%);fill-opacity:1;" d="M 91.585938 75.398438 L 8.414062 75.398438 C 7.617188 75.398438 7.144531 74.601562 6.824219 73.96875 C 6.507812 73.332031 6.984375 72.382812 7.617188 72.0625 L 49.207031 47.9375 C 49.683594 47.617188 50.316406 47.617188 50.792969 47.9375 L 92.222656 71.746094 C 92.855469 71.90625 93.175781 72.855469 93.175781 73.492188 C 93.175781 74.445312 92.539062 75.398438 91.585938 75.398438 Z M 14.285156 72.222656 L 85.554688 72.222656 L 50 51.585938 Z M 14.285156 72.222656 "/>
<path style=" stroke:none;fill-rule:nonzero;fill:rgb(100%,85.490196%,0%);fill-opacity:1;" d="M 50 49.363281 L 29.683594 60.953125 L 50 26.507812 Z M 50 49.363281 "/>
<path style=" stroke:none;fill-rule:nonzero;fill:rgb(18.431373%,31.372549%,40.784314%);fill-opacity:1;" d="M 29.683594 62.539062 C 29.207031 62.539062 28.890625 62.382812 28.570312 62.0625 C 28.09375 61.585938 27.9375 60.792969 28.253906 60.160156 L 48.570312 25.714844 C 48.890625 25.078125 49.683594 24.761719 50.316406 24.921875 C 50.953125 25.078125 51.429688 25.714844 51.429688 26.507812 L 51.429688 49.363281 C 51.429688 50 51.109375 50.476562 50.636719 50.792969 L 30.316406 62.539062 C 30.316406 62.539062 30 62.539062 29.683594 62.539062 Z M 48.414062 32.382812 L 34.128906 56.667969 L 48.414062 48.414062 Z M 48.414062 32.382812 "/>
<path style=" stroke:none;fill-rule:nonzero;fill:rgb(100%,73.72549%,0%);fill-opacity:1;" d="M 50 49.363281 L 70.316406 60.953125 L 50 26.507812 Z M 50 49.363281 "/>
<path style=" stroke:none;fill-rule:nonzero;fill:rgb(18.431373%,31.372549%,40.784314%);fill-opacity:1;" d="M 70.316406 62.539062 C 70 62.539062 69.839844 62.539062 69.523438 62.382812 L 49.207031 50.636719 C 48.730469 50.316406 48.414062 49.839844 48.414062 49.207031 L 48.414062 26.507812 C 48.414062 25.714844 48.890625 25.238281 49.523438 24.921875 C 50.160156 24.761719 50.953125 25.078125 51.269531 25.714844 L 71.585938 60.160156 C 71.90625 60.792969 71.90625 61.585938 71.269531 62.0625 C 71.109375 62.382812 70.636719 62.539062 70.316406 62.539062 Z M 51.585938 48.414062 L 65.871094 56.667969 L 51.585938 32.382812 Z M 51.585938 48.414062 "/>
<path style=" stroke:none;fill-rule:nonzero;fill:rgb(100%,56.862745%,0%);fill-opacity:1;" d="M 29.683594 61.109375 L 50 49.363281 L 70.316406 61.109375 Z M 29.683594 61.109375 "/>
<path style=" stroke:none;fill-rule:nonzero;fill:rgb(18.431373%,31.372549%,40.784314%);fill-opacity:1;" d="M 70.316406 62.699219 L 29.683594 62.699219 C 28.890625 62.699219 28.414062 62.222656 28.09375 61.429688 C 27.777344 60.636719 28.253906 60 28.890625 59.683594 L 49.207031 47.9375 C 49.683594 47.617188 50.316406 47.617188 50.792969 47.9375 L 70.953125 59.523438 C 71.585938 59.683594 71.90625 60.316406 71.90625 61.109375 C 71.90625 61.90625 71.109375 62.699219 70.316406 62.699219 Z M 35.714844 59.523438 L 64.285156 59.523438 L 50 51.269531 Z M 35.714844 59.523438 "/>
<path style=" stroke:none;fill-rule:nonzero;fill:rgb(18.431373%,31.372549%,40.784314%);fill-opacity:1;" d="M 50 99.523438 C 49.363281 99.523438 48.890625 99.207031 48.570312 98.730469 L 7.144531 27.9375 C 6.824219 27.460938 6.824219 27.144531 7.144531 26.667969 C 7.300781 26.191406 7.9375 26.191406 8.414062 26.191406 L 91.585938 26.191406 C 92.222656 26.191406 92.699219 26.191406 93.015625 26.667969 C 93.332031 27.144531 93.332031 27.617188 93.015625 28.09375 L 51.429688 98.730469 C 51.109375 99.207031 50.636719 99.523438 50 99.523438 Z M 11.269531 29.363281 L 50 95.398438 L 88.730469 29.363281 Z M 11.269531 29.363281 "/>
</g>
</svg>
<!-- iconic normalized -->