<?xml version="1.0" encoding="UTF-8"?>
<svg xmlns="http://www.w3.org/2000/svg" xmlns:xlink="http://www.w3.org/1999/xlink" width="100px" height="100px" viewBox="0 0 100 100" version="1.1">
<g id="surface1">
<path style=" stroke:none;fill-rule:nonzero;fill:rgb(100%,83.137255%,76.862745%);fill-opacity:1;" d="M 88.4375 64.746094 C 89.957031 54.894531 94.417969 20.082031 94.417969 20.082031 C 95.03125 15.265625 91.355469 12.582031 87.71875 12.582031 C 84.707031 12.582031 81.726562 14.417969 81.21875 18.402344 L 78.230469 37.664062 C 78.09375 38.6875 77.179688 39.40625 76.261719 39.40625 C 75.875 39.40625 75.488281 39.277344 75.160156 38.992188 C 73.722656 37.75 71.785156 37.207031 69.917969 37.207031 C 68.214844 37.207031 66.566406 37.660156 65.410156 38.453125 C 65.179688 38.609375 64.914062 38.683594 64.644531 38.683594 C 64.097656 38.683594 63.527344 38.394531 63.152344 37.964844 C 61.304688 35.859375 59.191406 35.085938 57.207031 35.085938 C 55.332031 35.085938 53.570312 35.777344 52.246094 36.683594 C 51.988281 36.859375 51.691406 36.9375 51.414062 36.9375 C 50.449219 36.9375 49.488281 35.980469 49.488281 34.890625 L 49.488281 11.335938 C 49.488281 6.921875 46.113281 4.714844 42.804688 4.714844 C 39.496094 4.714844 36.125 6.921875 36.125 11.335938 L 36.125 60.132812 C 36.125 62.46875 34.28125 64.15625 32.1875 64.15625 C 31.527344 64.15625 30.886719 63.988281 30.25 63.621094 C 25.5625 60.933594 20.414062 58.667969 15.003906 56.546875 C 13.992188 56.152344 13.027344 55.972656 12.113281 55.972656 C 5.914062 55.972656 2.425781 64.140625 9.285156 68.554688 C 17.15625 73.621094 27.136719 76.394531 31.019531 82.121094 C 33.410156 85.652344 36.90625 91.890625 38.246094 94.351562 C 38.589844 94.980469 39.25 95.285156 39.964844 95.285156 L 74.960938 95.285156 C 75.882812 95.285156 76.675781 94.726562 76.871094 93.828125 L 78.464844 86.464844 C 78.546875 86.066406 78.757812 85.734375 79.054688 85.457031 C 83.871094 80.945312 86.960938 74.292969 88.4375 64.746094 Z M 88.4375 64.746094 "/>
<path style=" stroke:none;fill-rule:nonzero;fill:rgb(0%,0%,0%);fill-opacity:1;" d="M 96.507812 11.730469 C 94.34375 9.273438 91.140625 7.867188 87.71875 7.867188 C 81.90625 7.867188 77.320312 11.921875 76.550781 17.738281 L 74.160156 33.148438 C 72.832031 32.714844 71.398438 32.488281 69.917969 32.488281 C 68.238281 32.488281 66.609375 32.78125 65.148438 33.324219 C 62.316406 30.925781 59.332031 30.371094 57.191406 30.371094 C 56.203125 30.371094 54.988281 30.492188 54.203125 30.726562 L 54.203125 11.335938 C 54.203125 7.953125 52.921875 4.9375 50.566406 2.847656 C 48.503906 1.011719 45.78125 0 42.890625 0 C 40.003906 0 37.199219 1.011719 35.132812 2.847656 C 32.78125 4.9375 31.410156 7.953125 31.410156 11.335938 L 31.410156 58.929688 C 27.476562 56.671875 22.664062 54.503906 16.664062 52.15625 C 15.140625 51.558594 13.625 51.257812 12.082031 51.257812 C 7.011719 51.257812 2.667969 54.503906 1.246094 59.339844 C 0.546875 61.714844 0.671875 64.1875 1.585938 66.496094 C 2.527344 68.878906 4.3125 70.964844 6.730469 72.523438 C 9.78125 74.484375 13 76.066406 16.109375 77.59375 C 20.847656 79.925781 25.328125 82.128906 27.113281 84.765625 C 29.445312 88.207031 33.054688 94.679688 34.105469 96.609375 C 35.273438 98.753906 37.519531 100 39.964844 100 L 74.960938 100 C 78.082031 100 80.824219 97.871094 81.480469 94.820312 L 82.898438 88.28125 C 88.199219 83.003906 91.539062 75.535156 93.097656 65.441406 C 94.613281 55.644531 98.917969 22.09375 99.097656 20.667969 C 99.527344 17.28125 98.609375 14.113281 96.507812 11.730469 Z M 78.464844 86.507812 L 76.871094 93.828125 C 76.675781 94.726562 75.878906 95.285156 74.960938 95.285156 L 39.964844 95.285156 C 39.246094 95.285156 38.589844 94.980469 38.246094 94.351562 C 36.90625 91.890625 33.410156 85.609375 31.019531 82.078125 C 27.140625 76.347656 17.160156 73.597656 9.289062 68.535156 C 2.433594 64.121094 5.921875 55.960938 12.121094 55.960938 C 13.035156 55.960938 14.011719 56.148438 15.023438 56.542969 C 20.433594 58.660156 25.601562 60.929688 30.289062 63.621094 C 30.925781 63.988281 31.527344 64.15625 32.1875 64.15625 C 34.28125 64.15625 36.125 62.472656 36.125 60.132812 L 36.125 11.335938 C 36.125 6.921875 39.496094 4.714844 42.804688 4.714844 C 46.113281 4.714844 49.488281 6.921875 49.488281 11.335938 L 49.488281 34.890625 C 49.488281 35.984375 50.449219 36.941406 51.414062 36.941406 C 51.691406 36.941406 51.980469 36.859375 52.238281 36.683594 C 53.5625 35.777344 55.328125 35.085938 57.203125 35.085938 C 59.1875 35.085938 61.300781 35.859375 63.148438 37.964844 C 63.527344 38.394531 64.09375 38.683594 64.640625 38.683594 C 64.910156 38.683594 65.175781 38.613281 65.410156 38.453125 C 66.5625 37.660156 68.210938 37.207031 69.917969 37.207031 C 71.785156 37.207031 73.722656 37.75 75.15625 38.992188 C 75.488281 39.28125 75.875 39.40625 76.261719 39.40625 C 77.179688 39.40625 78.09375 38.691406 78.230469 37.664062 L 81.21875 18.40625 C 81.726562 14.417969 84.707031 12.582031 87.71875 12.582031 C 91.355469 12.582031 95.03125 15.265625 94.417969 20.082031 C 94.417969 20.082031 89.957031 54.894531 88.4375 64.746094 C 86.960938 74.296875 83.871094 80.964844 79.054688 85.480469 C 78.757812 85.753906 78.546875 86.109375 78.464844 86.507812 Z M 78.464844 86.507812 "/>
</g>
</svg>
<!-- iconic normalized -->