<?xml version="1.0" encoding="UTF-8"?>
<svg xmlns="http://www.w3.org/2000/svg" xmlns:xlink="http://www.w3.org/1999/xlink" width="100px" height="100px" viewBox="0 0 100 100" version="1.1">
<g id="surface1">
<path style=" stroke:none;fill-rule:nonzero;fill:rgb(22.352941%,29.803922%,50.588235%);fill-opacity:1;" d="M 100 50 C 100 77.613281 77.613281 100 50 100 C 22.386719 100 0 77.613281 0 50 C 0 22.386719 22.386719 0 50 0 C 77.613281 0 100 22.386719 100 50 Z M 100 50 "/>
<path style=" stroke:none;fill-rule:nonzero;fill:rgb(17.254902%,24.313725%,40%);fill-opacity:1;" d="M 99.898438 46.867188 L 76.542969 23.511719 L 23.503906 76.550781 L 46.847656 99.898438 C 47.890625 99.964844 48.941406 100 50 100 C 77.613281 100 100 77.613281 100 50 C 100 48.949219 99.964844 47.902344 99.898438 46.867188 Z M 99.898438 46.867188 "/>
<path style=" stroke:none;fill-rule:nonzero;fill:rgb(60.392157%,85.490196%,85.098039%);fill-opacity:1;" d="M 26.488281 77.777344 L 73.511719 77.777344 C 75.867188 77.777344 77.777344 75.867188 77.777344 73.511719 L 77.777344 26.488281 C 77.777344 24.132812 75.867188 22.222656 73.511719 22.222656 L 26.488281 22.222656 C 24.132812 22.222656 22.222656 24.132812 22.222656 26.488281 L 22.222656 73.511719 C 22.222656 75.867188 24.132812 77.777344 26.488281 77.777344 Z M 26.488281 77.777344 "/>
<path style=" stroke:none;fill-rule:nonzero;fill:rgb(9.019608%,67.058824%,57.647059%);fill-opacity:1;" d="M 27.21875 34.679688 C 26.472656 34.679688 25.871094 34.078125 25.871094 33.332031 L 25.871094 24.914062 L 33.726562 24.914062 C 34.46875 24.914062 35.074219 25.519531 35.074219 26.261719 C 35.074219 27.007812 34.46875 27.609375 33.726562 27.609375 L 28.5625 27.609375 L 28.5625 33.332031 C 28.5625 34.078125 27.960938 34.679688 27.21875 34.679688 Z M 27.21875 34.679688 "/>
<path style=" stroke:none;fill-rule:nonzero;fill:rgb(9.019608%,67.058824%,57.647059%);fill-opacity:1;" d="M 73.457031 34.398438 C 72.714844 34.398438 72.109375 33.796875 72.109375 33.054688 L 72.109375 27.890625 L 66.386719 27.890625 C 65.640625 27.890625 65.039062 27.285156 65.039062 26.542969 C 65.039062 25.800781 65.640625 25.195312 66.386719 25.195312 L 74.804688 25.195312 L 74.804688 33.054688 C 74.804688 33.796875 74.199219 34.398438 73.457031 34.398438 Z M 73.457031 34.398438 "/>
<path style=" stroke:none;fill-rule:nonzero;fill:rgb(9.019608%,67.058824%,57.647059%);fill-opacity:1;" d="M 74.804688 75.085938 L 66.945312 75.085938 C 66.203125 75.085938 65.601562 74.480469 65.601562 73.738281 C 65.601562 72.992188 66.203125 72.390625 66.945312 72.390625 L 72.109375 72.390625 L 72.109375 66.667969 C 72.109375 65.921875 72.714844 65.320312 73.457031 65.320312 C 74.199219 65.320312 74.804688 65.921875 74.804688 66.667969 Z M 74.804688 75.085938 "/>
<path style=" stroke:none;fill-rule:nonzero;fill:rgb(9.019608%,67.058824%,57.647059%);fill-opacity:1;" d="M 34.289062 74.804688 L 25.871094 74.804688 L 25.871094 66.945312 C 25.871094 66.203125 26.472656 65.601562 27.21875 65.601562 C 27.960938 65.601562 28.5625 66.203125 28.5625 66.945312 L 28.5625 72.109375 L 34.289062 72.109375 C 35.03125 72.109375 35.632812 72.714844 35.632812 73.457031 C 35.632812 74.199219 35.03125 74.804688 34.289062 74.804688 Z M 34.289062 74.804688 "/>
<path style=" stroke:none;fill-rule:nonzero;fill:rgb(33.333333%,62.745098%,61.176471%);fill-opacity:1;" d="M 66.214844 56.734375 C 66.058594 56.734375 65.898438 56.703125 65.746094 56.636719 C 65.148438 56.375 64.875 55.679688 65.136719 55.085938 C 65.183594 54.972656 67.960938 48.40625 65.71875 42.992188 C 64.613281 40.324219 62.441406 38.335938 59.257812 37.082031 C 47.46875 32.425781 32.96875 55.929688 32.824219 56.167969 C 32.484375 56.722656 31.761719 56.898438 31.203125 56.5625 C 30.648438 56.222656 30.472656 55.496094 30.8125 54.941406 C 31.445312 53.902344 46.511719 29.515625 60.125 34.886719 C 63.925781 36.390625 66.542969 38.816406 67.898438 42.101562 C 70.53125 48.472656 67.429688 55.722656 67.296875 56.027344 C 67.101562 56.46875 66.667969 56.734375 66.214844 56.734375 Z M 66.214844 56.734375 "/>
<path style=" stroke:none;fill-rule:nonzero;fill:rgb(33.333333%,62.745098%,61.176471%);fill-opacity:1;" d="M 40.121094 56.734375 C 39.929688 56.734375 39.738281 56.6875 39.558594 56.589844 C 38.984375 56.277344 38.773438 55.5625 39.085938 54.992188 C 39.359375 54.488281 45.894531 42.621094 52.960938 41.347656 C 55.988281 40.804688 58.417969 41.851562 59.457031 44.152344 C 60.769531 47.050781 59.558594 51.988281 53.902344 56.476562 C 53.390625 56.882812 52.648438 56.796875 52.246094 56.289062 C 51.839844 55.777344 51.925781 55.035156 52.4375 54.632812 C 57.074219 50.953125 58.210938 47.121094 57.308594 45.121094 C 56.734375 43.851562 55.300781 43.324219 53.378906 43.667969 C 48.425781 44.558594 42.875 52.957031 41.15625 56.121094 C 40.941406 56.511719 40.539062 56.734375 40.121094 56.734375 Z M 40.121094 56.734375 "/>
<path style=" stroke:none;fill-rule:nonzero;fill:rgb(33.333333%,62.745098%,61.176471%);fill-opacity:1;" d="M 46.644531 56.734375 C 46.429688 56.734375 46.210938 56.675781 46.019531 56.554688 C 45.464844 56.207031 45.300781 55.480469 45.648438 54.929688 C 48.972656 49.632812 52.375 47.351562 52.519531 47.257812 C 53.0625 46.898438 53.792969 47.050781 54.152344 47.59375 C 54.507812 48.132812 54.359375 48.863281 53.820312 49.222656 C 53.761719 49.261719 50.664062 51.375 47.644531 56.183594 C 47.417969 56.539062 47.035156 56.734375 46.644531 56.734375 Z M 46.644531 56.734375 "/>
<path style=" stroke:none;fill-rule:nonzero;fill:rgb(33.333333%,62.745098%,61.176471%);fill-opacity:1;" d="M 59.691406 56.734375 C 59.492188 56.734375 59.292969 56.683594 59.109375 56.582031 C 58.542969 56.261719 58.347656 55.539062 58.667969 54.972656 L 62.027344 49.042969 C 62.347656 48.476562 63.066406 48.277344 63.632812 48.601562 C 64.199219 48.921875 64.398438 49.640625 64.078125 50.207031 L 60.71875 56.136719 C 60.5 56.519531 60.101562 56.734375 59.691406 56.734375 Z M 59.691406 56.734375 "/>
<path style=" stroke:none;fill-rule:nonzero;fill:rgb(36.470588%,45.490196%,52.54902%);fill-opacity:1;" d="M 72.222656 57.238281 L 27.777344 57.238281 C 26.847656 57.238281 26.09375 56.484375 26.09375 55.554688 C 26.09375 54.625 26.847656 53.871094 27.777344 53.871094 L 72.222656 53.871094 C 73.152344 53.871094 73.90625 54.625 73.90625 55.554688 C 73.90625 56.484375 73.152344 57.238281 72.222656 57.238281 Z M 72.222656 57.238281 "/>
</g>
</svg>
<!-- iconic normalized -->