<?xml version="1.0" encoding="UTF-8"?>
<svg xmlns="http://www.w3.org/2000/svg" xmlns:xlink="http://www.w3.org/1999/xlink" width="100px" height="100px" viewBox="0 0 100 100" version="1.1">
<g id="surface1">
<path style=" stroke:none;fill-rule:nonzero;fill:rgb(100%,65.882353%,0%);fill-opacity:1;" d="M 100 50 C 100 77.613281 77.613281 100 50 100 C 22.386719 100 0 77.613281 0 50 C 0 22.386719 22.386719 0 50 0 C 77.613281 0 100 22.386719 100 50 Z M 100 50 "/>
<path style=" stroke:none;fill-rule:nonzero;fill:rgb(78.823529%,51.764706%,3.529412%);fill-opacity:1;" d="M 46.214844 99.859375 C 47.464844 99.953125 48.726562 100 50 100 C 77.613281 100 100 77.613281 100 50 C 100 49.398438 99.984375 48.796875 99.964844 48.199219 L 89.171875 37.429688 C 72.023438 40.832031 56.289062 40.671875 40.234375 41.582031 C 37.878906 51.347656 26.769531 53.367188 20.371094 60.101562 C 18.578125 62.117188 16.78125 63.976562 12.765625 66.410156 Z M 46.214844 99.859375 "/>
<path style=" stroke:none;fill-rule:nonzero;fill:rgb(81.568627%,83.529412%,85.098039%);fill-opacity:1;" d="M 11.355469 41.429688 L 11.355469 58.273438 C 11.355469 63.46875 15.566406 67.679688 20.761719 67.679688 L 35.070312 67.679688 C 39.523438 67.679688 43.410156 64.648438 44.488281 60.324219 L 47.121094 49.796875 L 53.082031 49.796875 L 55.714844 60.324219 C 56.792969 64.648438 60.679688 67.679688 65.132812 67.679688 L 79.4375 67.679688 C 84.636719 67.679688 88.847656 63.46875 88.847656 58.273438 L 88.847656 41.429688 C 88.847656 39.46875 87.253906 37.875 85.292969 37.875 L 14.910156 37.875 C 12.949219 37.875 11.355469 39.46875 11.355469 41.429688 Z M 11.355469 41.429688 "/>
<path style=" stroke:none;fill-rule:nonzero;fill:rgb(16.862745%,16.862745%,16.862745%);fill-opacity:1;" d="M 79.4375 69.699219 L 65.132812 69.699219 C 59.742188 69.699219 55.0625 66.046875 53.753906 60.816406 L 51.503906 51.816406 L 48.699219 51.816406 L 46.449219 60.816406 C 45.140625 66.046875 40.460938 69.699219 35.070312 69.699219 L 20.761719 69.699219 C 14.460938 69.699219 9.335938 64.574219 9.335938 58.273438 L 9.335938 41.429688 C 9.335938 38.355469 11.835938 35.855469 14.910156 35.855469 L 85.292969 35.855469 C 88.367188 35.855469 90.867188 38.355469 90.867188 41.429688 L 90.867188 58.273438 C 90.867188 64.574219 85.742188 69.699219 79.4375 69.699219 Z M 47.121094 47.777344 L 53.082031 47.777344 C 54.007812 47.777344 54.816406 48.40625 55.042969 49.308594 L 57.671875 59.835938 C 58.53125 63.265625 61.597656 65.660156 65.132812 65.660156 L 79.4375 65.660156 C 83.511719 65.660156 86.824219 62.34375 86.824219 58.273438 L 86.824219 41.429688 C 86.824219 40.585938 86.136719 39.894531 85.292969 39.894531 L 14.910156 39.894531 C 14.0625 39.894531 13.375 40.585938 13.375 41.429688 L 13.375 58.273438 C 13.375 62.347656 16.691406 65.660156 20.761719 65.660156 L 35.070312 65.660156 C 38.605469 65.660156 41.671875 63.265625 42.527344 59.835938 L 45.160156 49.308594 C 45.386719 48.40625 46.195312 47.777344 47.121094 47.777344 Z M 47.121094 47.777344 "/>
<path style=" stroke:none;fill-rule:nonzero;fill:rgb(72.156863%,33.72549%,15.294118%);fill-opacity:1;" d="M 21.992188 50.941406 L 9.992188 50.941406 C 8.75 50.941406 7.742188 49.933594 7.742188 48.691406 L 7.742188 44.941406 C 7.742188 43.699219 8.75 42.691406 9.992188 42.691406 L 21.992188 42.691406 C 23.234375 42.691406 24.242188 43.699219 24.242188 44.941406 L 24.242188 48.691406 C 24.242188 49.933594 23.234375 50.941406 21.992188 50.941406 Z M 21.992188 50.941406 "/>
<path style=" stroke:none;fill-rule:nonzero;fill:rgb(36.862745%,27.058824%,20.392157%);fill-opacity:1;" d="M 82.074219 47.917969 L 70.152344 47.917969 C 69.59375 47.917969 69.140625 47.464844 69.140625 46.90625 C 69.140625 46.347656 69.59375 45.898438 70.152344 45.898438 L 82.074219 45.898438 C 82.632812 45.898438 83.082031 46.347656 83.082031 46.90625 C 83.082031 47.464844 82.632812 47.917969 82.074219 47.917969 Z M 82.074219 47.917969 "/>
<path style=" stroke:none;fill-rule:nonzero;fill:rgb(36.862745%,27.058824%,20.392157%);fill-opacity:1;" d="M 82.074219 52.253906 L 70.152344 52.253906 C 69.59375 52.253906 69.140625 51.800781 69.140625 51.242188 C 69.140625 50.683594 69.59375 50.230469 70.152344 50.230469 L 82.074219 50.230469 C 82.632812 50.230469 83.082031 50.683594 83.082031 51.242188 C 83.082031 51.800781 82.632812 52.253906 82.074219 52.253906 Z M 82.074219 52.253906 "/>
<path style=" stroke:none;fill-rule:nonzero;fill:rgb(36.862745%,27.058824%,20.392157%);fill-opacity:1;" d="M 82.074219 56.769531 L 70.152344 56.769531 C 69.59375 56.769531 69.140625 56.316406 69.140625 55.757812 C 69.140625 55.199219 69.59375 54.75 70.152344 54.75 L 82.074219 54.75 C 82.632812 54.75 83.082031 55.199219 83.082031 55.757812 C 83.082031 56.316406 82.632812 56.769531 82.074219 56.769531 Z M 82.074219 56.769531 "/>
</g>
</svg>
<!-- iconic normalized -->