<?xml version="1.0" encoding="UTF-8"?>
<svg xmlns="http://www.w3.org/2000/svg" xmlns:xlink="http://www.w3.org/1999/xlink" width="100px" height="100px" viewBox="0 0 100 100" version="1.1">
<g id="surface1">
<path style=" stroke:none;fill-rule:nonzero;fill:rgb(92.941176%,60%,0%);fill-opacity:1;" d="M 42.296875 63.796875 L 40.738281 99.488281 C 40.738281 99.769531 40.507812 100 40.222656 100 L 35.59375 100 C 35.3125 100 35.082031 99.769531 35.082031 99.488281 L 33.519531 63.796875 Z M 42.296875 63.796875 "/>
<path style=" stroke:none;fill-rule:nonzero;fill:rgb(20%,24.313725%,28.235294%);fill-opacity:1;" d="M 34.988281 97.316406 L 35.082031 99.488281 C 35.082031 99.769531 35.3125 100 35.59375 100 L 40.226562 100 C 40.507812 100 40.738281 99.769531 40.738281 99.488281 L 40.832031 97.316406 Z M 34.988281 97.316406 "/>
<path style=" stroke:none;fill-rule:nonzero;fill:rgb(92.941176%,60%,0%);fill-opacity:1;" d="M 70.128906 63.796875 L 68.566406 99.488281 C 68.566406 99.769531 68.335938 100 68.054688 100 L 63.425781 100 C 63.140625 100 62.910156 99.769531 62.910156 99.488281 L 61.351562 63.796875 Z M 70.128906 63.796875 "/>
<path style=" stroke:none;fill-rule:nonzero;fill:rgb(20%,24.313725%,28.235294%);fill-opacity:1;" d="M 62.816406 97.316406 L 62.910156 99.488281 C 62.910156 99.769531 63.140625 100 63.425781 100 L 68.054688 100 C 68.335938 100 68.566406 99.769531 68.566406 99.488281 L 68.660156 97.316406 Z M 62.816406 97.316406 "/>
<path style=" stroke:none;fill-rule:nonzero;fill:rgb(39.607843%,31.764706%,23.529412%);fill-opacity:1;" d="M 61.511719 0 C 60.820312 0 60.261719 0.558594 60.261719 1.25 L 60.261719 5.714844 L 62.765625 5.714844 L 62.765625 1.25 C 62.765625 0.558594 62.203125 0 61.511719 0 Z M 61.511719 0 "/>
<path style=" stroke:none;fill-rule:nonzero;fill:rgb(39.607843%,31.764706%,23.529412%);fill-opacity:1;" d="M 65.449219 0 C 64.757812 0 64.195312 0.558594 64.195312 1.25 L 64.195312 5.714844 L 66.699219 5.714844 L 66.699219 1.25 C 66.699219 0.558594 66.136719 0 65.449219 0 Z M 65.449219 0 "/>
<path style=" stroke:none;fill-rule:nonzero;fill:rgb(100%,71.372549%,28.235294%);fill-opacity:1;" d="M 20.425781 64.808594 C 20.007812 64.808594 19.667969 64.46875 19.667969 64.050781 C 19.667969 58.605469 24.097656 54.175781 29.542969 54.175781 C 29.960938 54.175781 30.300781 54.511719 30.300781 54.929688 C 30.300781 55.347656 29.960938 55.6875 29.542969 55.6875 C 24.933594 55.6875 21.179688 59.441406 21.179688 64.050781 C 21.179688 64.46875 20.84375 64.808594 20.425781 64.808594 Z M 20.425781 64.808594 "/>
<path style=" stroke:none;fill-rule:nonzero;fill:rgb(39.607843%,31.764706%,23.529412%);fill-opacity:1;" d="M 21.839844 65.378906 L 21.515625 67.183594 C 21.40625 67.785156 20.828125 68.1875 20.226562 68.078125 C 19.761719 67.992188 19.414062 67.625 19.335938 67.183594 L 19.007812 65.378906 C 18.867188 64.597656 19.386719 63.851562 20.167969 63.710938 C 20.949219 63.570312 21.699219 64.089844 21.839844 64.871094 C 21.871094 65.042969 21.867188 65.21875 21.839844 65.378906 Z M 21.839844 65.378906 "/>
<path style=" stroke:none;fill-rule:nonzero;fill:rgb(100%,71.372549%,28.235294%);fill-opacity:1;" d="M 77.292969 8.402344 C 74.546875 8.402344 72.0625 7.28125 70.273438 5.472656 C 69.367188 4.386719 68.003906 3.699219 66.476562 3.699219 C 66.441406 3.699219 66.410156 3.703125 66.375 3.703125 L 66.375 3.699219 L 62.070312 3.699219 C 59.441406 3.699219 57.296875 5.75 57.136719 8.335938 L 57.128906 8.335938 L 53.726562 50.996094 L 37.699219 50.996094 C 30.632812 50.996094 24.902344 56.726562 24.902344 63.796875 C 24.902344 70.863281 30.632812 76.59375 37.699219 76.59375 L 58.628906 76.59375 C 65.695312 76.59375 71.425781 70.863281 71.425781 63.796875 L 71.425781 50.996094 L 69.199219 15.847656 L 77.292969 15.847656 C 79.347656 15.847656 81.015625 14.179688 81.015625 12.125 C 81.015625 10.066406 79.347656 8.402344 77.292969 8.402344 Z M 77.292969 8.402344 "/>
<path style=" stroke:none;fill-rule:nonzero;fill:rgb(100%,71.372549%,28.235294%);fill-opacity:1;" d="M 33.679688 63.796875 L 32.121094 99.488281 C 32.121094 99.769531 31.890625 100 31.605469 100 L 26.976562 100 C 26.691406 100 26.464844 99.769531 26.464844 99.488281 L 24.902344 63.796875 Z M 33.679688 63.796875 "/>
<path style=" stroke:none;fill-rule:nonzero;fill:rgb(20%,24.313725%,28.235294%);fill-opacity:1;" d="M 26.367188 97.316406 L 26.464844 99.488281 C 26.464844 99.769531 26.695312 100 26.976562 100 L 31.605469 100 C 31.890625 100 32.121094 99.769531 32.121094 99.488281 L 32.214844 97.316406 Z M 26.367188 97.316406 "/>
<path style=" stroke:none;fill-rule:nonzero;fill:rgb(100%,71.372549%,28.235294%);fill-opacity:1;" d="M 61.507812 63.796875 L 59.949219 99.488281 C 59.949219 99.769531 59.71875 100 59.433594 100 L 54.804688 100 C 54.523438 100 54.292969 99.769531 54.292969 99.488281 L 52.730469 63.796875 Z M 61.507812 63.796875 "/>
<path style=" stroke:none;fill-rule:nonzero;fill:rgb(20%,24.313725%,28.235294%);fill-opacity:1;" d="M 54.199219 97.316406 L 54.292969 99.488281 C 54.292969 99.769531 54.523438 100 54.804688 100 L 59.433594 100 C 59.71875 100 59.949219 99.769531 59.949219 99.488281 L 60.042969 97.316406 Z M 54.199219 97.316406 "/>
<path style=" stroke:none;fill-rule:nonzero;fill:rgb(39.607843%,31.764706%,23.529412%);fill-opacity:1;" d="M 44.453125 50.996094 L 37.699219 50.996094 C 37.648438 50.996094 37.59375 51 37.539062 51 C 36.625 51.898438 36.054688 53.144531 36.054688 54.527344 C 36.054688 57.257812 38.269531 59.46875 41 59.46875 C 43.726562 59.46875 45.941406 57.257812 45.941406 54.527344 C 45.941406 53.144531 45.371094 51.894531 44.453125 50.996094 Z M 44.453125 50.996094 "/>
<path style=" stroke:none;fill-rule:nonzero;fill:rgb(39.607843%,31.764706%,23.529412%);fill-opacity:1;" d="M 55.414062 33.289062 C 55.320312 33.289062 55.230469 33.300781 55.136719 33.304688 L 54.164062 45.480469 C 54.570312 45.566406 54.988281 45.609375 55.414062 45.609375 C 58.816406 45.609375 61.574219 42.851562 61.574219 39.449219 C 61.574219 36.046875 58.816406 33.289062 55.414062 33.289062 Z M 55.414062 33.289062 "/>
<path style=" stroke:none;fill-rule:nonzero;fill:rgb(39.607843%,31.764706%,23.529412%);fill-opacity:1;" d="M 63.28125 60.6875 C 63.28125 64.089844 60.523438 66.847656 57.121094 66.847656 C 53.71875 66.847656 50.960938 64.089844 50.960938 60.6875 C 50.960938 57.285156 53.71875 54.527344 57.121094 54.527344 C 60.523438 54.527344 63.28125 57.285156 63.28125 60.6875 Z M 63.28125 60.6875 "/>
<path style=" stroke:none;fill-rule:nonzero;fill:rgb(39.607843%,31.764706%,23.529412%);fill-opacity:1;" d="M 69.707031 23.839844 C 66.640625 24.199219 64.265625 26.796875 64.265625 29.957031 C 64.265625 33.355469 67.023438 36.113281 70.421875 36.113281 C 70.445312 36.113281 70.464844 36.113281 70.484375 36.113281 Z M 69.707031 23.839844 "/>
<path style=" stroke:none;fill-rule:nonzero;fill:rgb(39.607843%,31.764706%,23.529412%);fill-opacity:1;" d="M 69.066406 49.183594 C 69.066406 51.039062 67.5625 52.542969 65.707031 52.542969 C 63.851562 52.542969 62.347656 51.039062 62.347656 49.183594 C 62.347656 47.328125 63.851562 45.824219 65.707031 45.824219 C 67.5625 45.824219 69.066406 47.328125 69.066406 49.183594 Z M 69.066406 49.183594 "/>
<path style=" stroke:none;fill-rule:nonzero;fill:rgb(39.607843%,31.764706%,23.529412%);fill-opacity:1;" d="M 67.210938 59.46875 C 67.210938 61.796875 69.097656 63.6875 71.425781 63.6875 L 71.425781 55.253906 C 69.097656 55.253906 67.210938 57.140625 67.210938 59.46875 Z M 67.210938 59.46875 "/>
<path style=" stroke:none;fill-rule:nonzero;fill:rgb(39.607843%,31.764706%,23.529412%);fill-opacity:1;" d="M 63.085938 22.511719 C 63.085938 24.054688 61.832031 25.308594 60.285156 25.308594 C 58.738281 25.308594 57.484375 24.054688 57.484375 22.511719 C 57.484375 20.964844 58.738281 19.710938 60.285156 19.710938 C 61.832031 19.710938 63.085938 20.964844 63.085938 22.511719 Z M 63.085938 22.511719 "/>
<path style=" stroke:none;fill-rule:nonzero;fill:rgb(39.607843%,31.764706%,23.529412%);fill-opacity:1;" d="M 48.164062 67.488281 C 48.164062 69.035156 46.910156 70.289062 45.363281 70.289062 C 43.816406 70.289062 42.5625 69.035156 42.5625 67.488281 C 42.5625 65.941406 43.816406 64.6875 45.363281 64.6875 C 46.910156 64.6875 48.164062 65.941406 48.164062 67.488281 Z M 48.164062 67.488281 "/>
<path style=" stroke:none;fill-rule:nonzero;fill:rgb(39.607843%,31.764706%,23.529412%);fill-opacity:1;" d="M 36.058594 61.886719 C 36.058594 63.433594 34.804688 64.6875 33.257812 64.6875 C 31.710938 64.6875 30.457031 63.433594 30.457031 61.886719 C 30.457031 60.339844 31.710938 59.085938 33.257812 59.085938 C 34.804688 59.085938 36.058594 60.339844 36.058594 61.886719 Z M 36.058594 61.886719 "/>
<path style=" stroke:none;fill-rule:nonzero;fill:rgb(20%,24.313725%,28.235294%);fill-opacity:1;" d="M 66.671875 8.503906 C 66.671875 9.179688 66.125 9.730469 65.449219 9.730469 C 64.769531 9.730469 64.222656 9.179688 64.222656 8.503906 C 64.222656 7.828125 64.769531 7.28125 65.449219 7.28125 C 66.125 7.28125 66.671875 7.828125 66.671875 8.503906 Z M 66.671875 8.503906 "/>
<path style=" stroke:none;fill-rule:nonzero;fill:rgb(92.941176%,60%,0%);fill-opacity:1;" d="M 77.796875 8.4375 C 76.484375 10.285156 75.707031 12.539062 75.707031 14.980469 C 75.707031 15.273438 75.71875 15.558594 75.742188 15.847656 L 77.292969 15.847656 C 79.347656 15.847656 81.015625 14.179688 81.015625 12.125 C 81.015625 10.238281 79.613281 8.6875 77.796875 8.4375 Z M 77.796875 8.4375 "/>
<path style=" stroke:none;fill-rule:nonzero;fill:rgb(100%,71.372549%,28.235294%);fill-opacity:1;" d="M 56.21875 7.859375 C 54.886719 6.523438 54.554688 4.914062 55.4375 4.03125 C 56.320312 3.148438 57.933594 3.476562 59.265625 4.8125 C 60.601562 6.148438 60.933594 7.757812 60.050781 8.640625 C 59.167969 9.523438 57.554688 9.195312 56.21875 7.859375 Z M 56.21875 7.859375 "/>
<path style=" stroke:none;fill-rule:nonzero;fill:rgb(92.941176%,60%,0%);fill-opacity:1;" d="M 58.527344 5.554688 C 57.664062 4.691406 56.613281 4.339844 56.179688 4.773438 C 55.75 5.203125 56.097656 6.253906 56.960938 7.117188 C 57.824219 7.980469 58.875 8.328125 59.308594 7.898438 C 59.738281 7.464844 59.390625 6.417969 58.527344 5.554688 Z M 58.527344 5.554688 "/>
</g>
</svg>
<!-- iconic normalized -->