<?xml version="1.0" encoding="UTF-8"?>
<svg xmlns="http://www.w3.org/2000/svg" xmlns:xlink="http://www.w3.org/1999/xlink" width="100px" height="100px" viewBox="0 0 100 100" version="1.1">
<g id="surface1">
<path style=" stroke:none;fill-rule:nonzero;fill:rgb(85.098039%,76.862745%,48.627451%);fill-opacity:1;" d="M 82.496094 90.175781 L 82.496094 63.050781 C 82.496094 59.398438 79.53125 56.433594 75.878906 56.433594 C 72.226562 56.433594 69.261719 59.398438 69.261719 63.050781 L 69.261719 93.382812 C 69.261719 97.039062 72.226562 100 75.878906 100 L 87.828125 100 C 88.875 100 89.722656 99.152344 89.722656 98.105469 C 89.722656 93.953125 86.546875 90.546875 82.496094 90.175781 Z M 82.496094 90.175781 "/>
<path style=" stroke:none;fill-rule:nonzero;fill:rgb(85.098039%,76.862745%,48.627451%);fill-opacity:1;" d="M 40.53125 46.546875 C 34.40625 46.546875 29.445312 51.511719 29.445312 57.636719 L 29.445312 68.566406 C 25.617188 69.21875 22.707031 72.546875 22.707031 76.558594 L 22.707031 93.382812 C 22.707031 97.039062 25.667969 100 29.324219 100 L 41.269531 100 C 42.316406 100 43.167969 99.152344 43.167969 98.105469 C 43.167969 94.039062 40.117188 90.6875 36.179688 90.207031 L 36.179688 81.652344 L 38.644531 81.652344 C 45.8125 81.652344 51.621094 75.84375 51.621094 68.675781 L 51.621094 57.636719 C 51.621094 51.511719 46.65625 46.546875 40.53125 46.546875 Z M 40.53125 46.546875 "/>
<path style=" stroke:none;fill-rule:nonzero;fill:rgb(98.039216%,87.45098%,55.294118%);fill-opacity:1;" d="M 79.707031 39.828125 L 23.289062 39.828125 C 19.820312 39.828125 16.632812 41.007812 14.09375 42.984375 C 7 44.539062 1.671875 50.867188 1.671875 58.421875 L 1.671875 63.617188 L 4.847656 63.617188 L 4.847656 58.421875 C 4.847656 54.378906 6.757812 50.78125 9.71875 48.46875 C 8.816406 50.390625 8.3125 52.539062 8.3125 54.804688 L 8.3125 69.347656 C 5.703125 70.695312 3.914062 73.417969 3.914062 76.558594 L 3.914062 93.382812 C 3.914062 97.039062 6.878906 100 10.53125 100 L 22.480469 100 C 23.527344 100 24.375 99.152344 24.375 98.105469 C 24.375 94.039062 21.324219 90.6875 17.390625 90.207031 L 17.390625 81.652344 L 19.855469 81.652344 C 23.773438 81.652344 27.28125 79.914062 29.660156 77.167969 L 50.472656 77.167969 L 50.472656 93.382812 C 50.472656 97.039062 53.433594 100 57.089844 100 L 69.035156 100 C 70.082031 100 70.933594 99.152344 70.933594 98.105469 C 70.933594 93.953125 67.757812 90.546875 63.703125 90.175781 L 63.703125 77.167969 L 67.277344 77.167969 C 77.269531 77.167969 85.371094 69.066406 85.371094 59.074219 L 85.371094 45.492188 C 85.371094 42.363281 82.835938 39.828125 79.707031 39.828125 Z M 79.707031 39.828125 "/>
<path style=" stroke:none;fill-rule:nonzero;fill:rgb(100%,61.960784%,8.627451%);fill-opacity:1;" d="M 5.898438 62.664062 L 5.292969 66.03125 C 5.089844 67.152344 4.015625 67.898438 2.894531 67.695312 C 2.023438 67.539062 1.378906 66.851562 1.226562 66.03125 L 0.621094 62.664062 C 0.355469 61.207031 1.324219 59.8125 2.78125 59.546875 C 4.242188 59.285156 5.636719 60.253906 5.898438 61.710938 C 5.957031 62.03125 5.953125 62.359375 5.898438 62.664062 Z M 5.898438 62.664062 "/>
<path style=" stroke:none;fill-rule:nonzero;fill:rgb(98.039216%,87.45098%,55.294118%);fill-opacity:1;" d="M 89.28125 12.394531 C 92.195312 10.351562 96.214844 11.058594 98.257812 13.976562 C 100.296875 16.890625 99.589844 20.910156 96.675781 22.953125 Z M 89.28125 12.394531 "/>
<path style=" stroke:none;fill-rule:nonzero;fill:rgb(74.901961%,60.784314%,37.254902%);fill-opacity:1;" d="M 90.59375 14.269531 C 92.472656 12.953125 95.0625 13.410156 96.378906 15.289062 C 97.695312 17.167969 97.238281 19.757812 95.359375 21.074219 Z M 90.59375 14.269531 "/>
<path style=" stroke:none;fill-rule:nonzero;fill:rgb(100%,61.960784%,8.627451%);fill-opacity:1;" d="M 98.980469 31.957031 C 98.980469 49.605469 84.671875 63.910156 67.023438 63.910156 C 49.375 63.910156 35.066406 49.605469 35.066406 31.957031 C 35.066406 14.308594 49.375 0 67.023438 0 C 84.671875 0 98.980469 14.308594 98.980469 31.957031 Z M 98.980469 31.957031 "/>
<path style=" stroke:none;fill-rule:nonzero;fill:rgb(98.039216%,87.45098%,55.294118%);fill-opacity:1;" d="M 97.039062 32.652344 L 89.910156 21.851562 C 89.714844 21.53125 89.507812 21.21875 89.289062 20.910156 L 89.285156 20.902344 C 86.699219 17.230469 82.863281 14.507812 78.394531 13.347656 C 67.019531 11.898438 58.621094 21.34375 58.621094 31.957031 C 58.621094 42.574219 67.226562 51.179688 77.84375 51.179688 L 91.515625 51.179688 C 95.550781 51.179688 98.820312 47.910156 98.820312 43.875 L 98.820312 37.429688 C 98.820312 35.601562 98.148438 33.933594 97.039062 32.652344 Z M 97.039062 32.652344 "/>
<path style=" stroke:none;fill-rule:nonzero;fill:rgb(20%,24.313725%,28.235294%);fill-opacity:1;" d="M 79.792969 29.914062 C 79.792969 30.980469 78.929688 31.847656 77.859375 31.847656 C 76.792969 31.847656 75.925781 30.980469 75.925781 29.914062 C 75.925781 28.847656 76.792969 27.980469 77.859375 27.980469 C 78.929688 27.980469 79.792969 28.847656 79.792969 29.914062 Z M 79.792969 29.914062 "/>
<path style=" stroke:none;fill-rule:nonzero;fill:rgb(20%,24.313725%,28.235294%);fill-opacity:1;" d="M 95.570312 37.808594 C 94.375 39.050781 92.378906 39.085938 91.140625 37.886719 L 89.753906 36.550781 C 88.515625 35.355469 88.910156 34.375 90.636719 34.375 L 95.75 34.375 C 97.472656 34.375 97.90625 35.390625 96.707031 36.632812 Z M 95.570312 37.808594 "/>
<path style=" stroke:none;fill-rule:nonzero;fill:rgb(98.039216%,87.45098%,55.294118%);fill-opacity:1;" d="M 58.324219 14.757812 C 55.40625 12.714844 51.386719 13.421875 49.347656 16.339844 C 47.304688 19.253906 48.011719 23.273438 50.929688 25.316406 Z M 58.324219 14.757812 "/>
<path style=" stroke:none;fill-rule:nonzero;fill:rgb(74.901961%,60.784314%,37.254902%);fill-opacity:1;" d="M 57.007812 16.632812 C 55.128906 15.316406 52.539062 15.773438 51.222656 17.652344 C 49.90625 19.53125 50.363281 22.125 52.242188 23.4375 Z M 57.007812 16.632812 "/>
</g>
</svg>
<!-- iconic normalized -->