<?xml version="1.0" encoding="UTF-8"?>
<svg xmlns="http://www.w3.org/2000/svg" xmlns:xlink="http://www.w3.org/1999/xlink" width="100px" height="100px" viewBox="0 0 100 100" version="1.1">
<g id="surface1">
<path style=" stroke:none;fill-rule:nonzero;fill:rgb(48.627451%,59.607843%,67.058824%);fill-opacity:1;" d="M 90.683594 20.359375 L 72.542969 16.226562 C 71.699219 15.96875 70.824219 15.785156 69.921875 15.679688 L 69.921875 12.105469 C 69.921875 10.308594 68.464844 8.851562 66.664062 8.851562 C 64.867188 8.851562 63.410156 10.308594 63.410156 12.105469 L 63.410156 13.8125 C 59.878906 10.574219 55.171875 8.59375 50 8.59375 C 44.828125 8.59375 40.121094 10.574219 36.589844 13.8125 L 36.589844 12.105469 C 36.589844 10.308594 35.132812 8.851562 33.335938 8.851562 C 31.535156 8.851562 30.078125 10.308594 30.078125 12.105469 L 30.078125 15.679688 C 29.195312 15.785156 28.316406 15.964844 27.457031 16.226562 L 9.316406 20.359375 C 4.019531 21.304688 0 25.929688 0 31.496094 C 0 35.949219 2.570312 39.800781 6.3125 41.648438 L 42.394531 62.046875 C 43.972656 62.957031 45.679688 63.5625 47.429688 63.863281 L 47.429688 77.59375 C 47.429688 82.375 43.539062 86.265625 38.757812 86.265625 C 36.441406 86.265625 34.261719 85.363281 32.625 83.722656 C 31.621094 82.71875 29.992188 82.71875 28.988281 83.722656 C 27.984375 84.726562 27.984375 86.355469 28.988281 87.359375 C 31.597656 89.96875 35.066406 91.40625 38.757812 91.40625 C 46.375 91.40625 52.570312 85.210938 52.570312 77.59375 L 52.570312 63.863281 C 54.320312 63.5625 56.027344 62.957031 57.605469 62.042969 L 57.605469 62.046875 L 93.691406 41.648438 C 97.429688 39.800781 100 35.949219 100 31.496094 C 100 25.929688 95.980469 21.304688 90.683594 20.359375 Z M 90.683594 20.359375 "/>
<path style=" stroke:none;fill-rule:nonzero;fill:rgb(37.254902%,45.882353%,52.156863%);fill-opacity:1;" d="M 90.683594 20.359375 L 72.542969 16.226562 C 71.699219 15.96875 70.824219 15.785156 69.921875 15.679688 L 69.921875 12.105469 C 69.921875 10.308594 68.464844 8.851562 66.664062 8.851562 C 64.867188 8.851562 63.410156 10.308594 63.410156 12.105469 L 63.410156 13.8125 C 59.878906 10.574219 55.171875 8.59375 50 8.59375 C 44.828125 8.59375 40.121094 10.574219 36.589844 13.8125 L 36.589844 12.105469 C 36.589844 10.308594 35.132812 8.851562 33.335938 8.851562 C 31.535156 8.851562 30.078125 10.308594 30.078125 12.105469 L 30.078125 15.679688 C 29.195312 15.785156 28.316406 15.964844 27.457031 16.226562 L 9.316406 20.359375 C 4.671875 21.191406 1.007812 24.851562 0.175781 29.496094 C 0.816406 33.078125 3.144531 36.078125 6.3125 37.640625 L 42.394531 58.039062 C 44.738281 59.394531 47.371094 60.074219 50 60.074219 C 52.628906 60.074219 55.261719 59.394531 57.605469 58.039062 L 93.691406 37.640625 C 96.855469 36.074219 99.183594 33.078125 99.824219 29.496094 C 98.992188 24.851562 95.328125 21.191406 90.683594 20.359375 Z M 90.683594 20.359375 "/>
<path style=" stroke:none;fill-rule:nonzero;fill:rgb(20%,24.313725%,28.235294%);fill-opacity:1;" d="M 39.761719 20.738281 C 39.761719 21.519531 39.128906 22.152344 38.347656 22.152344 C 37.566406 22.152344 36.933594 21.519531 36.933594 20.738281 C 36.933594 19.957031 37.566406 19.324219 38.347656 19.324219 C 39.128906 19.324219 39.761719 19.957031 39.761719 20.738281 Z M 39.761719 20.738281 "/>
<path style=" stroke:none;fill-rule:nonzero;fill:rgb(20%,24.313725%,28.235294%);fill-opacity:1;" d="M 63.066406 20.738281 C 63.066406 21.519531 62.433594 22.152344 61.652344 22.152344 C 60.871094 22.152344 60.238281 21.519531 60.238281 20.738281 C 60.238281 19.957031 60.871094 19.324219 61.652344 19.324219 C 62.433594 19.324219 63.066406 19.957031 63.066406 20.738281 Z M 63.066406 20.738281 "/>
<path style=" stroke:none;fill-rule:nonzero;fill:rgb(48.627451%,59.607843%,67.058824%);fill-opacity:1;" d="M 35.820312 40.410156 C 35.820312 41.664062 34.804688 42.679688 33.550781 42.679688 C 32.292969 42.679688 31.277344 41.664062 31.277344 40.410156 C 31.277344 39.15625 32.292969 38.140625 33.550781 38.140625 C 34.804688 38.140625 35.820312 39.15625 35.820312 40.410156 Z M 35.820312 40.410156 "/>
<path style=" stroke:none;fill-rule:nonzero;fill:rgb(48.627451%,59.607843%,67.058824%);fill-opacity:1;" d="M 65.335938 46.375 C 65.335938 47.628906 64.320312 48.648438 63.066406 48.648438 C 61.8125 48.648438 60.796875 47.628906 60.796875 46.375 C 60.796875 45.121094 61.8125 44.105469 63.066406 44.105469 C 64.320312 44.105469 65.335938 45.121094 65.335938 46.375 Z M 65.335938 46.375 "/>
<path style=" stroke:none;fill-rule:nonzero;fill:rgb(48.627451%,59.607843%,67.058824%);fill-opacity:1;" d="M 65.292969 51.140625 C 65.292969 51.753906 64.796875 52.253906 64.179688 52.253906 C 63.566406 52.253906 63.066406 51.753906 63.066406 51.140625 C 63.066406 50.523438 63.566406 50.027344 64.179688 50.027344 C 64.796875 50.027344 65.292969 50.523438 65.292969 51.140625 Z M 65.292969 51.140625 "/>
<path style=" stroke:none;fill-rule:nonzero;fill:rgb(48.627451%,59.607843%,67.058824%);fill-opacity:1;" d="M 69.234375 43.929688 C 69.234375 44.542969 68.738281 45.042969 68.121094 45.042969 C 67.507812 45.042969 67.007812 44.542969 67.007812 43.929688 C 67.007812 43.3125 67.507812 42.816406 68.121094 42.816406 C 68.738281 42.816406 69.234375 43.3125 69.234375 43.929688 Z M 69.234375 43.929688 "/>
<path style=" stroke:none;fill-rule:nonzero;fill:rgb(48.627451%,59.607843%,67.058824%);fill-opacity:1;" d="M 88.683594 33.445312 C 88.683594 34.058594 88.183594 34.558594 87.570312 34.558594 C 86.953125 34.558594 86.453125 34.058594 86.453125 33.445312 C 86.453125 32.828125 86.953125 32.332031 87.570312 32.332031 C 88.183594 32.332031 88.683594 32.828125 88.683594 33.445312 Z M 88.683594 33.445312 "/>
<path style=" stroke:none;fill-rule:nonzero;fill:rgb(48.627451%,59.607843%,67.058824%);fill-opacity:1;" d="M 30.464844 46.375 C 30.464844 46.992188 29.964844 47.488281 29.351562 47.488281 C 28.734375 47.488281 28.234375 46.992188 28.234375 46.375 C 28.234375 45.761719 28.734375 45.261719 29.351562 45.261719 C 29.964844 45.261719 30.464844 45.761719 30.464844 46.375 Z M 30.464844 46.375 "/>
<path style=" stroke:none;fill-rule:nonzero;fill:rgb(48.627451%,59.607843%,67.058824%);fill-opacity:1;" d="M 13.546875 28.433594 C 13.546875 29.050781 13.046875 29.546875 12.433594 29.546875 C 11.816406 29.546875 11.316406 29.050781 11.316406 28.433594 C 11.316406 27.820312 11.816406 27.320312 12.433594 27.320312 C 13.046875 27.320312 13.546875 27.820312 13.546875 28.433594 Z M 13.546875 28.433594 "/>
</g>
</svg>
<!-- iconic normalized -->