<?xml version="1.0" encoding="UTF-8"?>
<svg xmlns="http://www.w3.org/2000/svg" xmlns:xlink="http://www.w3.org/1999/xlink" width="100px" height="100px" viewBox="0 0 100 100" version="1.1">
<g id="surface1">
<path style=" stroke:none;fill-rule:nonzero;fill:rgb(49.019608%,52.54902%,54.901961%);fill-opacity:1;" d="M 0 35.371094 C 4.527344 30.84375 11.867188 30.84375 16.394531 35.371094 L 23.1875 42.164062 C 23.886719 42.867188 24.371094 43.707031 24.636719 44.59375 C 25.230469 46.570312 24.75 48.800781 23.1875 50.363281 L 16.390625 57.15625 C 11.867188 61.683594 4.527344 61.683594 0 57.15625 L 10.890625 46.265625 Z M 0 35.371094 "/>
<path style=" stroke:none;fill-rule:nonzero;fill:rgb(49.019608%,52.54902%,54.901961%);fill-opacity:1;" d="M 19.589844 41.113281 C 17.214844 41.113281 15.289062 43.039062 15.289062 45.417969 C 15.289062 45.585938 15.296875 45.75 15.316406 45.914062 C 17.636719 61.625 31.179688 73.683594 47.535156 73.683594 L 67.753906 73.683594 C 84.109375 73.683594 97.652344 61.625 99.972656 45.914062 C 99.988281 45.75 100 45.585938 100 45.417969 C 100 43.039062 98.074219 41.113281 95.699219 41.113281 Z M 19.589844 41.113281 "/>
<path style=" stroke:none;fill-rule:nonzero;fill:rgb(37.254902%,45.882353%,52.156863%);fill-opacity:1;" d="M 47.671875 46.503906 C 47.671875 47.925781 46.519531 49.074219 45.101562 49.074219 C 43.679688 49.074219 42.53125 47.925781 42.53125 46.503906 C 42.53125 45.085938 43.679688 43.933594 45.101562 43.933594 C 46.519531 43.933594 47.671875 45.085938 47.671875 46.503906 Z M 47.671875 46.503906 "/>
<path style=" stroke:none;fill-rule:nonzero;fill:rgb(37.254902%,45.882353%,52.156863%);fill-opacity:1;" d="M 39.625 49.074219 C 39.625 50.496094 38.472656 51.644531 37.054688 51.644531 C 35.636719 51.644531 34.484375 50.496094 34.484375 49.074219 C 34.484375 47.65625 35.636719 46.503906 37.054688 46.503906 C 38.472656 46.503906 39.625 47.65625 39.625 49.074219 Z M 39.625 49.074219 "/>
<path style=" stroke:none;fill-rule:nonzero;fill:rgb(37.254902%,45.882353%,52.156863%);fill-opacity:1;" d="M 31.960938 44.804688 C 31.960938 45.828125 31.132812 46.652344 30.113281 46.652344 C 29.09375 46.652344 28.265625 45.828125 28.265625 44.804688 C 28.265625 43.785156 29.09375 42.957031 30.113281 42.957031 C 31.132812 42.957031 31.960938 43.785156 31.960938 44.804688 Z M 31.960938 44.804688 "/>
<path style=" stroke:none;fill-rule:nonzero;fill:rgb(37.254902%,45.882353%,52.156863%);fill-opacity:1;" d="M 99.507812 43.425781 C 99.820312 44.019531 100 44.699219 100 45.417969 C 100 45.585938 99.992188 45.75 99.972656 45.914062 C 97.652344 61.625 84.109375 73.683594 67.753906 73.683594 L 67.367188 73.683594 C 69.0625 57.140625 82.695312 44.136719 99.507812 43.425781 Z M 99.507812 43.425781 "/>
<path style=" stroke:none;fill-rule:nonzero;fill:rgb(36.078431%,40%,43.921569%);fill-opacity:1;" d="M 50.882812 67.046875 C 53.285156 67.046875 55.234375 68.992188 55.234375 71.398438 C 55.234375 73.800781 53.285156 75.75 50.882812 75.75 L 37.902344 75.75 C 37.902344 70.941406 41.800781 67.046875 46.605469 67.046875 Z M 50.882812 67.046875 "/>
<path style=" stroke:none;fill-rule:nonzero;fill:rgb(20%,24.313725%,28.235294%);fill-opacity:1;" d="M 66.863281 63.042969 C 66.863281 64.15625 65.960938 65.058594 64.847656 65.058594 C 63.734375 65.058594 62.832031 64.15625 62.832031 63.042969 C 62.832031 61.929688 63.734375 61.027344 64.847656 61.027344 C 65.960938 61.027344 66.863281 61.929688 66.863281 63.042969 Z M 66.863281 63.042969 "/>
<path style=" stroke:none;fill-rule:nonzero;fill:rgb(0%,45.882353%,78.823529%);fill-opacity:1;" d="M 55.535156 24.25 C 57.863281 24.25 59.925781 25.398438 61.199219 27.152344 C 62.46875 25.398438 64.535156 24.25 66.863281 24.25 C 70.71875 24.25 73.855469 27.386719 73.855469 31.242188 C 73.855469 31.972656 73.261719 32.566406 72.53125 32.566406 C 71.796875 32.566406 71.203125 31.972656 71.203125 31.242188 C 71.203125 28.847656 69.257812 26.902344 66.863281 26.902344 C 64.472656 26.902344 62.523438 28.847656 62.523438 31.242188 L 62.523438 36.542969 C 62.523438 37.273438 61.929688 37.867188 61.199219 37.867188 C 60.464844 37.867188 59.875 37.273438 59.875 36.542969 L 59.875 31.242188 C 59.875 28.847656 57.925781 26.902344 55.535156 26.902344 C 53.140625 26.902344 51.195312 28.847656 51.195312 31.242188 C 51.195312 31.972656 50.601562 32.566406 49.867188 32.566406 C 49.136719 32.566406 48.542969 31.972656 48.542969 31.242188 C 48.542969 27.386719 51.679688 24.25 55.535156 24.25 Z M 55.535156 24.25 "/>
</g>
</svg>
<!-- iconic normalized -->