<?xml version="1.0" encoding="UTF-8"?>
<svg xmlns="http://www.w3.org/2000/svg" xmlns:xlink="http://www.w3.org/1999/xlink" width="100px" height="100px" viewBox="0 0 100 100" version="1.1">
<g id="surface1">
<path style=" stroke:none;fill-rule:nonzero;fill:rgb(88.235294%,41.960784%,35.294118%);fill-opacity:1;" d="M 100 50 C 100 77.613281 77.613281 100 50 100 C 22.386719 100 0 77.613281 0 50 C 0 22.386719 22.386719 0 50 0 C 77.613281 0 100 22.386719 100 50 Z M 100 50 "/>
<path style=" stroke:none;fill-rule:nonzero;fill:rgb(80%,80%,80%);fill-opacity:1;" d="M 19.53125 77.34375 C 16.515625 77.34375 14.0625 74.890625 14.0625 71.875 L 14.0625 27.34375 C 14.0625 24.328125 15.734375 22.65625 18.75 22.65625 L 80.46875 22.65625 C 83.484375 22.65625 85.9375 25.109375 85.9375 28.125 L 85.9375 71.875 C 85.9375 74.890625 83.484375 77.34375 80.46875 77.34375 Z M 19.53125 77.34375 "/>
<path style=" stroke:none;fill-rule:nonzero;fill:rgb(80%,34.509804%,29.803922%);fill-opacity:1;" d="M 20.277344 27.34375 C 20.277344 28.207031 19.578125 28.90625 18.714844 28.90625 C 17.851562 28.90625 17.152344 28.207031 17.152344 27.34375 C 17.152344 26.480469 17.851562 25.78125 18.714844 25.78125 C 19.578125 25.78125 20.277344 26.480469 20.277344 27.34375 Z M 20.277344 27.34375 "/>
<path style=" stroke:none;fill-rule:nonzero;fill:rgb(100%,83.137255%,39.215686%);fill-opacity:1;" d="M 24.964844 27.34375 C 24.964844 28.207031 24.265625 28.90625 23.402344 28.90625 C 22.539062 28.90625 21.839844 28.207031 21.839844 27.34375 C 21.839844 26.480469 22.539062 25.78125 23.402344 25.78125 C 24.265625 25.78125 24.964844 26.480469 24.964844 27.34375 Z M 24.964844 27.34375 "/>
<path style=" stroke:none;fill-rule:nonzero;fill:rgb(9.803922%,50.196078%,34.509804%);fill-opacity:1;" d="M 29.652344 27.34375 C 29.652344 28.207031 28.953125 28.90625 28.089844 28.90625 C 27.226562 28.90625 26.527344 28.207031 26.527344 27.34375 C 26.527344 26.480469 27.226562 25.78125 28.089844 25.78125 C 28.953125 25.78125 29.652344 26.480469 29.652344 27.34375 Z M 29.652344 27.34375 "/>
<path style=" stroke:none;fill-rule:nonzero;fill:rgb(96.078431%,96.078431%,96.078431%);fill-opacity:1;" d="M 78.871094 28.125 C 78.871094 28.554688 78.519531 28.90625 78.089844 28.90625 L 32.777344 28.90625 C 32.347656 28.90625 31.996094 28.554688 31.996094 28.125 L 31.996094 26.5625 C 31.996094 26.132812 32.347656 25.78125 32.777344 25.78125 L 78.089844 25.78125 C 78.519531 25.78125 78.871094 26.132812 78.871094 26.5625 Z M 78.871094 28.125 "/>
<path style=" stroke:none;fill-rule:nonzero;fill:rgb(96.078431%,96.078431%,96.078431%);fill-opacity:1;" d="M 82.8125 72.65625 C 82.8125 73.515625 82.109375 74.21875 81.25 74.21875 L 18.75 74.21875 C 17.890625 74.21875 17.1875 73.515625 17.1875 72.65625 L 17.1875 33.59375 C 17.1875 32.734375 17.890625 32.03125 18.75 32.03125 L 81.25 32.03125 C 82.109375 32.03125 82.8125 32.734375 82.8125 33.59375 Z M 82.8125 72.65625 "/>
<path style=" stroke:none;fill-rule:nonzero;fill:rgb(88.235294%,41.960784%,35.294118%);fill-opacity:1;" d="M 41.664062 57.292969 L 41.664062 54.984375 L 36.972656 54.984375 L 36.972656 53.0625 L 41.945312 45.78125 L 43.792969 45.78125 L 43.792969 53.054688 L 45.214844 53.054688 L 45.214844 54.984375 L 43.792969 54.984375 L 43.792969 57.292969 Z M 41.664062 53.054688 L 41.664062 49.136719 L 39.027344 53.054688 Z M 41.664062 53.054688 "/>
<path style=" stroke:none;fill-rule:nonzero;fill:rgb(88.235294%,41.960784%,35.294118%);fill-opacity:1;" d="M 49.976562 45.78125 C 51.085938 45.78125 51.953125 46.175781 52.582031 46.96875 C 53.324219 47.90625 53.699219 49.464844 53.699219 51.636719 C 53.699219 53.804688 53.324219 55.363281 52.574219 56.3125 C 51.953125 57.09375 51.089844 57.488281 49.976562 57.488281 C 48.863281 57.488281 47.960938 57.058594 47.28125 56.199219 C 46.597656 55.34375 46.253906 53.8125 46.253906 51.613281 C 46.253906 49.457031 46.628906 47.902344 47.378906 46.953125 C 48 46.171875 48.867188 45.78125 49.976562 45.78125 Z M 49.976562 47.601562 C 49.710938 47.601562 49.472656 47.6875 49.265625 47.855469 C 49.054688 48.027344 48.894531 48.328125 48.78125 48.769531 C 48.628906 49.335938 48.554688 50.292969 48.554688 51.636719 C 48.554688 52.980469 48.621094 53.90625 48.757812 54.410156 C 48.890625 54.914062 49.0625 55.246094 49.269531 55.414062 C 49.472656 55.582031 49.710938 55.664062 49.976562 55.664062 C 50.242188 55.664062 50.480469 55.582031 50.6875 55.410156 C 50.894531 55.242188 51.058594 54.9375 51.171875 54.5 C 51.324219 53.9375 51.398438 52.980469 51.398438 51.636719 C 51.398438 50.292969 51.332031 49.367188 51.195312 48.863281 C 51.058594 48.363281 50.890625 48.027344 50.683594 47.855469 C 50.476562 47.6875 50.242188 47.601562 49.976562 47.601562 Z M 49.976562 47.601562 "/>
<path style=" stroke:none;fill-rule:nonzero;fill:rgb(88.235294%,41.960784%,35.294118%);fill-opacity:1;" d="M 59.476562 57.292969 L 59.476562 54.984375 L 54.785156 54.984375 L 54.785156 53.0625 L 59.757812 45.78125 L 61.605469 45.78125 L 61.605469 53.054688 L 63.027344 53.054688 L 63.027344 54.984375 L 61.605469 54.984375 L 61.605469 57.292969 Z M 59.476562 53.054688 L 59.476562 49.136719 L 56.84375 53.054688 Z M 59.476562 53.054688 "/>
</g>
</svg>
<!-- iconic normalized -->