<?xml version="1.0" encoding="UTF-8"?>
<svg xmlns="http://www.w3.org/2000/svg" xmlns:xlink="http://www.w3.org/1999/xlink" width="100px" height="100px" viewBox="0 0 100 100" version="1.1">
<g id="surface1">
<path style=" stroke:none;fill-rule:nonzero;fill:rgb(0%,0%,0%);fill-opacity:1;" d="M 71.410156 11 L 100 11 L 100 33 L 71.410156 33 Z M 71.410156 11 "/>
<path style=" stroke:none;fill-rule:nonzero;fill:rgb(0%,0%,0%);fill-opacity:1;" d="M 71.410156 39 L 100 39 L 100 61 L 71.410156 61 Z M 71.410156 39 "/>
<path style=" stroke:none;fill-rule:nonzero;fill:rgb(0%,0%,0%);fill-opacity:1;" d="M 71.410156 67 L 100 67 L 100 89 L 71.410156 89 Z M 71.410156 67 "/>
<path style=" stroke:none;fill-rule:nonzero;fill:rgb(0%,0%,0%);fill-opacity:1;" d="M 34.707031 11 L 65.292969 11 L 65.292969 33 L 34.707031 33 Z M 34.707031 11 "/>
<path style=" stroke:none;fill-rule:nonzero;fill:rgb(0%,0%,0%);fill-opacity:1;" d="M 34.707031 39 L 65.292969 39 L 65.292969 61 L 34.707031 61 Z M 34.707031 39 "/>
<path style=" stroke:none;fill-rule:nonzero;fill:rgb(0%,0%,0%);fill-opacity:1;" d="M 34.707031 67 L 65.292969 67 L 65.292969 89 L 34.707031 89 Z M 34.707031 67 "/>
<path style=" stroke:none;fill-rule:nonzero;fill:rgb(0%,0%,0%);fill-opacity:1;" d="M 0 11 L 28.589844 11 L 28.589844 33 L 0 33 Z M 0 11 "/>
<path style=" stroke:none;fill-rule:nonzero;fill:rgb(0%,0%,0%);fill-opacity:1;" d="M 0 39 L 28.589844 39 L 28.589844 61 L 0 61 Z M 0 39 "/>
<path style=" stroke:none;fill-rule:nonzero;fill:rgb(0%,0%,0%);fill-opacity:1;" d="M 0 67 L 28.589844 67 L 28.589844 89 L 0 89 Z M 0 67 "/>
</g>
</svg>
<!-- iconic normalized -->