<?xml version="1.0" encoding="UTF-8"?>
<svg xmlns="http://www.w3.org/2000/svg" xmlns:xlink="http://www.w3.org/1999/xlink" width="100px" height="100px" viewBox="0 0 100 100" version="1.1">
<g id="surface1">
<path style=" stroke:none;fill-rule:nonzero;fill:rgb(0%,0%,0%);fill-opacity:1;" d="M 0 50 L 63.519531 84.941406 L 63.519531 60.945312 L 100 60.945312 L 100 39.054688 L 63.519531 39.054688 L 63.519531 15.058594 Z M 0 50 "/>
</g>
</svg>
<!-- iconic normalized -->