<?xml version="1.0" encoding="UTF-8"?>
<svg xmlns="http://www.w3.org/2000/svg" xmlns:xlink="http://www.w3.org/1999/xlink" width="100px" height="100px" viewBox="0 0 100 100" version="1.1">
<g id="surface1">
<path style=" stroke:none;fill-rule:nonzero;fill:rgb(29.019608%,72.156863%,63.137255%);fill-opacity:1;" d="M 100 50 C 100 77.613281 77.613281 100 50 100 C 22.386719 100 0 77.613281 0 50 C 0 22.386719 22.386719 0 50 0 C 77.613281 0 100 22.386719 100 50 Z M 100 50 "/>
<path style=" stroke:none;fill-rule:nonzero;fill:rgb(100%,100%,100%);fill-opacity:1;" d="M 45.832031 69.167969 C 44.914062 69.167969 44.167969 68.421875 44.167969 67.5 L 44.167969 60.832031 C 44.167969 60.003906 44.773438 59.304688 45.589844 59.183594 L 75 54.390625 L 75 43.332031 L 21.667969 43.332031 C 20.746094 43.332031 20 42.585938 20 41.667969 C 20 40.746094 20.746094 40 21.667969 40 L 76.667969 40 C 77.585938 40 78.332031 40.746094 78.332031 41.667969 L 78.332031 55.832031 C 78.332031 56.660156 77.726562 57.363281 76.910156 57.484375 L 47.5 62.273438 L 47.5 67.5 C 47.5 68.421875 46.753906 69.167969 45.832031 69.167969 Z M 45.832031 69.167969 "/>
<path style=" stroke:none;fill-rule:nonzero;fill:rgb(60%,37.647059%,18.039216%);fill-opacity:1;" d="M 51.667969 90 C 51.667969 91.832031 50.167969 93.332031 48.332031 93.332031 L 43.332031 93.332031 C 41.5 93.332031 40 91.832031 40 90 L 40 70 C 40 68.167969 41.5 66.667969 43.332031 66.667969 L 48.332031 66.667969 C 50.167969 66.667969 51.667969 68.167969 51.667969 70 Z M 51.667969 90 "/>
<path style=" stroke:none;fill-rule:nonzero;fill:rgb(54.901961%,34.509804%,16.470588%);fill-opacity:1;" d="M 48.332031 66.667969 L 45 66.667969 C 46.832031 66.667969 48.332031 68.167969 48.332031 70 L 48.332031 90 C 48.332031 91.832031 46.832031 93.332031 45 93.332031 L 48.332031 93.332031 C 50.167969 93.332031 51.667969 91.832031 51.667969 90 L 51.667969 70 C 51.667969 68.167969 50.167969 66.667969 48.332031 66.667969 Z M 48.332031 66.667969 "/>
<path style=" stroke:none;fill-rule:nonzero;fill:rgb(90.196078%,90.196078%,90.196078%);fill-opacity:1;" d="M 72.5 46.667969 C 72.5 48.5 71 50 69.167969 50 L 27.5 50 C 25.667969 50 24.167969 48.5 24.167969 46.667969 L 24.167969 36.667969 C 24.167969 34.832031 25.667969 33.332031 27.5 33.332031 L 69.167969 33.332031 C 71 33.332031 72.5 34.832031 72.5 36.667969 Z M 72.5 46.667969 "/>
<path style=" stroke:none;fill-rule:nonzero;fill:rgb(80%,80%,80%);fill-opacity:1;" d="M 69.167969 33.332031 L 66.667969 33.332031 C 68.5 33.332031 70 34.832031 70 36.667969 L 70 46.667969 C 70 48.5 68.5 50 66.667969 50 L 69.167969 50 C 71 50 72.5 48.5 72.5 46.667969 L 72.5 36.667969 C 72.5 34.832031 71 33.332031 69.167969 33.332031 Z M 69.167969 33.332031 "/>
<path style=" stroke:none;fill-rule:nonzero;fill:rgb(25.098039%,41.568627%,50.196078%);fill-opacity:1;" d="M 27.5 35 C 27.5 36.378906 28.621094 37.5 30 37.5 C 30.1875 37.5 30.363281 37.476562 30.539062 37.4375 C 32.027344 37.152344 33.511719 35.832031 35 35.832031 C 36.667969 35.832031 35.832031 40 37.5 40 C 39.167969 40 39.167969 35.832031 42.5 35.832031 C 45.832031 35.832031 45 37.5 45.832031 37.5 C 46.667969 37.5 46.667969 35 48.332031 35 C 50.832031 35 49.167969 41.667969 52.5 41.667969 C 55.832031 41.667969 54.167969 36.667969 55 36.667969 C 55.832031 36.667969 55.832031 37.5 56.667969 37.5 C 57.5 37.5 57.5 36.667969 58.332031 36.667969 C 59.167969 36.667969 58.332031 40.832031 60 40.832031 C 61.667969 40.832031 61.667969 37.5 62.5 37.5 C 63.421875 37.5 64.167969 36.753906 64.167969 35.832031 C 64.167969 35.75 64.152344 35.667969 64.140625 35.589844 C 64.390625 35.742188 64.683594 35.832031 65 35.832031 C 65.347656 35.832031 65.667969 35.726562 65.933594 35.546875 C 66.160156 36.199219 66.773438 36.667969 67.5 36.667969 C 68.421875 36.667969 69.167969 35.921875 69.167969 35 L 69.167969 3.8125 C 63.261719 1.359375 56.789062 0 50 0 C 41.902344 0 34.265625 1.9375 27.5 5.351562 Z M 27.5 35 "/>
<path style=" stroke:none;fill-rule:nonzero;fill:rgb(22.352941%,37.254902%,45.098039%);fill-opacity:1;" d="M 27.5 32.5 L 69.167969 32.5 L 69.167969 33.332031 L 27.5 33.332031 Z M 27.5 32.5 "/>
<path style=" stroke:none;fill-rule:nonzero;fill:rgb(29.019608%,72.156863%,63.137255%);fill-opacity:1;" d="M 55.832031 0.351562 L 55.832031 4.167969 C 55.832031 5.085938 56.578125 5.832031 57.5 5.832031 C 58.421875 5.832031 59.167969 5.085938 59.167969 4.167969 L 59.167969 9.167969 C 59.167969 9.625 59.539062 10 60 10 C 60.460938 10 60.832031 9.625 60.832031 9.167969 L 60.832031 2.5 C 60.832031 3.421875 61.578125 4.167969 62.5 4.167969 C 63.421875 4.167969 64.167969 3.421875 64.167969 2.5 L 64.167969 2.050781 C 61.476562 1.253906 58.691406 0.683594 55.832031 0.351562 Z M 55.832031 0.351562 "/>
<path style=" stroke:none;fill-rule:nonzero;fill:rgb(29.019608%,72.156863%,63.137255%);fill-opacity:1;" d="M 50.832031 15.832031 C 51.292969 15.832031 51.667969 15.460938 51.667969 15 L 51.667969 0.0429688 C 51.113281 0.0234375 50.558594 0 50 0 L 50 15 C 50 15.460938 50.375 15.832031 50.832031 15.832031 Z M 50.832031 15.832031 "/>
<path style=" stroke:none;fill-rule:nonzero;fill:rgb(29.019608%,72.156863%,63.137255%);fill-opacity:1;" d="M 45 0.269531 C 42.730469 0.496094 40.503906 0.859375 38.332031 1.378906 L 38.332031 10.832031 C 38.332031 11.292969 38.707031 11.667969 39.167969 11.667969 C 39.625 11.667969 40 11.292969 40 10.832031 L 40 9.167969 C 40 10.546875 41.121094 11.667969 42.5 11.667969 C 43.878906 11.667969 45 10.546875 45 9.167969 Z M 45 0.269531 "/>
<path style=" stroke:none;fill-rule:nonzero;fill:rgb(29.019608%,72.156863%,63.137255%);fill-opacity:1;" d="M 30 4.175781 L 30 12.5 C 30 13.421875 30.746094 14.167969 31.667969 14.167969 C 32.585938 14.167969 33.332031 13.421875 33.332031 12.5 L 33.332031 8.332031 C 33.332031 9.253906 34.078125 10 35 10 C 35.921875 10 36.667969 9.253906 36.667969 8.332031 L 36.667969 1.828125 C 34.375 2.460938 32.144531 3.238281 30 4.175781 Z M 30 4.175781 "/>
</g>
</svg>
<!-- iconic normalized -->