<?xml version="1.0" encoding="UTF-8"?>
<svg xmlns="http://www.w3.org/2000/svg" xmlns:xlink="http://www.w3.org/1999/xlink" width="100px" height="100px" viewBox="0 0 100 100" version="1.1">
<g id="surface1">
<path style=" stroke:none;fill-rule:nonzero;fill:rgb(0%,0%,0%);fill-opacity:1;" d="M 95.3125 6.25 L 4.6875 6.25 C 2.109375 6.25 0 8.359375 0 10.9375 L 0 93.75 L 100 93.75 L 100 10.9375 C 100 8.359375 97.890625 6.25 95.3125 6.25 Z M 15.851562 9.601562 C 16.589844 9.601562 17.1875 10.199219 17.1875 10.9375 C 17.1875 11.675781 16.589844 12.273438 15.851562 12.273438 C 15.117188 12.273438 14.519531 11.675781 14.519531 10.9375 C 14.519531 10.199219 15.117188 9.601562 15.851562 9.601562 Z M 7.84375 12.273438 C 7.109375 12.273438 6.511719 11.675781 6.511719 10.9375 C 6.511719 10.199219 7.109375 9.601562 7.84375 9.601562 C 8.582031 9.601562 9.179688 10.199219 9.179688 10.9375 C 9.179688 11.675781 8.582031 12.273438 7.84375 12.273438 Z M 10.515625 10.9375 C 10.515625 10.199219 11.113281 9.601562 11.847656 9.601562 C 12.585938 9.601562 13.183594 10.199219 13.183594 10.9375 C 13.183594 11.675781 12.585938 12.273438 11.847656 12.273438 C 11.113281 12.273438 10.515625 11.675781 10.515625 10.9375 Z M 45.3125 84.765625 L 10.9375 84.765625 L 10.9375 22.265625 L 45.3125 22.265625 Z M 89.0625 84.765625 L 54.6875 84.765625 L 54.6875 83.203125 L 89.0625 83.203125 Z M 89.0625 80.078125 L 54.6875 80.078125 L 54.6875 78.515625 L 89.0625 78.515625 Z M 89.0625 75.390625 L 54.6875 75.390625 L 54.6875 73.828125 L 89.0625 73.828125 Z M 89.0625 70.703125 L 54.6875 70.703125 L 54.6875 69.140625 L 89.0625 69.140625 Z M 89.0625 66.015625 L 54.6875 66.015625 L 54.6875 64.453125 L 89.0625 64.453125 Z M 89.0625 61.328125 L 54.6875 61.328125 L 54.6875 59.765625 L 89.0625 59.765625 Z M 89.0625 56.640625 L 54.6875 56.640625 L 54.6875 55.078125 L 89.0625 55.078125 Z M 89.0625 51.953125 L 54.6875 51.953125 L 54.6875 50.390625 L 89.0625 50.390625 Z M 89.0625 47.265625 L 54.6875 47.265625 L 54.6875 45.703125 L 89.0625 45.703125 Z M 89.0625 42.578125 L 54.6875 42.578125 L 54.6875 41.015625 L 89.0625 41.015625 Z M 89.0625 37.890625 L 54.6875 37.890625 L 54.6875 36.328125 L 89.0625 36.328125 Z M 89.0625 33.203125 L 54.6875 33.203125 L 54.6875 31.640625 L 89.0625 31.640625 Z M 89.0625 28.515625 L 54.6875 28.515625 L 54.6875 26.953125 L 89.0625 26.953125 Z M 89.0625 23.828125 L 54.6875 23.828125 L 54.6875 22.265625 L 89.0625 22.265625 Z M 86.71875 13.28125 L 28.90625 13.28125 C 27.617188 13.28125 26.5625 12.226562 26.5625 10.9375 C 26.5625 9.648438 27.617188 8.59375 28.90625 8.59375 L 86.71875 8.59375 C 88.007812 8.59375 89.0625 9.648438 89.0625 10.9375 C 89.0625 12.226562 88.007812 13.28125 86.71875 13.28125 Z M 86.71875 13.28125 "/>
</g>
</svg>
<!-- iconic normalized -->