<?xml version="1.0" encoding="UTF-8"?>
<svg xmlns="http://www.w3.org/2000/svg" xmlns:xlink="http://www.w3.org/1999/xlink" width="100px" height="100px" viewBox="0 0 100 100" version="1.1">
<g id="surface1">
<path style=" stroke:none;fill-rule:nonzero;fill:rgb(0%,0%,0%);fill-opacity:1;" d="M 95.3125 6.25 L 4.6875 6.25 C 2.109375 6.25 0 8.359375 0 10.9375 L 0 93.75 L 100 93.75 L 100 10.9375 C 100 8.359375 97.890625 6.25 95.3125 6.25 Z M 15.851562 9.601562 C 16.589844 9.601562 17.1875 10.199219 17.1875 10.9375 C 17.1875 11.675781 16.589844 12.273438 15.851562 12.273438 C 15.117188 12.273438 14.519531 11.675781 14.519531 10.9375 C 14.519531 10.199219 15.117188 9.601562 15.851562 9.601562 Z M 7.84375 12.273438 C 7.109375 12.273438 6.511719 11.675781 6.511719 10.9375 C 6.511719 10.199219 7.109375 9.601562 7.84375 9.601562 C 8.582031 9.601562 9.179688 10.199219 9.179688 10.9375 C 9.179688 11.675781 8.582031 12.273438 7.84375 12.273438 Z M 10.515625 10.9375 C 10.515625 10.199219 11.113281 9.601562 11.847656 9.601562 C 12.585938 9.601562 13.183594 10.199219 13.183594 10.9375 C 13.183594 11.675781 12.585938 12.273438 11.847656 12.273438 C 11.113281 12.273438 10.515625 11.675781 10.515625 10.9375 Z M 56.25 37.121094 L 10.9375 37.121094 L 10.9375 35.558594 L 56.25 35.558594 Z M 56.25 32.433594 L 10.9375 32.433594 L 10.9375 30.871094 L 56.25 30.871094 Z M 56.25 27.746094 L 10.9375 27.746094 L 10.9375 26.183594 L 56.25 26.183594 Z M 89.0625 83.996094 L 64.0625 83.996094 L 64.0625 66.808594 L 89.0625 66.808594 Z M 89.0625 62.121094 L 64.0625 62.121094 L 64.0625 44.933594 L 89.0625 44.933594 Z M 89.0625 40.246094 L 64.0625 40.246094 L 64.0625 23.058594 L 89.0625 23.058594 Z M 86.71875 13.28125 L 28.90625 13.28125 C 27.617188 13.28125 26.5625 12.226562 26.5625 10.9375 C 26.5625 9.648438 27.617188 8.59375 28.90625 8.59375 L 86.71875 8.59375 C 88.007812 8.59375 89.0625 9.648438 89.0625 10.9375 C 89.0625 12.226562 88.007812 13.28125 86.71875 13.28125 Z M 86.71875 13.28125 "/>
</g>
</svg>
<!-- iconic normalized -->