<?xml version="1.0" encoding="UTF-8"?>
<svg xmlns="http://www.w3.org/2000/svg" xmlns:xlink="http://www.w3.org/1999/xlink" width="100px" height="100px" viewBox="0 0 100 100" version="1.1">
<g id="surface1">
<path style=" stroke:none;fill-rule:nonzero;fill:rgb(19.607843%,74.509804%,65.098039%);fill-opacity:1;" d="M 0 50 C 0 22.382812 22.386719 0 50 0 C 77.613281 0 100 22.386719 100 50 C 100 77.613281 77.613281 100 50 100 C 22.386719 100 0 77.613281 0 50 Z M 0 50 "/>
<path style=" stroke:none;fill-rule:nonzero;fill:rgb(100%,100%,100%);fill-opacity:1;" d="M 77.304688 41.628906 L 58.265625 41.628906 L 58.265625 22.695312 C 58.265625 21.894531 57.613281 21.246094 56.8125 21.246094 L 43.082031 21.246094 C 42.28125 21.246094 41.628906 21.894531 41.628906 22.695312 L 41.628906 41.628906 L 22.695312 41.628906 C 21.894531 41.628906 21.246094 42.28125 21.246094 43.082031 L 21.246094 57.027344 C 21.246094 57.828125 21.894531 58.476562 22.695312 58.476562 L 41.628906 58.476562 L 41.628906 77.304688 C 41.628906 78.105469 42.28125 78.753906 43.082031 78.753906 L 56.8125 78.753906 C 57.613281 78.753906 58.265625 78.105469 58.265625 77.304688 L 58.265625 58.476562 L 77.304688 58.476562 C 78.105469 58.476562 78.753906 57.828125 78.753906 57.027344 L 78.753906 43.082031 C 78.753906 42.28125 78.105469 41.628906 77.304688 41.628906 Z M 77.304688 41.628906 "/>
</g>
</svg>
<!-- iconic normalized -->