<?xml version="1.0" encoding="UTF-8"?>
<svg xmlns="http://www.w3.org/2000/svg" xmlns:xlink="http://www.w3.org/1999/xlink" width="100px" height="100px" viewBox="0 0 100 100" version="1.1">
<g id="surface1">
<path style=" stroke:none;fill-rule:nonzero;fill:rgb(20%,44.313725%,50.196078%);fill-opacity:1;" d="M 100 50 C 100 22.382812 77.613281 0 50 0 C 22.386719 0 0 22.382812 0 50 C 0 77.613281 22.386719 100 50 100 C 77.613281 100 100 77.613281 100 50 Z M 100 50 "/>
<path style=" stroke:none;fill-rule:nonzero;fill:rgb(87.45098%,94.901961%,95.686275%);fill-opacity:1;" d="M 14.796875 50.605469 C 14.796875 51.273438 14.253906 51.8125 13.585938 51.8125 L 11.4375 51.8125 C 10.769531 51.8125 10.226562 51.273438 10.226562 50.605469 L 10.226562 49.292969 C 10.226562 48.625 10.769531 48.085938 11.4375 48.085938 L 13.585938 48.085938 C 14.253906 48.085938 14.796875 48.625 14.796875 49.292969 Z M 14.796875 50.605469 "/>
<path style=" stroke:none;fill-rule:nonzero;fill:rgb(87.45098%,94.901961%,95.686275%);fill-opacity:1;" d="M 21.042969 53.777344 C 21.042969 54.445312 20.503906 54.988281 19.835938 54.988281 L 17.683594 54.988281 C 17.015625 54.988281 16.476562 54.445312 16.476562 53.777344 L 16.476562 46.21875 C 16.476562 45.550781 17.015625 45.011719 17.683594 45.011719 L 19.835938 45.011719 C 20.503906 45.011719 21.042969 45.550781 21.042969 46.21875 Z M 21.042969 53.777344 "/>
<path style=" stroke:none;fill-rule:nonzero;fill:rgb(70.980392%,89.019608%,91.764706%);fill-opacity:1;" d="M 27.292969 55.339844 C 27.292969 56.007812 26.75 56.550781 26.082031 56.550781 L 23.933594 56.550781 C 23.265625 56.550781 22.722656 56.007812 22.722656 55.339844 L 22.722656 44.660156 C 22.722656 43.992188 23.265625 43.449219 23.933594 43.449219 L 26.082031 43.449219 C 26.75 43.449219 27.292969 43.992188 27.292969 44.660156 Z M 27.292969 55.339844 "/>
<path style=" stroke:none;fill-rule:nonzero;fill:rgb(70.980392%,89.019608%,91.764706%);fill-opacity:1;" d="M 33.539062 58.464844 C 33.539062 59.132812 33 59.675781 32.332031 59.675781 L 30.179688 59.675781 C 29.511719 59.675781 28.972656 59.132812 28.972656 58.464844 L 28.972656 41.535156 C 28.972656 40.867188 29.511719 40.324219 30.179688 40.324219 L 32.332031 40.324219 C 33 40.324219 33.539062 40.867188 33.539062 41.535156 Z M 33.539062 58.464844 "/>
<path style=" stroke:none;fill-rule:nonzero;fill:rgb(63.921569%,83.529412%,87.843137%);fill-opacity:1;" d="M 39.789062 64.714844 C 39.789062 65.378906 39.246094 65.921875 38.578125 65.921875 L 36.429688 65.921875 C 35.761719 65.921875 35.21875 65.378906 35.21875 64.714844 L 35.21875 35.285156 C 35.21875 34.621094 35.761719 34.078125 36.429688 34.078125 L 38.578125 34.078125 C 39.246094 34.078125 39.789062 34.621094 39.789062 35.285156 Z M 39.789062 64.714844 "/>
<path style=" stroke:none;fill-rule:nonzero;fill:rgb(63.921569%,83.529412%,87.843137%);fill-opacity:1;" d="M 46.035156 67.835938 C 46.035156 68.503906 45.496094 69.046875 44.828125 69.046875 L 42.675781 69.046875 C 42.007812 69.046875 41.46875 68.503906 41.46875 67.835938 L 41.46875 32.164062 C 41.46875 31.496094 42.007812 30.953125 42.675781 30.953125 L 44.828125 30.953125 C 45.496094 30.953125 46.035156 31.496094 46.035156 32.164062 Z M 46.035156 67.835938 "/>
<path style=" stroke:none;fill-rule:nonzero;fill:rgb(55.686275%,77.254902%,80.784314%);fill-opacity:1;" d="M 52.285156 77.210938 C 52.285156 77.875 51.742188 78.417969 51.074219 78.417969 L 48.925781 78.417969 C 48.257812 78.417969 47.714844 77.875 47.714844 77.210938 L 47.714844 22.789062 C 47.714844 22.125 48.257812 21.582031 48.925781 21.582031 L 51.074219 21.582031 C 51.742188 21.582031 52.285156 22.125 52.285156 22.789062 Z M 52.285156 77.210938 "/>
<path style=" stroke:none;fill-rule:nonzero;fill:rgb(63.921569%,83.529412%,87.843137%);fill-opacity:1;" d="M 58.53125 64.714844 C 58.53125 65.378906 57.992188 65.921875 57.324219 65.921875 L 55.171875 65.921875 C 54.503906 65.921875 53.964844 65.378906 53.964844 64.714844 L 53.964844 35.285156 C 53.964844 34.621094 54.503906 34.078125 55.171875 34.078125 L 57.324219 34.078125 C 57.992188 34.078125 58.53125 34.621094 58.53125 35.285156 Z M 58.53125 64.714844 "/>
<path style=" stroke:none;fill-rule:nonzero;fill:rgb(63.921569%,83.529412%,87.843137%);fill-opacity:1;" d="M 64.78125 58.464844 C 64.78125 59.132812 64.238281 59.675781 63.570312 59.675781 L 61.421875 59.675781 C 60.753906 59.675781 60.210938 59.132812 60.210938 58.464844 L 60.210938 41.535156 C 60.210938 40.867188 60.753906 40.324219 61.421875 40.324219 L 63.570312 40.324219 C 64.238281 40.324219 64.78125 40.867188 64.78125 41.535156 Z M 64.78125 58.464844 "/>
<path style=" stroke:none;fill-rule:nonzero;fill:rgb(70.980392%,89.019608%,91.764706%);fill-opacity:1;" d="M 71.027344 61.589844 C 71.027344 62.257812 70.488281 62.796875 69.820312 62.796875 L 67.667969 62.796875 C 67 62.796875 66.460938 62.257812 66.460938 61.589844 L 66.460938 38.410156 C 66.460938 37.742188 67 37.203125 67.667969 37.203125 L 69.820312 37.203125 C 70.488281 37.203125 71.027344 37.742188 71.027344 38.410156 Z M 71.027344 61.589844 "/>
<path style=" stroke:none;fill-rule:nonzero;fill:rgb(70.980392%,89.019608%,91.764706%);fill-opacity:1;" d="M 77.277344 55.339844 C 77.277344 56.007812 76.734375 56.550781 76.066406 56.550781 L 73.917969 56.550781 C 73.25 56.550781 72.707031 56.007812 72.707031 55.339844 L 72.707031 44.65625 C 72.707031 43.992188 73.25 43.449219 73.917969 43.449219 L 76.066406 43.449219 C 76.734375 43.449219 77.277344 43.992188 77.277344 44.65625 Z M 77.277344 55.339844 "/>
<path style=" stroke:none;fill-rule:nonzero;fill:rgb(87.45098%,94.901961%,95.686275%);fill-opacity:1;" d="M 89.773438 50.640625 C 89.773438 51.308594 89.230469 51.851562 88.5625 51.851562 L 86.414062 51.851562 C 85.746094 51.851562 85.203125 51.308594 85.203125 50.640625 L 85.203125 49.332031 C 85.203125 48.664062 85.746094 48.121094 86.414062 48.121094 L 88.5625 48.121094 C 89.230469 48.121094 89.773438 48.664062 89.773438 49.332031 Z M 89.773438 50.640625 "/>
<path style=" stroke:none;fill-rule:nonzero;fill:rgb(87.45098%,94.901961%,95.686275%);fill-opacity:1;" d="M 83.523438 52.21875 C 83.523438 52.886719 82.984375 53.425781 82.316406 53.425781 L 80.164062 53.425781 C 79.496094 53.425781 78.957031 52.886719 78.957031 52.21875 L 78.957031 47.78125 C 78.957031 47.113281 79.496094 46.574219 80.164062 46.574219 L 82.316406 46.574219 C 82.984375 46.574219 83.523438 47.113281 83.523438 47.78125 Z M 83.523438 52.21875 "/>
</g>
</svg>
<!-- iconic normalized -->