<?xml version="1.0" encoding="UTF-8"?>
<svg xmlns="http://www.w3.org/2000/svg" xmlns:xlink="http://www.w3.org/1999/xlink" width="100px" height="100px" viewBox="0 0 100 100" version="1.1">
<g id="surface1">
<path style=" stroke:none;fill-rule:nonzero;fill:rgb(68.627451%,71.372549%,73.333333%);fill-opacity:1;" d="M 79.183594 50.359375 L 49.640625 20.8125 L 67.625 2.828125 C 71.398438 -0.945312 77.515625 -0.945312 81.289062 2.828125 L 97.171875 18.710938 C 100.945312 22.484375 100.945312 28.601562 97.171875 32.375 Z M 79.183594 50.359375 "/>
<path style=" stroke:none;fill-rule:nonzero;fill:rgb(90.588235%,92.54902%,92.941176%);fill-opacity:1;" d="M 42.820312 87.460938 L 12.539062 57.179688 C 11.382812 56.023438 11.382812 54.148438 12.539062 52.992188 L 45.085938 20.445312 C 46.242188 19.289062 48.117188 19.289062 49.273438 20.445312 L 79.554688 50.726562 C 80.710938 51.882812 80.710938 53.757812 79.554688 54.914062 L 47.007812 87.460938 C 45.851562 88.617188 43.976562 88.617188 42.820312 87.460938 Z M 42.820312 87.460938 "/>
<path style=" stroke:none;fill-rule:nonzero;fill:rgb(79.607843%,83.137255%,84.705882%);fill-opacity:1;" d="M 22.757812 67.394531 L 32.605469 77.242188 L 23.988281 85.859375 L 14.140625 76.011719 Z M 22.757812 67.394531 "/>
<path style=" stroke:none;fill-rule:nonzero;fill:rgb(100%,100%,100%);fill-opacity:1;" d="M 82.429688 33.515625 L 66.484375 17.570312 C 64.769531 15.855469 64.769531 13.074219 66.484375 11.359375 L 68.890625 8.953125 C 70.605469 7.238281 73.386719 7.238281 75.101562 8.953125 L 91.046875 24.898438 C 92.761719 26.613281 92.761719 29.394531 91.046875 31.109375 L 88.640625 33.515625 C 86.925781 35.230469 84.144531 35.230469 82.429688 33.515625 Z M 82.429688 33.515625 "/>
<path style=" stroke:none;fill-rule:nonzero;fill:rgb(82.745098%,66.666667%,43.137255%);fill-opacity:1;" d="M 73.226562 12 C 72.542969 11.320312 71.445312 11.320312 70.761719 12 L 69.53125 13.234375 C 68.851562 13.914062 68.851562 15.011719 69.53125 15.695312 C 69.871094 16.035156 70.316406 16.203125 70.761719 16.203125 C 71.210938 16.203125 71.65625 16.035156 71.996094 15.695312 L 73.226562 14.464844 C 73.90625 13.78125 73.90625 12.679688 73.226562 12 Z M 73.226562 12 "/>
<path style=" stroke:none;fill-rule:nonzero;fill:rgb(82.745098%,66.666667%,43.137255%);fill-opacity:1;" d="M 76.917969 15.695312 C 76.238281 15.015625 75.136719 15.015625 74.457031 15.695312 L 73.226562 16.925781 C 72.546875 17.605469 72.546875 18.707031 73.226562 19.386719 C 73.566406 19.726562 74.011719 19.898438 74.457031 19.898438 C 74.902344 19.898438 75.347656 19.726562 75.6875 19.386719 L 76.917969 18.15625 C 77.597656 17.476562 77.597656 16.375 76.917969 15.695312 Z M 76.917969 15.695312 "/>
<path style=" stroke:none;fill-rule:nonzero;fill:rgb(82.745098%,66.666667%,43.137255%);fill-opacity:1;" d="M 80.613281 19.386719 C 79.929688 18.707031 78.832031 18.707031 78.148438 19.386719 L 76.917969 20.617188 C 76.238281 21.300781 76.238281 22.398438 76.917969 23.082031 C 77.257812 23.421875 77.703125 23.589844 78.148438 23.589844 C 78.597656 23.589844 79.042969 23.421875 79.382812 23.082031 L 80.613281 21.851562 C 81.292969 21.167969 81.292969 20.066406 80.613281 19.386719 Z M 80.613281 19.386719 "/>
<path style=" stroke:none;fill-rule:nonzero;fill:rgb(82.745098%,66.666667%,43.137255%);fill-opacity:1;" d="M 84.304688 23.082031 C 83.625 22.398438 82.523438 22.398438 81.84375 23.082031 L 80.613281 24.3125 C 79.929688 24.992188 79.929688 26.09375 80.613281 26.773438 C 80.953125 27.113281 81.398438 27.28125 81.84375 27.28125 C 82.289062 27.28125 82.734375 27.113281 83.074219 26.773438 L 84.304688 25.542969 C 84.984375 24.863281 84.984375 23.761719 84.304688 23.082031 Z M 84.304688 23.082031 "/>
<path style=" stroke:none;fill-rule:nonzero;fill:rgb(82.745098%,66.666667%,43.137255%);fill-opacity:1;" d="M 88 26.773438 C 87.316406 26.09375 86.214844 26.09375 85.535156 26.773438 L 84.300781 28.003906 C 83.621094 28.683594 83.621094 29.785156 84.300781 30.464844 C 84.640625 30.804688 85.089844 30.976562 85.535156 30.976562 C 85.980469 30.976562 86.425781 30.804688 86.765625 30.464844 L 88 29.234375 C 88.675781 28.554688 88.675781 27.453125 88 26.773438 Z M 88 26.773438 "/>
<path style=" stroke:none;fill-rule:nonzero;fill:rgb(90.588235%,92.54902%,92.941176%);fill-opacity:1;" d="M 16.6875 78.386719 L 1.019531 94.054688 C -0.339844 95.417969 -0.339844 97.621094 1.019531 98.980469 C 2.378906 100.339844 4.582031 100.339844 5.945312 98.980469 L 21.613281 83.3125 Z M 16.6875 78.386719 "/>
</g>
</svg>
<!-- iconic normalized -->