<?xml version="1.0" encoding="UTF-8"?>
<svg xmlns="http://www.w3.org/2000/svg" xmlns:xlink="http://www.w3.org/1999/xlink" width="100px" height="100px" viewBox="0 0 100 100" version="1.1">
<g id="surface1">
<path style=" stroke:none;fill-rule:nonzero;fill:rgb(0.392157%,57.254902%,79.607843%);fill-opacity:1;" d="M 95.882812 100 L 4.117188 100 C 2.328125 100 0.878906 98.550781 0.878906 96.761719 L 0.878906 49.128906 L 99.121094 49.128906 L 99.121094 96.761719 C 99.121094 98.550781 97.671875 100 95.882812 100 Z M 95.882812 100 "/>
<path style=" stroke:none;fill-rule:nonzero;fill:rgb(21.960784%,27.058824%,30.980392%);fill-opacity:1;" d="M 99.121094 49.121094 L 0.878906 49.121094 L 0.878906 3.238281 C 0.878906 1.449219 2.328125 0 4.117188 0 L 95.882812 0 C 97.671875 0 99.121094 1.449219 99.121094 3.238281 Z M 99.121094 49.121094 "/>
<path style=" stroke:none;fill-rule:nonzero;fill:rgb(15.686275%,19.607843%,21.960784%);fill-opacity:1;" d="M 73.550781 42.105469 L 26.449219 42.105469 C 24.921875 42.105469 23.683594 40.867188 23.683594 39.339844 L 23.683594 9.777344 C 23.683594 8.25 24.921875 7.011719 26.449219 7.011719 L 73.550781 7.011719 C 75.078125 7.011719 76.316406 8.25 76.316406 9.777344 L 76.316406 39.339844 C 76.316406 40.867188 75.078125 42.105469 73.550781 42.105469 Z M 73.550781 42.105469 "/>
<path style=" stroke:none;fill-rule:nonzero;fill:rgb(15.686275%,19.607843%,21.960784%);fill-opacity:1;" d="M 73.550781 92.984375 L 26.449219 92.984375 C 24.921875 92.984375 23.683594 91.742188 23.683594 90.21875 L 23.683594 58.90625 C 23.683594 57.378906 24.921875 56.140625 26.449219 56.140625 L 73.550781 56.140625 C 75.078125 56.140625 76.316406 57.378906 76.316406 58.90625 L 76.316406 90.21875 C 76.316406 91.742188 75.078125 92.984375 73.550781 92.984375 Z M 73.550781 92.984375 "/>
<path style=" stroke:none;fill-rule:nonzero;fill:rgb(38.431373%,72.54902%,95.686275%);fill-opacity:1;" d="M 11.402344 61.402344 L 14.914062 61.402344 L 14.914062 75.4375 L 11.402344 75.4375 Z M 11.402344 61.402344 "/>
<path style=" stroke:none;fill-rule:nonzero;fill:rgb(38.431373%,72.54902%,95.686275%);fill-opacity:1;" d="M 6.140625 66.667969 L 20.175781 66.667969 L 20.175781 70.175781 L 6.140625 70.175781 Z M 6.140625 66.667969 "/>
<path style=" stroke:none;fill-rule:nonzero;fill:rgb(38.431373%,72.54902%,95.686275%);fill-opacity:1;" d="M 87.71875 68.421875 C 86.265625 68.421875 85.085938 67.242188 85.085938 65.789062 C 85.085938 64.335938 86.265625 63.15625 87.71875 63.15625 C 89.171875 63.15625 90.351562 64.335938 90.351562 65.789062 C 90.351562 67.242188 89.171875 68.421875 87.71875 68.421875 Z M 87.71875 68.421875 "/>
<path style=" stroke:none;fill-rule:nonzero;fill:rgb(38.431373%,72.54902%,95.686275%);fill-opacity:1;" d="M 87.71875 77.191406 C 86.265625 77.191406 85.085938 76.015625 85.085938 74.5625 C 85.085938 73.109375 86.265625 71.929688 87.71875 71.929688 C 89.171875 71.929688 90.351562 73.109375 90.351562 74.5625 C 90.351562 76.015625 89.171875 77.191406 87.71875 77.191406 Z M 87.71875 77.191406 "/>
<path style=" stroke:none;fill-rule:nonzero;fill:rgb(38.431373%,72.54902%,95.686275%);fill-opacity:1;" d="M 90.351562 70.175781 C 90.351562 68.722656 91.53125 67.542969 92.984375 67.542969 C 94.433594 67.542969 95.613281 68.722656 95.613281 70.175781 C 95.613281 71.628906 94.433594 72.808594 92.984375 72.808594 C 91.53125 72.808594 90.351562 71.628906 90.351562 70.175781 Z M 90.351562 70.175781 "/>
<path style=" stroke:none;fill-rule:nonzero;fill:rgb(38.431373%,72.54902%,95.686275%);fill-opacity:1;" d="M 79.824219 70.175781 C 79.824219 68.722656 81.003906 67.542969 82.457031 67.542969 C 83.910156 67.542969 85.085938 68.722656 85.085938 70.175781 C 85.085938 71.628906 83.910156 72.808594 82.457031 72.808594 C 81.003906 72.808594 79.824219 71.628906 79.824219 70.175781 Z M 79.824219 70.175781 "/>
<path style=" stroke:none;fill-rule:nonzero;fill:rgb(15.686275%,19.607843%,21.960784%);fill-opacity:1;" d="M 4.894531 19.808594 C 4.578125 20.121094 4.386719 20.578125 4.386719 21.050781 C 4.386719 21.507812 4.578125 21.964844 4.894531 22.296875 C 5.226562 22.613281 5.683594 22.808594 6.140625 22.808594 C 6.597656 22.808594 7.050781 22.613281 7.386719 22.296875 C 7.703125 21.964844 7.894531 21.507812 7.894531 21.050781 C 7.894531 20.578125 7.703125 20.136719 7.386719 19.808594 C 6.71875 19.15625 5.542969 19.15625 4.894531 19.808594 Z M 4.894531 19.808594 "/>
<path style=" stroke:none;fill-rule:nonzero;fill:rgb(15.686275%,19.607843%,21.960784%);fill-opacity:1;" d="M 10.15625 19.808594 C 9.84375 20.121094 9.648438 20.578125 9.648438 21.050781 C 9.648438 21.507812 9.84375 21.964844 10.15625 22.296875 C 10.492188 22.613281 10.949219 22.808594 11.402344 22.808594 C 11.859375 22.808594 12.316406 22.613281 12.648438 22.296875 C 12.964844 21.964844 13.15625 21.507812 13.15625 21.050781 C 13.15625 20.578125 12.964844 20.136719 12.648438 19.808594 C 11.984375 19.15625 10.808594 19.15625 10.15625 19.808594 Z M 10.15625 19.808594 "/>
<path style=" stroke:none;fill-rule:nonzero;fill:rgb(15.686275%,19.607843%,21.960784%);fill-opacity:1;" d="M 15.421875 19.808594 C 15.105469 20.136719 14.914062 20.578125 14.914062 21.050781 C 14.914062 21.507812 15.105469 21.964844 15.421875 22.296875 C 15.753906 22.613281 16.210938 22.808594 16.667969 22.808594 C 17.121094 22.808594 17.578125 22.613281 17.914062 22.296875 C 18.226562 21.964844 18.421875 21.507812 18.421875 21.050781 C 18.421875 20.578125 18.226562 20.136719 17.914062 19.808594 C 17.246094 19.15625 16.070312 19.15625 15.421875 19.808594 Z M 15.421875 19.808594 "/>
<path style=" stroke:none;fill-rule:nonzero;fill:rgb(15.686275%,19.607843%,21.960784%);fill-opacity:1;" d="M 4.894531 26.824219 C 4.578125 27.15625 4.386719 27.613281 4.386719 28.070312 C 4.386719 28.527344 4.578125 28.984375 4.894531 29.316406 C 5.226562 29.632812 5.683594 29.824219 6.140625 29.824219 C 6.597656 29.824219 7.050781 29.632812 7.386719 29.316406 C 7.703125 28.984375 7.894531 28.527344 7.894531 28.070312 C 7.894531 27.613281 7.703125 27.15625 7.386719 26.824219 C 6.738281 26.175781 5.542969 26.175781 4.894531 26.824219 Z M 4.894531 26.824219 "/>
<path style=" stroke:none;fill-rule:nonzero;fill:rgb(15.686275%,19.607843%,21.960784%);fill-opacity:1;" d="M 10.15625 26.824219 C 9.84375 27.15625 9.648438 27.613281 9.648438 28.070312 C 9.648438 28.527344 9.84375 28.984375 10.15625 29.316406 C 10.492188 29.632812 10.929688 29.824219 11.402344 29.824219 C 11.859375 29.824219 12.316406 29.632812 12.648438 29.316406 C 12.964844 28.984375 13.15625 28.527344 13.15625 28.070312 C 13.15625 27.613281 12.964844 27.15625 12.648438 26.824219 C 11.984375 26.175781 10.789062 26.191406 10.15625 26.824219 Z M 10.15625 26.824219 "/>
<path style=" stroke:none;fill-rule:nonzero;fill:rgb(15.686275%,19.607843%,21.960784%);fill-opacity:1;" d="M 15.421875 26.824219 C 15.105469 27.15625 14.914062 27.59375 14.914062 28.070312 C 14.914062 28.527344 15.105469 28.984375 15.421875 29.316406 C 15.753906 29.632812 16.210938 29.824219 16.667969 29.824219 C 17.121094 29.824219 17.578125 29.632812 17.914062 29.316406 C 18.226562 28.984375 18.421875 28.527344 18.421875 28.070312 C 18.421875 27.613281 18.226562 27.15625 17.914062 26.824219 C 17.261719 26.175781 16.070312 26.175781 15.421875 26.824219 Z M 15.421875 26.824219 "/>
<path style=" stroke:none;fill-rule:nonzero;fill:rgb(15.686275%,19.607843%,21.960784%);fill-opacity:1;" d="M 82.085938 19.808594 C 81.773438 20.121094 81.578125 20.578125 81.578125 21.050781 C 81.578125 21.507812 81.773438 21.964844 82.085938 22.296875 C 82.421875 22.613281 82.878906 22.808594 83.332031 22.808594 C 83.789062 22.808594 84.246094 22.613281 84.578125 22.296875 C 84.894531 21.964844 85.085938 21.507812 85.085938 21.050781 C 85.085938 20.578125 84.894531 20.136719 84.578125 19.808594 C 83.914062 19.15625 82.738281 19.15625 82.085938 19.808594 Z M 82.085938 19.808594 "/>
<path style=" stroke:none;fill-rule:nonzero;fill:rgb(15.686275%,19.607843%,21.960784%);fill-opacity:1;" d="M 87.351562 19.808594 C 87.035156 20.121094 86.84375 20.578125 86.84375 21.050781 C 86.84375 21.507812 87.035156 21.964844 87.351562 22.296875 C 87.683594 22.613281 88.140625 22.808594 88.597656 22.808594 C 89.050781 22.808594 89.507812 22.613281 89.84375 22.296875 C 90.15625 21.964844 90.351562 21.507812 90.351562 21.050781 C 90.351562 20.578125 90.15625 20.136719 89.84375 19.808594 C 89.175781 19.15625 88 19.15625 87.351562 19.808594 Z M 87.351562 19.808594 "/>
<path style=" stroke:none;fill-rule:nonzero;fill:rgb(15.686275%,19.607843%,21.960784%);fill-opacity:1;" d="M 93.859375 22.808594 C 94.316406 22.808594 94.773438 22.613281 95.105469 22.296875 C 95.421875 21.964844 95.613281 21.507812 95.613281 21.050781 C 95.613281 20.578125 95.421875 20.136719 95.105469 19.808594 C 94.4375 19.15625 93.261719 19.15625 92.613281 19.808594 C 92.296875 20.136719 92.105469 20.578125 92.105469 21.050781 C 92.105469 21.507812 92.296875 21.964844 92.613281 22.296875 C 92.949219 22.613281 93.402344 22.808594 93.859375 22.808594 Z M 93.859375 22.808594 "/>
<path style=" stroke:none;fill-rule:nonzero;fill:rgb(15.686275%,19.607843%,21.960784%);fill-opacity:1;" d="M 82.085938 26.824219 C 81.773438 27.15625 81.578125 27.59375 81.578125 28.070312 C 81.578125 28.527344 81.773438 28.984375 82.085938 29.316406 C 82.421875 29.632812 82.878906 29.824219 83.332031 29.824219 C 83.789062 29.824219 84.246094 29.632812 84.578125 29.316406 C 84.894531 28.984375 85.085938 28.527344 85.085938 28.070312 C 85.085938 27.613281 84.894531 27.15625 84.578125 26.824219 C 83.929688 26.175781 82.738281 26.175781 82.085938 26.824219 Z M 82.085938 26.824219 "/>
<path style=" stroke:none;fill-rule:nonzero;fill:rgb(15.686275%,19.607843%,21.960784%);fill-opacity:1;" d="M 87.351562 26.824219 C 87.035156 27.15625 86.84375 27.613281 86.84375 28.070312 C 86.84375 28.527344 87.035156 28.984375 87.351562 29.316406 C 87.683594 29.632812 88.121094 29.824219 88.597656 29.824219 C 89.050781 29.824219 89.507812 29.632812 89.84375 29.316406 C 90.15625 28.984375 90.351562 28.527344 90.351562 28.070312 C 90.351562 27.613281 90.15625 27.15625 89.84375 26.824219 C 89.175781 26.175781 87.984375 26.191406 87.351562 26.824219 Z M 87.351562 26.824219 "/>
<path style=" stroke:none;fill-rule:nonzero;fill:rgb(15.686275%,19.607843%,21.960784%);fill-opacity:1;" d="M 92.613281 26.824219 C 92.296875 27.15625 92.105469 27.59375 92.105469 28.070312 C 92.105469 28.527344 92.296875 28.984375 92.613281 29.316406 C 92.949219 29.632812 93.402344 29.824219 93.859375 29.824219 C 94.316406 29.824219 94.773438 29.632812 95.105469 29.316406 C 95.421875 28.984375 95.613281 28.527344 95.613281 28.070312 C 95.613281 27.613281 95.421875 27.15625 95.105469 26.824219 C 94.457031 26.175781 93.261719 26.175781 92.613281 26.824219 Z M 92.613281 26.824219 "/>
<path style=" stroke:none;fill-rule:nonzero;fill:rgb(21.960784%,27.058824%,30.980392%);fill-opacity:1;" d="M 30.703125 71.929688 C 31.152344 71.929688 31.601562 71.757812 31.941406 71.414062 L 38.960938 64.398438 C 39.644531 63.710938 39.644531 62.601562 38.960938 61.917969 C 38.273438 61.230469 37.164062 61.230469 36.480469 61.917969 L 29.460938 68.933594 C 28.777344 69.621094 28.777344 70.730469 29.460938 71.414062 C 29.804688 71.757812 30.253906 71.929688 30.703125 71.929688 Z M 30.703125 71.929688 "/>
<path style=" stroke:none;fill-rule:nonzero;fill:rgb(21.960784%,27.058824%,30.980392%);fill-opacity:1;" d="M 32.96875 74.199219 L 29.460938 77.707031 C 28.777344 78.394531 28.777344 79.5 29.460938 80.1875 C 29.804688 80.53125 30.253906 80.703125 30.703125 80.703125 C 31.152344 80.703125 31.601562 80.53125 31.941406 80.1875 L 35.449219 76.679688 C 36.136719 75.992188 36.136719 74.882812 35.449219 74.199219 C 34.765625 73.511719 33.65625 73.511719 32.96875 74.199219 Z M 32.96875 74.199219 "/>
<path style=" stroke:none;fill-rule:nonzero;fill:rgb(21.960784%,27.058824%,30.980392%);fill-opacity:1;" d="M 36.472656 70.683594 C 36.15625 71.015625 35.964844 71.472656 35.964844 71.929688 C 35.964844 72.386719 36.15625 72.84375 36.472656 73.175781 C 36.808594 73.492188 37.261719 73.683594 37.71875 73.683594 C 38.191406 73.683594 38.632812 73.492188 38.964844 73.175781 C 39.28125 72.84375 39.472656 72.402344 39.472656 71.929688 C 39.472656 71.453125 39.28125 71.015625 38.964844 70.683594 C 38.316406 70.035156 37.140625 70.035156 36.472656 70.683594 Z M 36.472656 70.683594 "/>
<path style=" stroke:none;fill-rule:nonzero;fill:rgb(21.960784%,27.058824%,30.980392%);fill-opacity:1;" d="M 47.730469 61.917969 C 47.046875 61.230469 45.9375 61.230469 45.25 61.917969 L 39.988281 67.179688 C 39.300781 67.867188 39.300781 68.976562 39.988281 69.660156 C 40.328125 70.003906 40.777344 70.175781 41.226562 70.175781 C 41.675781 70.175781 42.125 70.003906 42.46875 69.660156 L 47.730469 64.398438 C 48.417969 63.710938 48.417969 62.601562 47.730469 61.917969 Z M 47.730469 61.917969 "/>
<path style=" stroke:none;fill-rule:nonzero;fill:rgb(21.960784%,27.058824%,30.980392%);fill-opacity:1;" d="M 30.703125 22.808594 C 31.152344 22.808594 31.601562 22.636719 31.941406 22.292969 L 38.960938 15.277344 C 39.644531 14.589844 39.644531 13.480469 38.960938 12.792969 C 38.273438 12.109375 37.164062 12.109375 36.480469 12.792969 L 29.460938 19.8125 C 28.777344 20.5 28.777344 21.605469 29.460938 22.292969 C 29.804688 22.636719 30.253906 22.808594 30.703125 22.808594 Z M 30.703125 22.808594 "/>
<path style=" stroke:none;fill-rule:nonzero;fill:rgb(21.960784%,27.058824%,30.980392%);fill-opacity:1;" d="M 32.96875 25.074219 L 29.460938 28.585938 C 28.777344 29.269531 28.777344 30.378906 29.460938 31.066406 C 29.804688 31.40625 30.253906 31.578125 30.703125 31.578125 C 31.152344 31.578125 31.601562 31.40625 31.941406 31.066406 L 35.449219 27.554688 C 36.136719 26.871094 36.136719 25.761719 35.449219 25.074219 C 34.765625 24.390625 33.65625 24.390625 32.96875 25.074219 Z M 32.96875 25.074219 "/>
<path style=" stroke:none;fill-rule:nonzero;fill:rgb(21.960784%,27.058824%,30.980392%);fill-opacity:1;" d="M 36.472656 21.5625 C 36.15625 21.894531 35.964844 22.351562 35.964844 22.808594 C 35.964844 23.261719 36.15625 23.71875 36.472656 24.050781 C 36.808594 24.367188 37.261719 24.5625 37.71875 24.5625 C 38.175781 24.5625 38.632812 24.367188 38.964844 24.050781 C 39.28125 23.71875 39.472656 23.261719 39.472656 22.808594 C 39.472656 22.351562 39.28125 21.894531 38.964844 21.5625 C 38.316406 20.914062 37.121094 20.914062 36.472656 21.5625 Z M 36.472656 21.5625 "/>
<path style=" stroke:none;fill-rule:nonzero;fill:rgb(21.960784%,27.058824%,30.980392%);fill-opacity:1;" d="M 47.730469 12.792969 C 47.046875 12.109375 45.9375 12.109375 45.25 12.792969 L 39.988281 18.058594 C 39.300781 18.742188 39.300781 19.851562 39.988281 20.539062 C 40.328125 20.878906 40.777344 21.050781 41.226562 21.050781 C 41.675781 21.050781 42.125 20.878906 42.46875 20.539062 L 47.730469 15.277344 C 48.417969 14.589844 48.417969 13.480469 47.730469 12.792969 Z M 47.730469 12.792969 "/>
</g>
</svg>
<!-- iconic normalized -->