<?xml version="1.0" encoding="UTF-8"?>
<svg xmlns="http://www.w3.org/2000/svg" xmlns:xlink="http://www.w3.org/1999/xlink" width="100px" height="100px" viewBox="0 0 100 100" version="1.1">
<g id="surface1">
<path style=" stroke:none;fill-rule:nonzero;fill:rgb(79.607843%,83.137255%,84.705882%);fill-opacity:1;" d="M 10.34375 48.277344 L 17.242188 48.277344 L 17.242188 60.34375 L 10.34375 60.34375 Z M 10.34375 48.277344 "/>
<path style=" stroke:none;fill-rule:nonzero;fill:rgb(79.607843%,83.137255%,84.705882%);fill-opacity:1;" d="M 82.757812 48.277344 L 89.65625 48.277344 L 89.65625 60.34375 L 82.757812 60.34375 Z M 82.757812 48.277344 "/>
<path style=" stroke:none;fill-rule:nonzero;fill:rgb(51.372549%,58.431373%,58.039216%);fill-opacity:1;" d="M 8.621094 94.828125 C 3.859375 94.828125 0 90.96875 0 86.207031 L 0 68.964844 C 0 64.207031 3.859375 60.34375 8.621094 60.34375 Z M 8.621094 94.828125 "/>
<path style=" stroke:none;fill-rule:nonzero;fill:rgb(51.372549%,58.431373%,58.039216%);fill-opacity:1;" d="M 91.378906 94.828125 L 91.378906 60.34375 C 96.140625 60.34375 100 64.207031 100 68.964844 L 100 86.207031 C 100 90.96875 96.140625 94.828125 91.378906 94.828125 Z M 91.378906 94.828125 "/>
<path style=" stroke:none;fill-rule:nonzero;fill:rgb(90.588235%,92.54902%,92.941176%);fill-opacity:1;" d="M 18.964844 75.863281 C 18.015625 75.863281 17.242188 75.089844 17.242188 74.136719 C 17.242188 73.183594 18.015625 72.414062 18.964844 72.414062 L 24.136719 72.414062 L 24.136719 68.964844 L 18.964844 68.964844 C 18.015625 68.964844 17.242188 68.195312 17.242188 67.242188 C 17.242188 66.289062 18.015625 65.515625 18.964844 65.515625 L 23.992188 65.515625 C 23.367188 62.5625 20.75 60.34375 17.609375 60.34375 L 9.457031 60.34375 C 8.992188 60.34375 8.621094 60.71875 8.621094 61.175781 L 8.621094 94.328125 C 8.621094 94.601562 8.84375 94.828125 9.121094 94.828125 L 18.128906 94.828125 C 21.160156 94.828125 23.644531 92.574219 24.054688 89.65625 L 18.964844 89.65625 C 18.015625 89.65625 17.242188 88.882812 17.242188 87.929688 C 17.242188 86.976562 18.015625 86.207031 18.964844 86.207031 L 24.136719 86.207031 L 24.136719 82.757812 L 18.964844 82.757812 C 18.015625 82.757812 17.242188 81.988281 17.242188 81.035156 C 17.242188 80.082031 18.015625 79.308594 18.964844 79.308594 L 24.136719 79.308594 L 24.136719 75.863281 Z M 18.964844 75.863281 "/>
<path style=" stroke:none;fill-rule:nonzero;fill:rgb(51.372549%,58.431373%,58.039216%);fill-opacity:1;" d="M 17.242188 67.242188 C 17.242188 68.195312 18.015625 68.964844 18.964844 68.964844 L 24.136719 68.964844 L 24.136719 66.875 C 24.136719 66.410156 24.085938 65.957031 23.992188 65.515625 L 18.964844 65.515625 C 18.015625 65.515625 17.242188 66.289062 17.242188 67.242188 Z M 17.242188 67.242188 "/>
<path style=" stroke:none;fill-rule:nonzero;fill:rgb(51.372549%,58.431373%,58.039216%);fill-opacity:1;" d="M 17.242188 74.136719 C 17.242188 75.089844 18.015625 75.863281 18.964844 75.863281 L 24.136719 75.863281 L 24.136719 72.414062 L 18.964844 72.414062 C 18.015625 72.414062 17.242188 73.183594 17.242188 74.136719 Z M 17.242188 74.136719 "/>
<path style=" stroke:none;fill-rule:nonzero;fill:rgb(51.372549%,58.431373%,58.039216%);fill-opacity:1;" d="M 17.242188 81.035156 C 17.242188 81.988281 18.015625 82.757812 18.964844 82.757812 L 24.136719 82.757812 L 24.136719 79.308594 L 18.964844 79.308594 C 18.015625 79.308594 17.242188 80.082031 17.242188 81.035156 Z M 17.242188 81.035156 "/>
<path style=" stroke:none;fill-rule:nonzero;fill:rgb(51.372549%,58.431373%,58.039216%);fill-opacity:1;" d="M 17.242188 87.929688 C 17.242188 88.882812 18.015625 89.65625 18.964844 89.65625 L 24.054688 89.65625 C 24.09375 89.378906 24.136719 89.101562 24.136719 88.816406 L 24.136719 86.207031 L 18.964844 86.207031 C 18.015625 86.207031 17.242188 86.976562 17.242188 87.929688 Z M 17.242188 87.929688 "/>
<path style=" stroke:none;fill-rule:nonzero;fill:rgb(90.588235%,92.54902%,92.941176%);fill-opacity:1;" d="M 90.808594 60.34375 L 82.390625 60.34375 C 79.25 60.34375 76.632812 62.5625 76.007812 65.515625 L 81.035156 65.515625 C 81.984375 65.515625 82.757812 66.289062 82.757812 67.242188 C 82.757812 68.195312 81.984375 68.964844 81.035156 68.964844 L 75.863281 68.964844 L 75.863281 72.414062 L 81.035156 72.414062 C 81.984375 72.414062 82.757812 73.183594 82.757812 74.136719 C 82.757812 75.089844 81.984375 75.863281 81.035156 75.863281 L 75.863281 75.863281 L 75.863281 79.308594 L 81.035156 79.308594 C 81.984375 79.308594 82.757812 80.082031 82.757812 81.035156 C 82.757812 81.988281 81.984375 82.757812 81.035156 82.757812 L 75.863281 82.757812 L 75.863281 86.207031 L 81.035156 86.207031 C 81.984375 86.207031 82.757812 86.976562 82.757812 87.929688 C 82.757812 88.882812 81.984375 89.65625 81.035156 89.65625 L 75.945312 89.65625 C 76.355469 92.574219 78.839844 94.828125 81.871094 94.828125 L 90.878906 94.828125 C 91.15625 94.828125 91.378906 94.601562 91.378906 94.328125 L 91.378906 60.914062 C 91.378906 60.601562 91.125 60.34375 90.808594 60.34375 Z M 90.808594 60.34375 "/>
<path style=" stroke:none;fill-rule:nonzero;fill:rgb(51.372549%,58.431373%,58.039216%);fill-opacity:1;" d="M 82.757812 67.242188 C 82.757812 66.289062 81.984375 65.515625 81.035156 65.515625 L 76.007812 65.515625 C 75.914062 65.957031 75.863281 66.410156 75.863281 66.875 L 75.863281 68.964844 L 81.035156 68.964844 C 81.984375 68.964844 82.757812 68.195312 82.757812 67.242188 Z M 82.757812 67.242188 "/>
<path style=" stroke:none;fill-rule:nonzero;fill:rgb(51.372549%,58.431373%,58.039216%);fill-opacity:1;" d="M 82.757812 74.136719 C 82.757812 73.183594 81.984375 72.414062 81.035156 72.414062 L 75.863281 72.414062 L 75.863281 75.863281 L 81.035156 75.863281 C 81.984375 75.863281 82.757812 75.089844 82.757812 74.136719 Z M 82.757812 74.136719 "/>
<path style=" stroke:none;fill-rule:nonzero;fill:rgb(51.372549%,58.431373%,58.039216%);fill-opacity:1;" d="M 82.757812 81.035156 C 82.757812 80.082031 81.984375 79.308594 81.035156 79.308594 L 75.863281 79.308594 L 75.863281 82.757812 L 81.035156 82.757812 C 81.984375 82.757812 82.757812 81.988281 82.757812 81.035156 Z M 82.757812 81.035156 "/>
<path style=" stroke:none;fill-rule:nonzero;fill:rgb(51.372549%,58.431373%,58.039216%);fill-opacity:1;" d="M 82.757812 87.929688 C 82.757812 86.976562 81.984375 86.207031 81.035156 86.207031 L 75.863281 86.207031 L 75.863281 88.816406 C 75.863281 89.105469 75.90625 89.378906 75.945312 89.65625 L 81.035156 89.65625 C 81.984375 89.65625 82.757812 88.882812 82.757812 87.929688 Z M 82.757812 87.929688 "/>
<path style=" stroke:none;fill-rule:nonzero;fill:rgb(79.607843%,83.137255%,84.705882%);fill-opacity:1;" d="M 74.96875 24.992188 C 73.730469 26.132812 71.847656 26.121094 70.574219 25.015625 C 66.046875 21.097656 56.058594 18.964844 50 18.964844 C 43.941406 18.964844 33.953125 21.097656 29.425781 25.019531 C 28.148438 26.121094 26.269531 26.132812 25.03125 24.992188 L 19.683594 20.078125 C 18.273438 18.78125 18.242188 16.535156 19.660156 15.25 C 26.769531 8.808594 40.382812 5.171875 50 5.171875 C 59.617188 5.171875 73.230469 8.808594 80.339844 15.25 C 81.757812 16.535156 81.726562 18.78125 80.316406 20.078125 Z M 74.96875 24.992188 "/>
<path style=" stroke:none;fill-rule:nonzero;fill:rgb(87.843137%,88.235294%,88.627451%);fill-opacity:1;" d="M 25.03125 24.992188 L 19.683594 20.078125 C 19.238281 19.667969 18.949219 19.160156 18.78125 18.625 C 12.445312 25.632812 8.621094 35.164062 8.621094 45.492188 L 8.621094 48.277344 L 18.964844 48.277344 L 18.964844 45.492188 C 18.964844 37.964844 21.761719 30.902344 26.386719 25.722656 C 25.898438 25.59375 25.425781 25.359375 25.03125 24.992188 Z M 25.03125 24.992188 "/>
<path style=" stroke:none;fill-rule:nonzero;fill:rgb(87.843137%,88.235294%,88.627451%);fill-opacity:1;" d="M 80.945312 19.257812 C 80.78125 19.554688 80.582031 19.835938 80.316406 20.078125 L 74.96875 24.992188 C 74.363281 25.550781 73.601562 25.828125 72.832031 25.839844 C 77.839844 31.011719 81.035156 38.019531 81.035156 45.492188 L 81.035156 48.277344 L 91.378906 48.277344 L 91.378906 45.492188 C 91.378906 35.472656 87.371094 26.203125 80.945312 19.257812 Z M 80.945312 19.257812 "/>
</g>
</svg>
<!-- iconic normalized -->