<?xml version="1.0" encoding="UTF-8"?>
<svg xmlns="http://www.w3.org/2000/svg" xmlns:xlink="http://www.w3.org/1999/xlink" width="100px" height="100px" viewBox="0 0 100 100" version="1.1">
<g id="surface1">
<path style=" stroke:none;fill-rule:nonzero;fill:rgb(90.588235%,92.54902%,92.941176%);fill-opacity:1;" d="M 75.953125 100 L 27.496094 100 C 25.640625 100 24.136719 98.496094 24.136719 96.644531 L 24.136719 3.355469 C 24.136719 1.503906 25.640625 0 27.496094 0 L 75.953125 0 C 77.808594 0 79.308594 1.503906 79.308594 3.355469 L 79.308594 96.644531 C 79.308594 98.496094 77.808594 100 75.953125 100 Z M 75.953125 100 "/>
<path style=" stroke:none;fill-rule:nonzero;fill:rgb(21.960784%,27.058824%,30.980392%);fill-opacity:1;" d="M 29.308594 10.34375 L 74.136719 10.34375 L 74.136719 86.207031 L 29.308594 86.207031 Z M 29.308594 10.34375 "/>
<path style=" stroke:none;fill-rule:nonzero;fill:rgb(32.941176%,41.568627%,47.45098%);fill-opacity:1;" d="M 34.484375 24.136719 C 34.925781 24.136719 35.367188 23.96875 35.703125 23.632812 L 42.597656 16.734375 C 43.273438 16.0625 43.273438 14.972656 42.597656 14.296875 C 41.925781 13.625 40.835938 13.625 40.160156 14.296875 L 33.265625 21.195312 C 32.589844 21.867188 32.589844 22.957031 33.265625 23.632812 C 33.601562 23.96875 34.042969 24.136719 34.484375 24.136719 Z M 34.484375 24.136719 "/>
<path style=" stroke:none;fill-rule:nonzero;fill:rgb(32.941176%,41.568627%,47.45098%);fill-opacity:1;" d="M 34.484375 32.757812 C 34.925781 32.757812 35.367188 32.589844 35.703125 32.253906 L 39.148438 28.804688 C 39.824219 28.132812 39.824219 27.042969 39.148438 26.367188 C 38.476562 25.691406 37.386719 25.691406 36.710938 26.367188 L 33.265625 29.816406 C 32.589844 30.488281 32.589844 31.578125 33.265625 32.253906 C 33.601562 32.589844 34.042969 32.757812 34.484375 32.757812 Z M 34.484375 32.757812 "/>
<path style=" stroke:none;fill-rule:nonzero;fill:rgb(32.941176%,41.568627%,47.45098%);fill-opacity:1;" d="M 40.15625 22.914062 C 39.84375 23.238281 39.65625 23.691406 39.65625 24.136719 C 39.65625 24.585938 39.84375 25.035156 40.15625 25.363281 C 40.484375 25.671875 40.929688 25.863281 41.378906 25.863281 C 41.828125 25.863281 42.277344 25.671875 42.601562 25.363281 C 42.914062 25.035156 43.101562 24.585938 43.101562 24.136719 C 43.101562 23.671875 42.914062 23.238281 42.601562 22.914062 C 41.964844 22.277344 40.808594 22.277344 40.15625 22.914062 Z M 40.15625 22.914062 "/>
<path style=" stroke:none;fill-rule:nonzero;fill:rgb(32.941176%,41.568627%,47.45098%);fill-opacity:1;" d="M 43.609375 21.910156 C 43.945312 22.246094 44.386719 22.414062 44.828125 22.414062 C 45.269531 22.414062 45.710938 22.246094 46.046875 21.910156 L 51.21875 16.734375 C 51.894531 16.0625 51.894531 14.972656 51.21875 14.296875 C 50.542969 13.625 49.457031 13.625 48.78125 14.296875 L 43.609375 19.46875 C 42.933594 20.144531 42.933594 21.234375 43.609375 21.910156 Z M 43.609375 21.910156 "/>
<path style=" stroke:none;fill-rule:nonzero;fill:rgb(32.941176%,41.568627%,47.45098%);fill-opacity:1;" d="M 48.78125 22.917969 L 33.265625 38.4375 C 32.589844 39.109375 32.589844 40.199219 33.265625 40.875 C 33.601562 41.210938 34.042969 41.378906 34.484375 41.378906 C 34.925781 41.378906 35.367188 41.210938 35.703125 40.875 L 51.21875 25.355469 C 51.894531 24.683594 51.894531 23.59375 51.21875 22.917969 C 50.542969 22.246094 49.457031 22.246094 48.78125 22.917969 Z M 48.78125 22.917969 "/>
<path style=" stroke:none;fill-rule:nonzero;fill:rgb(32.941176%,41.568627%,47.45098%);fill-opacity:1;" d="M 52.222656 19.464844 C 51.914062 19.792969 51.722656 20.242188 51.722656 20.691406 C 51.722656 21.136719 51.914062 21.585938 52.222656 21.914062 C 52.550781 22.222656 53 22.414062 53.449219 22.414062 C 53.898438 22.414062 54.34375 22.222656 54.671875 21.914062 C 54.984375 21.585938 55.171875 21.136719 55.171875 20.691406 C 55.171875 20.242188 54.984375 19.792969 54.671875 19.484375 C 54.035156 18.828125 52.863281 18.828125 52.222656 19.464844 Z M 52.222656 19.464844 "/>
<path style=" stroke:none;fill-rule:nonzero;fill:rgb(32.941176%,41.568627%,47.45098%);fill-opacity:1;" d="M 59.839844 14.296875 C 59.164062 13.625 58.074219 13.625 57.402344 14.296875 L 55.675781 16.023438 C 55.003906 16.695312 55.003906 17.785156 55.675781 18.460938 C 56.015625 18.796875 56.457031 18.964844 56.898438 18.964844 C 57.339844 18.964844 57.78125 18.796875 58.117188 18.460938 L 59.839844 16.734375 C 60.515625 16.0625 60.515625 14.972656 59.839844 14.296875 Z M 59.839844 14.296875 "/>
<path style=" stroke:none;fill-rule:nonzero;fill:rgb(21.960784%,27.058824%,30.980392%);fill-opacity:1;" d="M 55.171875 6.898438 L 46.550781 6.898438 C 45.601562 6.898438 44.828125 6.125 44.828125 5.171875 C 44.828125 4.21875 45.601562 3.449219 46.550781 3.449219 L 55.171875 3.449219 C 56.125 3.449219 56.898438 4.21875 56.898438 5.171875 C 56.898438 6.125 56.125 6.898438 55.171875 6.898438 Z M 55.171875 6.898438 "/>
<path style="fill:none;stroke-width:2;stroke-linecap:round;stroke-linejoin:miter;stroke:rgb(79.607843%,83.137255%,84.705882%);stroke-opacity:1;stroke-miterlimit:10;" d="M 13.000156 8.999063 L 13.000156 10.000469 " transform="matrix(1.724138,0,0,1.724138,0,0)"/>
<path style="fill:none;stroke-width:2;stroke-linecap:round;stroke-linejoin:miter;stroke:rgb(79.607843%,83.137255%,84.705882%);stroke-opacity:1;stroke-miterlimit:10;" d="M 13.000156 13.000156 L 13.000156 13.999297 " transform="matrix(1.724138,0,0,1.724138,0,0)"/>
<path style="fill:none;stroke-width:2;stroke-linecap:round;stroke-linejoin:miter;stroke:rgb(79.607843%,83.137255%,84.705882%);stroke-opacity:1;stroke-miterlimit:10;" d="M 13.000156 16.998984 L 13.000156 18.000391 " transform="matrix(1.724138,0,0,1.724138,0,0)"/>
<path style=" stroke:none;fill-rule:nonzero;fill:rgb(79.607843%,83.137255%,84.705882%);fill-opacity:1;" d="M 56.898438 93.101562 C 56.898438 95.960938 54.582031 98.277344 51.722656 98.277344 C 48.867188 98.277344 46.550781 95.960938 46.550781 93.101562 C 46.550781 90.246094 48.867188 87.929688 51.722656 87.929688 C 54.582031 87.929688 56.898438 90.246094 56.898438 93.101562 Z M 56.898438 93.101562 "/>
</g>
</svg>
<!-- iconic normalized -->