<?xml version="1.0" encoding="UTF-8"?>
<svg xmlns="http://www.w3.org/2000/svg" xmlns:xlink="http://www.w3.org/1999/xlink" width="100px" height="100px" viewBox="0 0 100 100" version="1.1">
<g id="surface1">
<path style="fill:none;stroke-width:2;stroke-linecap:butt;stroke-linejoin:miter;stroke:rgb(90.588235%,92.54902%,92.941176%);stroke-opacity:1;stroke-miterlimit:10;" d="M 33.499375 42.999687 C 33.499375 49.627812 28.126875 55.000312 21.500937 55.000312 C 14.872812 55.000312 9.500312 49.627812 9.500312 42.999687 C 9.500312 36.371562 14.872812 30.999062 21.500937 30.999062 C 28.126875 30.999062 33.499375 36.371562 33.499375 42.999687 Z M 33.499375 42.999687 " transform="matrix(1.785714,0,0,1.785714,0,0)"/>
<path style="fill:none;stroke-width:2;stroke-linecap:butt;stroke-linejoin:miter;stroke:rgb(90.588235%,92.54902%,92.941176%);stroke-opacity:1;stroke-miterlimit:10;" d="M 1.500625 19.000625 L 1.500625 36.51375 L 1.500625 35.540312 C 1.500625 46.29625 10.204687 55.000312 20.958437 55.000312 C 33.866875 55.000312 44.500312 47.55625 44.500312 34.65 L 44.500312 29.999375 " transform="matrix(1.785714,0,0,1.785714,0,0)"/>
<path style="fill:none;stroke-width:2;stroke-linecap:butt;stroke-linejoin:miter;stroke:rgb(90.588235%,92.54902%,92.941176%);stroke-opacity:1;stroke-miterlimit:10;" d="M 36.500625 40.000625 C 36.500625 48.284687 29.785 55.000312 21.500937 55.000312 C 13.214687 55.000312 6.499062 48.284687 6.499062 40.000625 C 6.499062 31.716562 13.214687 25.000937 21.500937 25.000937 C 29.785 25.000937 36.500625 31.716562 36.500625 40.000625 Z M 36.500625 40.000625 " transform="matrix(1.785714,0,0,1.785714,0,0)"/>
<path style=" stroke:none;fill-rule:nonzero;fill:rgb(90.588235%,92.54902%,92.941176%);fill-opacity:1;" d="M 0.894531 16.070312 L 8.035156 16.070312 L 8.035156 35.714844 L 0.894531 35.714844 Z M 0.894531 16.070312 "/>
<path style=" stroke:none;fill-rule:nonzero;fill:rgb(68.627451%,71.372549%,73.333333%);fill-opacity:1;" d="M 8.035156 19.644531 L 13.394531 19.644531 L 13.394531 32.144531 L 8.035156 32.144531 Z M 8.035156 19.644531 "/>
<path style=" stroke:none;fill-rule:nonzero;fill:rgb(68.627451%,71.372549%,73.333333%);fill-opacity:1;" d="M 75.894531 46.429688 L 83.035156 46.429688 L 83.035156 55.355469 L 75.894531 55.355469 Z M 75.894531 46.429688 "/>
<path style=" stroke:none;fill-rule:nonzero;fill:rgb(90.588235%,92.54902%,92.941176%);fill-opacity:1;" d="M 96.695312 46.429688 L 62.234375 46.429688 C 60.902344 46.429688 59.820312 45.347656 59.820312 44.015625 L 59.820312 11.339844 C 59.820312 10.007812 60.902344 8.929688 62.234375 8.929688 L 96.695312 8.929688 C 98.027344 8.929688 99.105469 10.007812 99.105469 11.339844 L 99.105469 44.015625 C 99.105469 45.347656 98.027344 46.429688 96.695312 46.429688 Z M 96.695312 46.429688 "/>
<path style="fill:none;stroke-width:2;stroke-linecap:round;stroke-linejoin:miter;stroke:rgb(42.352941%,47.45098%,47.843137%);stroke-opacity:1;stroke-miterlimit:10;" d="M 36.500625 0.999687 L 36.500625 5.000625 " transform="matrix(1.785714,0,0,1.785714,0,0)"/>
<path style="fill:none;stroke-width:2;stroke-linecap:round;stroke-linejoin:miter;stroke:rgb(42.352941%,47.45098%,47.843137%);stroke-opacity:1;stroke-miterlimit:10;" d="M 40.499375 0.999687 L 40.499375 5.000625 " transform="matrix(1.785714,0,0,1.785714,0,0)"/>
<path style=" stroke:none;fill-rule:nonzero;fill:rgb(83.137255%,84.313725%,84.705882%);fill-opacity:1;" d="M 75.265625 23.214844 L 62.234375 23.214844 C 60.902344 23.214844 59.820312 22.132812 59.820312 20.800781 L 59.820312 11.339844 C 59.820312 10.007812 60.902344 8.929688 62.234375 8.929688 L 75.265625 8.929688 C 76.597656 8.929688 77.679688 10.007812 77.679688 11.339844 L 77.679688 20.800781 C 77.679688 22.132812 76.597656 23.214844 75.265625 23.214844 Z M 75.265625 23.214844 "/>
</g>
</svg>
<!-- iconic normalized -->