<?xml version="1.0" encoding="UTF-8"?>
<svg xmlns="http://www.w3.org/2000/svg" xmlns:xlink="http://www.w3.org/1999/xlink" width="100px" height="100px" viewBox="0 0 100 100" version="1.1">
<g id="surface1">
<path style=" stroke:none;fill-rule:nonzero;fill:rgb(86.666667%,20.784314%,18.039216%);fill-opacity:1;" d="M 13.792969 24.136719 L 13.792969 76.722656 C 13.792969 89.527344 24.265625 100 37.070312 100 L 61.207031 100 C 48.40625 100 37.929688 89.527344 37.929688 76.722656 L 37.929688 24.136719 Z M 13.792969 24.136719 "/>
<path style=" stroke:none;fill-rule:nonzero;fill:rgb(86.666667%,20.784314%,18.039216%);fill-opacity:1;" d="M 62.070312 39.65625 L 62.070312 76.722656 C 62.070312 85.46875 57.175781 93.121094 50 97.097656 C 53.332031 98.941406 57.148438 100 61.207031 100 L 62.929688 100 C 75.734375 100 86.207031 89.527344 86.207031 76.722656 L 86.207031 39.65625 Z M 62.070312 39.65625 "/>
<path style=" stroke:none;fill-rule:nonzero;fill:rgb(21.960784%,27.058824%,30.980392%);fill-opacity:1;" d="M 41.042969 24.136719 L 10.683594 24.136719 C 9.542969 24.136719 8.621094 23.214844 8.621094 22.074219 L 8.621094 10.683594 C 8.621094 9.542969 9.542969 8.621094 10.683594 8.621094 L 41.039062 8.621094 C 42.179688 8.621094 43.101562 9.542969 43.101562 10.683594 L 43.101562 22.074219 C 43.101562 23.214844 42.179688 24.136719 41.042969 24.136719 Z M 41.042969 24.136719 "/>
<path style=" stroke:none;fill-rule:nonzero;fill:rgb(32.941176%,41.568627%,47.45098%);fill-opacity:1;" d="M 34.484375 15.515625 L 17.242188 15.515625 C 16.289062 15.515625 15.515625 14.746094 15.515625 13.792969 C 15.515625 12.839844 16.289062 12.070312 17.242188 12.070312 L 34.484375 12.070312 C 35.4375 12.070312 36.207031 12.839844 36.207031 13.792969 C 36.207031 14.746094 35.4375 15.515625 34.484375 15.515625 Z M 34.484375 15.515625 "/>
<path style=" stroke:none;fill-rule:nonzero;fill:rgb(32.941176%,41.568627%,47.45098%);fill-opacity:1;" d="M 34.484375 20.691406 L 17.242188 20.691406 C 16.289062 20.691406 15.515625 19.917969 15.515625 18.964844 C 15.515625 18.011719 16.289062 17.242188 17.242188 17.242188 L 34.484375 17.242188 C 35.4375 17.242188 36.207031 18.011719 36.207031 18.964844 C 36.207031 19.917969 35.4375 20.691406 34.484375 20.691406 Z M 34.484375 20.691406 "/>
<path style=" stroke:none;fill-rule:nonzero;fill:rgb(21.960784%,27.058824%,30.980392%);fill-opacity:1;" d="M 89.316406 39.65625 L 58.957031 39.65625 C 57.820312 39.65625 56.898438 38.730469 56.898438 37.59375 L 56.898438 26.203125 C 56.898438 25.0625 57.820312 24.136719 58.957031 24.136719 L 89.316406 24.136719 C 90.457031 24.136719 91.378906 25.0625 91.378906 26.199219 L 91.378906 37.589844 C 91.378906 38.730469 90.457031 39.65625 89.316406 39.65625 Z M 89.316406 39.65625 "/>
<path style=" stroke:none;fill-rule:nonzero;fill:rgb(32.941176%,41.568627%,47.45098%);fill-opacity:1;" d="M 82.757812 31.035156 L 65.515625 31.035156 C 64.5625 31.035156 63.792969 30.265625 63.792969 29.308594 C 63.792969 28.355469 64.5625 27.585938 65.515625 27.585938 L 82.757812 27.585938 C 83.710938 27.585938 84.484375 28.355469 84.484375 29.308594 C 84.484375 30.265625 83.710938 31.035156 82.757812 31.035156 Z M 82.757812 31.035156 "/>
<path style=" stroke:none;fill-rule:nonzero;fill:rgb(32.941176%,41.568627%,47.45098%);fill-opacity:1;" d="M 82.757812 36.207031 L 65.515625 36.207031 C 64.5625 36.207031 63.792969 35.4375 63.792969 34.484375 C 63.792969 33.53125 64.5625 32.757812 65.515625 32.757812 L 82.757812 32.757812 C 83.710938 32.757812 84.484375 33.53125 84.484375 34.484375 C 84.484375 35.4375 83.710938 36.207031 82.757812 36.207031 Z M 82.757812 36.207031 "/>
<path style=" stroke:none;fill-rule:nonzero;fill:rgb(69.019608%,15.294118%,12.941176%);fill-opacity:1;" d="M 77.585938 60.34375 C 76.632812 60.34375 75.863281 61.117188 75.863281 62.070312 L 75.863281 75.496094 C 75.863281 80.902344 73.933594 86.148438 70.429688 90.261719 C 69.8125 90.984375 69.898438 92.074219 70.625 92.691406 C 70.949219 92.96875 71.347656 93.101562 71.742188 93.101562 C 72.226562 93.101562 72.710938 92.898438 73.054688 92.496094 C 77.089844 87.761719 79.308594 81.71875 79.308594 75.496094 L 79.308594 62.070312 C 79.308594 61.117188 78.539062 60.34375 77.585938 60.34375 Z M 77.585938 60.34375 "/>
<path style=" stroke:none;fill-rule:nonzero;fill:rgb(69.019608%,15.294118%,12.941176%);fill-opacity:1;" d="M 72.414062 62.070312 C 72.414062 61.117188 71.644531 60.34375 70.691406 60.34375 C 69.734375 60.34375 68.964844 61.117188 68.964844 62.070312 L 68.964844 75.496094 C 68.964844 80.90625 67.035156 86.148438 63.53125 90.261719 C 62.914062 90.984375 63 92.074219 63.726562 92.691406 C 64.050781 92.96875 64.449219 93.101562 64.84375 93.101562 C 65.328125 93.101562 65.8125 92.898438 66.15625 92.496094 C 70.191406 87.761719 72.414062 81.722656 72.414062 75.496094 Z M 72.414062 62.070312 "/>
<path style=" stroke:none;fill-rule:nonzero;fill:rgb(32.941176%,41.568627%,47.45098%);fill-opacity:1;" d="M 22.414062 0 L 22.414062 3.449219 C 22.414062 4.402344 21.644531 5.171875 20.691406 5.171875 C 19.734375 5.171875 18.964844 4.402344 18.964844 3.449219 L 18.964844 0 L 13.792969 0 L 13.792969 8.621094 L 37.929688 8.621094 L 37.929688 0 Z M 22.414062 0 "/>
<path style=" stroke:none;fill-rule:nonzero;fill:rgb(51.372549%,58.431373%,58.039216%);fill-opacity:1;" d="M 20.691406 5.171875 C 21.644531 5.171875 22.414062 4.402344 22.414062 3.449219 L 22.414062 0 L 18.964844 0 L 18.964844 3.449219 C 18.964844 4.402344 19.734375 5.171875 20.691406 5.171875 Z M 20.691406 5.171875 "/>
<path style=" stroke:none;fill-rule:nonzero;fill:rgb(32.941176%,41.568627%,47.45098%);fill-opacity:1;" d="M 70.691406 15.515625 L 70.691406 18.964844 C 70.691406 19.917969 69.917969 20.691406 68.964844 20.691406 C 68.011719 20.691406 67.242188 19.917969 67.242188 18.964844 L 67.242188 15.515625 L 62.070312 15.515625 L 62.070312 24.136719 L 86.207031 24.136719 L 86.207031 15.515625 Z M 70.691406 15.515625 "/>
<path style=" stroke:none;fill-rule:nonzero;fill:rgb(51.372549%,58.431373%,58.039216%);fill-opacity:1;" d="M 68.964844 20.691406 C 69.917969 20.691406 70.691406 19.917969 70.691406 18.964844 L 70.691406 15.515625 L 67.242188 15.515625 L 67.242188 18.964844 C 67.242188 19.917969 68.011719 20.691406 68.964844 20.691406 Z M 68.964844 20.691406 "/>
<path style=" stroke:none;fill-rule:nonzero;fill:rgb(69.019608%,15.294118%,12.941176%);fill-opacity:1;" d="M 61.207031 100 C 58.042969 100 55.019531 99.355469 52.261719 98.195312 C 40.425781 97.390625 31.035156 87.53125 31.035156 75.496094 L 31.035156 39.65625 C 31.035156 38.703125 30.265625 37.929688 29.308594 37.929688 C 28.355469 37.929688 27.585938 38.703125 27.585938 39.65625 L 27.585938 75.496094 C 27.585938 84.121094 31.789062 91.765625 38.234375 96.546875 C 29.96875 93.125 24.136719 84.980469 24.136719 75.496094 L 24.136719 39.65625 C 24.136719 38.703125 23.367188 37.929688 22.414062 37.929688 C 21.460938 37.929688 20.691406 38.703125 20.691406 39.65625 L 20.691406 75.496094 C 20.691406 86.691406 27.753906 96.242188 37.648438 100 Z M 61.207031 100 "/>
</g>
</svg>
<!-- iconic normalized -->