<?xml version="1.0" encoding="UTF-8"?>
<svg xmlns="http://www.w3.org/2000/svg" xmlns:xlink="http://www.w3.org/1999/xlink" width="100px" height="100px" viewBox="0 0 100 100" version="1.1">
<g id="surface1">
<path style=" stroke:none;fill-rule:nonzero;fill:rgb(79.607843%,83.137255%,84.705882%);fill-opacity:1;" d="M 75.710938 100 L 24.289062 100 C 22.300781 100 20.691406 98.386719 20.691406 96.398438 L 20.691406 3.601562 C 20.691406 1.613281 22.300781 0 24.289062 0 L 75.707031 0 C 77.699219 0 79.308594 1.613281 79.308594 3.601562 L 79.308594 96.398438 C 79.308594 98.386719 77.699219 100 75.710938 100 Z M 75.710938 100 "/>
<path style=" stroke:none;fill-rule:nonzero;fill:rgb(34.117647%,67.058824%,75.686275%);fill-opacity:1;" d="M 20.691406 10.34375 L 79.308594 10.34375 L 79.308594 89.65625 L 20.691406 89.65625 Z M 20.691406 10.34375 "/>
<path style=" stroke:none;fill-rule:nonzero;fill:rgb(68.627451%,71.372549%,73.333333%);fill-opacity:1;" d="M 55.171875 96.550781 L 44.828125 96.550781 C 43.875 96.550781 43.101562 95.78125 43.101562 94.828125 C 43.101562 93.875 43.875 93.101562 44.828125 93.101562 L 55.171875 93.101562 C 56.125 93.101562 56.898438 93.875 56.898438 94.828125 C 56.898438 95.78125 56.125 96.550781 55.171875 96.550781 Z M 55.171875 96.550781 "/>
<path style=" stroke:none;fill-rule:nonzero;fill:rgb(7.843137%,83.137255%,95.686275%);fill-opacity:1;" d="M 25.863281 24.136719 C 26.304688 24.136719 26.746094 23.96875 27.082031 23.632812 L 33.976562 16.734375 C 34.652344 16.0625 34.652344 14.972656 33.976562 14.296875 C 33.304688 13.625 32.214844 13.625 31.539062 14.296875 L 24.644531 21.195312 C 23.96875 21.867188 23.96875 22.957031 24.644531 23.632812 C 24.980469 23.96875 25.421875 24.136719 25.863281 24.136719 Z M 25.863281 24.136719 "/>
<path style=" stroke:none;fill-rule:nonzero;fill:rgb(7.843137%,83.137255%,95.686275%);fill-opacity:1;" d="M 25.863281 32.757812 C 26.304688 32.757812 26.746094 32.589844 27.082031 32.253906 L 30.53125 28.804688 C 31.203125 28.132812 31.203125 27.042969 30.53125 26.367188 C 29.855469 25.691406 28.765625 25.691406 28.089844 26.367188 L 24.644531 29.816406 C 23.96875 30.488281 23.96875 31.578125 24.644531 32.253906 C 24.980469 32.589844 25.421875 32.757812 25.863281 32.757812 Z M 25.863281 32.757812 "/>
<path style=" stroke:none;fill-rule:nonzero;fill:rgb(7.843137%,83.137255%,95.686275%);fill-opacity:1;" d="M 31.535156 22.914062 C 31.222656 23.238281 31.035156 23.691406 31.035156 24.136719 C 31.035156 24.585938 31.222656 25.035156 31.535156 25.363281 C 31.859375 25.671875 32.308594 25.863281 32.757812 25.863281 C 33.207031 25.863281 33.65625 25.671875 33.984375 25.363281 C 34.292969 25.035156 34.484375 24.585938 34.484375 24.136719 C 34.484375 23.671875 34.292969 23.238281 33.984375 22.914062 C 33.34375 22.277344 32.191406 22.277344 31.535156 22.914062 Z M 31.535156 22.914062 "/>
<path style=" stroke:none;fill-rule:nonzero;fill:rgb(7.843137%,83.137255%,95.686275%);fill-opacity:1;" d="M 34.988281 21.910156 C 35.324219 22.246094 35.765625 22.414062 36.207031 22.414062 C 36.648438 22.414062 37.089844 22.246094 37.425781 21.910156 L 42.597656 16.734375 C 43.273438 16.0625 43.273438 14.972656 42.597656 14.296875 C 41.925781 13.625 40.835938 13.625 40.160156 14.296875 L 34.988281 19.46875 C 34.3125 20.144531 34.3125 21.234375 34.988281 21.910156 Z M 34.988281 21.910156 "/>
<path style=" stroke:none;fill-rule:nonzero;fill:rgb(7.843137%,83.137255%,95.686275%);fill-opacity:1;" d="M 40.160156 22.917969 L 24.644531 38.4375 C 23.96875 39.109375 23.96875 40.199219 24.644531 40.875 C 24.980469 41.210938 25.421875 41.378906 25.863281 41.378906 C 26.304688 41.378906 26.746094 41.210938 27.082031 40.875 L 42.597656 25.355469 C 43.273438 24.683594 43.273438 23.59375 42.597656 22.917969 C 41.925781 22.246094 40.835938 22.246094 40.160156 22.917969 Z M 40.160156 22.917969 "/>
<path style=" stroke:none;fill-rule:nonzero;fill:rgb(7.843137%,83.137255%,95.686275%);fill-opacity:1;" d="M 43.601562 19.464844 C 43.292969 19.792969 43.101562 20.242188 43.101562 20.691406 C 43.101562 21.136719 43.292969 21.585938 43.601562 21.914062 C 43.929688 22.222656 44.378906 22.414062 44.828125 22.414062 C 45.277344 22.414062 45.722656 22.222656 46.050781 21.914062 C 46.363281 21.585938 46.550781 21.136719 46.550781 20.691406 C 46.550781 20.242188 46.378906 19.792969 46.050781 19.464844 C 45.398438 18.828125 44.242188 18.828125 43.601562 19.464844 Z M 43.601562 19.464844 "/>
<path style=" stroke:none;fill-rule:nonzero;fill:rgb(7.843137%,83.137255%,95.686275%);fill-opacity:1;" d="M 51.21875 14.296875 C 50.542969 13.625 49.457031 13.625 48.78125 14.296875 L 47.058594 16.023438 C 46.382812 16.695312 46.382812 17.785156 47.058594 18.460938 C 47.394531 18.796875 47.835938 18.964844 48.277344 18.964844 C 48.71875 18.964844 49.160156 18.796875 49.496094 18.460938 L 51.21875 16.734375 C 51.894531 16.0625 51.894531 14.972656 51.21875 14.296875 Z M 51.21875 14.296875 "/>
<path style=" stroke:none;fill-rule:nonzero;fill:rgb(68.627451%,71.372549%,73.333333%);fill-opacity:1;" d="M 70.691406 6.898438 C 70.222656 6.898438 69.792969 6.707031 69.464844 6.398438 C 69.152344 6.070312 68.964844 5.621094 68.964844 5.171875 C 68.964844 4.722656 69.152344 4.273438 69.464844 3.949219 C 70.121094 3.308594 71.257812 3.308594 71.914062 3.949219 C 72.222656 4.273438 72.414062 4.722656 72.414062 5.171875 C 72.414062 5.621094 72.222656 6.070312 71.914062 6.398438 C 71.585938 6.707031 71.136719 6.898438 70.691406 6.898438 Z M 70.691406 6.898438 "/>
<path style=" stroke:none;fill-rule:nonzero;fill:rgb(68.627451%,71.372549%,73.333333%);fill-opacity:1;" d="M 55.171875 6.898438 L 44.828125 6.898438 C 43.875 6.898438 43.101562 6.125 43.101562 5.171875 C 43.101562 4.21875 43.875 3.449219 44.828125 3.449219 L 55.171875 3.449219 C 56.125 3.449219 56.898438 4.21875 56.898438 5.171875 C 56.898438 6.125 56.125 6.898438 55.171875 6.898438 Z M 55.171875 6.898438 "/>
</g>
</svg>
<!-- iconic normalized -->