<?xml version="1.0" encoding="UTF-8"?>
<svg xmlns="http://www.w3.org/2000/svg" xmlns:xlink="http://www.w3.org/1999/xlink" width="100px" height="100px" viewBox="0 0 100 100" version="1.1">
<g id="surface1">
<path style=" stroke:none;fill-rule:nonzero;fill:rgb(100%,70.588235%,35.294118%);fill-opacity:1;" d="M 73.753906 79.3125 C 73.726562 79.3125 73.699219 79.3125 73.671875 79.308594 L 72.414062 79.308594 L 72.414062 82.757812 L 75.863281 82.757812 L 75.863281 79.308594 L 73.8125 79.308594 C 73.792969 79.3125 73.773438 79.3125 73.753906 79.3125 Z M 73.753906 79.3125 "/>
<path style=" stroke:none;fill-rule:nonzero;fill:rgb(100%,70.588235%,35.294118%);fill-opacity:1;" d="M 69.398438 67.589844 C 69.351562 67.476562 69.304688 67.359375 69.261719 67.242188 L 68.953125 67.242188 C 69.105469 67.355469 69.253906 67.472656 69.398438 67.589844 Z M 69.398438 67.589844 "/>
<path style=" stroke:none;fill-rule:nonzero;fill:rgb(100%,70.588235%,35.294118%);fill-opacity:1;" d="M 41.378906 79.308594 L 44.828125 79.308594 L 44.828125 82.757812 L 41.378906 82.757812 Z M 41.378906 79.308594 "/>
<path style=" stroke:none;fill-rule:nonzero;fill:rgb(100%,70.588235%,35.294118%);fill-opacity:1;" d="M 79.308594 20.691406 C 76.453125 20.691406 74.136719 18.375 74.136719 15.515625 L 74.136719 0 L 27.585938 0 C 24.730469 0 22.414062 2.316406 22.414062 5.171875 L 22.414062 17.242188 L 41.378906 17.242188 C 43.285156 17.242188 44.828125 18.785156 44.828125 20.691406 L 44.828125 44.828125 C 44.828125 46.730469 43.285156 48.277344 41.378906 48.277344 L 22.414062 48.277344 L 22.414062 94.828125 C 22.414062 97.683594 24.730469 100 27.585938 100 L 89.65625 100 C 92.511719 100 94.828125 97.683594 94.828125 94.828125 L 94.828125 20.691406 Z M 75.070312 75.863281 L 77.585938 75.863281 C 78.539062 75.863281 79.308594 76.632812 79.308594 77.585938 L 79.308594 84.484375 C 79.308594 85.4375 78.539062 86.207031 77.585938 86.207031 L 70.691406 86.207031 C 69.738281 86.207031 68.964844 85.4375 68.964844 84.484375 L 68.964844 77.585938 C 68.964844 76.632812 69.738281 75.863281 70.691406 75.863281 L 71.40625 75.863281 C 70.007812 72.414062 67.242188 69.648438 63.792969 68.25 L 63.792969 68.964844 C 63.792969 69.917969 63.019531 70.691406 62.070312 70.691406 L 55.171875 70.691406 C 54.21875 70.691406 53.449219 69.917969 53.449219 68.964844 L 53.449219 68.246094 C 50 69.648438 47.234375 72.414062 45.832031 75.863281 L 46.550781 75.863281 C 47.503906 75.863281 48.277344 76.632812 48.277344 77.585938 L 48.277344 84.484375 C 48.277344 85.4375 47.503906 86.207031 46.550781 86.207031 L 39.65625 86.207031 C 38.703125 86.207031 37.929688 85.4375 37.929688 84.484375 L 37.929688 77.585938 C 37.929688 76.632812 38.703125 75.863281 39.65625 75.863281 L 42.171875 75.863281 C 42.820312 73.800781 43.847656 71.90625 45.175781 70.253906 C 44.539062 70.535156 43.839844 70.6875 43.105469 70.6875 C 40.25 70.6875 37.929688 68.367188 37.929688 65.515625 C 37.929688 62.664062 40.25 60.34375 43.105469 60.34375 C 45.351562 60.34375 47.269531 61.785156 47.980469 63.792969 L 53.449219 63.792969 L 53.449219 62.070312 C 53.449219 61.117188 54.21875 60.34375 55.171875 60.34375 L 62.070312 60.34375 C 63.019531 60.34375 63.792969 61.117188 63.792969 62.070312 L 63.792969 63.792969 L 69.261719 63.792969 C 69.972656 61.785156 71.890625 60.34375 74.136719 60.34375 C 76.988281 60.34375 79.308594 62.664062 79.308594 65.515625 C 79.308594 68.371094 76.988281 70.691406 74.136719 70.691406 C 73.402344 70.691406 72.699219 70.535156 72.066406 70.253906 C 73.390625 71.90625 74.417969 73.800781 75.070312 75.863281 Z M 75.070312 75.863281 "/>
<path style=" stroke:none;fill-rule:nonzero;fill:rgb(100%,70.588235%,35.294118%);fill-opacity:1;" d="M 56.898438 63.792969 L 60.34375 63.792969 L 60.34375 67.242188 L 56.898438 67.242188 Z M 56.898438 63.792969 "/>
<path style=" stroke:none;fill-rule:nonzero;fill:rgb(100%,70.588235%,35.294118%);fill-opacity:1;" d="M 47.980469 67.242188 C 47.9375 67.359375 47.890625 67.476562 47.84375 67.589844 C 47.988281 67.46875 48.136719 67.355469 48.289062 67.242188 Z M 47.980469 67.242188 "/>
<path style=" stroke:none;fill-rule:nonzero;fill:rgb(100%,70.588235%,35.294118%);fill-opacity:1;" d="M 75.863281 65.515625 C 75.863281 64.566406 75.089844 63.792969 74.136719 63.792969 C 73.1875 63.792969 72.414062 64.566406 72.414062 65.515625 C 72.414062 66.46875 73.1875 67.242188 74.136719 67.242188 C 75.089844 67.242188 75.863281 66.46875 75.863281 65.515625 Z M 75.863281 65.515625 "/>
<path style=" stroke:none;fill-rule:nonzero;fill:rgb(100%,70.588235%,35.294118%);fill-opacity:1;" d="M 43.101562 63.792969 C 42.152344 63.792969 41.378906 64.566406 41.378906 65.515625 C 41.378906 66.46875 42.152344 67.242188 43.101562 67.242188 C 44.054688 67.242188 44.828125 66.46875 44.828125 65.515625 C 44.828125 64.566406 44.054688 63.792969 43.101562 63.792969 Z M 43.101562 63.792969 "/>
<path style=" stroke:none;fill-rule:nonzero;fill:rgb(100%,58.823529%,27.45098%);fill-opacity:1;" d="M 79.308594 20.691406 L 94.828125 20.691406 L 74.136719 0 L 74.136719 15.515625 C 74.136719 18.375 76.453125 20.691406 79.308594 20.691406 Z M 79.308594 20.691406 "/>
<path style=" stroke:none;fill-rule:nonzero;fill:rgb(100%,58.823529%,27.45098%);fill-opacity:1;" d="M 21.402344 28.078125 C 21.179688 27.484375 20.195312 27.496094 19.976562 28.078125 L 17.574219 34.484375 L 23.804688 34.484375 Z M 21.402344 28.078125 "/>
<path style=" stroke:none;fill-rule:nonzero;fill:rgb(100%,58.823529%,27.45098%);fill-opacity:1;" d="M 44.828125 44.828125 L 44.828125 20.691406 C 44.828125 18.785156 43.285156 17.242188 41.378906 17.242188 L 8.621094 17.242188 C 6.714844 17.242188 5.171875 18.785156 5.171875 20.691406 L 5.171875 44.828125 C 5.171875 46.730469 6.714844 48.277344 8.621094 48.277344 L 41.378906 48.277344 C 43.285156 48.277344 44.828125 46.730469 44.828125 44.828125 Z M 28.191406 41.269531 C 27.992188 41.34375 27.789062 41.378906 27.585938 41.378906 C 26.886719 41.378906 26.230469 40.953125 25.972656 40.261719 L 25.097656 37.929688 L 16.28125 37.929688 L 15.40625 40.261719 C 15.074219 41.152344 14.082031 41.605469 13.1875 41.269531 C 12.296875 40.933594 11.84375 39.941406 12.179688 39.050781 L 16.746094 26.867188 C 17.359375 25.234375 18.941406 24.136719 20.6875 24.136719 C 22.4375 24.136719 24.019531 25.234375 24.632812 26.867188 L 29.199219 39.050781 C 29.535156 39.941406 29.082031 40.933594 28.191406 41.269531 Z M 36.207031 39.65625 C 36.207031 40.609375 35.433594 41.378906 34.484375 41.378906 C 33.53125 41.378906 32.757812 40.609375 32.757812 39.65625 L 32.757812 25.863281 C 32.757812 24.910156 33.53125 24.136719 34.484375 24.136719 C 35.433594 24.136719 36.207031 24.910156 36.207031 25.863281 Z M 36.207031 39.65625 "/>
<path style=" stroke:none;fill-rule:nonzero;fill:rgb(100%,100%,100%);fill-opacity:1;" d="M 24.632812 26.867188 C 24.019531 25.234375 22.4375 24.136719 20.6875 24.136719 C 18.941406 24.136719 17.359375 25.234375 16.746094 26.867188 L 12.179688 39.046875 C 11.84375 39.941406 12.296875 40.933594 13.1875 41.269531 C 14.082031 41.601562 15.074219 41.152344 15.40625 40.261719 L 16.28125 37.929688 L 25.097656 37.929688 L 25.972656 40.261719 C 26.230469 40.953125 26.886719 41.378906 27.585938 41.378906 C 27.789062 41.378906 27.992188 41.34375 28.191406 41.269531 C 29.082031 40.933594 29.535156 39.941406 29.203125 39.050781 Z M 17.574219 34.484375 L 19.976562 28.078125 C 20.195312 27.496094 21.179688 27.484375 21.402344 28.078125 L 23.804688 34.484375 Z M 17.574219 34.484375 "/>
<path style=" stroke:none;fill-rule:nonzero;fill:rgb(100%,100%,100%);fill-opacity:1;" d="M 34.484375 24.136719 C 33.53125 24.136719 32.757812 24.910156 32.757812 25.863281 L 32.757812 39.65625 C 32.757812 40.609375 33.53125 41.378906 34.484375 41.378906 C 35.433594 41.378906 36.207031 40.609375 36.207031 39.65625 L 36.207031 25.863281 C 36.207031 24.910156 35.433594 24.136719 34.484375 24.136719 Z M 34.484375 24.136719 "/>
<path style=" stroke:none;fill-rule:nonzero;fill:rgb(100%,100%,100%);fill-opacity:1;" d="M 79.308594 65.515625 C 79.308594 62.664062 76.988281 60.34375 74.136719 60.34375 C 71.890625 60.34375 69.972656 61.785156 69.261719 63.792969 L 63.792969 63.792969 L 63.792969 62.070312 C 63.792969 61.117188 63.019531 60.34375 62.070312 60.34375 L 55.171875 60.34375 C 54.21875 60.34375 53.449219 61.117188 53.449219 62.070312 L 53.449219 63.792969 L 47.980469 63.792969 C 47.269531 61.785156 45.351562 60.34375 43.105469 60.34375 C 40.25 60.34375 37.929688 62.664062 37.929688 65.515625 C 37.929688 68.371094 40.25 70.691406 43.105469 70.691406 C 43.839844 70.691406 44.539062 70.535156 45.175781 70.253906 C 43.847656 71.90625 42.820312 73.800781 42.171875 75.863281 L 39.65625 75.863281 C 38.703125 75.863281 37.929688 76.632812 37.929688 77.585938 L 37.929688 84.484375 C 37.929688 85.4375 38.703125 86.207031 39.65625 86.207031 L 46.550781 86.207031 C 47.503906 86.207031 48.277344 85.4375 48.277344 84.484375 L 48.277344 77.585938 C 48.277344 76.632812 47.503906 75.863281 46.550781 75.863281 L 45.832031 75.863281 C 47.234375 72.414062 50 69.648438 53.449219 68.246094 L 53.449219 68.964844 C 53.449219 69.917969 54.21875 70.691406 55.171875 70.691406 L 62.070312 70.691406 C 63.019531 70.691406 63.792969 69.917969 63.792969 68.964844 L 63.792969 68.25 C 67.242188 69.648438 70.007812 72.414062 71.40625 75.863281 L 70.691406 75.863281 C 69.738281 75.863281 68.964844 76.632812 68.964844 77.585938 L 68.964844 84.484375 C 68.964844 85.4375 69.738281 86.207031 70.691406 86.207031 L 77.585938 86.207031 C 78.539062 86.207031 79.308594 85.4375 79.308594 84.484375 L 79.308594 77.585938 C 79.308594 76.632812 78.539062 75.863281 77.585938 75.863281 L 75.070312 75.863281 C 74.417969 73.800781 73.390625 71.90625 72.066406 70.253906 C 72.699219 70.535156 73.402344 70.691406 74.136719 70.691406 C 76.988281 70.691406 79.308594 68.371094 79.308594 65.515625 Z M 44.828125 82.757812 L 41.378906 82.757812 L 41.378906 79.308594 L 44.828125 79.308594 Z M 75.863281 82.757812 L 72.414062 82.757812 L 72.414062 79.308594 L 73.675781 79.308594 C 73.699219 79.3125 73.726562 79.3125 73.753906 79.3125 C 73.773438 79.3125 73.792969 79.3125 73.816406 79.308594 L 75.863281 79.308594 Z M 69.398438 67.589844 C 69.253906 67.472656 69.105469 67.355469 68.953125 67.242188 L 69.261719 67.242188 C 69.304688 67.359375 69.351562 67.476562 69.398438 67.589844 Z M 47.980469 67.242188 L 48.289062 67.242188 C 48.136719 67.355469 47.988281 67.46875 47.84375 67.589844 C 47.890625 67.476562 47.9375 67.359375 47.980469 67.242188 Z M 43.101562 67.242188 C 42.152344 67.242188 41.378906 66.46875 41.378906 65.515625 C 41.378906 64.566406 42.152344 63.792969 43.101562 63.792969 C 44.054688 63.792969 44.828125 64.566406 44.828125 65.515625 C 44.828125 66.46875 44.054688 67.242188 43.101562 67.242188 Z M 60.34375 67.242188 L 56.898438 67.242188 L 56.898438 63.792969 L 60.34375 63.792969 Z M 72.414062 65.515625 C 72.414062 64.566406 73.1875 63.792969 74.136719 63.792969 C 75.089844 63.792969 75.863281 64.566406 75.863281 65.515625 C 75.863281 66.46875 75.089844 67.242188 74.136719 67.242188 C 73.1875 67.242188 72.414062 66.46875 72.414062 65.515625 Z M 72.414062 65.515625 "/>
</g>
</svg>
<!-- iconic normalized -->