<?xml version="1.0" encoding="UTF-8"?>
<svg xmlns="http://www.w3.org/2000/svg" xmlns:xlink="http://www.w3.org/1999/xlink" width="100px" height="100px" viewBox="0 0 100 100" version="1.1">
<g id="surface1">
<path style=" stroke:none;fill-rule:nonzero;fill:rgb(100%,72.156863%,33.333333%);fill-opacity:1;" d="M 52.652344 14.753906 C 54.265625 16.347656 56.445312 17.242188 58.714844 17.242188 L 70.78125 17.242188 C 68.515625 17.242188 66.335938 16.347656 64.722656 14.753906 L 59.292969 9.386719 C 57.679688 7.789062 55.5 6.898438 53.234375 6.898438 L 41.164062 6.898438 C 43.433594 6.898438 45.609375 7.789062 47.222656 9.386719 Z M 52.652344 14.753906 "/>
<path style=" stroke:none;fill-rule:nonzero;fill:rgb(100%,78.431373%,35.294118%);fill-opacity:1;" d="M 35.15625 9.386719 L 40.585938 14.753906 C 42.199219 16.347656 44.375 17.242188 46.644531 17.242188 L 58.714844 17.242188 C 56.445312 17.242188 54.265625 16.347656 52.652344 14.753906 L 47.222656 9.386719 C 45.609375 7.789062 43.433594 6.898438 41.164062 6.898438 L 29.09375 6.898438 C 31.363281 6.894531 33.539062 7.789062 35.15625 9.386719 Z M 35.15625 9.386719 "/>
<path style=" stroke:none;fill-rule:nonzero;fill:rgb(100%,86.27451%,41.176471%);fill-opacity:1;" d="M 94.828125 17.242188 L 46.644531 17.242188 C 44.375 17.242188 42.199219 16.347656 40.585938 14.753906 L 35.15625 9.386719 C 33.539062 7.789062 31.363281 6.894531 29.09375 6.894531 L 5.171875 6.894531 C 2.316406 6.894531 0 9.210938 0 12.070312 L 0 87.929688 C 0 90.789062 2.316406 93.105469 5.171875 93.105469 L 94.828125 93.105469 C 97.683594 93.105469 100 90.789062 100 87.929688 L 100 22.414062 C 100 19.558594 97.683594 17.242188 94.828125 17.242188 Z M 58.621094 29.308594 C 58.621094 31.214844 57.078125 32.757812 55.171875 32.757812 L 53.449219 32.757812 C 51.542969 32.757812 50 31.214844 50 29.308594 L 50 27.585938 C 50 25.683594 51.542969 24.136719 53.449219 24.136719 L 55.171875 24.136719 C 57.078125 24.136719 58.621094 25.683594 58.621094 27.585938 Z M 93.101562 29.308594 C 93.101562 31.214844 91.558594 32.757812 89.65625 32.757812 L 65.515625 32.757812 C 63.613281 32.757812 62.070312 31.214844 62.070312 29.308594 L 62.070312 27.585938 C 62.070312 25.683594 63.613281 24.136719 65.515625 24.136719 L 89.65625 24.136719 C 91.558594 24.136719 93.101562 25.683594 93.101562 27.585938 Z M 93.101562 29.308594 "/>
<path style=" stroke:none;fill-rule:nonzero;fill:rgb(100%,94.117647%,72.54902%);fill-opacity:1;" d="M 89.65625 24.136719 L 65.515625 24.136719 C 63.613281 24.136719 62.070312 25.683594 62.070312 27.585938 L 62.070312 29.308594 C 62.070312 31.214844 63.613281 32.757812 65.515625 32.757812 L 89.65625 32.757812 C 91.558594 32.757812 93.101562 31.214844 93.101562 29.308594 L 93.101562 27.585938 C 93.101562 25.683594 91.558594 24.136719 89.65625 24.136719 Z M 89.65625 24.136719 "/>
<path style=" stroke:none;fill-rule:nonzero;fill:rgb(100%,78.431373%,35.294118%);fill-opacity:1;" d="M 55.171875 24.136719 L 53.449219 24.136719 C 51.542969 24.136719 50 25.683594 50 27.585938 L 50 29.308594 C 50 31.214844 51.542969 32.757812 53.449219 32.757812 L 55.171875 32.757812 C 57.078125 32.757812 58.621094 31.214844 58.621094 29.308594 L 58.621094 27.585938 C 58.621094 25.683594 57.078125 24.136719 55.171875 24.136719 Z M 55.171875 24.136719 "/>
</g>
</svg>
<!-- iconic normalized -->