<?xml version="1.0" encoding="UTF-8"?>
<svg xmlns="http://www.w3.org/2000/svg" xmlns:xlink="http://www.w3.org/1999/xlink" width="100px" height="100px" viewBox="0 0 100 100" version="1.1">
<g id="surface1">
<path style=" stroke:none;fill-rule:nonzero;fill:rgb(100%,86.27451%,41.176471%);fill-opacity:1;" d="M 31.035156 22.414062 C 31.035156 20.507812 32.578125 18.964844 34.484375 18.964844 C 35.757812 18.964844 36.871094 19.660156 37.464844 20.691406 L 46.550781 20.691406 L 46.550781 3.449219 C 46.550781 1.542969 45.007812 0 43.101562 0 L 25.863281 0 C 23.957031 0 22.414062 1.542969 22.414062 3.449219 L 22.414062 41.378906 C 22.414062 43.285156 23.957031 44.828125 25.863281 44.828125 L 32.757812 44.828125 L 32.757812 25.398438 C 31.730469 24.800781 31.035156 23.6875 31.035156 22.414062 Z M 31.035156 22.414062 "/>
<path style=" stroke:none;fill-rule:nonzero;fill:rgb(100%,86.27451%,41.176471%);fill-opacity:1;" d="M 36.207031 25.398438 L 36.207031 44.828125 L 43.101562 44.828125 C 45.007812 44.828125 46.550781 43.285156 46.550781 41.378906 L 46.550781 24.136719 L 37.464844 24.136719 C 37.164062 24.660156 36.730469 25.09375 36.207031 25.398438 Z M 36.207031 25.398438 "/>
<path style=" stroke:none;fill-rule:nonzero;fill:rgb(100%,39.215686%,41.176471%);fill-opacity:1;" d="M 62.070312 22.414062 C 62.070312 20.507812 63.613281 18.964844 65.515625 18.964844 C 67.421875 18.964844 68.964844 20.507812 68.964844 22.414062 C 68.964844 23.6875 68.269531 24.800781 67.242188 25.398438 L 67.242188 44.828125 L 74.136719 44.828125 C 76.042969 44.828125 77.585938 43.285156 77.585938 41.378906 L 77.585938 3.449219 C 77.585938 1.542969 76.042969 0 74.136719 0 L 56.898438 0 C 54.992188 0 53.449219 1.542969 53.449219 3.449219 L 53.449219 16.527344 L 58.117188 21.195312 C 58.453125 21.53125 58.621094 21.972656 58.621094 22.414062 C 58.621094 22.855469 58.453125 23.296875 58.117188 23.632812 L 53.449219 28.300781 L 53.449219 41.378906 C 53.449219 43.285156 54.992188 44.828125 56.894531 44.828125 L 63.792969 44.828125 L 63.792969 25.398438 C 62.761719 24.800781 62.070312 23.6875 62.070312 22.414062 Z M 62.070312 22.414062 "/>
<path style=" stroke:none;fill-rule:nonzero;fill:rgb(70.588235%,88.235294%,45.098039%);fill-opacity:1;" d="M 38.4375 62.574219 C 39.109375 61.902344 40.199219 61.902344 40.875 62.574219 C 41.546875 63.246094 41.546875 64.339844 40.875 65.011719 L 35.703125 70.183594 C 35.664062 70.222656 35.621094 70.261719 35.574219 70.300781 C 35.558594 70.3125 35.542969 70.324219 35.527344 70.335938 C 35.496094 70.355469 35.46875 70.378906 35.4375 70.398438 C 35.417969 70.414062 35.394531 70.425781 35.371094 70.441406 C 35.347656 70.457031 35.320312 70.472656 35.292969 70.488281 C 35.269531 70.5 35.246094 70.511719 35.222656 70.523438 C 35.195312 70.535156 35.167969 70.546875 35.140625 70.558594 C 35.117188 70.570312 35.09375 70.578125 35.070312 70.585938 C 35.039062 70.597656 35.011719 70.605469 34.984375 70.617188 C 34.957031 70.625 34.933594 70.628906 34.90625 70.632812 C 34.878906 70.640625 34.847656 70.648438 34.820312 70.65625 C 34.789062 70.664062 34.757812 70.664062 34.730469 70.671875 C 34.703125 70.671875 34.679688 70.679688 34.652344 70.679688 C 34.597656 70.6875 34.539062 70.691406 34.484375 70.691406 C 34.425781 70.691406 34.367188 70.6875 34.3125 70.679688 C 34.285156 70.679688 34.261719 70.671875 34.234375 70.671875 C 34.207031 70.664062 34.175781 70.664062 34.144531 70.65625 C 34.117188 70.648438 34.085938 70.640625 34.058594 70.632812 C 34.03125 70.628906 34.007812 70.621094 33.984375 70.617188 C 33.953125 70.605469 33.925781 70.59375 33.898438 70.585938 C 33.871094 70.578125 33.847656 70.570312 33.824219 70.558594 C 33.796875 70.546875 33.769531 70.535156 33.742188 70.519531 C 33.71875 70.507812 33.695312 70.5 33.671875 70.484375 C 33.644531 70.472656 33.617188 70.457031 33.59375 70.441406 C 33.570312 70.425781 33.546875 70.414062 33.527344 70.398438 C 33.496094 70.378906 33.464844 70.355469 33.4375 70.335938 C 33.421875 70.324219 33.40625 70.3125 33.390625 70.300781 C 33.34375 70.261719 33.300781 70.222656 33.261719 70.183594 L 28.089844 65.011719 C 27.417969 64.339844 27.417969 63.246094 28.089844 62.574219 C 28.765625 61.902344 29.855469 61.902344 30.527344 62.574219 L 32.757812 64.804688 L 32.757812 55.171875 L 25.863281 55.171875 C 23.957031 55.171875 22.414062 56.714844 22.414062 58.621094 L 22.414062 96.550781 C 22.414062 98.457031 23.957031 100 25.863281 100 L 43.101562 100 C 45.007812 100 46.550781 98.457031 46.550781 96.550781 L 46.550781 58.621094 C 46.550781 56.714844 45.007812 55.171875 43.101562 55.171875 L 36.207031 55.171875 L 36.207031 64.804688 Z M 34.484375 81.035156 C 32.578125 81.035156 31.035156 79.492188 31.035156 77.585938 C 31.035156 75.683594 32.578125 74.136719 34.484375 74.136719 C 36.386719 74.136719 37.929688 75.683594 37.929688 77.585938 C 37.929688 79.492188 36.386719 81.035156 34.484375 81.035156 Z M 34.484375 81.035156 "/>
<path style=" stroke:none;fill-rule:nonzero;fill:rgb(62.745098%,86.27451%,94.117647%);fill-opacity:1;" d="M 69.46875 62.574219 C 70.144531 61.902344 71.234375 61.902344 71.910156 62.574219 C 72.582031 63.246094 72.582031 64.339844 71.910156 65.011719 L 66.738281 70.183594 C 66.695312 70.222656 66.652344 70.261719 66.609375 70.300781 C 66.59375 70.3125 66.578125 70.324219 66.5625 70.335938 C 66.53125 70.355469 66.503906 70.378906 66.472656 70.398438 C 66.453125 70.414062 66.429688 70.425781 66.40625 70.441406 C 66.382812 70.457031 66.355469 70.472656 66.328125 70.488281 C 66.304688 70.5 66.28125 70.511719 66.257812 70.523438 C 66.230469 70.535156 66.203125 70.546875 66.175781 70.558594 C 66.152344 70.570312 66.128906 70.578125 66.101562 70.585938 C 66.074219 70.597656 66.046875 70.605469 66.015625 70.617188 C 65.992188 70.625 65.96875 70.628906 65.941406 70.632812 C 65.914062 70.640625 65.882812 70.648438 65.855469 70.65625 C 65.824219 70.664062 65.792969 70.664062 65.765625 70.671875 C 65.738281 70.671875 65.714844 70.679688 65.6875 70.679688 C 65.628906 70.6875 65.574219 70.691406 65.515625 70.691406 C 65.460938 70.691406 65.402344 70.6875 65.347656 70.679688 C 65.320312 70.679688 65.296875 70.671875 65.269531 70.671875 C 65.238281 70.664062 65.210938 70.664062 65.179688 70.65625 C 65.152344 70.648438 65.121094 70.640625 65.09375 70.632812 C 65.066406 70.628906 65.042969 70.621094 65.015625 70.617188 C 64.988281 70.605469 64.960938 70.59375 64.929688 70.585938 C 64.90625 70.578125 64.882812 70.570312 64.859375 70.558594 C 64.832031 70.546875 64.804688 70.535156 64.777344 70.519531 C 64.753906 70.507812 64.730469 70.5 64.707031 70.484375 C 64.679688 70.472656 64.652344 70.457031 64.628906 70.441406 C 64.605469 70.425781 64.582031 70.414062 64.5625 70.398438 C 64.53125 70.378906 64.5 70.355469 64.472656 70.335938 C 64.457031 70.324219 64.441406 70.3125 64.425781 70.300781 C 64.378906 70.261719 64.335938 70.222656 64.296875 70.183594 L 59.125 65.011719 C 58.453125 64.339844 58.453125 63.246094 59.125 62.574219 C 59.800781 61.902344 60.890625 61.902344 61.5625 62.574219 L 63.792969 64.804688 L 63.792969 55.171875 L 56.898438 55.171875 C 54.992188 55.171875 53.449219 56.714844 53.449219 58.621094 L 53.449219 96.550781 C 53.449219 98.457031 54.992188 100 56.898438 100 L 74.136719 100 C 76.042969 100 77.585938 98.457031 77.585938 96.550781 L 77.585938 58.621094 C 77.585938 56.714844 76.042969 55.171875 74.136719 55.171875 L 67.242188 55.171875 L 67.242188 64.804688 Z M 65.515625 81.035156 C 63.613281 81.035156 62.070312 79.492188 62.070312 77.585938 C 62.070312 75.683594 63.613281 74.136719 65.515625 74.136719 C 67.421875 74.136719 68.964844 75.683594 68.964844 77.585938 C 68.964844 79.492188 67.421875 81.035156 65.515625 81.035156 Z M 65.515625 81.035156 "/>
<path style=" stroke:none;fill-rule:nonzero;fill:rgb(47.058824%,72.54902%,78.431373%);fill-opacity:1;" d="M 68.964844 77.585938 C 68.964844 79.492188 67.421875 81.035156 65.515625 81.035156 C 63.613281 81.035156 62.070312 79.492188 62.070312 77.585938 C 62.070312 75.683594 63.613281 74.136719 65.515625 74.136719 C 67.421875 74.136719 68.964844 75.683594 68.964844 77.585938 Z M 68.964844 77.585938 "/>
<path style=" stroke:none;fill-rule:nonzero;fill:rgb(58.823529%,72.54902%,35.294118%);fill-opacity:1;" d="M 37.929688 77.585938 C 37.929688 79.492188 36.386719 81.035156 34.484375 81.035156 C 32.578125 81.035156 31.035156 79.492188 31.035156 77.585938 C 31.035156 75.683594 32.578125 74.136719 34.484375 74.136719 C 36.386719 74.136719 37.929688 75.683594 37.929688 77.585938 Z M 37.929688 77.585938 "/>
<path style=" stroke:none;fill-rule:nonzero;fill:rgb(43.921569%,45.098039%,51.764706%);fill-opacity:1;" d="M 34.484375 25.863281 C 33.855469 25.863281 33.265625 25.691406 32.757812 25.398438 L 32.757812 64.804688 L 30.53125 62.574219 C 29.855469 61.902344 28.765625 61.902344 28.089844 62.574219 C 27.417969 63.246094 27.417969 64.339844 28.089844 65.011719 L 33.261719 70.183594 C 33.304688 70.222656 33.347656 70.261719 33.390625 70.300781 C 33.40625 70.3125 33.421875 70.324219 33.4375 70.335938 C 33.46875 70.355469 33.496094 70.378906 33.527344 70.398438 C 33.546875 70.414062 33.570312 70.425781 33.59375 70.441406 C 33.617188 70.457031 33.644531 70.472656 33.671875 70.484375 C 33.695312 70.5 33.71875 70.507812 33.742188 70.519531 C 33.769531 70.535156 33.796875 70.546875 33.824219 70.558594 C 33.847656 70.570312 33.871094 70.578125 33.898438 70.585938 C 33.925781 70.59375 33.953125 70.605469 33.984375 70.617188 C 34.007812 70.625 34.03125 70.628906 34.058594 70.636719 C 34.085938 70.640625 34.117188 70.652344 34.144531 70.65625 C 34.175781 70.664062 34.207031 70.664062 34.234375 70.671875 C 34.261719 70.671875 34.285156 70.679688 34.3125 70.679688 C 34.367188 70.6875 34.425781 70.691406 34.484375 70.691406 C 34.539062 70.691406 34.597656 70.6875 34.652344 70.679688 C 34.679688 70.679688 34.703125 70.671875 34.730469 70.671875 C 34.761719 70.664062 34.789062 70.664062 34.820312 70.65625 C 34.847656 70.652344 34.878906 70.640625 34.90625 70.636719 C 34.933594 70.628906 34.957031 70.621094 34.984375 70.617188 C 35.011719 70.605469 35.039062 70.59375 35.070312 70.585938 C 35.09375 70.578125 35.117188 70.570312 35.140625 70.558594 C 35.167969 70.546875 35.195312 70.535156 35.222656 70.523438 C 35.246094 70.511719 35.269531 70.5 35.292969 70.488281 C 35.320312 70.472656 35.347656 70.457031 35.371094 70.441406 C 35.394531 70.425781 35.417969 70.414062 35.4375 70.398438 C 35.46875 70.378906 35.5 70.359375 35.527344 70.335938 C 35.542969 70.324219 35.558594 70.3125 35.574219 70.300781 C 35.621094 70.261719 35.664062 70.222656 35.703125 70.183594 L 40.875 65.011719 C 41.546875 64.339844 41.546875 63.246094 40.875 62.574219 C 40.199219 61.902344 39.109375 61.902344 38.4375 62.574219 L 36.207031 64.804688 L 36.207031 25.398438 C 35.699219 25.691406 35.113281 25.863281 34.484375 25.863281 Z M 34.484375 25.863281 "/>
<path style=" stroke:none;fill-rule:nonzero;fill:rgb(43.921569%,45.098039%,51.764706%);fill-opacity:1;" d="M 67.242188 25.398438 C 66.734375 25.691406 66.144531 25.863281 65.515625 25.863281 C 64.886719 25.863281 64.300781 25.691406 63.792969 25.398438 L 63.792969 64.804688 L 61.5625 62.574219 C 60.890625 61.902344 59.800781 61.902344 59.125 62.574219 C 58.453125 63.246094 58.453125 64.339844 59.125 65.011719 L 64.296875 70.183594 C 64.335938 70.222656 64.378906 70.261719 64.425781 70.300781 C 64.441406 70.3125 64.457031 70.324219 64.472656 70.335938 C 64.5 70.355469 64.53125 70.378906 64.5625 70.398438 C 64.582031 70.414062 64.605469 70.425781 64.628906 70.441406 C 64.652344 70.457031 64.679688 70.472656 64.707031 70.488281 C 64.730469 70.5 64.753906 70.507812 64.777344 70.519531 C 64.804688 70.535156 64.832031 70.546875 64.859375 70.558594 C 64.882812 70.570312 64.90625 70.578125 64.929688 70.585938 C 64.960938 70.597656 64.988281 70.605469 65.015625 70.617188 C 65.042969 70.625 65.066406 70.628906 65.09375 70.636719 C 65.121094 70.644531 65.152344 70.652344 65.179688 70.65625 C 65.210938 70.664062 65.238281 70.664062 65.269531 70.671875 C 65.296875 70.675781 65.320312 70.679688 65.347656 70.679688 C 65.402344 70.6875 65.460938 70.691406 65.515625 70.691406 C 65.574219 70.691406 65.628906 70.6875 65.6875 70.679688 C 65.714844 70.679688 65.738281 70.675781 65.765625 70.671875 C 65.792969 70.664062 65.824219 70.664062 65.855469 70.65625 C 65.882812 70.652344 65.914062 70.640625 65.941406 70.636719 C 65.96875 70.628906 65.992188 70.625 66.015625 70.617188 C 66.046875 70.605469 66.074219 70.597656 66.101562 70.585938 C 66.128906 70.578125 66.152344 70.570312 66.175781 70.558594 C 66.203125 70.546875 66.230469 70.535156 66.257812 70.523438 C 66.28125 70.511719 66.304688 70.5 66.328125 70.488281 C 66.355469 70.472656 66.382812 70.457031 66.40625 70.441406 C 66.429688 70.425781 66.453125 70.414062 66.472656 70.402344 C 66.503906 70.378906 66.53125 70.359375 66.5625 70.335938 C 66.578125 70.324219 66.59375 70.3125 66.609375 70.300781 C 66.652344 70.261719 66.699219 70.222656 66.738281 70.183594 L 71.910156 65.011719 C 72.582031 64.339844 72.582031 63.246094 71.910156 62.574219 C 71.234375 61.902344 70.144531 61.902344 69.46875 62.574219 L 67.242188 64.804688 Z M 67.242188 25.398438 "/>
<path style=" stroke:none;fill-rule:nonzero;fill:rgb(43.921569%,45.098039%,51.764706%);fill-opacity:1;" d="M 58.621094 22.414062 C 58.621094 21.972656 58.453125 21.53125 58.117188 21.195312 L 53.449219 16.527344 L 52.941406 16.023438 C 52.269531 15.347656 51.179688 15.347656 50.503906 16.023438 C 49.832031 16.695312 49.832031 17.789062 50.503906 18.460938 L 52.734375 20.691406 L 37.464844 20.691406 C 37.761719 21.199219 37.929688 21.785156 37.929688 22.414062 C 37.929688 23.042969 37.761719 23.628906 37.464844 24.136719 L 52.734375 24.136719 L 50.503906 26.367188 C 49.832031 27.039062 49.832031 28.132812 50.503906 28.804688 C 51.179688 29.480469 52.269531 29.480469 52.945312 28.804688 L 58.117188 23.632812 C 58.453125 23.296875 58.621094 22.855469 58.621094 22.414062 Z M 58.621094 22.414062 "/>
<path style=" stroke:none;fill-rule:nonzero;fill:rgb(100%,68.627451%,35.294118%);fill-opacity:1;" d="M 34.484375 18.964844 C 32.578125 18.964844 31.035156 20.507812 31.035156 22.414062 C 31.035156 23.6875 31.730469 24.800781 32.757812 25.398438 C 33.265625 25.691406 33.855469 25.863281 34.484375 25.863281 C 35.113281 25.863281 35.699219 25.691406 36.207031 25.398438 C 36.730469 25.09375 37.164062 24.660156 37.464844 24.136719 C 37.761719 23.628906 37.929688 23.042969 37.929688 22.414062 C 37.929688 21.785156 37.761719 21.195312 37.464844 20.691406 C 36.871094 19.660156 35.757812 18.964844 34.484375 18.964844 Z M 34.484375 18.964844 "/>
<path style=" stroke:none;fill-rule:nonzero;fill:rgb(74.509804%,27.45098%,31.372549%);fill-opacity:1;" d="M 68.964844 22.414062 C 68.964844 20.507812 67.421875 18.964844 65.515625 18.964844 C 63.613281 18.964844 62.070312 20.507812 62.070312 22.414062 C 62.070312 23.6875 62.761719 24.800781 63.792969 25.398438 C 64.300781 25.691406 64.886719 25.863281 65.515625 25.863281 C 66.144531 25.863281 66.734375 25.691406 67.242188 25.398438 C 68.269531 24.800781 68.964844 23.6875 68.964844 22.414062 Z M 68.964844 22.414062 "/>
</g>
</svg>
<!-- iconic normalized -->