<?xml version="1.0" encoding="UTF-8"?>
<svg xmlns="http://www.w3.org/2000/svg" xmlns:xlink="http://www.w3.org/1999/xlink" width="100px" height="100px" viewBox="0 0 100 100" version="1.1">
<g id="surface1">
<path style=" stroke:none;fill-rule:nonzero;fill:rgb(95.294118%,84.705882%,71.372549%);fill-opacity:1;" d="M 74.355469 72.023438 C 68.890625 70.066406 59.289062 68.585938 59.289062 48.199219 L 40.710938 48.199219 C 40.710938 68.585938 31.109375 70.066406 25.644531 72.023438 C 25.644531 85.890625 45.796875 86.320312 49.265625 87.609375 L 49.265625 88.0625 C 49.265625 88.0625 49.539062 88.007812 50 87.863281 C 50.460938 88.007812 50.730469 88.0625 50.730469 88.0625 L 50.730469 87.609375 C 54.203125 86.320312 74.355469 85.890625 74.355469 72.023438 Z M 74.355469 72.023438 "/>
<path style=" stroke:none;fill-rule:nonzero;fill:rgb(93.333333%,78.431373%,63.529412%);fill-opacity:1;" d="M 59.289062 48.199219 L 50 48.199219 L 50 87.863281 C 50.460938 88.003906 50.730469 88.0625 50.730469 88.0625 L 50.730469 87.609375 C 54.203125 86.316406 74.355469 85.890625 74.355469 72.023438 C 68.890625 70.066406 59.289062 68.585938 59.289062 48.199219 Z M 59.289062 48.199219 "/>
<path style=" stroke:none;fill-rule:nonzero;fill:rgb(95.294118%,85.882353%,76.862745%);fill-opacity:1;" d="M 50 54.6875 C 41.960938 54.6875 35.828125 47.917969 33.078125 42.84375 C 30.328125 37.765625 28.425781 20.167969 34.347656 12.128906 C 40.148438 4.257812 50 5.148438 50 5.148438 C 50 5.148438 59.851562 4.257812 65.652344 12.128906 C 71.574219 20.167969 69.671875 37.765625 66.921875 42.84375 C 64.171875 47.917969 58.035156 54.6875 50 54.6875 Z M 50 54.6875 "/>
<path style=" stroke:none;fill-rule:nonzero;fill:rgb(92.941176%,80.784314%,68.235294%);fill-opacity:1;" d="M 65.652344 12.128906 C 59.851562 4.257812 50 5.148438 50 5.148438 L 50 54.6875 C 58.035156 54.6875 64.171875 47.917969 66.921875 42.84375 C 69.671875 37.765625 71.574219 20.167969 65.652344 12.128906 Z M 65.652344 12.128906 "/>
<path style=" stroke:none;fill-rule:nonzero;fill:rgb(95.294118%,84.705882%,71.372549%);fill-opacity:1;" d="M 85.128906 88.089844 L 85.128906 100 L 14.871094 100 L 14.871094 88.089844 C 14.871094 79.179688 19.957031 71.410156 26.757812 67.328125 C 28.527344 66.261719 32.523438 65.445312 34.617188 64.925781 C 36.363281 64.492188 38.207031 64.261719 40.136719 64.261719 L 50.265625 71.289062 L 60.128906 64.261719 C 62.058594 64.261719 64.515625 64.492188 66.257812 64.925781 C 68.351562 65.445312 71.472656 66.261719 73.238281 67.328125 C 80.039062 71.410156 85.128906 79.179688 85.128906 88.089844 Z M 85.128906 88.089844 "/>
<path style=" stroke:none;fill-rule:nonzero;fill:rgb(93.333333%,78.431373%,63.529412%);fill-opacity:1;" d="M 73.238281 67.328125 C 71.46875 66.261719 68.351562 65.445312 66.257812 64.925781 C 64.515625 64.492188 62.058594 64.261719 60.128906 64.261719 L 50.265625 71.289062 L 50 71.105469 L 50 100 L 85.128906 100 L 85.128906 88.089844 C 85.128906 79.179688 80.039062 71.410156 73.238281 67.328125 Z M 73.238281 67.328125 "/>
<path style=" stroke:none;fill-rule:nonzero;fill:rgb(40%,63.529412%,60%);fill-opacity:1;" d="M 27.84375 92.746094 L 27.84375 100 L 71.957031 100 L 71.957031 92.746094 L 85.261719 92.746094 L 85.261719 88.089844 C 85.261719 79.179688 80.171875 71.410156 73.371094 67.328125 C 72.222656 66.632812 70.132812 65.921875 68.234375 65.367188 C 65.871094 72.507812 58.601562 77.710938 50 77.710938 C 41.398438 77.710938 34.128906 72.507812 31.765625 65.367188 C 29.867188 65.921875 27.777344 66.632812 26.628906 67.328125 C 19.828125 71.410156 14.738281 79.179688 14.738281 88.089844 L 14.738281 92.746094 Z M 27.84375 92.746094 "/>
<path style=" stroke:none;fill-rule:nonzero;fill:rgb(35.294118%,57.254902%,56.862745%);fill-opacity:1;" d="M 73.371094 67.328125 C 72.222656 66.632812 70.132812 65.921875 68.234375 65.367188 C 65.871094 72.511719 58.601562 77.710938 50 77.710938 L 50 100 L 71.957031 100 L 71.957031 92.746094 L 85.261719 92.746094 L 85.261719 88.089844 C 85.261719 79.179688 80.171875 71.410156 73.371094 67.328125 Z M 73.371094 67.328125 "/>
<path style=" stroke:none;fill-rule:nonzero;fill:rgb(84.313725%,45.098039%,29.019608%);fill-opacity:1;" d="M 69.457031 32.042969 C 69.242188 36.359375 62.890625 40.628906 60.789062 43.476562 C 55.871094 50.15625 50 44.425781 50 44.425781 C 50 44.425781 44.128906 50.15625 39.210938 43.476562 C 37.109375 40.628906 30.757812 36.359375 30.542969 32.042969 C 30.195312 38.152344 33.960938 44.421875 35.339844 46.96875 C 37.675781 51.28125 43.175781 57.027344 50 57.027344 C 56.824219 57.027344 62.324219 51.28125 64.660156 46.96875 C 66.039062 44.421875 69.804688 38.152344 69.457031 32.042969 Z M 69.457031 32.042969 "/>
<path style=" stroke:none;fill-rule:nonzero;fill:rgb(82.745098%,36.470588%,23.137255%);fill-opacity:1;" d="M 69.457031 32.042969 C 69.242188 36.359375 62.890625 40.628906 60.789062 43.476562 C 55.878906 50.144531 50.019531 44.445312 50 44.425781 L 50 57.027344 C 56.824219 57.027344 62.324219 51.28125 64.660156 46.96875 C 66.039062 44.421875 69.804688 38.152344 69.457031 32.042969 Z M 69.457031 32.042969 "/>
<path style=" stroke:none;fill-rule:nonzero;fill:rgb(84.313725%,45.098039%,29.019608%);fill-opacity:1;" d="M 60.347656 7.589844 C 60.347656 7.589844 53.195312 -2.019531 48.71875 0.386719 C 37.289062 6.53125 35.773438 5.761719 33.210938 6.65625 C 26.992188 8.816406 26.828125 8.238281 27.609375 13.03125 C 30.210938 28.933594 27.449219 36.257812 32.285156 30.347656 C 37.121094 24.4375 38.730469 25.832031 51.042969 24.488281 C 63.355469 23.144531 55.511719 17.648438 61.957031 22.09375 C 68.40625 26.539062 69.253906 34.605469 70.328125 34.605469 C 71.402344 34.605469 73.796875 19.207031 72.167969 14.429688 C 68.695312 4.226562 60.347656 7.589844 60.347656 7.589844 Z M 60.347656 7.589844 "/>
<path style=" stroke:none;fill-rule:nonzero;fill:rgb(82.745098%,36.470588%,23.137255%);fill-opacity:1;" d="M 72.167969 14.429688 C 68.695312 4.226562 60.347656 7.589844 60.347656 7.589844 C 60.347656 7.589844 54.433594 -0.351562 50 0.0117188 L 50 24.597656 C 50.339844 24.5625 50.6875 24.527344 51.042969 24.488281 C 63.355469 23.144531 55.507812 17.648438 61.957031 22.09375 C 68.40625 26.539062 69.253906 34.605469 70.328125 34.605469 C 71.402344 34.605469 73.796875 19.207031 72.167969 14.429688 Z M 72.167969 14.429688 "/>
<path style=" stroke:none;fill-rule:nonzero;fill:rgb(92.941176%,80.784314%,68.235294%);fill-opacity:1;" d="M 69.984375 30.15625 C 68.464844 29.582031 66.433594 31.222656 65.449219 33.820312 C 64.464844 36.417969 64.898438 38.992188 66.417969 39.570312 C 67.9375 40.144531 69.96875 38.503906 70.953125 35.90625 C 71.9375 33.304688 71.503906 30.734375 69.984375 30.15625 Z M 69.984375 30.15625 "/>
<path style=" stroke:none;fill-rule:nonzero;fill:rgb(95.294118%,85.882353%,76.862745%);fill-opacity:1;" d="M 33.578125 39.566406 C 35.097656 38.992188 35.53125 36.417969 34.546875 33.820312 C 33.5625 31.222656 31.53125 29.582031 30.011719 30.15625 C 28.492188 30.734375 28.058594 33.304688 29.042969 35.90625 C 30.027344 38.503906 32.058594 40.144531 33.578125 39.566406 Z M 33.578125 39.566406 "/>
</g>
</svg>
<!-- iconic normalized -->