<?xml version="1.0" encoding="UTF-8"?>
<svg xmlns="http://www.w3.org/2000/svg" xmlns:xlink="http://www.w3.org/1999/xlink" width="100px" height="100px" viewBox="0 0 100 100" version="1.1">
<g id="surface1">
<path style=" stroke:none;fill-rule:nonzero;fill:rgb(40.784314%,13.333333%,20.392157%);fill-opacity:1;" d="M 80.828125 39.363281 C 80.828125 16.660156 68.917969 0 50 0 C 31.1875 0 19.308594 16.476562 19.175781 38.984375 C 18.484375 38.828125 17.769531 38.742188 17.03125 38.742188 C 11.6875 38.742188 7.355469 43.074219 7.355469 48.417969 C 7.355469 52.808594 10.28125 56.515625 14.289062 57.699219 C 14.382812 62.960938 18.675781 67.199219 23.960938 67.199219 C 25.578125 67.199219 27.097656 66.800781 28.4375 66.101562 C 29.828125 69.738281 33.347656 72.324219 37.476562 72.324219 C 42.820312 72.324219 47.152344 67.992188 47.152344 62.648438 C 47.152344 61.867188 47.054688 61.109375 46.882812 60.382812 C 59.164062 60.851562 72.125 58.535156 77.71875 53.4375 C 85.074219 46.734375 80.828125 45.472656 80.828125 39.363281 Z M 80.828125 39.363281 "/>
<path style=" stroke:none;fill-rule:nonzero;fill:rgb(34.509804%,10.196078%,16.862745%);fill-opacity:1;" d="M 92.644531 48.417969 C 92.644531 43.074219 88.3125 38.742188 82.96875 38.742188 C 82.230469 38.742188 81.515625 38.828125 80.824219 38.984375 C 80.691406 16.476562 68.8125 0 50 0 C 49.992188 0 49.984375 0 49.972656 0 L 49.972656 60.441406 C 51.023438 60.441406 52.074219 60.421875 53.117188 60.382812 C 52.945312 61.109375 52.847656 61.867188 52.847656 62.648438 C 52.847656 67.992188 57.179688 72.324219 62.523438 72.324219 C 66.652344 72.324219 70.171875 69.738281 71.5625 66.101562 C 72.902344 66.800781 74.421875 67.199219 76.039062 67.199219 C 81.324219 67.199219 85.617188 62.960938 85.710938 57.699219 C 89.71875 56.515625 92.644531 52.808594 92.644531 48.417969 Z M 92.644531 48.417969 "/>
<path style=" stroke:none;fill-rule:nonzero;fill:rgb(95.294118%,84.705882%,71.372549%);fill-opacity:1;" d="M 57.894531 50.363281 L 42.105469 50.363281 C 42.105469 71.136719 31.957031 69.257812 31.957031 69.257812 C 31.957031 82.457031 46.210938 86.640625 49.597656 87.871094 L 49.597656 88.300781 C 49.597656 88.300781 49.746094 88.269531 50 88.199219 C 50.253906 88.269531 50.402344 88.300781 50.402344 88.300781 L 50.402344 87.871094 C 53.789062 86.640625 68.042969 82.457031 68.042969 69.257812 C 68.042969 69.257812 57.894531 71.136719 57.894531 50.363281 Z M 57.894531 50.363281 "/>
<path style=" stroke:none;fill-rule:nonzero;fill:rgb(93.333333%,78.431373%,63.529412%);fill-opacity:1;" d="M 57.894531 50.363281 L 50 50.363281 L 50 88.199219 C 50.253906 88.269531 50.402344 88.300781 50.402344 88.300781 L 50.402344 87.871094 C 53.789062 86.640625 68.042969 82.457031 68.042969 69.257812 C 68.042969 69.257812 57.894531 71.136719 57.894531 50.363281 Z M 57.894531 50.363281 "/>
<path style=" stroke:none;fill-rule:nonzero;fill:rgb(95.294118%,84.705882%,71.372549%);fill-opacity:1;" d="M 82.59375 88.605469 L 82.59375 99.941406 L 17.40625 99.941406 L 17.40625 88.605469 C 17.40625 80.125 21.410156 72.734375 27.882812 68.847656 C 29.566406 67.832031 31.417969 67.054688 33.414062 66.5625 C 35.070312 66.148438 36.828125 65.929688 38.664062 65.929688 L 50 72.617188 L 61.335938 65.929688 C 63.171875 65.929688 64.929688 66.148438 66.585938 66.5625 C 68.582031 67.054688 70.433594 67.832031 72.117188 68.847656 C 78.589844 72.734375 82.59375 80.125 82.59375 88.605469 Z M 82.59375 88.605469 "/>
<path style=" stroke:none;fill-rule:nonzero;fill:rgb(93.333333%,78.431373%,63.529412%);fill-opacity:1;" d="M 82.59375 88.605469 L 82.59375 99.941406 L 50 99.941406 L 50 72.617188 L 60.03125 66.703125 L 61.335938 65.929688 C 63.171875 65.929688 64.929688 66.148438 66.585938 66.5625 C 68.582031 67.058594 70.433594 67.832031 72.117188 68.847656 C 78.585938 72.734375 82.59375 80.128906 82.59375 88.605469 Z M 82.59375 88.605469 "/>
<path style=" stroke:none;fill-rule:nonzero;fill:rgb(95.294118%,85.882353%,76.862745%);fill-opacity:1;" d="M 50.253906 33.695312 L 32.144531 33.695312 C 32.378906 39.871094 33.355469 45.453125 34.492188 47.550781 C 37.011719 52.203125 42.632812 58.40625 50 58.40625 C 57.363281 58.40625 62.988281 52.203125 65.507812 47.550781 C 66.644531 45.453125 67.621094 39.871094 67.855469 33.695312 Z M 50.253906 33.695312 "/>
<path style=" stroke:none;fill-rule:nonzero;fill:rgb(92.941176%,80.784314%,68.235294%);fill-opacity:1;" d="M 50.253906 33.695312 L 49.972656 33.695312 L 49.972656 58.40625 C 49.984375 58.40625 49.992188 58.40625 50 58.40625 C 57.363281 58.40625 62.988281 52.203125 65.507812 47.550781 C 66.644531 45.453125 67.621094 39.871094 67.855469 33.691406 L 50.253906 33.691406 Z M 50.253906 33.695312 "/>
<path style=" stroke:none;fill-rule:nonzero;fill:rgb(68.235294%,78.039216%,91.764706%);fill-opacity:1;" d="M 62.671875 74.644531 L 61.851562 74.644531 C 59.867188 79.078125 55.433594 82.164062 50.277344 82.164062 C 43.277344 82.164062 37.601562 76.472656 37.601562 69.449219 C 37.601562 68.207031 37.78125 67.007812 38.113281 65.871094 C 36.476562 65.910156 34.902344 66.121094 33.410156 66.496094 C 31.414062 66.988281 29.566406 67.761719 27.878906 68.78125 C 21.410156 72.667969 17.402344 80.058594 17.402344 88.539062 L 17.402344 90.199219 L 27.796875 90.199219 L 27.710938 90.339844 L 27.710938 100 L 72.292969 100 L 72.292969 90.339844 Z M 62.671875 74.644531 "/>
<path style=" stroke:none;fill-rule:nonzero;fill:rgb(58.823529%,70.196078%,83.137255%);fill-opacity:1;" d="M 82.597656 88.539062 C 82.597656 80.058594 78.589844 72.667969 72.121094 68.78125 C 70.433594 67.761719 68.585938 66.988281 66.589844 66.496094 C 65.269531 66.164062 63.886719 65.960938 62.449219 65.890625 C 62.777344 67.023438 62.957031 68.214844 62.957031 69.453125 C 62.957031 76.472656 57.28125 82.164062 50.277344 82.164062 C 50.1875 82.164062 50.09375 82.160156 50.003906 82.160156 L 50.003906 100 L 72.292969 100 L 72.292969 90.339844 L 72.207031 90.203125 L 82.597656 90.203125 Z M 82.597656 88.539062 "/>
</g>
</svg>
<!-- iconic normalized -->