<?xml version="1.0" encoding="UTF-8"?>
<svg xmlns="http://www.w3.org/2000/svg" xmlns:xlink="http://www.w3.org/1999/xlink" width="100px" height="100px" viewBox="0 0 100 100" version="1.1">
<g id="surface1">
<path style=" stroke:none;fill-rule:nonzero;fill:rgb(40.784314%,13.333333%,20.392157%);fill-opacity:1;" d="M 82.234375 38.925781 C 81.597656 20.296875 73.125 5.921875 59.425781 1.453125 C 59.421875 1.453125 59.421875 1.449219 59.417969 1.449219 C 56.507812 0.5 53.359375 0 50 0 C 46.210938 0 42.6875 0.640625 39.472656 1.839844 C 26.421875 6.703125 18.386719 20.800781 17.765625 38.925781 C 14.902344 41.25 13.070312 44.796875 13.070312 48.773438 C 13.070312 55.777344 18.746094 61.457031 25.753906 61.457031 C 35.191406 61.457031 42.757812 66.679688 49.777344 66.660156 C 49.851562 66.660156 49.925781 66.65625 50 66.652344 C 50.109375 66.648438 50.21875 66.644531 50.328125 66.644531 C 50.488281 66.636719 50.65625 66.628906 50.820312 66.617188 C 51.148438 66.59375 51.480469 66.5625 51.8125 66.519531 C 51.980469 66.496094 52.144531 66.472656 52.3125 66.449219 C 52.53125 66.410156 52.757812 66.375 52.980469 66.335938 C 53.207031 66.292969 53.433594 66.246094 53.660156 66.199219 C 53.773438 66.175781 53.882812 66.152344 53.996094 66.125 C 54.109375 66.097656 54.222656 66.074219 54.339844 66.046875 C 54.453125 66.019531 54.566406 65.992188 54.683594 65.964844 C 54.914062 65.90625 55.140625 65.847656 55.371094 65.785156 C 55.429688 65.769531 55.488281 65.757812 55.546875 65.742188 C 56.015625 65.617188 56.484375 65.476562 56.960938 65.335938 C 57.015625 65.316406 57.070312 65.300781 57.125 65.285156 C 57.714844 65.105469 58.3125 64.914062 58.917969 64.722656 C 58.988281 64.699219 59.0625 64.671875 59.136719 64.652344 C 59.257812 64.609375 59.382812 64.570312 59.507812 64.53125 C 59.554688 64.515625 59.597656 64.5 59.644531 64.488281 C 59.765625 64.445312 59.890625 64.40625 60.011719 64.367188 C 60.132812 64.328125 60.257812 64.285156 60.382812 64.25 C 60.710938 64.140625 61.042969 64.035156 61.378906 63.925781 C 61.503906 63.882812 61.628906 63.84375 61.757812 63.804688 C 62.046875 63.710938 62.34375 63.617188 62.636719 63.53125 C 62.855469 63.457031 63.078125 63.390625 63.300781 63.328125 C 63.820312 63.167969 64.34375 63.019531 64.875 62.871094 C 65.011719 62.835938 65.140625 62.796875 65.277344 62.765625 C 65.570312 62.683594 65.867188 62.609375 66.164062 62.53125 C 66.40625 62.472656 66.652344 62.414062 66.898438 62.359375 C 67.035156 62.328125 67.171875 62.292969 67.308594 62.265625 C 67.332031 62.261719 67.355469 62.253906 67.378906 62.25 C 67.515625 62.21875 67.652344 62.191406 67.789062 62.160156 C 67.9375 62.132812 68.082031 62.101562 68.230469 62.074219 C 68.359375 62.046875 68.488281 62.019531 68.617188 62 C 69.296875 61.871094 69.988281 61.765625 70.691406 61.679688 C 70.808594 61.664062 70.929688 61.648438 71.046875 61.636719 C 71.261719 61.613281 71.476562 61.589844 71.691406 61.570312 C 71.804688 61.5625 71.914062 61.554688 72.027344 61.542969 C 72.753906 61.484375 73.496094 61.457031 74.246094 61.457031 C 80.914062 61.457031 86.929688 55.777344 86.929688 48.773438 C 86.929688 44.796875 85.097656 41.25 82.234375 38.925781 Z M 82.234375 38.925781 "/>
<path style=" stroke:none;fill-rule:nonzero;fill:rgb(34.509804%,10.196078%,16.862745%);fill-opacity:1;" d="M 82.234375 38.925781 C 81.597656 20.296875 73.125 5.921875 59.425781 1.453125 C 59.421875 1.453125 59.421875 1.449219 59.417969 1.449219 C 56.507812 0.5 53.359375 0 50 0 L 50 66.652344 C 50.109375 66.648438 50.21875 66.644531 50.328125 66.644531 C 50.488281 66.636719 50.65625 66.628906 50.820312 66.617188 C 51.148438 66.589844 51.480469 66.558594 51.8125 66.519531 C 51.980469 66.496094 52.144531 66.472656 52.3125 66.449219 C 52.53125 66.410156 52.757812 66.375 52.980469 66.335938 C 53.207031 66.292969 53.433594 66.246094 53.660156 66.199219 C 53.773438 66.175781 53.882812 66.152344 53.996094 66.125 C 54.109375 66.097656 54.222656 66.074219 54.339844 66.046875 C 54.453125 66.019531 54.566406 65.992188 54.683594 65.964844 C 54.914062 65.90625 55.140625 65.847656 55.371094 65.785156 C 55.429688 65.769531 55.488281 65.757812 55.546875 65.742188 C 56.015625 65.613281 56.484375 65.476562 56.960938 65.335938 C 57.015625 65.316406 57.070312 65.300781 57.125 65.285156 C 57.714844 65.105469 58.3125 64.914062 58.917969 64.722656 C 58.988281 64.699219 59.0625 64.671875 59.136719 64.652344 C 59.257812 64.609375 59.382812 64.570312 59.507812 64.53125 C 59.554688 64.515625 59.597656 64.5 59.644531 64.488281 C 59.765625 64.445312 59.890625 64.40625 60.011719 64.367188 C 60.132812 64.328125 60.257812 64.285156 60.382812 64.25 C 60.710938 64.136719 61.046875 64.03125 61.378906 63.925781 C 61.503906 63.882812 61.628906 63.84375 61.757812 63.804688 C 62.046875 63.710938 62.34375 63.617188 62.636719 63.53125 C 62.855469 63.457031 63.078125 63.390625 63.300781 63.328125 C 63.820312 63.167969 64.34375 63.019531 64.875 62.871094 C 65.011719 62.835938 65.140625 62.796875 65.277344 62.765625 C 65.570312 62.683594 65.867188 62.609375 66.164062 62.53125 C 66.40625 62.472656 66.652344 62.414062 66.898438 62.359375 C 67.035156 62.328125 67.171875 62.292969 67.308594 62.265625 C 67.332031 62.261719 67.355469 62.253906 67.378906 62.25 C 67.515625 62.21875 67.652344 62.191406 67.789062 62.160156 C 67.9375 62.132812 68.082031 62.101562 68.230469 62.074219 C 68.359375 62.046875 68.488281 62.019531 68.617188 62 C 69.296875 61.871094 69.988281 61.765625 70.691406 61.679688 C 70.808594 61.664062 70.929688 61.648438 71.046875 61.636719 C 71.261719 61.613281 71.476562 61.589844 71.691406 61.570312 C 71.804688 61.5625 71.914062 61.554688 72.027344 61.542969 C 72.753906 61.484375 73.496094 61.457031 74.246094 61.457031 C 80.914062 61.457031 86.929688 55.777344 86.929688 48.773438 C 86.929688 44.796875 85.097656 41.25 82.234375 38.925781 Z M 82.234375 38.925781 "/>
<path style=" stroke:none;fill-rule:nonzero;fill:rgb(32.941176%,32.941176%,39.607843%);fill-opacity:1;" d="M 74.28125 71.625 C 72.433594 70.511719 70.398438 69.65625 68.210938 69.117188 C 66.734375 68.746094 62.996094 68.519531 60.558594 68.449219 C 58.054688 71.0625 54.253906 72.726562 50 72.726562 C 45.746094 72.726562 42.558594 71.0625 40.054688 68.449219 C 37.617188 68.519531 33.265625 68.746094 31.789062 69.117188 C 29.601562 69.65625 27.566406 70.511719 25.71875 71.625 C 18.613281 75.890625 14.21875 84.007812 14.21875 93.316406 L 14.21875 100 L 85.78125 100 L 85.78125 93.316406 C 85.78125 84.007812 81.386719 75.890625 74.28125 71.625 Z M 74.28125 71.625 "/>
<path style=" stroke:none;fill-rule:nonzero;fill:rgb(28.627451%,28.235294%,34.117647%);fill-opacity:1;" d="M 85.78125 93.316406 L 85.78125 100 L 50 100 L 50 72.726562 C 54.253906 72.726562 57.441406 71.058594 59.945312 68.449219 C 62.382812 68.519531 66.734375 68.746094 68.210938 69.117188 C 70.398438 69.65625 72.429688 70.507812 74.28125 71.621094 C 79.550781 74.789062 83.332031 80.074219 84.933594 86.390625 C 85.488281 88.589844 85.78125 90.914062 85.78125 93.316406 Z M 85.78125 93.316406 "/>
<path style=" stroke:none;fill-rule:nonzero;fill:rgb(95.294118%,84.705882%,71.372549%);fill-opacity:1;" d="M 57.734375 51.667969 L 42.265625 51.667969 C 42.265625 64.761719 36.253906 69.65625 33.460938 71.453125 L 36.191406 84.015625 C 40.585938 89.648438 47.414062 91.953125 49.605469 92.847656 L 50.394531 92.847656 C 52.585938 91.953125 59.417969 89.648438 63.808594 84.015625 L 66.539062 71.453125 C 63.746094 69.65625 57.734375 64.761719 57.734375 51.667969 Z M 57.734375 51.667969 "/>
<path style=" stroke:none;fill-rule:nonzero;fill:rgb(93.333333%,78.431373%,63.529412%);fill-opacity:1;" d="M 66.539062 71.453125 C 63.746094 69.65625 57.734375 64.761719 57.734375 51.667969 L 50 51.667969 L 50 92.847656 L 50.394531 92.847656 C 52.585938 91.953125 59.414062 89.648438 63.808594 84.015625 Z M 66.539062 71.453125 "/>
<path style=" stroke:none;fill-rule:nonzero;fill:rgb(95.294118%,85.882353%,76.862745%);fill-opacity:1;" d="M 44.027344 22.867188 C 43.539062 22.027344 43.089844 21.222656 42.667969 20.445312 C 40.175781 26.101562 34.25 33.207031 30.433594 34.160156 C 30.738281 40.621094 31.777344 46.367188 32.976562 48.582031 C 35.742188 53.6875 41.914062 60.496094 50 60.496094 C 58.085938 60.496094 64.257812 53.6875 67.023438 48.582031 C 68.222656 46.363281 69.261719 40.601562 69.570312 34.128906 C 65.320312 33.800781 49.332031 31.96875 44.027344 22.867188 Z M 44.027344 22.867188 "/>
<path style=" stroke:none;fill-rule:nonzero;fill:rgb(92.941176%,80.784314%,68.235294%);fill-opacity:1;" d="M 50 28.628906 L 50 60.496094 C 58.085938 60.496094 64.257812 53.6875 67.023438 48.582031 C 68.222656 46.363281 69.261719 40.601562 69.570312 34.128906 C 66.433594 33.886719 56.910156 32.824219 50 28.628906 Z M 50 28.628906 "/>
</g>
</svg>
<!-- iconic normalized -->