<?xml version="1.0" encoding="UTF-8"?>
<svg xmlns="http://www.w3.org/2000/svg" xmlns:xlink="http://www.w3.org/1999/xlink" width="100px" height="100px" viewBox="0 0 100 100" version="1.1">
<g id="surface1">
<path style=" stroke:none;fill-rule:nonzero;fill:rgb(40.784314%,13.333333%,20.392157%);fill-opacity:1;" d="M 81.152344 39.777344 C 81.152344 16.835938 69.117188 0 50 0 C 30.882812 0 18.847656 16.835938 18.847656 39.777344 C 18.847656 45.714844 14.882812 51.847656 21.183594 58.332031 C 20.234375 59.679688 19.675781 61.324219 19.675781 63.097656 C 19.675781 67.679688 23.386719 71.394531 27.96875 71.394531 C 28.949219 71.394531 29.890625 71.222656 30.765625 70.90625 C 36.273438 78.597656 43.136719 81.496094 50 81.496094 C 56.863281 81.496094 63.726562 78.597656 69.230469 70.90625 C 70.105469 71.222656 71.046875 71.394531 72.03125 71.394531 C 76.609375 71.394531 80.324219 67.679688 80.324219 63.097656 C 80.324219 61.324219 79.765625 59.679688 78.816406 58.332031 C 85.117188 51.847656 81.152344 45.714844 81.152344 39.777344 Z M 81.152344 39.777344 "/>
<path style=" stroke:none;fill-rule:nonzero;fill:rgb(34.509804%,10.196078%,16.862745%);fill-opacity:1;" d="M 81.152344 39.777344 C 81.152344 16.835938 69.117188 0 50 0 L 50 81.496094 C 56.863281 81.496094 63.722656 78.597656 69.230469 70.90625 C 70.105469 71.222656 71.046875 71.394531 72.03125 71.394531 C 76.609375 71.394531 80.324219 67.679688 80.324219 63.101562 C 80.324219 61.324219 79.765625 59.679688 78.816406 58.332031 C 85.117188 51.847656 81.152344 45.714844 81.152344 39.777344 Z M 81.152344 39.777344 "/>
<path style=" stroke:none;fill-rule:nonzero;fill:rgb(95.294118%,84.705882%,71.372549%);fill-opacity:1;" d="M 82.9375 88.417969 L 82.9375 99.871094 L 17.0625 99.871094 L 17.0625 88.417969 C 17.0625 79.847656 21.109375 72.378906 27.648438 68.449219 C 29.351562 67.425781 31.222656 66.640625 33.238281 66.144531 C 34.914062 65.722656 36.6875 65.503906 38.542969 65.503906 L 50 72.261719 L 61.457031 65.503906 C 63.3125 65.503906 65.085938 65.722656 66.761719 66.144531 C 68.777344 66.640625 70.648438 67.425781 72.347656 68.449219 C 78.890625 72.378906 82.9375 79.847656 82.9375 88.417969 Z M 82.9375 88.417969 "/>
<path style=" stroke:none;fill-rule:nonzero;fill:rgb(93.333333%,78.431373%,63.529412%);fill-opacity:1;" d="M 72.347656 68.449219 C 70.648438 67.425781 68.777344 66.640625 66.761719 66.144531 C 65.085938 65.722656 63.3125 65.503906 61.457031 65.503906 L 50 72.261719 L 50 99.871094 L 82.9375 99.871094 L 82.9375 88.417969 C 82.9375 79.847656 78.890625 72.378906 72.347656 68.449219 Z M 72.347656 68.449219 "/>
<path style=" stroke:none;fill-rule:nonzero;fill:rgb(95.294118%,84.705882%,71.372549%);fill-opacity:1;" d="M 57.976562 49.773438 L 42.023438 49.773438 C 42.023438 70.765625 31.765625 68.867188 31.765625 68.867188 C 31.765625 82.203125 46.171875 86.433594 49.59375 87.675781 L 49.59375 88.109375 C 49.59375 88.109375 49.742188 88.078125 50 88.007812 C 50.257812 88.078125 50.40625 88.109375 50.40625 88.109375 L 50.40625 87.675781 C 53.828125 86.433594 68.234375 82.203125 68.234375 68.867188 C 68.234375 68.867188 57.976562 70.765625 57.976562 49.773438 Z M 57.976562 49.773438 "/>
<path style=" stroke:none;fill-rule:nonzero;fill:rgb(93.333333%,78.431373%,63.529412%);fill-opacity:1;" d="M 57.976562 49.773438 L 50 49.773438 L 50 88.007812 C 50.257812 88.078125 50.40625 88.109375 50.40625 88.109375 L 50.40625 87.675781 C 53.828125 86.433594 68.234375 82.203125 68.234375 68.867188 C 68.234375 68.867188 57.976562 70.765625 57.976562 49.773438 Z M 57.976562 49.773438 "/>
<path style=" stroke:none;fill-rule:nonzero;fill:rgb(95.294118%,85.882353%,76.862745%);fill-opacity:1;" d="M 32.300781 22.945312 C 31.191406 32.203125 32.574219 43.691406 34.328125 46.933594 C 36.875 51.632812 42.554688 57.902344 50 57.902344 C 57.441406 57.902344 63.121094 51.632812 65.667969 46.933594 C 66.75 44.9375 67.6875 39.832031 67.992188 34.039062 C 66.046875 33.914062 38.347656 31.949219 32.300781 22.945312 Z M 32.300781 22.945312 "/>
<path style=" stroke:none;fill-rule:nonzero;fill:rgb(92.941176%,80.784314%,68.235294%);fill-opacity:1;" d="M 50 31.457031 L 50 57.902344 C 57.441406 57.902344 63.121094 51.632812 65.667969 46.933594 C 66.75 44.9375 67.6875 39.832031 67.992188 34.039062 C 66.941406 33.972656 58.523438 33.375 50 31.457031 Z M 50 31.457031 "/>
<path style=" stroke:none;fill-rule:nonzero;fill:rgb(21.176471%,47.45098%,57.254902%);fill-opacity:1;" d="M 82.789062 90.097656 L 82.941406 90.097656 L 82.941406 88.417969 C 82.941406 85.550781 82.484375 82.808594 81.636719 80.28125 L 81.71875 80.28125 C 80.097656 75.277344 76.945312 71.097656 72.699219 68.433594 C 72.585938 68.359375 72.472656 68.285156 72.355469 68.214844 C 71.816406 67.886719 68.886719 73.535156 66.273438 76.390625 L 33.726562 76.390625 C 30.148438 72.265625 28.382812 67.769531 27.648438 68.214844 C 23.230469 70.867188 19.949219 75.144531 18.289062 80.28125 L 18.363281 80.28125 C 17.515625 82.808594 17.058594 85.550781 17.058594 88.417969 L 17.058594 90.097656 L 17.214844 90.097656 L 17.066406 90.238281 L 17.066406 100 L 82.941406 100 L 82.941406 90.238281 Z M 82.789062 90.097656 "/>
<path style=" stroke:none;fill-rule:nonzero;fill:rgb(18.431373%,41.176471%,49.411765%);fill-opacity:1;" d="M 82.9375 88.417969 C 82.9375 85.550781 82.484375 82.808594 81.636719 80.28125 L 81.71875 80.28125 C 80.097656 75.277344 76.941406 71.097656 72.699219 68.433594 C 72.585938 68.359375 72.472656 68.285156 72.355469 68.214844 C 71.8125 67.886719 68.886719 73.535156 66.273438 76.390625 L 50 76.390625 L 50 100 L 82.941406 100 L 82.941406 90.238281 L 82.789062 90.097656 L 82.941406 90.097656 L 82.941406 88.417969 Z M 82.9375 88.417969 "/>
<path style=" stroke:none;fill-rule:nonzero;fill:rgb(100%,92.156863%,60%);fill-opacity:1;" d="M 68.105469 74.074219 C 68.105469 74.074219 57.296875 96.972656 50 96.972656 C 42.699219 96.972656 31.894531 74.074219 31.894531 74.074219 Z M 68.105469 74.074219 "/>
<path style=" stroke:none;fill-rule:nonzero;fill:rgb(100%,89.411765%,46.666667%);fill-opacity:1;" d="M 50 74.074219 L 50 96.972656 C 57.296875 96.972656 68.105469 74.074219 68.105469 74.074219 Z M 50 74.074219 "/>
</g>
</svg>
<!-- iconic normalized -->