<?xml version="1.0" encoding="UTF-8"?>
<svg xmlns="http://www.w3.org/2000/svg" xmlns:xlink="http://www.w3.org/1999/xlink" width="100px" height="100px" viewBox="0 0 100 100" version="1.1">
<defs>
<filter id="alpha" filterUnits="objectBoundingBox" x="0%" y="0%" width="100%" height="100%">
  <feColorMatrix type="matrix" in="SourceGraphic" values="0 0 0 0 1 0 0 0 0 1 0 0 0 0 1 0 0 0 1 0"/>
</filter>
<mask id="mask0">
  <g filter="url(#alpha)">
<rect x="0" y="0" width="100" height="100" style="fill:rgb(0%,0%,0%);fill-opacity:0.101961;stroke:none;"/>
  </g>
</mask>
<clipPath id="clip1">
  <rect width="100" height="100"/>
</clipPath>
<g id="surface1" clip-path="url(#clip1)">
<path style=" stroke:none;fill-rule:nonzero;fill:rgb(86.666667%,67.45098%,54.901961%);fill-opacity:1;" d="M 44.007812 65.15625 C 45.085938 68.246094 49.433594 70.019531 52.628906 70.019531 C 53.785156 70.019531 54.910156 69.828125 55.992188 69.472656 L 55.992188 55.863281 L 44.007812 55.863281 Z M 44.007812 65.15625 "/>
</g>
</defs>
<g id="surface1">
<rect x="0" y="0" width="100" height="100" style="fill:rgb(6.27451%,49.019608%,47.843137%);fill-opacity:1;stroke:none;"/>
<path style=" stroke:none;fill-rule:nonzero;fill:rgb(94.509804%,78.823529%,64.705882%);fill-opacity:1;" d="M 75.429688 79.582031 C 72.007812 73.101562 50 69.035156 50 69.035156 C 50 69.035156 27.992188 73.101562 24.570312 79.582031 C 22.039062 88.574219 19.921875 100 19.921875 100 L 80.078125 100 C 80.078125 100 78.648438 87.75 75.429688 79.582031 Z M 75.429688 79.582031 "/>
<path style=" stroke:none;fill-rule:nonzero;fill:rgb(89.411765%,71.372549%,57.254902%);fill-opacity:1;" d="M 50 69.035156 C 50 69.035156 72.007812 73.101562 75.429688 79.582031 C 78.648438 87.75 80.078125 100 80.078125 100 L 50 100 Z M 50 69.035156 "/>
<path style=" stroke:none;fill-rule:nonzero;fill:rgb(94.509804%,78.823529%,64.705882%);fill-opacity:1;" d="M 44.007812 55.863281 L 55.992188 55.863281 L 55.992188 75.914062 L 44.007812 75.914062 Z M 44.007812 55.863281 "/>
<path style=" stroke:none;fill-rule:nonzero;fill:rgb(89.411765%,71.372549%,57.254902%);fill-opacity:1;" d="M 50 55.863281 L 55.992188 55.863281 L 55.992188 75.914062 L 50 75.914062 Z M 50 55.863281 "/>
<use xlink:href="#surface1" mask="url(#mask0)"/>
<path style=" stroke:none;fill-rule:nonzero;fill:rgb(94.509804%,78.823529%,64.705882%);fill-opacity:1;" d="M 65.40625 43.207031 C 65.40625 30.683594 58.507812 23.5625 50 23.5625 C 41.492188 23.5625 34.59375 30.683594 34.59375 43.207031 C 34.59375 60.054688 41.492188 65.890625 50 65.890625 C 58.507812 65.890625 65.40625 59.355469 65.40625 43.207031 Z M 65.40625 43.207031 "/>
<path style=" stroke:none;fill-rule:nonzero;fill:rgb(94.509804%,78.823529%,64.705882%);fill-opacity:1;" d="M 65.40625 43.207031 C 65.40625 30.683594 58.507812 23.5625 50 23.5625 C 41.492188 23.5625 34.59375 30.683594 34.59375 43.207031 C 34.59375 60.054688 41.492188 65.890625 50 65.890625 C 58.507812 65.890625 65.40625 59.355469 65.40625 43.207031 Z M 65.40625 43.207031 "/>
<path style=" stroke:none;fill-rule:nonzero;fill:rgb(89.411765%,71.372549%,57.254902%);fill-opacity:1;" d="M 63.0625 51.894531 C 60.269531 51.601562 58.382812 48.59375 58.855469 45.179688 C 59.324219 41.757812 61.96875 39.21875 64.761719 39.511719 C 67.550781 39.804688 69.433594 42.808594 68.964844 46.230469 C 68.496094 49.648438 65.851562 52.183594 63.0625 51.894531 Z M 63.0625 51.894531 "/>
<path style=" stroke:none;fill-rule:nonzero;fill:rgb(94.509804%,78.823529%,64.705882%);fill-opacity:1;" d="M 31.144531 46.226562 C 30.671875 42.808594 32.558594 39.800781 35.347656 39.511719 C 38.140625 39.21875 40.785156 41.757812 41.253906 45.175781 C 41.726562 48.59375 39.839844 51.601562 37.046875 51.894531 C 34.257812 52.183594 31.613281 49.648438 31.144531 46.226562 Z M 31.144531 46.226562 "/>
<path style=" stroke:none;fill-rule:nonzero;fill:rgb(89.411765%,71.372549%,57.254902%);fill-opacity:1;" d="M 65.40625 43.207031 C 65.40625 30.683594 58.507812 23.5625 50 23.5625 L 50 65.890625 C 58.507812 65.890625 65.40625 59.355469 65.40625 43.207031 Z M 65.40625 43.207031 "/>
<path style=" stroke:none;fill-rule:nonzero;fill:rgb(13.72549%,12.156863%,12.54902%);fill-opacity:1;" d="M 75.429688 79.582031 C 73.238281 75.429688 63.417969 72.269531 56.644531 70.535156 C 56.378906 73.976562 53.507812 76.691406 50 76.691406 C 46.492188 76.691406 43.621094 73.976562 43.355469 70.535156 C 36.582031 72.269531 26.765625 75.429688 24.570312 79.582031 C 22.039062 88.574219 19.921875 100 19.921875 100 L 80.078125 100 C 80.078125 100 78.648438 87.75 75.429688 79.582031 Z M 75.429688 79.582031 "/>
<path style=" stroke:none;fill-rule:nonzero;fill:rgb(13.72549%,12.156863%,12.54902%);fill-opacity:1;" d="M 35.855469 45.257812 L 35.855469 48.03125 C 35.855469 49.300781 36.894531 50.339844 38.164062 50.339844 L 45.839844 50.339844 C 47.109375 50.339844 48.148438 49.300781 48.148438 48.03125 L 48.148438 46.171875 L 48.15625 46.171875 C 48.15625 45.152344 48.980469 44.324219 50.003906 44.324219 L 50.003906 42.460938 C 48.453125 42.460938 48.304688 41.492188 46.707031 41.492188 L 38.164062 41.492188 C 36.894531 41.492188 35.855469 42.53125 35.855469 43.800781 L 35.855469 44.105469 "/>
<path style=" stroke:none;fill-rule:nonzero;fill:rgb(13.72549%,12.156863%,12.54902%);fill-opacity:1;" d="M 64.144531 44.105469 L 64.144531 43.800781 C 64.144531 42.53125 63.105469 41.492188 61.835938 41.492188 L 53.296875 41.492188 C 51.699219 41.492188 51.546875 42.460938 50.003906 42.460938 L 50.003906 44.328125 C 51.019531 44.328125 51.847656 45.152344 51.847656 46.171875 L 51.851562 46.171875 L 51.851562 48.03125 C 51.851562 49.304688 52.894531 50.339844 54.164062 50.339844 L 61.835938 50.339844 C 63.105469 50.339844 64.144531 49.304688 64.144531 48.03125 L 64.144531 45.261719 "/>
<path style=" stroke:none;fill-rule:nonzero;fill:rgb(14.901961%,14.117647%,12.941176%);fill-opacity:1;" d="M 59.234375 26.988281 C 59.234375 26.988281 54.691406 23.148438 56.023438 15.59375 C 54.492188 17.890625 53.089844 20.695312 53.089844 20.695312 C 53.089844 20.695312 50.609375 19.574219 51.8125 15.59375 C 50.667969 15.976562 49.519531 17.378906 49.644531 18.910156 C 48.625 16.617188 46.878906 13.675781 51.984375 11.636719 C 47.65625 10.230469 43.871094 14.027344 44.648438 19.253906 C 42.402344 18.242188 41.488281 15.585938 41.484375 13.046875 C 40.210938 15.976562 40.339844 19.546875 41.484375 20.824219 C 37.53125 17.761719 35.238281 19.320312 35.238281 19.320312 C 37.023438 20.566406 37.785156 22.480469 37.785156 22.480469 C 37.785156 22.480469 31.539062 21.972656 30.644531 16.488281 C 29.5 19.421875 30.390625 25.796875 37.53125 26.816406 C 34.855469 29.878906 36 34.339844 37.019531 35.742188 C 39.1875 28.984375 43.703125 25.566406 48.453125 26.542969 C 57.078125 28.316406 59.234375 26.988281 59.234375 26.988281 Z M 59.234375 26.988281 "/>
</g>
</svg>
<!-- iconic normalized -->