<?xml version="1.0" encoding="UTF-8"?>
<svg xmlns="http://www.w3.org/2000/svg" xmlns:xlink="http://www.w3.org/1999/xlink" width="100px" height="100px" viewBox="0 0 100 100" version="1.1">
<g id="surface1">
<path style=" stroke:none;fill-rule:nonzero;fill:rgb(0%,58.823529%,60.784314%);fill-opacity:1;" d="M 50 0 L 50 8.082031 L 91.917969 8.082031 L 91.917969 91.917969 L 50 91.917969 L 50 100 L 100 100 L 100 0 Z M 50 0 "/>
<path style=" stroke:none;fill-rule:nonzero;fill:rgb(0%,71.372549%,74.117647%);fill-opacity:1;" d="M 8.082031 91.917969 L 8.082031 8.082031 L 50 8.082031 L 50 0 L 0 0 L 0 100 L 50 100 L 50 91.917969 Z M 8.082031 91.917969 "/>
<path style=" stroke:none;fill-rule:nonzero;fill:rgb(0%,71.372549%,74.117647%);fill-opacity:1;" d="M 50 81.816406 C 66.472656 81.816406 79.828125 68.464844 79.828125 51.988281 C 79.828125 35.515625 66.472656 22.160156 50 22.160156 C 48.503906 22.160156 47.035156 22.269531 45.597656 22.484375 C 45.582031 22.433594 45.558594 22.386719 45.539062 22.339844 C 46.335938 21.71875 46.753906 20.859375 46.570312 20.007812 C 46.339844 18.914062 45.179688 18.183594 43.6875 18.183594 C 43.363281 18.183594 43.035156 18.21875 42.710938 18.285156 C 40.835938 18.683594 39.59375 20.0625 39.886719 21.429688 C 40.0625 22.257812 40.773438 22.878906 41.757812 23.128906 C 41.757812 23.191406 41.757812 23.25 41.761719 23.3125 C 29.292969 26.886719 20.171875 38.371094 20.171875 51.988281 C 20.171875 68.464844 33.527344 81.816406 50 81.816406 Z M 40.855469 21.222656 C 40.6875 20.429688 41.632812 19.53125 42.917969 19.257812 C 43.175781 19.203125 43.433594 19.175781 43.6875 19.175781 C 44.683594 19.175781 45.46875 19.601562 45.597656 20.214844 C 45.699219 20.679688 45.40625 21.183594 44.890625 21.574219 C 44.453125 21.265625 43.894531 21.132812 43.332031 21.25 C 42.769531 21.371094 42.316406 21.71875 42.042969 22.175781 C 41.410156 22.023438 40.953125 21.671875 40.855469 21.222656 Z M 27.582031 55.027344 C 27.449219 54.03125 27.378906 53.015625 27.378906 51.988281 C 27.378906 45.945312 29.730469 40.265625 34.003906 35.992188 C 36.738281 33.261719 40.046875 31.316406 43.65625 30.265625 L 46.292969 34.539062 L 46.957031 29.570312 C 47.957031 29.4375 48.972656 29.367188 50 29.367188 C 56.042969 29.367188 61.722656 31.722656 65.996094 35.992188 C 68.726562 38.726562 70.671875 42.035156 71.722656 45.644531 L 67.449219 48.28125 L 72.417969 48.949219 C 72.550781 49.949219 72.621094 50.960938 72.621094 51.988281 C 72.621094 58.03125 70.265625 63.710938 65.996094 67.984375 C 63.261719 70.714844 59.953125 72.660156 56.34375 73.710938 L 53.707031 69.4375 L 53.039062 74.40625 C 52.039062 74.539062 51.027344 74.609375 50 74.609375 C 43.957031 74.609375 38.277344 72.257812 34.003906 67.984375 C 31.273438 65.25 29.328125 61.941406 28.277344 58.332031 L 32.550781 55.699219 Z M 27.582031 55.027344 "/>
<path style=" stroke:none;fill-rule:nonzero;fill:rgb(0%,71.372549%,74.117647%);fill-opacity:1;" d="M 46.773438 58.152344 C 47.683594 58.628906 48.691406 58.902344 49.71875 58.945312 L 52.894531 65.605469 L 53.085938 58.230469 C 53.910156 57.824219 54.644531 57.257812 55.25 56.554688 L 59.171875 57.945312 L 56.308594 54.929688 C 56.703125 54.089844 56.921875 53.1875 56.957031 52.269531 L 63.617188 49.09375 L 56.238281 48.902344 C 56.214844 48.855469 56.1875 48.808594 56.164062 48.761719 L 65.46875 36.519531 L 53.226562 45.824219 C 52.316406 45.347656 51.308594 45.074219 50.28125 45.03125 L 47.105469 38.371094 L 46.914062 45.746094 C 46.089844 46.152344 45.355469 46.71875 44.746094 47.421875 L 40.828125 46.03125 L 43.691406 49.046875 C 43.296875 49.886719 43.078125 50.789062 43.042969 51.710938 L 36.382812 54.882812 L 43.761719 55.074219 C 43.785156 55.121094 43.8125 55.167969 43.835938 55.214844 L 34.53125 67.457031 Z M 55.488281 49.652344 C 55.636719 50 55.753906 50.367188 55.835938 50.75 C 56.375 53.289062 55.210938 55.792969 53.113281 57.078125 C 52.550781 57.421875 51.921875 57.679688 51.242188 57.824219 C 50.824219 57.914062 50.40625 57.957031 49.996094 57.957031 C 49.738281 57.957031 49.480469 57.9375 49.230469 57.90625 C 48.683594 57.835938 48.15625 57.6875 47.664062 57.476562 L 52.109375 54.097656 Z M 48.757812 46.152344 C 49.175781 46.0625 49.59375 46.019531 50.007812 46.019531 C 50.261719 46.019531 50.519531 46.039062 50.769531 46.070312 C 51.316406 46.144531 51.84375 46.289062 52.335938 46.5 L 47.890625 49.878906 L 44.511719 54.324219 C 44.363281 53.976562 44.246094 53.613281 44.164062 53.226562 C 43.480469 50.007812 45.535156 46.839844 48.757812 46.152344 Z M 48.757812 46.152344 "/>
</g>
</svg>
<!-- iconic normalized -->