<?xml version="1.0" encoding="UTF-8"?>
<svg xmlns="http://www.w3.org/2000/svg" xmlns:xlink="http://www.w3.org/1999/xlink" width="100px" height="100px" viewBox="0 0 100 100" version="1.1">
<g id="surface1">
<path style=" stroke:none;fill-rule:nonzero;fill:rgb(0%,68.235294%,94.117647%);fill-opacity:1;" d="M 50.878906 39.746094 C 43.519531 39.746094 37.183594 44.195312 34.414062 50.542969 C 31.644531 44.195312 25.308594 39.746094 17.953125 39.746094 C 14.519531 39.746094 11.308594 40.714844 8.578125 42.390625 L 8.578125 27.621094 C 8.578125 25.253906 6.660156 23.332031 4.289062 23.332031 C 1.921875 23.332031 0 25.253906 0 27.621094 L 0 57.695312 C 0 67.59375 8.054688 75.648438 17.949219 75.648438 C 25.308594 75.648438 31.644531 71.199219 34.414062 64.847656 C 37.183594 71.199219 43.519531 75.648438 50.878906 75.648438 C 60.773438 75.648438 68.828125 67.59375 68.828125 57.695312 C 68.828125 47.796875 60.777344 39.746094 50.878906 39.746094 Z M 17.949219 67.070312 C 12.785156 67.070312 8.578125 62.863281 8.578125 57.695312 C 8.578125 52.527344 12.785156 48.324219 17.949219 48.324219 C 23.117188 48.324219 27.324219 52.527344 27.324219 57.695312 C 27.324219 62.863281 23.117188 67.070312 17.949219 67.070312 Z M 50.878906 67.070312 C 45.710938 67.070312 41.503906 62.863281 41.503906 57.695312 C 41.503906 52.527344 45.710938 48.324219 50.878906 48.324219 C 56.046875 48.324219 60.25 52.527344 60.25 57.695312 C 60.25 62.863281 56.046875 67.070312 50.878906 67.070312 Z M 50.878906 67.070312 "/>
<path style=" stroke:none;fill-rule:nonzero;fill:rgb(0%,68.235294%,94.117647%);fill-opacity:1;" d="M 88.417969 57.519531 L 98.941406 45.484375 C 100.5 43.699219 100.316406 40.988281 98.535156 39.429688 C 96.75 37.871094 94.039062 38.050781 92.480469 39.835938 L 82.71875 51 L 72.957031 39.835938 C 71.394531 38.050781 68.6875 37.871094 66.902344 39.429688 C 65.117188 40.988281 64.9375 43.699219 66.496094 45.484375 L 77.019531 57.519531 L 66.496094 69.554688 C 64.9375 71.335938 65.117188 74.046875 66.902344 75.605469 C 67.714844 76.320312 68.722656 76.667969 69.722656 76.667969 C 70.917969 76.667969 72.105469 76.171875 72.957031 75.203125 L 82.71875 64.035156 L 92.480469 75.203125 C 93.328125 76.171875 94.515625 76.667969 95.710938 76.667969 C 96.714844 76.667969 97.71875 76.316406 98.535156 75.605469 C 100.316406 74.046875 100.5 71.335938 98.941406 69.554688 Z M 88.417969 57.519531 "/>
</g>
</svg>
<!-- iconic normalized -->