<?xml version="1.0" encoding="UTF-8"?>
<svg xmlns="http://www.w3.org/2000/svg" xmlns:xlink="http://www.w3.org/1999/xlink" width="100px" height="100px" viewBox="0 0 100 100" version="1.1">
<g id="surface1">
<path style=" stroke:none;fill-rule:nonzero;fill:rgb(13.333333%,16.470588%,18.823529%);fill-opacity:1;" d="M 4.027344 25.363281 L 49.171875 47.09375 C 49.695312 47.34375 50.304688 47.34375 50.828125 47.09375 L 95.972656 25.363281 C 97.417969 24.667969 97.417969 22.613281 95.972656 21.917969 L 50.828125 0.1875 C 50.304688 -0.0625 49.695312 -0.0625 49.171875 0.1875 L 4.027344 21.917969 C 2.582031 22.613281 2.582031 24.667969 4.027344 25.363281 Z M 4.027344 25.363281 "/>
<path style=" stroke:none;fill-rule:nonzero;fill:rgb(13.333333%,16.470588%,18.823529%);fill-opacity:1;" d="M 4.027344 51.722656 L 49.171875 73.453125 C 49.695312 73.703125 50.304688 73.703125 50.828125 73.453125 L 95.972656 51.722656 C 97.417969 51.027344 97.417969 48.972656 95.972656 48.277344 L 86.449219 43.695312 L 56.199219 58.253906 C 54.277344 59.179688 52.132812 59.667969 50 59.667969 C 47.867188 59.667969 45.726562 59.179688 43.800781 58.253906 L 13.550781 43.691406 L 4.027344 48.277344 C 2.582031 48.972656 2.582031 51.027344 4.027344 51.722656 Z M 4.027344 51.722656 "/>
<path style=" stroke:none;fill-rule:nonzero;fill:rgb(13.333333%,16.470588%,18.823529%);fill-opacity:1;" d="M 95.972656 74.636719 L 86.449219 70.050781 L 56.199219 84.613281 C 54.277344 85.539062 52.132812 86.027344 50 86.027344 C 47.867188 86.027344 45.726562 85.539062 43.800781 84.613281 L 13.550781 70.050781 L 4.027344 74.636719 C 2.582031 75.332031 2.582031 77.386719 4.027344 78.082031 L 49.171875 99.8125 C 49.695312 100.0625 50.304688 100.0625 50.828125 99.8125 L 95.972656 78.082031 C 97.417969 77.386719 97.417969 75.332031 95.972656 74.636719 Z M 95.972656 74.636719 "/>
</g>
</svg>
<!-- iconic normalized -->