<?xml version="1.0" encoding="UTF-8"?>
<svg xmlns="http://www.w3.org/2000/svg" xmlns:xlink="http://www.w3.org/1999/xlink" width="100px" height="100px" viewBox="0 0 100 100" version="1.1">
<g id="surface1">
<path style=" stroke:none;fill-rule:nonzero;fill:rgb(0%,46.666667%,71.764706%);fill-opacity:1;" d="M 90.953125 0 L 9.046875 0 C 4.050781 0 0 4.050781 0 9.046875 L 0 90.953125 C 0 95.949219 4.050781 100 9.046875 100 L 90.953125 100 C 95.949219 100 100 95.949219 100 90.953125 L 100 9.046875 C 100 4.050781 95.949219 0 90.953125 0 Z M 30.945312 86.347656 C 30.945312 87.800781 29.765625 88.980469 28.3125 88.980469 L 17.105469 88.980469 C 15.652344 88.980469 14.472656 87.800781 14.472656 86.347656 L 14.472656 39.371094 C 14.472656 37.917969 15.652344 36.738281 17.105469 36.738281 L 28.3125 36.738281 C 29.765625 36.738281 30.945312 37.917969 30.945312 39.371094 Z M 22.707031 32.3125 C 16.828125 32.3125 12.0625 27.546875 12.0625 21.667969 C 12.0625 15.789062 16.828125 11.019531 22.707031 11.019531 C 28.589844 11.019531 33.355469 15.789062 33.355469 21.667969 C 33.355469 27.546875 28.589844 32.3125 22.707031 32.3125 Z M 89.503906 86.558594 C 89.503906 87.894531 88.421875 88.980469 87.085938 88.980469 L 75.058594 88.980469 C 73.722656 88.980469 72.640625 87.894531 72.640625 86.558594 L 72.640625 64.523438 C 72.640625 61.238281 73.605469 50.121094 64.050781 50.121094 C 56.640625 50.121094 55.136719 57.730469 54.835938 61.144531 L 54.835938 86.558594 C 54.835938 87.894531 53.75 88.980469 52.414062 88.980469 L 40.785156 88.980469 C 39.449219 88.980469 38.363281 87.894531 38.363281 86.558594 L 38.363281 39.160156 C 38.363281 37.824219 39.449219 36.738281 40.785156 36.738281 L 52.414062 36.738281 C 53.75 36.738281 54.835938 37.824219 54.835938 39.160156 L 54.835938 43.257812 C 57.582031 39.136719 61.664062 35.953125 70.359375 35.953125 C 89.617188 35.953125 89.503906 53.941406 89.503906 63.824219 Z M 89.503906 86.558594 "/>
</g>
</svg>
<!-- iconic normalized -->