<?xml version="1.0" encoding="UTF-8"?>
<svg xmlns="http://www.w3.org/2000/svg" xmlns:xlink="http://www.w3.org/1999/xlink" width="100px" height="100px" viewBox="0 0 100 100" version="1.1">
<g id="surface1">
<path style=" stroke:none;fill-rule:nonzero;fill:rgb(13.333333%,16.470588%,18.823529%);fill-opacity:1;" d="M 27.058594 44.367188 C 27.058594 51.484375 21.292969 57.25 14.175781 57.25 C 7.0625 57.25 1.292969 51.484375 1.292969 44.367188 C 1.292969 37.253906 7.0625 31.484375 14.175781 31.484375 C 21.292969 31.484375 27.058594 37.253906 27.058594 44.367188 Z M 27.058594 44.367188 "/>
<path style=" stroke:none;fill-rule:nonzero;fill:rgb(13.333333%,16.470588%,18.823529%);fill-opacity:1;" d="M 14.003906 60.617188 C 6.203125 60.710938 0 67.21875 0 75.019531 L 0 78.644531 C 0 79.484375 0.679688 80.164062 1.519531 80.164062 L 26.832031 80.164062 C 27.671875 80.164062 28.355469 79.484375 28.355469 78.644531 L 28.355469 74.792969 C 28.355469 66.90625 21.910156 60.523438 14.003906 60.617188 Z M 14.003906 60.617188 "/>
<path style=" stroke:none;fill-rule:nonzero;fill:rgb(13.333333%,16.470588%,18.823529%);fill-opacity:1;" d="M 60.746094 41.425781 C 60.746094 49.125 54.503906 55.367188 46.804688 55.367188 C 39.105469 55.367188 32.863281 49.125 32.863281 41.425781 C 32.863281 33.726562 39.105469 27.484375 46.804688 27.484375 C 54.503906 27.484375 60.746094 33.726562 60.746094 41.425781 Z M 60.746094 41.425781 "/>
<path style=" stroke:none;fill-rule:nonzero;fill:rgb(13.333333%,16.470588%,18.823529%);fill-opacity:1;" d="M 46.613281 59.011719 C 38.175781 59.113281 31.460938 66.15625 31.460938 74.59375 L 31.460938 78.644531 C 31.460938 79.484375 32.140625 80.164062 32.980469 80.164062 L 60.625 80.164062 C 61.464844 80.164062 62.144531 79.484375 62.144531 78.644531 L 62.144531 74.351562 C 62.144531 65.816406 55.175781 58.90625 46.613281 59.011719 Z M 46.613281 59.011719 "/>
<path style=" stroke:none;fill-rule:nonzero;fill:rgb(13.333333%,16.470588%,18.823529%);fill-opacity:1;" d="M 82.429688 51.765625 C 91.246094 51.765625 98.394531 44.617188 98.394531 35.796875 C 98.394531 26.980469 91.246094 19.832031 82.429688 19.832031 C 73.613281 19.832031 66.464844 26.980469 66.464844 35.796875 C 66.464844 44.617188 73.613281 51.765625 82.429688 51.765625 Z M 82.429688 51.765625 "/>
<path style=" stroke:none;fill-rule:nonzero;fill:rgb(13.333333%,16.470588%,18.823529%);fill-opacity:1;" d="M 82.429688 55.9375 C 72.726562 55.9375 64.859375 63.804688 64.859375 73.507812 L 64.859375 78.644531 C 64.859375 79.484375 65.539062 80.167969 66.378906 80.167969 L 98.480469 80.167969 C 99.320312 80.167969 100 79.484375 100 78.644531 L 100 73.507812 C 100 63.804688 92.132812 55.9375 82.429688 55.9375 Z M 82.429688 55.9375 "/>
</g>
</svg>
<!-- iconic normalized -->