<?xml version="1.0" encoding="UTF-8"?>
<svg xmlns="http://www.w3.org/2000/svg" xmlns:xlink="http://www.w3.org/1999/xlink" width="100px" height="100px" viewBox="0 0 100 100" version="1.1">
<g id="surface1">
<path style=" stroke:none;fill-rule:nonzero;fill:rgb(81.176471%,13.333333%,9.019608%);fill-opacity:1;" d="M 90.375 78.46875 C 90.375 78.46875 89.886719 85.648438 83.363281 85.648438 C 78.324219 85.648438 74.878906 81.804688 71.65625 76.8125 C 80.8125 68.824219 86.625 56.890625 86.625 43.558594 C 86.625 19.5 67.707031 0 44.371094 0 C 21.035156 0 2.117188 19.5 2.117188 43.558594 C 2.117188 67.613281 21.035156 87.117188 44.371094 87.117188 C 48.605469 87.117188 52.695312 86.472656 56.550781 85.277344 C 61.433594 93.027344 67.628906 100 77.324219 100 C 97.066406 100 97.882812 78.46875 97.882812 78.46875 Z M 44.371094 79.9375 C 30.765625 79.9375 19.738281 63.648438 19.738281 43.558594 C 19.738281 23.464844 30.765625 7.179688 44.371094 7.179688 C 57.976562 7.179688 69.003906 23.464844 69.003906 43.558594 C 69.003906 51.546875 67.261719 58.933594 64.304688 64.9375 C 60.964844 60.167969 56.957031 56.105469 51.222656 54.816406 C 41.054688 52.523438 32.300781 57.097656 29.527344 59.382812 L 32.136719 64.765625 C 32.136719 64.765625 34.773438 63.25 41.316406 64.765625 C 45.441406 65.71875 48.644531 71.441406 52.316406 78.003906 C 49.824219 79.257812 47.152344 79.9375 44.371094 79.9375 Z M 44.371094 79.9375 "/>
</g>
</svg>
<!-- iconic normalized -->