<?xml version="1.0" encoding="UTF-8"?>
<svg xmlns="http://www.w3.org/2000/svg" xmlns:xlink="http://www.w3.org/1999/xlink" width="100px" height="100px" viewBox="0 0 100 100" version="1.1">
<g id="surface1">
<path style=" stroke:none;fill-rule:nonzero;fill:rgb(46.27451%,66.27451%,91.764706%);fill-opacity:1;" d="M 98.410156 18.085938 C 96.1875 19.070312 93.882812 19.847656 91.515625 20.410156 C 94.121094 17.933594 96.082031 14.832031 97.1875 11.375 C 97.503906 10.386719 96.433594 9.53125 95.539062 10.0625 C 92.25 12.015625 88.703125 13.480469 85 14.414062 C 84.785156 14.46875 84.5625 14.496094 84.339844 14.496094 C 83.667969 14.496094 83.011719 14.246094 82.496094 13.792969 C 78.554688 10.320312 73.488281 8.410156 68.230469 8.410156 C 65.953125 8.410156 63.65625 8.765625 61.398438 9.464844 C 54.410156 11.632812 49.015625 17.398438 47.324219 24.511719 C 46.6875 27.179688 46.515625 29.851562 46.8125 32.449219 C 46.847656 32.75 46.703125 32.957031 46.617188 33.054688 C 46.464844 33.226562 46.25 33.324219 46.023438 33.324219 C 45.996094 33.324219 45.972656 33.324219 45.945312 33.320312 C 30.644531 31.898438 16.847656 24.527344 7.09375 12.5625 C 6.59375 11.953125 5.640625 12.027344 5.246094 12.707031 C 3.335938 15.984375 2.324219 19.734375 2.324219 23.546875 C 2.324219 29.390625 4.671875 34.898438 8.753906 38.914062 C 7.035156 38.507812 5.375 37.867188 3.835938 37.011719 C 3.089844 36.597656 2.171875 37.128906 2.160156 37.984375 C 2.054688 46.664062 7.136719 54.390625 14.753906 57.871094 C 14.597656 57.875 14.445312 57.875 14.292969 57.875 C 13.085938 57.875 11.863281 57.757812 10.660156 57.527344 C 9.820312 57.367188 9.113281 58.164062 9.375 58.980469 C 11.847656 66.695312 18.492188 72.386719 26.441406 73.675781 C 19.84375 78.105469 12.15625 80.441406 4.160156 80.441406 L 1.667969 80.441406 C 0.898438 80.441406 0.25 80.941406 0.0507812 81.6875 C -0.140625 82.417969 0.214844 83.191406 0.871094 83.574219 C 9.882812 88.820312 20.164062 91.589844 30.605469 91.589844 C 39.742188 91.589844 48.292969 89.777344 56.011719 86.199219 C 63.09375 82.921875 69.347656 78.234375 74.605469 72.269531 C 79.503906 66.710938 83.332031 60.296875 85.988281 53.203125 C 88.519531 46.441406 89.859375 39.222656 89.859375 32.335938 L 89.859375 32.007812 C 89.859375 30.902344 90.359375 29.859375 91.230469 29.152344 C 94.542969 26.460938 97.429688 23.296875 99.804688 19.742188 C 100.429688 18.804688 99.441406 17.628906 98.410156 18.085938 Z M 98.410156 18.085938 "/>
</g>
</svg>
<!-- iconic normalized -->