<?xml version="1.0" encoding="UTF-8"?>
<svg xmlns="http://www.w3.org/2000/svg" xmlns:xlink="http://www.w3.org/1999/xlink" width="100px" height="100px" viewBox="0 0 100 100" version="1.1">
<defs>
<filter id="alpha" filterUnits="objectBoundingBox" x="0%" y="0%" width="100%" height="100%">
  <feColorMatrix type="matrix" in="SourceGraphic" values="0 0 0 0 1 0 0 0 0 1 0 0 0 0 1 0 0 0 1 0"/>
</filter>
<mask id="mask0">
  <g filter="url(#alpha)">
<rect x="0" y="0" width="100" height="100" style="fill:rgb(0%,0%,0%);fill-opacity:0.6;stroke:none;"/>
  </g>
</mask>
<clipPath id="clip1">
  <rect width="100" height="100"/>
</clipPath>
<g id="surface1" clip-path="url(#clip1)">
<path style=" stroke:none;fill-rule:nonzero;fill:rgb(100%,100%,100%);fill-opacity:1;" d="M 62.183594 18.472656 C 61.769531 18.472656 61.378906 18.554688 61.007812 18.671875 C 59.824219 16.972656 57.859375 15.851562 55.628906 15.851562 C 53.402344 15.851562 51.4375 16.972656 50.253906 18.671875 C 49.878906 18.554688 49.492188 18.472656 49.078125 18.472656 C 46.90625 18.472656 45.144531 20.234375 45.144531 22.40625 L 66.113281 22.40625 C 66.113281 20.234375 64.355469 18.472656 62.183594 18.472656 Z M 62.183594 18.472656 "/>
</g>
<mask id="mask1">
  <g filter="url(#alpha)">
<rect x="0" y="0" width="100" height="100" style="fill:rgb(0%,0%,0%);fill-opacity:0.6;stroke:none;"/>
  </g>
</mask>
<clipPath id="clip2">
  <rect width="100" height="100"/>
</clipPath>
<g id="surface1" clip-path="url(#clip2)">
<path style=" stroke:none;fill-rule:nonzero;fill:rgb(100%,100%,100%);fill-opacity:1;" d="M 72.597656 25.496094 C 72.402344 25.496094 72.21875 25.535156 72.039062 25.589844 C 71.476562 24.78125 70.546875 24.253906 69.488281 24.253906 C 68.429688 24.253906 67.5 24.78125 66.9375 25.589844 C 66.761719 25.535156 66.578125 25.496094 66.382812 25.496094 C 65.351562 25.496094 64.515625 26.332031 64.515625 27.359375 L 74.460938 27.359375 C 74.460938 26.332031 73.628906 25.496094 72.597656 25.496094 Z M 72.597656 25.496094 "/>
</g>
<mask id="mask2">
  <g filter="url(#alpha)">
<rect x="0" y="0" width="100" height="100" style="fill:rgb(0%,0%,0%);fill-opacity:0.6;stroke:none;"/>
  </g>
</mask>
<clipPath id="clip3">
  <rect width="100" height="100"/>
</clipPath>
<g id="surface1" clip-path="url(#clip3)">
<path style=" stroke:none;fill-rule:nonzero;fill:rgb(100%,100%,100%);fill-opacity:1;" d="M 52.636719 8.082031 C 52.441406 8.082031 52.257812 8.121094 52.078125 8.175781 C 51.515625 7.367188 50.585938 6.835938 49.527344 6.835938 C 48.472656 6.835938 47.539062 7.367188 46.976562 8.175781 C 46.800781 8.121094 46.617188 8.082031 46.421875 8.082031 C 45.390625 8.082031 44.554688 8.917969 44.554688 9.945312 L 54.5 9.945312 C 54.5 8.917969 53.667969 8.082031 52.636719 8.082031 Z M 52.636719 8.082031 "/>
</g>
</defs>
<g id="surface1">
<path style=" stroke:none;fill-rule:nonzero;fill:rgb(60.392157%,95.686275%,93.72549%);fill-opacity:1;" d="M 100 50 C 100 77.613281 77.613281 100 50 100 C 22.386719 100 0 77.613281 0 50 C 0 22.386719 22.386719 0 50 0 C 77.613281 0 100 22.386719 100 50 Z M 100 50 "/>
<path style=" stroke:none;fill-rule:nonzero;fill:rgb(77.254902%,97.254902%,94.509804%);fill-opacity:1;" d="M 0.03125 48.710938 C 0.0234375 49.140625 0 49.566406 0 50 C 0 53.878906 0.457031 57.652344 1.292969 61.277344 C 10.621094 67.101562 31.710938 71.167969 56.25 71.167969 C 72.039062 71.167969 86.398438 69.484375 97.121094 66.730469 C 98.980469 61.5 100 55.871094 100 50 C 100 47.644531 99.824219 45.328125 99.507812 43.058594 C 87.296875 37.097656 73.246094 34.675781 56.25 34.675781 C 30.535156 34.675781 8.605469 42.433594 0.03125 48.710938 Z M 0.03125 48.710938 "/>
<path style=" stroke:none;fill-rule:nonzero;fill:rgb(87.058824%,98.431373%,94.901961%);fill-opacity:1;" d="M 0.304688 53.816406 C 0.292969 54.21875 0.273438 54.621094 0.269531 55.027344 C 0.488281 57.148438 0.824219 59.238281 1.292969 61.277344 C 10.621094 67.101562 31.710938 71.167969 56.25 71.167969 C 72.039062 71.167969 86.398438 69.484375 97.121094 66.730469 C 98.980469 61.5 100 55.871094 100 50 C 100 48.8125 99.953125 47.636719 99.871094 46.472656 C 88.175781 42.339844 79.4375 40.835938 64.515625 42.03125 C 36.957031 44.242188 9.523438 47.542969 0.304688 53.816406 Z M 0.304688 53.816406 "/>
<path style=" stroke:none;fill-rule:nonzero;fill:rgb(69.019608%,92.156863%,50.588235%);fill-opacity:1;" d="M 8.667969 46.773438 C 6.433594 47.355469 2.988281 48.5 0.0117188 49.53125 C 0.0117188 49.6875 0 49.84375 0 50 C 0 57.167969 1.519531 63.980469 4.238281 70.144531 C 9.238281 70.589844 15.890625 71.167969 16.902344 71.167969 C 18.546875 71.167969 30.96875 55.691406 30.96875 55.691406 C 21.804688 54.835938 13.304688 45.5625 8.667969 46.773438 Z M 8.667969 46.773438 "/>
<path style=" stroke:none;fill-rule:nonzero;fill:rgb(69.019608%,92.156863%,50.588235%);fill-opacity:1;" d="M 99.953125 51.855469 C 93.0625 48.578125 87.421875 44.683594 83.449219 45.160156 C 78.425781 45.765625 62.097656 52.925781 62.097656 52.925781 L 83.871094 67.050781 L 97.015625 67.050781 C 98.742188 62.28125 99.757812 57.171875 99.953125 51.855469 Z M 99.953125 51.855469 "/>
<path style=" stroke:none;fill-rule:nonzero;fill:rgb(58.039216%,84.313725%,35.686275%);fill-opacity:1;" d="M 97.085938 57.230469 C 97.085938 54.515625 94.917969 43.925781 93.546875 43.925781 C 92.175781 43.925781 90.011719 54.515625 90.011719 57.230469 C 90.011719 59.65625 91.277344 60.996094 92.941406 61.253906 L 92.941406 64.585938 C 92.941406 64.917969 93.210938 65.191406 93.546875 65.191406 C 93.882812 65.191406 94.15625 64.917969 94.15625 64.585938 L 94.15625 61.253906 C 95.820312 60.996094 97.085938 59.65625 97.085938 57.230469 Z M 97.085938 57.230469 "/>
<path style=" stroke:none;fill-rule:nonzero;fill:rgb(58.039216%,84.313725%,35.686275%);fill-opacity:1;" d="M 91.113281 58.488281 C 91.113281 56.589844 89.601562 49.195312 88.640625 49.195312 C 87.683594 49.195312 86.171875 56.589844 86.171875 58.488281 C 86.171875 60.183594 87.054688 61.117188 88.21875 61.300781 L 88.21875 63.625 C 88.21875 63.859375 88.40625 64.050781 88.640625 64.050781 C 88.875 64.050781 89.066406 63.859375 89.066406 63.625 L 89.066406 61.300781 C 90.230469 61.117188 91.113281 60.183594 91.113281 58.488281 Z M 91.113281 58.488281 "/>
<path style=" stroke:none;fill-rule:nonzero;fill:rgb(58.039216%,84.313725%,35.686275%);fill-opacity:1;" d="M 19.375 60.371094 C 19.375 58.472656 17.859375 51.074219 16.902344 51.074219 C 15.945312 51.074219 14.429688 58.472656 14.429688 60.371094 C 14.429688 62.066406 15.316406 63 16.476562 63.179688 L 16.476562 65.507812 C 16.476562 65.742188 16.667969 65.929688 16.902344 65.929688 C 17.136719 65.929688 17.328125 65.742188 17.328125 65.507812 L 17.328125 63.179688 C 18.488281 63 19.375 62.066406 19.375 60.371094 Z M 19.375 60.371094 "/>
<path style=" stroke:none;fill-rule:nonzero;fill:rgb(58.039216%,84.313725%,35.686275%);fill-opacity:1;" d="M 13.328125 59.90625 C 13.328125 58.480469 12.191406 52.925781 11.46875 52.925781 C 10.75 52.925781 9.613281 58.480469 9.613281 59.90625 C 9.613281 61.179688 10.277344 61.878906 11.152344 62.015625 L 11.152344 63.761719 C 11.152344 63.9375 11.292969 64.082031 11.46875 64.082031 C 11.648438 64.082031 11.789062 63.9375 11.789062 63.761719 L 11.789062 62.015625 C 12.664062 61.878906 13.328125 61.175781 13.328125 59.90625 Z M 13.328125 59.90625 "/>
<path style=" stroke:none;fill-rule:nonzero;fill:rgb(58.039216%,84.313725%,35.686275%);fill-opacity:1;" d="M 8.667969 59.945312 C 8.667969 58.136719 7.222656 51.074219 6.308594 51.074219 C 5.394531 51.074219 3.949219 58.136719 3.949219 59.945312 C 3.949219 61.566406 4.792969 62.457031 5.902344 62.628906 L 5.902344 64.851562 C 5.902344 65.074219 6.085938 65.253906 6.308594 65.253906 C 6.535156 65.253906 6.714844 65.074219 6.714844 64.851562 L 6.714844 62.628906 C 7.824219 62.457031 8.667969 61.566406 8.667969 59.945312 Z M 8.667969 59.945312 "/>
<path style=" stroke:none;fill-rule:nonzero;fill:rgb(40.392157%,26.666667%,27.843137%);fill-opacity:1;" d="M 27.519531 68.816406 C 26.628906 68.816406 25.90625 68.09375 25.90625 67.203125 L 25.90625 41.933594 C 25.90625 41.042969 26.628906 40.324219 27.519531 40.324219 C 28.410156 40.324219 29.132812 41.042969 29.132812 41.933594 L 29.132812 67.203125 C 29.132812 68.09375 28.410156 68.816406 27.519531 68.816406 Z M 27.519531 68.816406 "/>
<path style=" stroke:none;fill-rule:nonzero;fill:rgb(26.27451%,67.058824%,37.254902%);fill-opacity:1;" d="M 42.699219 47.671875 C 43.4375 46.605469 43.875 45.320312 43.875 43.925781 C 43.875 40.988281 41.933594 38.527344 39.273438 37.6875 C 39.25 37.667969 39.230469 37.640625 39.207031 37.621094 C 39.445312 36.949219 39.597656 36.238281 39.597656 35.484375 C 39.597656 31.921875 36.707031 29.03125 33.144531 29.03125 C 32.628906 29.03125 32.132812 29.109375 31.652344 29.222656 C 30.191406 27.160156 27.800781 25.804688 25.082031 25.804688 C 20.628906 25.804688 17.015625 29.417969 17.015625 33.871094 C 17.015625 34.808594 17.207031 35.691406 17.5 36.527344 C 14.347656 38.121094 12.179688 41.386719 12.179688 45.160156 C 12.179688 50.488281 16.484375 54.808594 21.804688 54.835938 C 23.167969 56.078125 24.960938 56.855469 26.949219 56.855469 C 28.429688 56.855469 29.796875 56.417969 30.96875 55.691406 C 31.566406 55.804688 32.183594 55.871094 32.816406 55.871094 C 34.039062 55.871094 35.207031 55.640625 36.292969 55.242188 C 39.445312 55.679688 42.625 56.046875 42.824219 55.78125 C 42.984375 55.566406 42.625 52.820312 42.132812 49.59375 C 42.382812 48.980469 42.570312 48.335938 42.699219 47.671875 Z M 42.699219 47.671875 "/>
<path style=" stroke:none;fill-rule:nonzero;fill:rgb(44.313725%,74.509804%,38.823529%);fill-opacity:1;" d="M 42.699219 47.671875 C 43.4375 46.605469 43.875 45.320312 43.875 43.925781 C 43.875 40.988281 41.933594 38.527344 39.273438 37.6875 C 39.25 37.667969 39.230469 37.640625 39.207031 37.621094 C 39.445312 36.949219 39.597656 36.238281 39.597656 35.484375 C 39.597656 31.921875 36.707031 29.03125 33.144531 29.03125 C 32.628906 29.03125 32.132812 29.109375 31.652344 29.222656 C 30.191406 27.160156 27.800781 25.804688 25.082031 25.804688 C 22.992188 25.804688 21.105469 26.621094 19.671875 27.925781 C 20.339844 27.746094 21.03125 27.621094 21.753906 27.621094 C 24.472656 27.621094 26.867188 28.976562 28.328125 31.039062 C 28.808594 30.921875 29.304688 30.847656 29.820312 30.847656 C 33.382812 30.847656 36.269531 33.734375 36.269531 37.296875 C 36.269531 38.050781 36.117188 38.765625 35.878906 39.4375 C 35.902344 39.457031 35.921875 39.480469 35.945312 39.5 C 38.605469 40.34375 40.546875 42.800781 40.546875 45.742188 C 40.546875 47.132812 40.109375 48.421875 39.371094 49.484375 C 39.246094 50.152344 39.058594 50.796875 38.808594 51.40625 C 39.054688 53.027344 39.265625 54.523438 39.398438 55.640625 C 41.257812 55.851562 42.691406 55.957031 42.824219 55.78125 C 42.984375 55.566406 42.625 52.820312 42.132812 49.59375 C 42.382812 48.980469 42.570312 48.335938 42.699219 47.671875 Z M 42.699219 47.671875 "/>
<path style=" stroke:none;fill-rule:nonzero;fill:rgb(58.039216%,84.313725%,35.686275%);fill-opacity:1;" d="M 2.148438 64.515625 C 8.367188 85.050781 27.433594 100 50 100 C 72.566406 100 91.632812 85.050781 97.851562 64.515625 Z M 2.148438 64.515625 "/>
<path style=" stroke:none;fill-rule:nonzero;fill:rgb(87.058824%,49.411765%,40.784314%);fill-opacity:1;" d="M 38.710938 43.546875 L 53.226562 29.03125 L 82.257812 58.066406 L 82.257812 69.355469 L 38.710938 69.355469 Z M 38.710938 43.546875 "/>
<path style=" stroke:none;fill-rule:nonzero;fill:rgb(60%,39.215686%,37.254902%);fill-opacity:1;" d="M 49.277344 68.816406 L 83.804688 68.816406 L 83.804688 70.445312 L 49.277344 70.445312 Z M 49.277344 68.816406 "/>
<path style=" stroke:none;fill-rule:nonzero;fill:rgb(71.372549%,43.137255%,43.137255%);fill-opacity:1;" d="M 48.386719 69.355469 L 29.03125 69.355469 L 29.03125 56.453125 L 38.710938 51.613281 L 48.386719 56.453125 Z M 48.386719 69.355469 "/>
<use xlink:href="#surface1" mask="url(#mask0)"/>
<use xlink:href="#surface1" mask="url(#mask1)"/>
<use xlink:href="#surface1" mask="url(#mask2)"/>
<path style=" stroke:none;fill-rule:nonzero;fill:rgb(100%,100%,100%);fill-opacity:1;" d="M 85.945312 28.550781 C 85.640625 28.550781 85.355469 28.609375 85.078125 28.695312 C 84.207031 27.441406 82.757812 26.617188 81.117188 26.617188 C 79.472656 26.617188 78.023438 27.441406 77.152344 28.695312 C 76.875 28.609375 76.589844 28.550781 76.285156 28.550781 C 74.683594 28.550781 73.386719 29.847656 73.386719 31.449219 L 88.84375 31.449219 C 88.84375 29.847656 87.546875 28.550781 85.945312 28.550781 Z M 85.945312 28.550781 "/>
<path style=" stroke:none;fill-rule:nonzero;fill:rgb(100%,100%,100%);fill-opacity:1;" d="M 36.773438 17.300781 C 36.410156 17.300781 36.0625 17.371094 35.730469 17.476562 C 34.679688 15.964844 32.933594 14.972656 30.953125 14.972656 C 28.972656 14.972656 27.226562 15.964844 26.175781 17.476562 C 25.84375 17.371094 25.496094 17.300781 25.128906 17.300781 C 23.199219 17.300781 21.636719 18.863281 21.636719 20.792969 L 40.269531 20.792969 C 40.269531 18.863281 38.703125 17.300781 36.773438 17.300781 Z M 36.773438 17.300781 "/>
<path style=" stroke:none;fill-rule:nonzero;fill:rgb(60%,39.215686%,37.254902%);fill-opacity:1;" d="M 83.015625 60.53125 L 53.226562 30.742188 L 37.953125 46.015625 L 36.242188 44.304688 L 53.226562 27.320312 L 84.726562 58.820312 Z M 83.015625 60.53125 "/>
<path style=" stroke:none;fill-rule:nonzero;fill:rgb(60%,39.215686%,37.254902%);fill-opacity:1;" d="M 49.15625 58.1875 L 38.710938 52.964844 L 28.261719 58.1875 L 27.179688 56.023438 L 38.710938 50.261719 L 50.238281 56.023438 Z M 49.15625 58.1875 "/>
<path style=" stroke:none;fill-rule:nonzero;fill:rgb(38.823529%,62.745098%,70.980392%);fill-opacity:1;" d="M 43.546875 45.160156 L 48.386719 45.160156 L 48.386719 51.613281 L 43.546875 51.613281 Z M 43.546875 45.160156 "/>
<path style=" stroke:none;fill-rule:nonzero;fill:rgb(33.333333%,39.215686%,51.372549%);fill-opacity:1;" d="M 48.789062 52.015625 L 43.144531 52.015625 L 43.144531 44.757812 L 48.789062 44.757812 Z M 43.953125 51.210938 L 47.984375 51.210938 L 47.984375 45.5625 L 43.953125 45.5625 Z M 43.953125 51.210938 "/>
<path style=" stroke:none;fill-rule:nonzero;fill:rgb(33.333333%,39.215686%,51.372549%);fill-opacity:1;" d="M 43.546875 46.371094 L 48.386719 46.371094 L 48.386719 47.175781 L 43.546875 47.175781 Z M 43.546875 46.371094 "/>
<path style=" stroke:none;fill-rule:nonzero;fill:rgb(38.823529%,62.745098%,70.980392%);fill-opacity:1;" d="M 51.613281 45.160156 L 56.453125 45.160156 L 56.453125 51.613281 L 51.613281 51.613281 Z M 51.613281 45.160156 "/>
<path style=" stroke:none;fill-rule:nonzero;fill:rgb(33.333333%,39.215686%,51.372549%);fill-opacity:1;" d="M 56.855469 52.015625 L 51.210938 52.015625 L 51.210938 44.757812 L 56.855469 44.757812 Z M 52.015625 51.210938 L 56.046875 51.210938 L 56.046875 45.5625 L 52.015625 45.5625 Z M 52.015625 51.210938 "/>
<path style=" stroke:none;fill-rule:nonzero;fill:rgb(33.333333%,39.215686%,51.372549%);fill-opacity:1;" d="M 51.613281 46.371094 L 56.453125 46.371094 L 56.453125 47.175781 L 51.613281 47.175781 Z M 51.613281 46.371094 "/>
<path style=" stroke:none;fill-rule:nonzero;fill:rgb(38.823529%,62.745098%,70.980392%);fill-opacity:1;" d="M 59.675781 45.160156 L 64.515625 45.160156 L 64.515625 51.613281 L 59.675781 51.613281 Z M 59.675781 45.160156 "/>
<path style=" stroke:none;fill-rule:nonzero;fill:rgb(33.333333%,39.215686%,51.372549%);fill-opacity:1;" d="M 64.917969 52.015625 L 59.273438 52.015625 L 59.273438 44.757812 L 64.917969 44.757812 Z M 60.082031 51.210938 L 64.113281 51.210938 L 64.113281 45.5625 L 60.082031 45.5625 Z M 60.082031 51.210938 "/>
<path style=" stroke:none;fill-rule:nonzero;fill:rgb(33.333333%,39.215686%,51.372549%);fill-opacity:1;" d="M 59.675781 46.371094 L 64.515625 46.371094 L 64.515625 47.175781 L 59.675781 47.175781 Z M 59.675781 46.371094 "/>
<path style=" stroke:none;fill-rule:nonzero;fill:rgb(38.823529%,62.745098%,70.980392%);fill-opacity:1;" d="M 54.839844 58.066406 L 59.675781 58.066406 L 59.675781 64.515625 L 54.839844 64.515625 Z M 54.839844 58.066406 "/>
<path style=" stroke:none;fill-rule:nonzero;fill:rgb(33.333333%,39.215686%,51.372549%);fill-opacity:1;" d="M 60.082031 64.917969 L 54.433594 64.917969 L 54.433594 57.660156 L 60.082031 57.660156 Z M 55.242188 64.113281 L 59.273438 64.113281 L 59.273438 58.46875 L 55.242188 58.46875 Z M 55.242188 64.113281 "/>
<path style=" stroke:none;fill-rule:nonzero;fill:rgb(33.333333%,39.215686%,51.372549%);fill-opacity:1;" d="M 54.839844 59.273438 L 59.675781 59.273438 L 59.675781 60.082031 L 54.839844 60.082031 Z M 54.839844 59.273438 "/>
<path style=" stroke:none;fill-rule:nonzero;fill:rgb(38.823529%,62.745098%,70.980392%);fill-opacity:1;" d="M 62.902344 58.066406 L 67.742188 58.066406 L 67.742188 64.515625 L 62.902344 64.515625 Z M 62.902344 58.066406 "/>
<path style=" stroke:none;fill-rule:nonzero;fill:rgb(33.333333%,39.215686%,51.372549%);fill-opacity:1;" d="M 68.144531 64.917969 L 62.5 64.917969 L 62.5 57.660156 L 68.144531 57.660156 Z M 63.304688 64.113281 L 67.339844 64.113281 L 67.339844 58.46875 L 63.304688 58.46875 Z M 63.304688 64.113281 "/>
<path style=" stroke:none;fill-rule:nonzero;fill:rgb(33.333333%,39.215686%,51.372549%);fill-opacity:1;" d="M 62.902344 59.273438 L 67.742188 59.273438 L 67.742188 60.082031 L 62.902344 60.082031 Z M 62.902344 59.273438 "/>
<path style=" stroke:none;fill-rule:nonzero;fill:rgb(38.823529%,62.745098%,70.980392%);fill-opacity:1;" d="M 70.96875 58.066406 L 75.804688 58.066406 L 75.804688 64.515625 L 70.96875 64.515625 Z M 70.96875 58.066406 "/>
<path style=" stroke:none;fill-rule:nonzero;fill:rgb(33.333333%,39.215686%,51.372549%);fill-opacity:1;" d="M 76.210938 64.917969 L 70.5625 64.917969 L 70.5625 57.660156 L 76.210938 57.660156 Z M 71.371094 64.113281 L 75.402344 64.113281 L 75.402344 58.46875 L 71.371094 58.46875 Z M 71.371094 64.113281 "/>
<path style=" stroke:none;fill-rule:nonzero;fill:rgb(33.333333%,39.215686%,51.372549%);fill-opacity:1;" d="M 70.96875 59.273438 L 75.804688 59.273438 L 75.804688 60.082031 L 70.96875 60.082031 Z M 70.96875 59.273438 "/>
<path style=" stroke:none;fill-rule:nonzero;fill:rgb(38.823529%,62.745098%,70.980392%);fill-opacity:1;" d="M 32.257812 58.066406 L 37.097656 58.066406 L 37.097656 64.515625 L 32.257812 64.515625 Z M 32.257812 58.066406 "/>
<path style=" stroke:none;fill-rule:nonzero;fill:rgb(33.333333%,39.215686%,51.372549%);fill-opacity:1;" d="M 37.5 64.917969 L 31.855469 64.917969 L 31.855469 57.660156 L 37.5 57.660156 Z M 32.660156 64.113281 L 36.695312 64.113281 L 36.695312 58.46875 L 32.660156 58.46875 Z M 32.660156 64.113281 "/>
<path style=" stroke:none;fill-rule:nonzero;fill:rgb(33.333333%,39.215686%,51.372549%);fill-opacity:1;" d="M 32.257812 59.273438 L 37.097656 59.273438 L 37.097656 60.082031 L 32.257812 60.082031 Z M 32.257812 59.273438 "/>
<path style=" stroke:none;fill-rule:nonzero;fill:rgb(38.823529%,62.745098%,70.980392%);fill-opacity:1;" d="M 40.324219 58.066406 L 45.160156 58.066406 L 45.160156 64.515625 L 40.324219 64.515625 Z M 40.324219 58.066406 "/>
<path style=" stroke:none;fill-rule:nonzero;fill:rgb(33.333333%,39.215686%,51.372549%);fill-opacity:1;" d="M 45.5625 64.917969 L 39.917969 64.917969 L 39.917969 57.660156 L 45.5625 57.660156 Z M 40.726562 64.113281 L 44.757812 64.113281 L 44.757812 58.46875 L 40.726562 58.46875 Z M 40.726562 64.113281 "/>
<path style=" stroke:none;fill-rule:nonzero;fill:rgb(33.333333%,39.215686%,51.372549%);fill-opacity:1;" d="M 40.324219 59.273438 L 45.160156 59.273438 L 45.160156 60.082031 L 40.324219 60.082031 Z M 40.324219 59.273438 "/>
<path style=" stroke:none;fill-rule:nonzero;fill:rgb(44.313725%,74.509804%,38.823529%);fill-opacity:1;" d="M 38.765625 66.074219 C 38.140625 66.074219 37.550781 66.195312 36.984375 66.375 C 35.195312 63.800781 32.226562 62.109375 28.855469 62.109375 C 25.484375 62.109375 22.515625 63.800781 20.726562 66.375 C 20.164062 66.195312 19.574219 66.074219 18.949219 66.074219 C 15.664062 66.074219 13.003906 68.734375 13.003906 72.019531 L 44.707031 72.019531 C 44.707031 68.734375 42.046875 66.074219 38.765625 66.074219 Z M 38.765625 66.074219 "/>
<path style=" stroke:none;fill-rule:nonzero;fill:rgb(26.27451%,67.058824%,37.254902%);fill-opacity:1;" d="M 34.953125 66.074219 C 34.328125 66.074219 33.738281 66.195312 33.175781 66.375 C 31.734375 64.304688 29.511719 62.855469 26.949219 62.347656 C 24.386719 62.855469 22.167969 64.304688 20.726562 66.375 C 20.160156 66.195312 19.570312 66.074219 18.949219 66.074219 C 15.664062 66.074219 13.003906 68.734375 13.003906 72.019531 L 40.898438 72.019531 C 40.898438 68.734375 38.234375 66.074219 34.953125 66.074219 Z M 34.953125 66.074219 "/>
<path style=" stroke:none;fill-rule:nonzero;fill:rgb(44.313725%,74.509804%,38.823529%);fill-opacity:1;" d="M 38.472656 71.988281 C 38.472656 70.078125 40.019531 68.53125 41.929688 68.53125 C 42.21875 68.53125 42.492188 68.578125 42.761719 68.644531 C 43.664062 67.667969 44.941406 67.050781 46.375 67.050781 C 49.101562 67.050781 51.3125 69.261719 51.3125 71.988281 Z M 38.472656 71.988281 "/>
<path style=" stroke:none;fill-rule:nonzero;fill:rgb(26.27451%,67.058824%,37.254902%);fill-opacity:1;" d="M 45.511719 67.140625 C 44.433594 67.335938 43.476562 67.871094 42.761719 68.644531 C 42.492188 68.578125 42.21875 68.53125 41.929688 68.53125 C 40.019531 68.53125 38.472656 70.078125 38.472656 71.988281 L 49.527344 71.988281 C 49.527344 69.578125 47.796875 67.574219 45.511719 67.140625 Z M 45.511719 67.140625 "/>
<path style=" stroke:none;fill-rule:nonzero;fill:rgb(44.313725%,74.509804%,38.823529%);fill-opacity:1;" d="M 50 100 C 67.996094 100 83.742188 90.476562 92.546875 76.210938 L 7.453125 76.210938 C 16.257812 90.476562 32.003906 100 50 100 Z M 50 100 "/>
<path style=" stroke:none;fill-rule:nonzero;fill:rgb(26.27451%,67.058824%,37.254902%);fill-opacity:1;" d="M 83.449219 87.097656 L 16.550781 87.097656 C 25.40625 95.101562 37.121094 100 50 100 C 62.878906 100 74.59375 95.101562 83.449219 87.097656 Z M 83.449219 87.097656 "/>
<path style=" stroke:none;fill-rule:nonzero;fill:rgb(58.039216%,84.313725%,35.686275%);fill-opacity:1;" d="M 13.179688 63.484375 C 12.984375 63.484375 12.804688 63.523438 12.628906 63.578125 C 12.074219 62.78125 11.15625 62.257812 10.113281 62.257812 C 9.066406 62.257812 8.148438 62.78125 7.59375 63.578125 C 7.417969 63.523438 7.238281 63.484375 7.042969 63.484375 C 6.027344 63.484375 5.203125 64.308594 5.203125 65.324219 L 15.019531 65.324219 C 15.019531 64.308594 14.195312 63.484375 13.179688 63.484375 Z M 13.179688 63.484375 "/>
<path style=" stroke:none;fill-rule:nonzero;fill:rgb(58.039216%,84.313725%,35.686275%);fill-opacity:1;" d="M 83.804688 65.371094 C 83.804688 64.074219 84.859375 63.019531 86.15625 63.019531 C 86.355469 63.019531 86.542969 63.050781 86.722656 63.09375 C 87.335938 62.433594 88.207031 62.011719 89.183594 62.011719 C 91.042969 62.011719 92.546875 63.515625 92.546875 65.371094 Z M 83.804688 65.371094 "/>
<path style=" stroke:none;fill-rule:nonzero;fill:rgb(100%,100%,100%);fill-opacity:1;" d="M 35.117188 23.03125 C 35.117188 20.769531 36.949219 18.933594 39.214844 18.933594 C 39.554688 18.933594 39.882812 18.988281 40.199219 19.066406 C 41.269531 17.910156 42.785156 17.175781 44.484375 17.175781 C 47.71875 17.175781 50.339844 19.796875 50.339844 23.03125 Z M 35.117188 23.03125 "/>
<path style=" stroke:none;fill-rule:nonzero;fill:rgb(100%,100%,100%);fill-opacity:1;" d="M 68.195312 17.898438 C 68.195312 16.507812 69.324219 15.378906 70.714844 15.378906 C 70.925781 15.378906 71.125 15.414062 71.320312 15.460938 C 71.976562 14.75 72.910156 14.300781 73.953125 14.300781 C 75.941406 14.300781 77.554688 15.910156 77.554688 17.898438 Z M 68.195312 17.898438 "/>
<path style=" stroke:none;fill-rule:nonzero;fill:rgb(58.039216%,84.313725%,35.686275%);fill-opacity:1;" d="M 49.277344 96.101562 C 49.277344 96.84375 48.675781 97.445312 47.933594 97.445312 C 47.191406 97.445312 46.589844 96.84375 46.589844 96.101562 C 46.589844 95.359375 47.191406 94.757812 47.933594 94.757812 C 48.675781 94.757812 49.277344 95.359375 49.277344 96.101562 Z M 49.277344 96.101562 "/>
<path style=" stroke:none;fill-rule:nonzero;fill:rgb(58.039216%,84.313725%,35.686275%);fill-opacity:1;" d="M 64.515625 92.203125 C 64.515625 92.945312 63.914062 93.546875 63.171875 93.546875 C 62.429688 93.546875 61.828125 92.945312 61.828125 92.203125 C 61.828125 91.460938 62.429688 90.859375 63.171875 90.859375 C 63.914062 90.859375 64.515625 91.460938 64.515625 92.203125 Z M 64.515625 92.203125 "/>
<path style=" stroke:none;fill-rule:nonzero;fill:rgb(69.019608%,92.156863%,50.588235%);fill-opacity:1;" d="M 28.449219 83.1875 C 28.449219 83.699219 28.035156 84.117188 27.519531 84.117188 C 27.007812 84.117188 26.589844 83.699219 26.589844 83.1875 C 26.589844 82.675781 27.007812 82.257812 27.519531 82.257812 C 28.035156 82.257812 28.449219 82.675781 28.449219 83.1875 Z M 28.449219 83.1875 "/>
<path style=" stroke:none;fill-rule:nonzero;fill:rgb(58.039216%,84.313725%,35.686275%);fill-opacity:1;" d="M 38.539062 79.871094 C 38.539062 80.386719 38.121094 80.800781 37.609375 80.800781 C 37.097656 80.800781 36.679688 80.386719 36.679688 79.871094 C 36.679688 79.359375 37.097656 78.941406 37.609375 78.941406 C 38.121094 78.941406 38.539062 79.359375 38.539062 79.871094 Z M 38.539062 79.871094 "/>
<path style=" stroke:none;fill-rule:nonzero;fill:rgb(58.039216%,84.313725%,35.686275%);fill-opacity:1;" d="M 22.152344 80.800781 C 22.152344 81.316406 21.734375 81.730469 21.222656 81.730469 C 20.710938 81.730469 20.292969 81.316406 20.292969 80.800781 C 20.292969 80.289062 20.710938 79.871094 21.222656 79.871094 C 21.734375 79.871094 22.152344 80.289062 22.152344 80.800781 Z M 22.152344 80.800781 "/>
<path style=" stroke:none;fill-rule:nonzero;fill:rgb(69.019608%,92.156863%,50.588235%);fill-opacity:1;" d="M 43.671875 82.257812 C 43.671875 82.769531 43.253906 83.1875 42.742188 83.1875 C 42.230469 83.1875 41.8125 82.769531 41.8125 82.257812 C 41.8125 81.746094 42.230469 81.328125 42.742188 81.328125 C 43.253906 81.328125 43.671875 81.746094 43.671875 82.257812 Z M 43.671875 82.257812 "/>
<path style=" stroke:none;fill-rule:nonzero;fill:rgb(69.019608%,92.156863%,50.588235%);fill-opacity:1;" d="M 63.171875 79.871094 C 63.171875 80.386719 62.753906 80.800781 62.242188 80.800781 C 61.730469 80.800781 61.3125 80.386719 61.3125 79.871094 C 61.3125 79.359375 61.730469 78.941406 62.242188 78.941406 C 62.753906 78.941406 63.171875 79.359375 63.171875 79.871094 Z M 63.171875 79.871094 "/>
<path style=" stroke:none;fill-rule:nonzero;fill:rgb(69.019608%,92.156863%,50.588235%);fill-opacity:1;" d="M 81.953125 80.800781 C 81.953125 81.316406 81.539062 81.730469 81.023438 81.730469 C 80.511719 81.730469 80.09375 81.316406 80.09375 80.800781 C 80.09375 80.289062 80.511719 79.871094 81.023438 79.871094 C 81.539062 79.871094 81.953125 80.289062 81.953125 80.800781 Z M 81.953125 80.800781 "/>
<path style=" stroke:none;fill-rule:nonzero;fill:rgb(58.039216%,84.313725%,35.686275%);fill-opacity:1;" d="M 55.5 82.964844 C 55.5 83.476562 55.082031 83.894531 54.570312 83.894531 C 54.054688 83.894531 53.640625 83.476562 53.640625 82.964844 C 53.640625 82.449219 54.054688 82.035156 54.570312 82.035156 C 55.082031 82.035156 55.5 82.449219 55.5 82.964844 Z M 55.5 82.964844 "/>
<path style=" stroke:none;fill-rule:nonzero;fill:rgb(58.039216%,84.313725%,35.686275%);fill-opacity:1;" d="M 75.246094 82.964844 C 75.246094 83.476562 74.832031 83.894531 74.316406 83.894531 C 73.804688 83.894531 73.386719 83.476562 73.386719 82.964844 C 73.386719 82.449219 73.804688 82.035156 74.316406 82.035156 C 74.832031 82.035156 75.246094 82.449219 75.246094 82.964844 Z M 75.246094 82.964844 "/>
<path style=" stroke:none;fill-rule:nonzero;fill:rgb(44.313725%,74.509804%,38.823529%);fill-opacity:1;" d="M 38.953125 93.414062 C 38.953125 94.15625 38.351562 94.757812 37.609375 94.757812 C 36.867188 94.757812 36.265625 94.15625 36.265625 93.414062 C 36.265625 92.671875 36.867188 92.070312 37.609375 92.070312 C 38.351562 92.070312 38.953125 92.671875 38.953125 93.414062 Z M 38.953125 93.414062 "/>
<path style=" stroke:none;fill-rule:nonzero;fill:rgb(44.313725%,74.509804%,38.823529%);fill-opacity:1;" d="M 54 91.632812 C 54 92.375 53.398438 92.976562 52.65625 92.976562 C 51.914062 92.976562 51.3125 92.375 51.3125 91.632812 C 51.3125 90.890625 51.914062 90.289062 52.65625 90.289062 C 53.398438 90.289062 54 90.890625 54 91.632812 Z M 54 91.632812 "/>
</g>
</svg>
<!-- iconic normalized -->