<?xml version="1.0" encoding="UTF-8"?>
<svg xmlns="http://www.w3.org/2000/svg" xmlns:xlink="http://www.w3.org/1999/xlink" width="100px" height="100px" viewBox="0 0 100 100" version="1.1">
<defs>
<filter id="alpha" filterUnits="objectBoundingBox" x="0%" y="0%" width="100%" height="100%">
  <feColorMatrix type="matrix" in="SourceGraphic" values="0 0 0 0 1 0 0 0 0 1 0 0 0 0 1 0 0 0 1 0"/>
</filter>
<mask id="mask0">
  <g filter="url(#alpha)">
<rect x="0" y="0" width="100" height="100" style="fill:rgb(0%,0%,0%);fill-opacity:0.25098;stroke:none;"/>
  </g>
</mask>
<clipPath id="clip1">
  <rect width="100" height="100"/>
</clipPath>
<g id="surface1" clip-path="url(#clip1)">
<path style=" stroke:none;fill-rule:nonzero;fill:rgb(100%,52.156863%,38.431373%);fill-opacity:1;" d="M 17.1875 51.421875 L 17.1875 54.15625 L 25.84375 48.960938 L 34.375 54.082031 L 34.375 51.347656 L 29.417969 48.375 L 25.519531 46.425781 Z M 17.1875 51.421875 "/>
</g>
<mask id="mask1">
  <g filter="url(#alpha)">
<rect x="0" y="0" width="100" height="100" style="fill:rgb(0%,0%,0%);fill-opacity:0.25098;stroke:none;"/>
  </g>
</mask>
<clipPath id="clip2">
  <rect width="100" height="100"/>
</clipPath>
<g id="surface1" clip-path="url(#clip2)">
<path style=" stroke:none;fill-rule:nonzero;fill:rgb(100%,52.156863%,38.431373%);fill-opacity:1;" d="M 34.375 41.691406 L 34.375 44.507812 L 42.25 39.253906 L 60.9375 49.316406 L 60.9375 46.65625 L 42.125 36.523438 Z M 34.375 41.691406 "/>
</g>
</defs>
<g id="surface1">
<path style=" stroke:none;fill-rule:nonzero;fill:rgb(100%,97.647059%,73.333333%);fill-opacity:1;" d="M 100 50 C 100 77.613281 77.613281 100 50 100 C 22.386719 100 0 77.613281 0 50 C 0 22.386719 22.386719 0 50 0 C 77.613281 0 100 22.386719 100 50 Z M 100 50 "/>
<path style=" stroke:none;fill-rule:nonzero;fill:rgb(100%,91.764706%,58.823529%);fill-opacity:1;" d="M 1.917969 63.710938 C 8.285156 64.625 15.429688 65.625 15.429688 65.625 L 24.21875 57.273438 C 15.832031 57.273438 6.785156 52.328125 0.0390625 51.476562 C 0.160156 55.710938 0.808594 59.808594 1.917969 63.710938 Z M 1.917969 63.710938 "/>
<path style=" stroke:none;fill-rule:nonzero;fill:rgb(100%,91.764706%,58.823529%);fill-opacity:1;" d="M 48.308594 59.863281 C 37.46875 59.863281 86.035156 64.382812 86.035156 64.382812 L 98.210938 63.25 C 99.105469 59.996094 99.675781 56.609375 99.894531 53.128906 C 86.066406 53.128906 64.84375 59.863281 48.308594 59.863281 Z M 48.308594 59.863281 "/>
<path style=" stroke:none;fill-rule:nonzero;fill:rgb(83.921569%,92.156863%,46.27451%);fill-opacity:1;" d="M 0.890625 59.375 C 5.28125 82.503906 25.589844 100 50 100 C 74.410156 100 94.71875 82.507812 99.109375 59.375 Z M 0.890625 59.375 "/>
<path style=" stroke:none;fill-rule:nonzero;fill:rgb(83.921569%,92.156863%,46.27451%);fill-opacity:1;" d="M 65.375 54.324219 C 65.375 52.164062 63.65625 43.75 62.566406 43.75 C 62.503906 43.75 62.4375 43.785156 62.375 43.835938 C 62.351562 43.855469 62.328125 43.882812 62.304688 43.90625 C 62.261719 43.949219 62.21875 44 62.171875 44.066406 C 62.144531 44.105469 62.117188 44.148438 62.085938 44.199219 C 62.046875 44.265625 62.003906 44.34375 61.964844 44.425781 C 61.933594 44.484375 61.90625 44.539062 61.875 44.601562 C 61.871094 44.613281 61.867188 44.621094 61.863281 44.628906 C 61.863281 44.628906 61.863281 44.632812 61.863281 44.632812 C 60.863281 46.839844 59.753906 52.589844 59.753906 54.324219 C 59.753906 56.226562 60.734375 57.292969 62.03125 57.515625 C 62.046875 57.519531 62.066406 57.515625 62.082031 57.519531 L 62.082031 60.164062 C 62.082031 60.433594 62.296875 60.648438 62.566406 60.648438 C 62.832031 60.648438 63.046875 60.433594 63.046875 60.164062 L 63.046875 57.519531 C 64.371094 57.3125 65.375 56.25 65.375 54.324219 Z M 65.375 54.324219 "/>
<path style=" stroke:none;fill-rule:nonzero;fill:rgb(83.921569%,92.156863%,46.27451%);fill-opacity:1;" d="M 17.75 56.40625 C 17.75 54.960938 16.597656 49.316406 15.867188 49.316406 C 15.824219 49.316406 15.78125 49.339844 15.738281 49.375 C 15.722656 49.386719 15.707031 49.40625 15.691406 49.421875 C 15.660156 49.449219 15.632812 49.484375 15.601562 49.527344 C 15.582031 49.554688 15.566406 49.585938 15.546875 49.617188 C 15.519531 49.664062 15.492188 49.714844 15.464844 49.769531 C 15.441406 49.808594 15.421875 49.84375 15.402344 49.890625 C 15.398438 49.894531 15.398438 49.898438 15.394531 49.90625 C 14.722656 51.390625 13.980469 55.246094 13.980469 56.40625 C 13.980469 57.683594 14.636719 58.398438 15.507812 58.546875 C 15.519531 58.550781 15.53125 58.550781 15.542969 58.550781 L 15.542969 60.324219 C 15.542969 60.503906 15.6875 60.648438 15.867188 60.648438 C 16.046875 60.648438 16.191406 60.503906 16.191406 60.324219 L 16.191406 58.550781 C 17.078125 58.414062 17.75 57.699219 17.75 56.40625 Z M 17.75 56.40625 "/>
<path style=" stroke:none;fill-rule:nonzero;fill:rgb(80%,88.235294%,41.960784%);fill-opacity:1;" d="M 1.59375 62.46875 C 7.136719 84.046875 26.695312 100 50 100 C 72.820312 100 92.058594 84.703125 98.050781 63.808594 C 77.8125 63.023438 23.941406 61.855469 1.59375 62.46875 Z M 1.59375 62.46875 "/>
<path style=" stroke:none;fill-rule:nonzero;fill:rgb(80%,88.235294%,41.960784%);fill-opacity:1;" d="M 9.308594 61.699219 C 9.191406 61.699219 9.078125 61.722656 8.972656 61.753906 C 8.632812 61.269531 8.070312 60.945312 7.429688 60.945312 C 6.792969 60.945312 6.230469 61.269531 5.890625 61.753906 C 5.78125 61.722656 5.671875 61.699219 5.554688 61.699219 C 4.929688 61.699219 4.425781 62.203125 4.425781 62.824219 L 10.4375 62.824219 C 10.4375 62.203125 9.933594 61.699219 9.308594 61.699219 Z M 9.308594 61.699219 "/>
<path style=" stroke:none;fill-rule:nonzero;fill:rgb(80%,88.235294%,41.960784%);fill-opacity:1;" d="M 92.117188 64.0625 C 92.117188 63.003906 91.257812 62.144531 90.199219 62.144531 C 90.039062 62.144531 89.886719 62.171875 89.738281 62.207031 C 89.238281 61.667969 88.527344 61.324219 87.734375 61.324219 C 86.222656 61.324219 84.996094 62.550781 84.996094 64.0625 Z M 92.117188 64.0625 "/>
<path style=" stroke:none;fill-rule:nonzero;fill:rgb(100%,98.823529%,92.54902%);fill-opacity:1;" d="M 34.375 64.0625 L 17.1875 64.0625 L 17.1875 50.625 L 25 45.9375 L 34.375 50.625 Z M 34.375 64.0625 "/>
<use xlink:href="#surface1" mask="url(#mask0)"/>
<path style=" stroke:none;fill-rule:nonzero;fill:rgb(100%,52.156863%,38.431373%);fill-opacity:1;" d="M 34.617188 52.566406 L 25.84375 47.304688 L 17.070312 52.566406 L 15.867188 50.558594 L 25.84375 44.570312 L 35.820312 50.558594 Z M 34.617188 52.566406 "/>
<path style=" stroke:none;fill-rule:nonzero;fill:rgb(100%,98.823529%,92.54902%);fill-opacity:1;" d="M 60.9375 46.335938 L 42.1875 36.914062 L 34.375 41.84375 L 34.375 64.0625 L 60.9375 64.0625 Z M 60.9375 46.335938 "/>
<use xlink:href="#surface1" mask="url(#mask1)"/>
<path style=" stroke:none;fill-rule:nonzero;fill:rgb(100%,92.156863%,59.215686%);fill-opacity:1;" d="M 58.625 25.425781 C 58.175781 25.425781 57.753906 25.515625 57.347656 25.640625 C 56.066406 23.796875 53.9375 22.585938 51.519531 22.585938 C 49.105469 22.585938 46.976562 23.796875 45.695312 25.640625 C 45.289062 25.515625 44.867188 25.425781 44.417969 25.425781 C 42.066406 25.425781 40.15625 27.335938 40.15625 29.6875 L 62.882812 29.6875 C 62.882812 27.335938 60.976562 25.425781 58.625 25.425781 Z M 58.625 25.425781 "/>
<path style=" stroke:none;fill-rule:nonzero;fill:rgb(100%,94.509804%,66.27451%);fill-opacity:1;" d="M 86.777344 27.910156 C 86.5 27.910156 86.234375 27.96875 85.980469 28.046875 C 85.179688 26.894531 83.851562 26.136719 82.339844 26.136719 C 80.828125 26.136719 79.5 26.894531 78.699219 28.046875 C 78.445312 27.96875 78.179688 27.910156 77.902344 27.910156 C 76.429688 27.910156 75.238281 29.105469 75.238281 30.574219 L 89.441406 30.574219 C 89.441406 29.105469 88.25 27.910156 86.777344 27.910156 Z M 86.777344 27.910156 "/>
<path style=" stroke:none;fill-rule:nonzero;fill:rgb(100%,94.509804%,66.27451%);fill-opacity:1;" d="M 44.53125 21.09375 C 44.53125 18.074219 42.082031 15.625 39.0625 15.625 C 38.605469 15.625 38.171875 15.695312 37.746094 15.800781 C 36.320312 14.261719 34.296875 13.28125 32.03125 13.28125 C 27.714844 13.28125 24.21875 16.777344 24.21875 21.09375 Z M 44.53125 21.09375 "/>
<path style=" stroke:none;fill-rule:nonzero;fill:rgb(100%,94.509804%,66.27451%);fill-opacity:1;" d="M 51.261719 17.1875 C 51.261719 15.300781 49.734375 13.773438 47.847656 13.773438 C 47.5625 13.773438 47.289062 13.816406 47.027344 13.882812 C 46.132812 12.921875 44.871094 12.308594 43.457031 12.308594 C 40.761719 12.308594 38.578125 14.492188 38.578125 17.1875 Z M 51.261719 17.1875 "/>
<path style=" stroke:none;fill-rule:nonzero;fill:rgb(100%,94.509804%,66.27451%);fill-opacity:1;" d="M 70.1875 14.75 C 70.1875 13.175781 68.914062 11.902344 67.34375 11.902344 C 67.105469 11.902344 66.878906 11.941406 66.660156 11.996094 C 65.917969 11.195312 64.863281 10.683594 63.6875 10.683594 C 61.441406 10.683594 59.621094 12.503906 59.621094 14.75 Z M 70.1875 14.75 "/>
<path style=" stroke:none;fill-rule:nonzero;fill:rgb(100%,94.509804%,66.27451%);fill-opacity:1;" d="M 81.167969 28.355469 C 81.167969 27.121094 80.164062 26.121094 78.929688 26.121094 C 78.746094 26.121094 78.566406 26.148438 78.394531 26.191406 C 77.808594 25.5625 76.984375 25.160156 76.054688 25.160156 C 74.292969 25.160156 72.863281 26.589844 72.863281 28.355469 Z M 81.167969 28.355469 "/>
<path style=" stroke:none;fill-rule:nonzero;fill:rgb(100%,92.156863%,59.215686%);fill-opacity:1;" d="M 17.066406 32.125 C 17.066406 30.242188 18.59375 28.710938 20.480469 28.710938 C 20.765625 28.710938 21.039062 28.757812 21.300781 28.824219 C 22.191406 27.859375 23.457031 27.25 24.871094 27.25 C 27.566406 27.25 29.75 29.433594 29.75 32.125 Z M 17.066406 32.125 "/>
<path style=" stroke:none;fill-rule:nonzero;fill:rgb(100%,92.156863%,59.215686%);fill-opacity:1;" d="M 55.042969 26.308594 C 55.042969 24.59375 56.433594 23.207031 58.148438 23.207031 C 58.40625 23.207031 58.65625 23.246094 58.894531 23.304688 C 59.707031 22.429688 60.855469 21.875 62.140625 21.875 C 64.589844 21.875 66.574219 23.859375 66.574219 26.308594 Z M 55.042969 26.308594 "/>
<path style=" stroke:none;fill-rule:nonzero;fill:rgb(100%,52.156863%,38.431373%);fill-opacity:1;" d="M 61.945312 48.175781 L 42.25 37.574219 L 33.460938 43.433594 L 32.164062 41.484375 L 42.125 34.84375 L 63.054688 46.113281 Z M 61.945312 48.175781 "/>
<path style=" stroke:none;fill-rule:nonzero;fill:rgb(74.901961%,58.823529%,44.705882%);fill-opacity:1;" d="M 39.457031 54.296875 L 45.574219 54.296875 L 45.574219 64.0625 L 39.457031 64.0625 Z M 39.457031 54.296875 "/>
<path style=" stroke:none;fill-rule:nonzero;fill:rgb(38.823529%,62.745098%,70.980392%);fill-opacity:1;" d="M 38.609375 46.726562 L 46.421875 46.726562 L 46.421875 51.90625 L 38.609375 51.90625 Z M 38.609375 46.726562 "/>
<path style=" stroke:none;fill-rule:nonzero;fill:rgb(25.490196%,52.156863%,65.098039%);fill-opacity:1;" d="M 46.8125 52.296875 L 38.21875 52.296875 L 38.21875 46.335938 L 46.8125 46.335938 Z M 39 51.515625 L 46.03125 51.515625 L 46.03125 47.117188 L 39 47.117188 Z M 39 51.515625 "/>
<path style=" stroke:none;fill-rule:nonzero;fill:rgb(25.490196%,52.156863%,65.098039%);fill-opacity:1;" d="M 42.125 46.726562 L 42.90625 46.726562 L 42.90625 51.90625 L 42.125 51.90625 Z M 42.125 46.726562 "/>
<path style=" stroke:none;fill-rule:nonzero;fill:rgb(38.823529%,62.745098%,70.980392%);fill-opacity:1;" d="M 48.832031 46.726562 L 56.644531 46.726562 L 56.644531 51.90625 L 48.832031 51.90625 Z M 48.832031 46.726562 "/>
<path style=" stroke:none;fill-rule:nonzero;fill:rgb(25.490196%,52.156863%,65.098039%);fill-opacity:1;" d="M 57.035156 52.296875 L 48.441406 52.296875 L 48.441406 46.335938 L 57.035156 46.335938 Z M 49.222656 51.515625 L 56.253906 51.515625 L 56.253906 47.117188 L 49.222656 47.117188 Z M 49.222656 51.515625 "/>
<path style=" stroke:none;fill-rule:nonzero;fill:rgb(25.490196%,52.156863%,65.098039%);fill-opacity:1;" d="M 52.347656 46.726562 L 53.128906 46.726562 L 53.128906 51.90625 L 52.347656 51.90625 Z M 52.347656 46.726562 "/>
<path style=" stroke:none;fill-rule:nonzero;fill:rgb(38.823529%,62.745098%,70.980392%);fill-opacity:1;" d="M 48.832031 54.6875 L 56.644531 54.6875 L 56.644531 59.863281 L 48.832031 59.863281 Z M 48.832031 54.6875 "/>
<path style=" stroke:none;fill-rule:nonzero;fill:rgb(25.490196%,52.156863%,65.098039%);fill-opacity:1;" d="M 57.035156 60.253906 L 48.441406 60.253906 L 48.441406 54.296875 L 57.035156 54.296875 Z M 49.222656 59.472656 L 56.253906 59.472656 L 56.253906 55.078125 L 49.222656 55.078125 Z M 49.222656 59.472656 "/>
<path style=" stroke:none;fill-rule:nonzero;fill:rgb(25.490196%,52.156863%,65.098039%);fill-opacity:1;" d="M 52.347656 54.6875 L 53.128906 54.6875 L 53.128906 59.863281 L 52.347656 59.863281 Z M 52.347656 54.6875 "/>
<path style=" stroke:none;fill-rule:nonzero;fill:rgb(38.823529%,62.745098%,70.980392%);fill-opacity:1;" d="M 21.9375 54.6875 L 29.75 54.6875 L 29.75 59.863281 L 21.9375 59.863281 Z M 21.9375 54.6875 "/>
<path style=" stroke:none;fill-rule:nonzero;fill:rgb(25.490196%,52.156863%,65.098039%);fill-opacity:1;" d="M 30.140625 60.253906 L 21.546875 60.253906 L 21.546875 54.296875 L 30.140625 54.296875 Z M 22.328125 59.472656 L 29.359375 59.472656 L 29.359375 55.078125 L 22.328125 55.078125 Z M 22.328125 59.472656 "/>
<path style=" stroke:none;fill-rule:nonzero;fill:rgb(25.490196%,52.156863%,65.098039%);fill-opacity:1;" d="M 25.453125 54.6875 L 26.234375 54.6875 L 26.234375 59.863281 L 25.453125 59.863281 Z M 25.453125 54.6875 "/>
<path style=" stroke:none;fill-rule:nonzero;fill:rgb(50.980392%,50.980392%,25.098039%);fill-opacity:1;" d="M 72.15625 64.386719 C 71.703125 64.386719 71.335938 64.019531 71.335938 63.566406 L 71.335938 54.734375 C 71.335938 54.285156 71.703125 53.917969 72.15625 53.917969 C 72.609375 53.917969 72.976562 54.285156 72.976562 54.734375 L 72.976562 63.566406 C 72.976562 64.019531 72.609375 64.386719 72.15625 64.386719 Z M 72.15625 64.386719 "/>
<path style=" stroke:none;fill-rule:nonzero;fill:rgb(41.176471%,74.509804%,36.470588%);fill-opacity:1;" d="M 77.972656 52.445312 C 77.972656 56.910156 75.371094 59.152344 72.15625 59.152344 C 68.945312 59.152344 66.339844 56.910156 66.339844 52.445312 C 66.339844 47.984375 69.902344 30.574219 72.15625 30.574219 C 74.410156 30.574219 77.972656 47.984375 77.972656 52.445312 Z M 77.972656 52.445312 "/>
<path style=" stroke:none;fill-rule:nonzero;fill:rgb(61.568627%,78.431373%,36.078431%);fill-opacity:1;" d="M 72.15625 30.574219 C 71.710938 30.574219 71.214844 31.265625 70.703125 32.394531 C 72.539062 35.179688 74.917969 48.933594 74.917969 52.757812 C 74.917969 56.488281 73.257812 58.589844 71.054688 59.050781 C 71.414062 59.113281 71.78125 59.152344 72.15625 59.152344 C 75.371094 59.152344 77.972656 56.910156 77.972656 52.445312 C 77.972656 47.984375 74.410156 30.574219 72.15625 30.574219 Z M 72.15625 30.574219 "/>
<path style=" stroke:none;fill-rule:nonzero;fill:rgb(50.980392%,50.980392%,25.098039%);fill-opacity:1;" d="M 80.707031 64.386719 C 80.253906 64.386719 79.886719 64.019531 79.886719 63.566406 L 79.886719 54.734375 C 79.886719 54.285156 80.253906 53.917969 80.707031 53.917969 C 81.160156 53.917969 81.527344 54.285156 81.527344 54.734375 L 81.527344 63.566406 C 81.527344 64.019531 81.160156 64.386719 80.707031 64.386719 Z M 80.707031 64.386719 "/>
<path style=" stroke:none;fill-rule:nonzero;fill:rgb(41.176471%,74.509804%,36.470588%);fill-opacity:1;" d="M 85.476562 53.652344 C 85.476562 57.3125 83.339844 59.152344 80.707031 59.152344 C 78.070312 59.152344 75.933594 57.3125 75.933594 53.652344 C 75.933594 49.992188 78.859375 35.714844 80.707031 35.714844 C 82.554688 35.714844 85.476562 49.992188 85.476562 53.652344 Z M 85.476562 53.652344 "/>
<path style=" stroke:none;fill-rule:nonzero;fill:rgb(61.568627%,78.431373%,36.078431%);fill-opacity:1;" d="M 80.707031 35.714844 C 80.339844 35.714844 79.929688 36.28125 79.511719 37.207031 C 81.019531 39.488281 82.96875 50.773438 82.96875 53.90625 C 82.96875 56.96875 81.609375 58.691406 79.800781 59.070312 C 80.09375 59.121094 80.394531 59.152344 80.707031 59.152344 C 83.339844 59.152344 85.476562 57.3125 85.476562 53.652344 C 85.476562 49.992188 82.554688 35.714844 80.707031 35.714844 Z M 80.707031 35.714844 "/>
<path style=" stroke:none;fill-rule:nonzero;fill:rgb(83.921569%,92.156863%,46.27451%);fill-opacity:1;" d="M 95.777344 55.4375 C 95.777344 53.660156 94.359375 46.726562 93.460938 46.726562 C 93.410156 46.726562 93.355469 46.757812 93.300781 46.800781 C 93.285156 46.8125 93.265625 46.835938 93.246094 46.855469 C 93.210938 46.894531 93.171875 46.9375 93.136719 46.988281 C 93.113281 47.023438 93.089844 47.058594 93.066406 47.097656 C 93.03125 47.152344 93 47.21875 92.964844 47.285156 C 92.941406 47.332031 92.917969 47.378906 92.890625 47.429688 C 92.886719 47.4375 92.882812 47.445312 92.878906 47.453125 L 92.882812 47.453125 C 92.058594 49.273438 91.144531 54.011719 91.144531 55.4375 C 91.144531 57.007812 91.953125 57.882812 93.019531 58.066406 C 93.035156 58.070312 93.046875 58.070312 93.0625 58.070312 L 93.0625 60.25 C 93.0625 60.46875 93.242188 60.648438 93.460938 60.648438 C 93.679688 60.648438 93.859375 60.46875 93.859375 60.25 L 93.859375 58.070312 C 94.945312 57.902344 95.777344 57.023438 95.777344 55.4375 Z M 95.777344 55.4375 "/>
<path style=" stroke:none;fill-rule:nonzero;fill:rgb(83.921569%,92.156863%,46.27451%);fill-opacity:1;" d="M 15.03125 55.980469 C 15.03125 54.386719 13.761719 48.175781 12.957031 48.175781 C 12.914062 48.175781 12.863281 48.203125 12.816406 48.242188 C 12.800781 48.253906 12.78125 48.273438 12.765625 48.292969 C 12.734375 48.324219 12.703125 48.363281 12.667969 48.410156 C 12.648438 48.441406 12.625 48.472656 12.605469 48.507812 C 12.574219 48.558594 12.546875 48.613281 12.515625 48.675781 C 12.492188 48.71875 12.46875 48.757812 12.449219 48.808594 C 12.445312 48.8125 12.441406 48.820312 12.4375 48.828125 L 12.441406 48.828125 C 11.699219 50.457031 10.882812 54.703125 10.882812 55.980469 C 10.882812 57.386719 11.605469 58.171875 12.566406 58.335938 C 12.578125 58.339844 12.589844 58.335938 12.601562 58.339844 L 12.601562 60.292969 C 12.601562 60.488281 12.761719 60.648438 12.957031 60.648438 C 13.15625 60.648438 13.316406 60.488281 13.316406 60.292969 L 13.316406 58.339844 C 14.289062 58.1875 15.03125 57.402344 15.03125 55.980469 Z M 15.03125 55.980469 "/>
<path style=" stroke:none;fill-rule:nonzero;fill:rgb(83.921569%,92.156863%,46.27451%);fill-opacity:1;" d="M 8.207031 57.003906 C 8.207031 55.761719 7.214844 50.914062 6.589844 50.914062 C 6.554688 50.914062 6.515625 50.933594 6.476562 50.960938 C 6.464844 50.972656 6.453125 50.988281 6.4375 51.003906 C 6.414062 51.027344 6.386719 51.058594 6.363281 51.09375 C 6.347656 51.117188 6.332031 51.144531 6.3125 51.171875 C 6.289062 51.210938 6.265625 51.253906 6.242188 51.300781 C 6.226562 51.335938 6.207031 51.367188 6.191406 51.40625 C 6.1875 51.410156 6.1875 51.414062 6.183594 51.417969 C 6.183594 51.421875 6.183594 51.421875 6.183594 51.421875 C 5.609375 52.695312 4.96875 56.007812 4.96875 57.003906 C 4.96875 58.101562 5.535156 58.714844 6.28125 58.84375 C 6.292969 58.84375 6.300781 58.84375 6.3125 58.847656 L 6.3125 60.371094 C 6.3125 60.523438 6.433594 60.648438 6.589844 60.648438 C 6.742188 60.648438 6.867188 60.523438 6.867188 60.371094 L 6.867188 58.847656 C 7.628906 58.726562 8.207031 58.113281 8.207031 57.003906 Z M 8.207031 57.003906 "/>
<path style=" stroke:none;fill-rule:nonzero;fill:rgb(83.921569%,92.156863%,46.27451%);fill-opacity:1;" d="M 92.117188 54.628906 C 92.117188 52.578125 90.476562 44.570312 89.441406 44.570312 C 89.382812 44.570312 89.320312 44.601562 89.257812 44.652344 C 89.238281 44.671875 89.214844 44.695312 89.195312 44.71875 C 89.152344 44.761719 89.109375 44.808594 89.070312 44.871094 C 89.042969 44.910156 89.015625 44.949219 88.988281 44.996094 C 88.949219 45.0625 88.910156 45.136719 88.871094 45.210938 C 88.839844 45.269531 88.8125 45.320312 88.785156 45.382812 C 88.78125 45.390625 88.777344 45.398438 88.773438 45.40625 C 88.773438 45.410156 88.773438 45.410156 88.773438 45.410156 C 87.820312 47.511719 86.765625 52.984375 86.765625 54.628906 C 86.765625 56.441406 87.699219 57.453125 88.933594 57.667969 C 88.949219 57.671875 88.964844 57.667969 88.980469 57.671875 L 88.980469 60.1875 C 88.980469 60.441406 89.1875 60.648438 89.441406 60.648438 C 89.695312 60.648438 89.902344 60.441406 89.902344 60.1875 L 89.902344 57.671875 C 91.160156 57.476562 92.117188 56.464844 92.117188 54.628906 Z M 92.117188 54.628906 "/>
<path style=" stroke:none;fill-rule:nonzero;fill:rgb(81.568627%,84.313725%,35.686275%);fill-opacity:1;" d="M 4.96875 71.6875 C 13.042969 88.433594 30.160156 100 50 100 C 70.46875 100 88.042969 87.695312 95.777344 70.085938 C 72.898438 68.253906 23.59375 69.054688 4.96875 71.6875 Z M 4.96875 71.6875 "/>
<path style=" stroke:none;fill-rule:nonzero;fill:rgb(84.705882%,76.470588%,29.019608%);fill-opacity:1;" d="M 83.359375 87.222656 C 67.0625 82.972656 33.613281 77.039062 9.589844 79.359375 C 18.671875 91.855469 33.367188 100 50 100 C 62.824219 100 74.515625 95.164062 83.359375 87.222656 Z M 83.359375 87.222656 "/>
<path style=" stroke:none;fill-rule:nonzero;fill:rgb(81.568627%,70.588235%,34.901961%);fill-opacity:1;" d="M 21.601562 91.105469 C 29.660156 96.703125 39.4375 100 50 100 C 60.894531 100 70.960938 96.5 79.167969 90.582031 C 63.332031 89.546875 37.496094 88.894531 21.601562 91.105469 Z M 21.601562 91.105469 "/>
<path style=" stroke:none;fill-rule:nonzero;fill:rgb(67.058824%,50.980392%,25.098039%);fill-opacity:1;" d="M 15.867188 62.824219 L 62.257812 62.824219 L 62.257812 64.0625 L 15.867188 64.0625 Z M 15.867188 62.824219 "/>
<path style=" stroke:none;fill-rule:nonzero;fill:rgb(81.568627%,84.313725%,35.686275%);fill-opacity:1;" d="M 37.125 83.242188 C 37.125 83.964844 36.539062 84.546875 35.820312 84.546875 C 35.101562 84.546875 34.519531 83.964844 34.519531 83.242188 C 34.519531 82.523438 35.101562 81.941406 35.820312 81.941406 C 36.539062 81.941406 37.125 82.523438 37.125 83.242188 Z M 37.125 83.242188 "/>
<path style=" stroke:none;fill-rule:nonzero;fill:rgb(84.705882%,76.470588%,29.019608%);fill-opacity:1;" d="M 42.515625 94.304688 C 42.515625 95.023438 41.933594 95.605469 41.214844 95.605469 C 40.496094 95.605469 39.910156 95.023438 39.910156 94.304688 C 39.910156 93.585938 40.496094 93 41.214844 93 C 41.933594 93 42.515625 93.585938 42.515625 94.304688 Z M 42.515625 94.304688 "/>
<path style=" stroke:none;fill-rule:nonzero;fill:rgb(84.705882%,76.470588%,29.019608%);fill-opacity:1;" d="M 59.753906 95.605469 C 59.753906 96.324219 59.171875 96.90625 58.453125 96.90625 C 57.730469 96.90625 57.148438 96.324219 57.148438 95.605469 C 57.148438 94.886719 57.730469 94.304688 58.453125 94.304688 C 59.171875 94.304688 59.753906 94.886719 59.753906 95.605469 Z M 59.753906 95.605469 "/>
<path style=" stroke:none;fill-rule:nonzero;fill:rgb(81.568627%,70.588235%,34.901961%);fill-opacity:1;" d="M 65.660156 87.148438 C 65.660156 87.871094 65.078125 88.453125 64.359375 88.453125 C 63.636719 88.453125 63.054688 87.871094 63.054688 87.148438 C 63.054688 86.429688 63.636719 85.847656 64.359375 85.847656 C 65.078125 85.847656 65.660156 86.429688 65.660156 87.148438 Z M 65.660156 87.148438 "/>
<path style=" stroke:none;fill-rule:nonzero;fill:rgb(81.568627%,84.313725%,35.686275%);fill-opacity:1;" d="M 52.824219 93.511719 C 52.824219 94.230469 52.242188 94.8125 51.519531 94.8125 C 50.800781 94.8125 50.21875 94.230469 50.21875 93.511719 C 50.21875 92.792969 50.800781 92.207031 51.519531 92.207031 C 52.242188 92.207031 52.824219 92.792969 52.824219 93.511719 Z M 52.824219 93.511719 "/>
<path style=" stroke:none;fill-rule:nonzero;fill:rgb(81.568627%,84.313725%,35.686275%);fill-opacity:1;" d="M 57.148438 85.417969 C 57.148438 86.136719 56.566406 86.71875 55.847656 86.71875 C 55.128906 86.71875 54.546875 86.136719 54.546875 85.417969 C 54.546875 84.699219 55.128906 84.113281 55.847656 84.113281 C 56.566406 84.113281 57.148438 84.699219 57.148438 85.417969 Z M 57.148438 85.417969 "/>
<path style=" stroke:none;fill-rule:nonzero;fill:rgb(81.568627%,70.588235%,34.901961%);fill-opacity:1;" d="M 47.777344 85.847656 C 47.777344 86.566406 47.195312 87.148438 46.472656 87.148438 C 45.753906 87.148438 45.171875 86.566406 45.171875 85.847656 C 45.171875 85.128906 45.753906 84.546875 46.472656 84.546875 C 47.195312 84.546875 47.777344 85.128906 47.777344 85.847656 Z M 47.777344 85.847656 "/>
<path style=" stroke:none;fill-rule:nonzero;fill:rgb(80%,88.235294%,41.960784%);fill-opacity:1;" d="M 34.246094 75.519531 C 34.246094 75.953125 33.894531 76.300781 33.464844 76.300781 C 33.03125 76.300781 32.683594 75.953125 32.683594 75.519531 C 32.683594 75.089844 33.03125 74.738281 33.464844 74.738281 C 33.894531 74.738281 34.246094 75.089844 34.246094 75.519531 Z M 34.246094 75.519531 "/>
<path style=" stroke:none;fill-rule:nonzero;fill:rgb(80%,88.235294%,41.960784%);fill-opacity:1;" d="M 58.710938 78.125 C 58.710938 78.554688 58.363281 78.90625 57.929688 78.90625 C 57.5 78.90625 57.148438 78.554688 57.148438 78.125 C 57.148438 77.695312 57.5 77.34375 57.929688 77.34375 C 58.363281 77.34375 58.710938 77.695312 58.710938 78.125 Z M 58.710938 78.125 "/>
<path style=" stroke:none;fill-rule:nonzero;fill:rgb(80%,88.235294%,41.960784%);fill-opacity:1;" d="M 75.898438 81.511719 C 75.898438 81.941406 75.550781 82.292969 75.117188 82.292969 C 74.6875 82.292969 74.335938 81.941406 74.335938 81.511719 C 74.335938 81.078125 74.6875 80.730469 75.117188 80.730469 C 75.550781 80.730469 75.898438 81.078125 75.898438 81.511719 Z M 75.898438 81.511719 "/>
<path style=" stroke:none;fill-rule:nonzero;fill:rgb(84.705882%,76.470588%,29.019608%);fill-opacity:1;" d="M 70.703125 73.957031 C 70.703125 74.390625 70.351562 74.738281 69.921875 74.738281 C 69.488281 74.738281 69.140625 74.390625 69.140625 73.957031 C 69.140625 73.527344 69.488281 73.175781 69.921875 73.175781 C 70.351562 73.175781 70.703125 73.527344 70.703125 73.957031 Z M 70.703125 73.957031 "/>
<path style=" stroke:none;fill-rule:nonzero;fill:rgb(84.705882%,76.470588%,29.019608%);fill-opacity:1;" d="M 49.613281 72.394531 C 49.613281 72.828125 49.261719 73.175781 48.832031 73.175781 C 48.398438 73.175781 48.050781 72.828125 48.050781 72.394531 C 48.050781 71.964844 48.398438 71.613281 48.832031 71.613281 C 49.261719 71.613281 49.613281 71.964844 49.613281 72.394531 Z M 49.613281 72.394531 "/>
<path style=" stroke:none;fill-rule:nonzero;fill:rgb(81.568627%,70.588235%,34.901961%);fill-opacity:1;" d="M 27.082031 85.847656 C 27.082031 86.566406 26.5 87.148438 25.78125 87.148438 C 25.0625 87.148438 24.480469 86.566406 24.480469 85.847656 C 24.480469 85.128906 25.0625 84.546875 25.78125 84.546875 C 26.5 84.546875 27.082031 85.128906 27.082031 85.847656 Z M 27.082031 85.847656 "/>
<path style=" stroke:none;fill-rule:nonzero;fill:rgb(61.568627%,78.431373%,36.078431%);fill-opacity:1;" d="M 20.363281 62.03125 C 20.054688 62.03125 19.765625 62.089844 19.484375 62.179688 C 18.597656 60.902344 17.128906 60.066406 15.457031 60.066406 C 13.789062 60.066406 12.316406 60.902344 11.429688 62.179688 C 11.152344 62.089844 10.859375 62.03125 10.550781 62.03125 C 8.921875 62.03125 7.605469 63.347656 7.605469 64.972656 L 23.308594 64.972656 C 23.308594 63.347656 21.992188 62.03125 20.363281 62.03125 Z M 20.363281 62.03125 "/>
<path style=" stroke:none;fill-rule:nonzero;fill:rgb(61.568627%,78.431373%,36.078431%);fill-opacity:1;" d="M 25.84375 64.960938 C 25.84375 63.5 27.027344 62.316406 28.488281 62.316406 C 28.710938 62.316406 28.921875 62.351562 29.125 62.402344 C 29.816406 61.65625 30.792969 61.179688 31.890625 61.179688 C 33.976562 61.179688 35.667969 62.871094 35.667969 64.960938 Z M 25.84375 64.960938 "/>
<path style=" stroke:none;fill-rule:nonzero;fill:rgb(41.176471%,74.509804%,36.470588%);fill-opacity:1;" d="M 18.476562 62.03125 C 18.167969 62.03125 17.875 62.089844 17.597656 62.179688 C 16.882812 61.152344 15.78125 60.433594 14.511719 60.183594 C 13.242188 60.433594 12.144531 61.152344 11.429688 62.179688 C 11.152344 62.089844 10.859375 62.03125 10.550781 62.03125 C 8.925781 62.03125 7.605469 63.347656 7.605469 64.972656 L 21.421875 64.972656 C 21.421875 63.347656 20.101562 62.03125 18.476562 62.03125 Z M 18.476562 62.03125 "/>
<path style=" stroke:none;fill-rule:nonzero;fill:rgb(41.176471%,74.509804%,36.470588%);fill-opacity:1;" d="M 31.226562 61.253906 C 30.402344 61.402344 29.671875 61.808594 29.125 62.402344 C 28.921875 62.351562 28.710938 62.316406 28.488281 62.316406 C 27.027344 62.316406 25.84375 63.5 25.84375 64.960938 L 34.300781 64.960938 C 34.300781 63.113281 32.976562 61.582031 31.226562 61.253906 Z M 31.226562 61.253906 "/>
<path style=" stroke:none;fill-rule:nonzero;fill:rgb(61.568627%,78.431373%,36.078431%);fill-opacity:1;" d="M 76.183594 64.960938 C 76.183594 63.265625 77.554688 61.890625 79.25 61.890625 C 79.503906 61.890625 79.75 61.933594 79.988281 61.992188 C 80.789062 61.128906 81.921875 60.578125 83.191406 60.578125 C 85.613281 60.578125 87.574219 62.539062 87.574219 64.960938 Z M 76.183594 64.960938 "/>
<path style=" stroke:none;fill-rule:nonzero;fill:rgb(80%,88.235294%,41.960784%);fill-opacity:1;" d="M 63.054688 63.398438 C 63.054688 62.339844 63.914062 61.480469 64.972656 61.480469 C 65.132812 61.480469 65.285156 61.507812 65.433594 61.542969 C 65.933594 61.003906 66.644531 60.660156 67.4375 60.660156 C 68.953125 60.660156 70.179688 61.886719 70.179688 63.398438 Z M 63.054688 63.398438 "/>
<path style=" stroke:none;fill-rule:nonzero;fill:rgb(41.176471%,74.509804%,36.470588%);fill-opacity:1;" d="M 82.425781 60.660156 C 81.46875 60.832031 80.621094 61.304688 79.988281 61.992188 C 79.75 61.933594 79.503906 61.890625 79.25 61.890625 C 77.554688 61.890625 76.183594 63.265625 76.183594 64.960938 L 85.992188 64.960938 C 85.992188 62.820312 84.457031 61.042969 82.425781 60.660156 Z M 82.425781 60.660156 "/>
</g>
</svg>
<!-- iconic normalized -->