<?xml version="1.0" encoding="UTF-8"?>
<svg xmlns="http://www.w3.org/2000/svg" xmlns:xlink="http://www.w3.org/1999/xlink" width="100px" height="100px" viewBox="0 0 100 100" version="1.1">
<g id="surface1">
<path style=" stroke:none;fill-rule:nonzero;fill:rgb(47.058824%,72.54902%,92.156863%);fill-opacity:1;" d="M 4.054688 86.488281 L 4.054688 0 L 58.109375 0 L 74.324219 16.214844 L 74.324219 86.488281 Z M 4.054688 86.488281 "/>
<path style=" stroke:none;fill-rule:nonzero;fill:rgb(35.294118%,54.509804%,69.019608%);fill-opacity:1;" d="M 74.324219 46.960938 L 4.054688 86.488281 L 74.324219 86.488281 Z M 74.324219 46.960938 "/>
<path style=" stroke:none;fill-rule:nonzero;fill:rgb(87.058824%,86.666667%,87.843137%);fill-opacity:1;" d="M 20.269531 32.433594 L 58.109375 32.433594 L 58.109375 37.835938 L 20.269531 37.835938 Z M 20.269531 32.433594 "/>
<path style=" stroke:none;fill-rule:nonzero;fill:rgb(87.058824%,86.666667%,87.843137%);fill-opacity:1;" d="M 20.269531 43.242188 L 58.109375 43.242188 L 58.109375 48.648438 L 20.269531 48.648438 Z M 20.269531 43.242188 "/>
<path style=" stroke:none;fill-rule:nonzero;fill:rgb(100%,100%,100%);fill-opacity:1;" d="M 20.269531 21.621094 L 39.1875 21.621094 L 39.1875 27.027344 L 20.269531 27.027344 Z M 20.269531 21.621094 "/>
<path style=" stroke:none;fill-rule:nonzero;fill:rgb(100%,100%,100%);fill-opacity:1;" d="M 20.269531 32.433594 L 39.1875 32.433594 L 39.1875 37.835938 L 20.269531 37.835938 Z M 20.269531 32.433594 "/>
<path style=" stroke:none;fill-rule:nonzero;fill:rgb(100%,100%,100%);fill-opacity:1;" d="M 20.269531 43.242188 L 39.1875 43.242188 L 39.1875 48.648438 L 20.269531 48.648438 Z M 20.269531 43.242188 "/>
<path style=" stroke:none;fill-rule:nonzero;fill:rgb(93.333333%,93.333333%,93.72549%);fill-opacity:1;" d="M 95.945312 78.378906 C 95.945312 90.320312 86.265625 100 74.324219 100 C 62.382812 100 52.703125 90.320312 52.703125 78.378906 C 52.703125 66.4375 62.382812 56.757812 74.324219 56.757812 C 86.265625 56.757812 95.945312 66.4375 95.945312 78.378906 Z M 95.945312 78.378906 "/>
<path style=" stroke:none;fill-rule:nonzero;fill:rgb(87.058824%,86.666667%,87.843137%);fill-opacity:1;" d="M 74.324219 56.757812 C 86.265625 56.757812 95.945312 66.4375 95.945312 78.378906 C 95.945312 90.320312 86.265625 100 74.324219 100 "/>
<path style=" stroke:none;fill-rule:nonzero;fill:rgb(11.764706%,18.039216%,23.137255%);fill-opacity:1;" d="M 58.109375 0 L 74.324219 16.214844 L 58.109375 16.214844 Z M 58.109375 0 "/>
<path style="fill:none;stroke-width:16;stroke-linecap:butt;stroke-linejoin:miter;stroke:rgb(47.058824%,72.54902%,92.156863%);stroke-opacity:1;stroke-miterlimit:10;" d="M 234.993359 320.006641 C 234.993359 297.907812 252.915234 280.000391 274.999609 280.000391 C 297.083984 280.000391 315.005859 297.907812 315.005859 320.006641 " transform="matrix(0.27027,0,0,0.27027,0,0)"/>
<path style=" stroke:none;fill-rule:nonzero;fill:rgb(35.294118%,54.509804%,69.019608%);fill-opacity:1;" d="M 60.8125 74.324219 L 87.835938 74.324219 L 87.835938 77.027344 L 60.8125 77.027344 Z M 60.8125 74.324219 "/>
<path style=" stroke:none;fill-rule:nonzero;fill:rgb(100%,31.372549%,13.72549%);fill-opacity:1;" d="M 79.730469 75.675781 C 79.730469 78.660156 77.308594 81.082031 74.324219 81.082031 C 71.339844 81.082031 68.917969 78.660156 68.917969 75.675781 C 68.917969 72.691406 71.339844 70.269531 74.324219 70.269531 C 77.308594 70.269531 79.730469 72.691406 79.730469 75.675781 Z M 79.730469 75.675781 "/>
<path style=" stroke:none;fill-rule:nonzero;fill:rgb(63.529412%,0%,11.372549%);fill-opacity:1;" d="M 74.324219 70.269531 C 77.308594 70.269531 79.730469 72.691406 79.730469 75.675781 C 79.730469 78.660156 77.308594 81.082031 74.324219 81.082031 "/>
</g>
</svg>
<!-- iconic normalized -->