<?xml version="1.0" encoding="UTF-8"?>
<svg xmlns="http://www.w3.org/2000/svg" xmlns:xlink="http://www.w3.org/1999/xlink" width="100px" height="100px" viewBox="0 0 100 100" version="1.1">
<g id="surface1">
<path style=" stroke:none;fill-rule:nonzero;fill:rgb(11.764706%,18.039216%,23.137255%);fill-opacity:1;" d="M 50 35.292969 L 44.117188 26.46875 L 2.941406 26.46875 L 2.941406 47.058594 L 50 50 L 97.058594 47.058594 L 97.058594 35.292969 Z M 50 35.292969 "/>
<path style=" stroke:none;fill-rule:nonzero;fill:rgb(67.45098%,67.058824%,69.411765%);fill-opacity:1;" d="M 14.707031 94.117188 L 14.707031 0 L 73.53125 0 L 91.175781 17.648438 L 91.175781 94.117188 Z M 14.707031 94.117188 "/>
<path style=" stroke:none;fill-rule:nonzero;fill:rgb(50.588235%,50.196078%,52.156863%);fill-opacity:1;" d="M 73.53125 0 L 91.175781 17.648438 L 73.53125 17.648438 Z M 73.53125 0 "/>
<path style=" stroke:none;fill-rule:nonzero;fill:rgb(93.333333%,93.333333%,93.72549%);fill-opacity:1;" d="M 8.824219 91.175781 L 8.824219 11.765625 L 67.648438 11.765625 L 85.292969 29.410156 L 85.292969 91.175781 Z M 8.824219 91.175781 "/>
<path style=" stroke:none;fill-rule:nonzero;fill:rgb(87.058824%,86.666667%,87.843137%);fill-opacity:1;" d="M 67.648438 11.765625 L 47.058594 11.765625 L 47.058594 91.175781 L 85.292969 91.175781 L 85.292969 29.410156 Z M 67.648438 11.765625 "/>
<path style=" stroke:none;fill-rule:nonzero;fill:rgb(35.294118%,54.509804%,69.019608%);fill-opacity:1;" d="M 26.46875 35.292969 L 67.648438 35.292969 L 67.648438 41.175781 L 26.46875 41.175781 Z M 26.46875 35.292969 "/>
<path style=" stroke:none;fill-rule:nonzero;fill:rgb(11.764706%,18.039216%,23.137255%);fill-opacity:1;" d="M 47.058594 35.292969 L 67.648438 35.292969 L 67.648438 41.175781 L 47.058594 41.175781 Z M 47.058594 35.292969 "/>
<path style=" stroke:none;fill-rule:nonzero;fill:rgb(11.764706%,18.039216%,23.137255%);fill-opacity:1;" d="M 67.648438 11.765625 L 85.292969 29.410156 L 67.648438 29.410156 Z M 67.648438 11.765625 "/>
<path style=" stroke:none;fill-rule:nonzero;fill:rgb(47.058824%,72.54902%,92.156863%);fill-opacity:1;" d="M 2.941406 47.058594 L 97.058594 47.058594 L 97.058594 100 L 2.941406 100 Z M 2.941406 47.058594 "/>
<path style=" stroke:none;fill-rule:nonzero;fill:rgb(35.294118%,54.509804%,69.019608%);fill-opacity:1;" d="M 97.058594 100 L 2.941406 100 L 97.058594 47.058594 Z M 97.058594 100 "/>
</g>
</svg>
<!-- iconic normalized -->