<?xml version="1.0" encoding="UTF-8"?>
<svg xmlns="http://www.w3.org/2000/svg" xmlns:xlink="http://www.w3.org/1999/xlink" width="100px" height="100px" viewBox="0 0 100 100" version="1.1">
<g id="surface1">
<path style=" stroke:none;fill-rule:nonzero;fill:rgb(95.294118%,43.137255%,50.588235%);fill-opacity:1;" d="M 100 50 C 100 77.613281 77.613281 100 50 100 C 22.386719 100 0 77.613281 0 50 C 0 22.386719 22.386719 0 50 0 C 77.613281 0 100 22.386719 100 50 Z M 100 50 "/>
<path style=" stroke:none;fill-rule:nonzero;fill:rgb(80.784314%,34.901961%,45.882353%);fill-opacity:1;" d="M 99.972656 51.609375 L 73.976562 25.617188 L 15.671875 73.984375 L 41.808594 99.328125 C 44.472656 99.769531 47.210938 100 50 100 C 77.074219 100 99.121094 78.480469 99.972656 51.609375 Z M 99.972656 51.609375 "/>
<path style=" stroke:none;fill-rule:nonzero;fill:rgb(36.862745%,20.392157%,36.862745%);fill-opacity:1;" d="M 81.742188 75.148438 L 18.257812 75.148438 C 16.34375 75.148438 14.789062 73.597656 14.789062 71.679688 L 14.789062 60.058594 L 85.210938 60.058594 L 85.210938 71.679688 C 85.210938 73.597656 83.65625 75.148438 81.742188 75.148438 Z M 81.742188 75.148438 "/>
<path style=" stroke:none;fill-rule:nonzero;fill:rgb(60.784314%,34.901961%,71.372549%);fill-opacity:1;" d="M 75.148438 39.941406 L 24.851562 39.941406 L 14.789062 60.058594 L 85.210938 60.058594 Z M 75.148438 39.941406 "/>
<path style=" stroke:none;fill-rule:nonzero;fill:rgb(100%,100%,100%);fill-opacity:1;" d="M 41.230469 18.890625 L 29.882812 18.890625 C 28.71875 18.890625 27.777344 17.945312 27.777344 16.785156 L 27.777344 13.214844 C 27.777344 12.054688 28.71875 11.109375 29.882812 11.109375 L 41.230469 11.109375 C 42.390625 11.109375 43.332031 12.054688 43.332031 13.214844 L 43.332031 16.785156 C 43.332031 17.945312 42.390625 18.890625 41.230469 18.890625 Z M 41.230469 18.890625 "/>
<path style=" stroke:none;fill-rule:nonzero;fill:rgb(36.862745%,20.392157%,36.862745%);fill-opacity:1;" d="M 72.054688 24.851562 L 38.332031 24.851562 L 38.332031 19.5625 L 41.230469 19.5625 C 42.761719 19.5625 44.007812 18.316406 44.007812 16.785156 L 44.007812 13.214844 C 44.007812 11.683594 42.761719 10.4375 41.230469 10.4375 L 29.882812 10.4375 C 28.351562 10.4375 27.105469 11.683594 27.105469 13.214844 L 27.105469 16.785156 C 27.105469 18.316406 28.351562 19.5625 29.882812 19.5625 L 32.777344 19.5625 L 32.777344 24.851562 L 27.945312 24.851562 C 26.234375 24.851562 24.851562 26.234375 24.851562 27.945312 L 24.851562 39.941406 L 75.148438 39.941406 L 75.148438 27.945312 C 75.148438 26.234375 73.765625 24.851562 72.054688 24.851562 Z M 28.453125 16.785156 L 28.453125 13.214844 C 28.453125 12.425781 29.09375 11.785156 29.882812 11.785156 L 41.230469 11.785156 C 42.019531 11.785156 42.660156 12.425781 42.660156 13.214844 L 42.660156 16.785156 C 42.660156 17.574219 42.019531 18.214844 41.230469 18.214844 L 29.882812 18.214844 C 29.09375 18.214844 28.453125 17.574219 28.453125 16.785156 Z M 28.453125 16.785156 "/>
<path style=" stroke:none;fill-rule:nonzero;fill:rgb(100%,100%,100%);fill-opacity:1;" d="M 44.445312 27.777344 L 72.222656 27.777344 L 72.222656 33.332031 L 44.445312 33.332031 Z M 44.445312 27.777344 "/>
</g>
</svg>
<!-- iconic normalized -->