<?xml version="1.0" encoding="UTF-8"?>
<svg xmlns="http://www.w3.org/2000/svg" xmlns:xlink="http://www.w3.org/1999/xlink" width="100px" height="100px" viewBox="0 0 100 100" version="1.1">
<defs>
<filter id="alpha" filterUnits="objectBoundingBox" x="0%" y="0%" width="100%" height="100%">
  <feColorMatrix type="matrix" in="SourceGraphic" values="0 0 0 0 1 0 0 0 0 1 0 0 0 0 1 0 0 0 1 0"/>
</filter>
<mask id="mask0">
  <g filter="url(#alpha)">
<rect x="0" y="0" width="100" height="100" style="fill:rgb(0%,0%,0%);fill-opacity:0.870588;stroke:none;"/>
  </g>
</mask>
<clipPath id="clip1">
  <rect width="100" height="100"/>
</clipPath>
<g id="surface1" clip-path="url(#clip1)">
<path style=" stroke:none;fill-rule:nonzero;fill:rgb(77.647059%,77.647059%,77.647059%);fill-opacity:1;" d="M 64.476562 44.738281 C 64.476562 43.148438 63.1875 41.859375 61.597656 41.859375 L 49.886719 41.859375 L 49.886719 62.128906 L 61.597656 62.128906 C 63.1875 62.128906 64.476562 60.835938 64.476562 59.246094 Z M 64.476562 44.738281 "/>
</g>
</defs>
<g id="surface1">
<path style=" stroke:none;fill-rule:nonzero;fill:rgb(35.686275%,34.509804%,41.176471%);fill-opacity:1;" d="M 100 50 C 100 77.613281 77.613281 100 50 100 C 22.386719 100 0 77.613281 0 50 C 0 22.386719 22.386719 0 50 0 C 77.613281 0 100 22.386719 100 50 Z M 100 50 "/>
<path style=" stroke:none;fill-rule:nonzero;fill:rgb(26.666667%,26.27451%,30.980392%);fill-opacity:1;" d="M 31.246094 16.667969 L 11.875 58.070312 L 53.671875 99.867188 C 79.570312 97.984375 100 76.378906 100 50 C 100 47.964844 99.875 45.960938 99.640625 43.992188 L 71.117188 15.207031 Z M 31.246094 16.667969 "/>
<path style=" stroke:none;fill-rule:nonzero;fill:rgb(92.54902%,65.098039%,51.764706%);fill-opacity:1;" d="M 77.585938 39.09375 C 75.726562 39.09375 74.21875 37.585938 74.21875 35.726562 C 74.21875 24.910156 65.417969 16.105469 54.597656 16.105469 L 45.402344 16.105469 C 34.582031 16.105469 25.78125 24.910156 25.78125 35.726562 C 25.78125 37.585938 24.273438 39.09375 22.414062 39.09375 C 20.554688 39.09375 19.046875 37.585938 19.046875 35.726562 C 19.046875 21.195312 30.871094 9.371094 45.402344 9.371094 L 54.597656 9.371094 C 69.128906 9.371094 80.953125 21.195312 80.953125 35.726562 C 80.953125 37.585938 79.445312 39.09375 77.585938 39.09375 Z M 77.585938 39.09375 "/>
<path style=" stroke:none;fill-rule:nonzero;fill:rgb(92.941176%,71.764706%,67.058824%);fill-opacity:1;" d="M 65.09375 79.296875 L 46.632812 79.296875 C 45.425781 79.296875 44.445312 78.316406 44.445312 77.105469 C 44.445312 75.898438 45.425781 74.917969 46.632812 74.917969 L 65.09375 74.917969 C 70.773438 74.917969 75.398438 70.296875 75.398438 64.613281 L 75.398438 58.714844 C 75.398438 57.507812 76.378906 56.527344 77.585938 56.527344 C 78.796875 56.527344 79.773438 57.507812 79.773438 58.714844 L 79.773438 64.613281 C 79.773438 72.710938 73.1875 79.296875 65.09375 79.296875 Z M 65.09375 79.296875 "/>
<path style=" stroke:none;fill-rule:nonzero;fill:rgb(95.294118%,43.137255%,50.588235%);fill-opacity:1;" d="M 40.804688 81.703125 L 45.402344 81.703125 C 47.941406 81.703125 50 79.644531 50 77.105469 C 50 74.566406 47.941406 72.507812 45.402344 72.507812 L 40.804688 72.507812 C 38.265625 72.507812 36.207031 74.566406 36.207031 77.105469 C 36.207031 79.644531 38.265625 81.703125 40.804688 81.703125 Z M 40.804688 81.703125 "/>
<path style=" stroke:none;fill-rule:nonzero;fill:rgb(100%,100%,100%);fill-opacity:1;" d="M 61.597656 41.859375 L 38.402344 41.859375 C 36.8125 41.859375 35.523438 43.148438 35.523438 44.738281 L 35.523438 59.246094 C 35.523438 60.835938 36.8125 62.128906 38.402344 62.128906 L 41.3125 62.128906 L 41.3125 67.917969 L 47.105469 62.128906 L 61.597656 62.128906 C 63.1875 62.128906 64.476562 60.835938 64.476562 59.246094 L 64.476562 44.738281 C 64.476562 43.148438 63.1875 41.859375 61.597656 41.859375 Z M 61.597656 41.859375 "/>
<path style=" stroke:none;fill-rule:nonzero;fill:rgb(95.294118%,43.137255%,50.588235%);fill-opacity:1;" d="M 24.007812 59.371094 L 15.683594 59.371094 C 12.230469 59.371094 9.429688 56.570312 9.429688 53.113281 L 9.429688 41.328125 C 9.429688 37.875 12.230469 35.074219 15.683594 35.074219 L 24.007812 35.074219 Z M 24.007812 59.371094 "/>
<path style=" stroke:none;fill-rule:nonzero;fill:rgb(95.294118%,43.137255%,50.588235%);fill-opacity:1;" d="M 75.992188 59.371094 L 84.316406 59.371094 C 87.769531 59.371094 90.574219 56.570312 90.574219 53.113281 L 90.574219 41.328125 C 90.574219 37.875 87.769531 35.074219 84.316406 35.074219 L 75.992188 35.074219 Z M 75.992188 59.371094 "/>
<path style=" stroke:none;fill-rule:nonzero;fill:rgb(77.647059%,23.529412%,13.333333%);fill-opacity:1;" d="M 24.007812 35.074219 L 31.246094 35.074219 L 31.246094 59.371094 L 24.007812 59.371094 Z M 24.007812 35.074219 "/>
<path style=" stroke:none;fill-rule:nonzero;fill:rgb(77.647059%,23.529412%,13.333333%);fill-opacity:1;" d="M 68.753906 35.074219 L 75.992188 35.074219 L 75.992188 59.371094 L 68.753906 59.371094 Z M 68.753906 35.074219 "/>
<use xlink:href="#surface1" mask="url(#mask0)"/>
</g>
</svg>
<!-- iconic normalized -->