<?xml version="1.0" encoding="UTF-8"?>
<svg xmlns="http://www.w3.org/2000/svg" xmlns:xlink="http://www.w3.org/1999/xlink" width="100px" height="100px" viewBox="0 0 100 100" version="1.1">
<g id="surface1">
<path style=" stroke:none;fill-rule:nonzero;fill:rgb(2.745098%,40.784314%,55.686275%);fill-opacity:1;" d="M 71.667969 95 C 71.667969 97.832031 69.332031 100 66.5 100 L 33.5 100 C 30.667969 100 28.332031 97.832031 28.332031 95 L 28.332031 7.167969 C 28.332031 4.332031 30.667969 1.667969 33.5 1.667969 L 66.5 1.667969 C 69.332031 1.667969 71.667969 4.332031 71.667969 7.167969 Z M 71.667969 95 "/>
<path style=" stroke:none;fill-rule:nonzero;fill:rgb(17.647059%,87.843137%,87.843137%);fill-opacity:1;" d="M 71.667969 92.832031 C 71.667969 95.667969 69.332031 98.332031 66.5 98.332031 L 33.5 98.332031 C 30.667969 98.332031 28.332031 95.667969 28.332031 92.832031 L 28.332031 5 C 28.332031 2.167969 30.667969 0 33.5 0 L 66.5 0 C 69.332031 0 71.667969 2.167969 71.667969 5 Z M 71.667969 92.832031 "/>
<path style=" stroke:none;fill-rule:nonzero;fill:rgb(12.156863%,77.254902%,78.823529%);fill-opacity:1;" d="M 33.332031 0 L 66.5 0 C 69.332031 0 71.667969 2.167969 71.667969 5 L 71.667969 92.832031 C 71.667969 95.667969 69.332031 98.332031 66.5 98.332031 L 33.332031 98.332031 "/>
<path style=" stroke:none;fill-rule:nonzero;fill:rgb(6.666667%,68.235294%,72.941176%);fill-opacity:1;" d="M 33.332031 0 L 66.5 0 C 69.332031 0 71.667969 2.167969 71.667969 5 L 71.667969 92.832031 C 71.667969 95.667969 69.332031 98.332031 66.5 98.332031 "/>
<path style=" stroke:none;fill-rule:nonzero;fill:rgb(5.490196%,58.039216%,66.666667%);fill-opacity:1;" d="M 66.5 0 C 69.332031 0 71.667969 2.167969 71.667969 5 L 71.667969 92.832031 C 71.667969 95.667969 69.332031 98.332031 66.5 98.332031 "/>
<path style=" stroke:none;fill-rule:nonzero;fill:rgb(4.313725%,64.705882%,70.980392%);fill-opacity:1;" d="M 66.667969 52.5 C 66.667969 53.832031 65.5 55 64.167969 55 L 35.832031 55 C 34.5 55 33.332031 53.832031 33.332031 52.5 L 33.332031 9.167969 C 33.332031 7.832031 34.5 6.667969 35.832031 6.667969 L 64.332031 6.667969 C 65.5 6.667969 66.667969 7.832031 66.667969 9.167969 Z M 66.667969 52.5 "/>
<path style=" stroke:none;fill-rule:nonzero;fill:rgb(75.686275%,91.764706%,91.372549%);fill-opacity:1;" d="M 35.832031 51.667969 C 34.5 51.667969 33.332031 51.332031 33.332031 50 L 33.332031 6.332031 C 33.332031 5 34.5 3.332031 35.832031 3.332031 L 64.167969 3.332031 C 65.5 3.332031 66.667969 5 66.667969 6.332031 L 66.667969 50 C 66.667969 51.332031 65.5 51.667969 64.167969 51.667969 Z M 35.832031 51.667969 "/>
<path style=" stroke:none;fill-rule:nonzero;fill:rgb(75.686275%,91.764706%,91.372549%);fill-opacity:1;" d="M 35.832031 51.667969 C 34.5 51.667969 33.332031 51.332031 33.332031 50 L 33.332031 6.332031 C 33.332031 5 34.5 3.332031 35.832031 3.332031 L 64.167969 3.332031 C 65.5 3.332031 66.667969 5 66.667969 6.332031 L 66.667969 50 C 66.667969 51.332031 65.5 51.667969 64.167969 51.667969 Z M 35.832031 51.667969 "/>
<path style=" stroke:none;fill-rule:nonzero;fill:rgb(67.843137%,86.27451%,87.843137%);fill-opacity:1;" d="M 33.5 6 C 33.5 4.667969 34.667969 3.332031 36 3.332031 L 64.332031 3.332031 C 65.5 3.332031 66.667969 5 66.667969 6.332031 L 66.667969 50 C 66.667969 51.332031 65.5 51.667969 64.167969 51.667969 "/>
<path style=" stroke:none;fill-rule:nonzero;fill:rgb(59.215686%,79.607843%,82.745098%);fill-opacity:1;" d="M 64.167969 3.332031 L 35.832031 3.332031 C 34.5 3.332031 33.332031 4.5 33.332031 5.832031 L 33.332031 9.167969 C 33.332031 7.832031 34.5 6.667969 35.832031 6.667969 L 64.167969 6.667969 C 65.5 6.667969 66.667969 7.832031 66.667969 9.167969 L 66.667969 5.667969 C 66.667969 4.332031 65.5 3.332031 64.167969 3.332031 Z M 64.167969 3.332031 "/>
<path style=" stroke:none;fill-rule:nonzero;fill:rgb(0%,13.72549%,24.705882%);fill-opacity:1;" d="M 66.332031 74.832031 C 66.332031 83.855469 59.019531 91.167969 50 91.167969 C 40.980469 91.167969 33.667969 83.855469 33.667969 74.832031 C 33.667969 65.8125 40.980469 58.5 50 58.5 C 59.019531 58.5 66.332031 65.8125 66.332031 74.832031 Z M 66.332031 74.832031 "/>
<path style=" stroke:none;fill-rule:nonzero;fill:rgb(6.666667%,68.235294%,72.941176%);fill-opacity:1;" d="M 57 74.832031 C 57 78.699219 53.867188 81.832031 50 81.832031 C 46.132812 81.832031 43 78.699219 43 74.832031 C 43 70.96875 46.132812 67.832031 50 67.832031 C 53.867188 67.832031 57 70.96875 57 74.832031 Z M 57 74.832031 "/>
<path style=" stroke:none;fill-rule:nonzero;fill:rgb(12.156863%,77.254902%,78.823529%);fill-opacity:1;" d="M 57 74.832031 C 57 78.667969 53.832031 78.667969 50 78.667969 C 46.167969 78.667969 43 78.667969 43 74.832031 C 43 71 46.167969 67.832031 50 67.832031 C 53.832031 67.832031 57 70.832031 57 74.832031 Z M 57 74.832031 "/>
<path style=" stroke:none;fill-rule:nonzero;fill:rgb(2.745098%,40.784314%,55.686275%);fill-opacity:1;" d="M 51.167969 63.667969 C 51.167969 64.3125 50.644531 64.832031 50 64.832031 C 49.355469 64.832031 48.832031 64.3125 48.832031 63.667969 C 48.832031 63.023438 49.355469 62.5 50 62.5 C 50.644531 62.5 51.167969 63.023438 51.167969 63.667969 Z M 51.167969 63.667969 "/>
<path style=" stroke:none;fill-rule:nonzero;fill:rgb(2.745098%,40.784314%,55.686275%);fill-opacity:1;" d="M 51.167969 86 C 51.167969 86.644531 50.644531 87.167969 50 87.167969 C 49.355469 87.167969 48.832031 86.644531 48.832031 86 C 48.832031 85.355469 49.355469 84.832031 50 84.832031 C 50.644531 84.832031 51.167969 85.355469 51.167969 86 Z M 51.167969 86 "/>
<path style=" stroke:none;fill-rule:nonzero;fill:rgb(2.745098%,40.784314%,55.686275%);fill-opacity:1;" d="M 62.332031 74.832031 C 62.332031 75.476562 61.8125 76 61.167969 76 C 60.523438 76 60 75.476562 60 74.832031 C 60 74.1875 60.523438 73.667969 61.167969 73.667969 C 61.8125 73.667969 62.332031 74.1875 62.332031 74.832031 Z M 62.332031 74.832031 "/>
<path style=" stroke:none;fill-rule:nonzero;fill:rgb(2.745098%,40.784314%,55.686275%);fill-opacity:1;" d="M 40 74.832031 C 40 75.476562 39.476562 76 38.832031 76 C 38.1875 76 37.667969 75.476562 37.667969 74.832031 C 37.667969 74.1875 38.1875 73.667969 38.832031 73.667969 C 39.476562 73.667969 40 74.1875 40 74.832031 Z M 40 74.832031 "/>
<path style=" stroke:none;fill-rule:nonzero;fill:rgb(48.235294%,64.705882%,66.666667%);fill-opacity:1;" d="M 61.667969 27.667969 C 61.667969 28 61.332031 28.332031 61 28.332031 L 39 28.332031 C 38.667969 28.332031 38.332031 28 38.332031 27.667969 L 38.332031 27.332031 C 38.332031 27 38.667969 26.667969 39 26.667969 L 61 26.667969 C 61.332031 26.667969 61.667969 27 61.667969 27.332031 Z M 61.667969 27.667969 "/>
<path style=" stroke:none;fill-rule:nonzero;fill:rgb(6.666667%,68.235294%,72.941176%);fill-opacity:1;" d="M 42 26.832031 C 42 27.9375 41.105469 28.832031 40 28.832031 C 38.894531 28.832031 38 27.9375 38 26.832031 C 38 25.730469 38.894531 24.832031 40 24.832031 C 41.105469 24.832031 42 25.730469 42 26.832031 Z M 42 26.832031 "/>
</g>
</svg>
<!-- iconic normalized -->