<?xml version="1.0" encoding="UTF-8"?>
<svg xmlns="http://www.w3.org/2000/svg" xmlns:xlink="http://www.w3.org/1999/xlink" width="100px" height="100px" viewBox="0 0 100 100" version="1.1">
<g id="surface1">
<path style=" stroke:none;fill-rule:nonzero;fill:rgb(0%,13.72549%,24.705882%);fill-opacity:1;" d="M 100 71.269531 C 100 72.382812 99.207031 73.175781 98.09375 73.175781 L 1.90625 73.175781 C 0.792969 73.175781 0 72.382812 0 71.269531 L 0 18.09375 C 0 16.984375 0.792969 16.191406 1.90625 16.191406 L 98.09375 16.191406 C 99.207031 16.191406 100 16.984375 100 18.09375 Z M 100 71.269531 "/>
<path style=" stroke:none;fill-rule:nonzero;fill:rgb(23.137255%,41.176471%,58.823529%);fill-opacity:1;" d="M 100 67.144531 C 100 68.253906 99.207031 69.046875 98.09375 69.046875 L 1.90625 69.046875 C 0.792969 69.046875 0 68.253906 0 67.144531 L 0 13.96875 C 0 12.855469 0.792969 12.0625 1.90625 12.0625 L 98.09375 12.0625 C 99.207031 12.0625 100 12.855469 100 13.96875 Z M 100 67.144531 "/>
<path style=" stroke:none;fill-rule:nonzero;fill:rgb(20.784314%,36.470588%,51.764706%);fill-opacity:1;" d="M 100 69.207031 C 100 70.316406 99.207031 71.109375 98.09375 71.109375 L 1.90625 71.109375 C 0.792969 71.109375 0 70.316406 0 69.207031 L 0 16.03125 C 0 14.921875 0.792969 14.128906 1.90625 14.128906 L 98.09375 14.128906 C 99.207031 14.128906 100 14.921875 100 16.03125 Z M 100 69.207031 "/>
<path style=" stroke:none;fill-rule:nonzero;fill:rgb(16.078431%,27.843137%,41.960784%);fill-opacity:1;" d="M 0 16.03125 C 0 14.921875 0.792969 14.128906 1.90625 14.128906 L 98.09375 14.128906 C 99.207031 14.128906 100 14.921875 100 16.03125 L 100 69.207031 C 100 70.316406 99.207031 71.109375 98.09375 71.109375 "/>
<path style=" stroke:none;fill-rule:nonzero;fill:rgb(32.941176%,36.862745%,36.078431%);fill-opacity:1;" d="M 25.554688 22.539062 L 91.746094 22.539062 L 91.746094 62.699219 L 25.554688 62.699219 Z M 25.554688 22.539062 "/>
<path style=" stroke:none;fill-rule:nonzero;fill:rgb(0%,13.72549%,24.705882%);fill-opacity:1;" d="M 25.554688 26.191406 L 91.746094 26.191406 L 91.746094 64.445312 L 25.554688 64.445312 Z M 25.554688 26.191406 "/>
<path style=" stroke:none;fill-rule:nonzero;fill:rgb(40.784314%,44.705882%,43.921569%);fill-opacity:1;" d="M 25.554688 26.191406 L 91.746094 26.191406 L 91.746094 62.699219 L 25.554688 62.699219 Z M 25.554688 26.191406 "/>
<path style=" stroke:none;fill-rule:nonzero;fill:rgb(74.901961%,84.705882%,82.745098%);fill-opacity:1;" d="M 29.523438 30.160156 C 29.363281 30.160156 29.046875 30 29.046875 29.683594 L 29.046875 25.554688 C 29.046875 25.398438 29.207031 25.078125 29.523438 25.078125 L 33.652344 25.078125 C 33.808594 25.078125 34.128906 25.238281 34.128906 25.554688 C 34.128906 25.714844 33.96875 26.03125 33.652344 26.03125 L 30 26.03125 L 30 29.683594 C 30 30 29.683594 30.160156 29.523438 30.160156 Z M 29.523438 30.160156 "/>
<path style=" stroke:none;fill-rule:nonzero;fill:rgb(74.901961%,84.705882%,82.745098%);fill-opacity:1;" d="M 34.128906 59.523438 C 34.128906 59.683594 33.96875 60 33.652344 60 L 29.523438 60 C 29.363281 60 29.046875 59.839844 29.046875 59.523438 L 29.046875 55.398438 C 29.046875 55.238281 29.207031 54.921875 29.523438 54.921875 C 29.683594 54.921875 30 55.078125 30 55.398438 L 30 59.046875 L 33.652344 59.046875 C 33.808594 59.207031 34.128906 59.363281 34.128906 59.523438 Z M 34.128906 59.523438 "/>
<path style=" stroke:none;fill-rule:nonzero;fill:rgb(74.901961%,84.705882%,82.745098%);fill-opacity:1;" d="M 87.617188 55.078125 C 87.777344 55.078125 88.09375 55.238281 88.09375 55.554688 L 88.09375 59.523438 C 88.09375 59.683594 87.9375 60 87.617188 60 L 83.492188 60 C 83.332031 60 83.015625 59.839844 83.015625 59.523438 C 83.015625 59.207031 83.175781 59.046875 83.492188 59.046875 L 87.144531 59.046875 L 87.144531 55.398438 C 87.300781 55.238281 87.460938 55.078125 87.617188 55.078125 Z M 87.617188 55.078125 "/>
<path style=" stroke:none;fill-rule:nonzero;fill:rgb(74.901961%,84.705882%,82.745098%);fill-opacity:1;" d="M 83.175781 25.554688 C 83.175781 25.398438 83.332031 25.078125 83.652344 25.078125 L 87.777344 25.078125 C 87.9375 25.078125 88.253906 25.238281 88.253906 25.554688 L 88.253906 29.683594 C 88.253906 29.839844 88.09375 30.160156 87.777344 30.160156 C 87.617188 30.160156 87.300781 30 87.300781 29.683594 L 87.300781 26.03125 L 83.652344 26.03125 C 83.332031 26.03125 83.175781 25.871094 83.175781 25.554688 Z M 83.175781 25.554688 "/>
<path style=" stroke:none;fill-rule:nonzero;fill:rgb(0%,13.72549%,24.705882%);fill-opacity:1;" d="M 20.160156 55.238281 C 20.160156 59.363281 16.824219 64.285156 12.699219 64.285156 C 8.570312 64.285156 5.238281 59.363281 5.238281 55.238281 C 5.238281 51.109375 8.570312 47.777344 12.699219 47.777344 C 16.824219 47.9375 20.160156 51.269531 20.160156 55.238281 Z M 20.160156 55.238281 "/>
<path style=" stroke:none;fill-rule:nonzero;fill:rgb(40.784314%,44.705882%,43.921569%);fill-opacity:1;" d="M 20.160156 55.238281 C 20.160156 59.359375 16.820312 62.699219 12.699219 62.699219 C 8.578125 62.699219 5.238281 59.359375 5.238281 55.238281 C 5.238281 51.117188 8.578125 47.777344 12.699219 47.777344 C 16.820312 47.777344 20.160156 51.117188 20.160156 55.238281 Z M 20.160156 55.238281 "/>
<path style=" stroke:none;fill-rule:nonzero;fill:rgb(57.254902%,60%,59.215686%);fill-opacity:1;" d="M 16.667969 55.238281 C 16.667969 57.429688 14.890625 59.207031 12.699219 59.207031 C 10.507812 59.207031 8.730469 57.429688 8.730469 55.238281 C 8.730469 53.046875 10.507812 51.269531 12.699219 51.269531 C 14.890625 51.269531 16.667969 53.046875 16.667969 55.238281 Z M 16.667969 55.238281 "/>
<path style=" stroke:none;fill-rule:nonzero;fill:rgb(49.803922%,52.941176%,52.156863%);fill-opacity:1;" d="M 12.699219 51.269531 C 14.921875 51.269531 16.667969 53.015625 16.667969 55.238281 C 16.667969 57.460938 14.921875 59.207031 12.699219 59.207031 "/>
<path style=" stroke:none;fill-rule:nonzero;fill:rgb(57.254902%,60%,59.215686%);fill-opacity:1;" d="M 32.222656 28.890625 L 85.078125 28.890625 L 85.078125 56.347656 L 32.222656 56.347656 Z M 32.222656 28.890625 "/>
<path style=" stroke:none;fill-rule:nonzero;fill:rgb(49.803922%,52.941176%,52.156863%);fill-opacity:1;" d="M 32.222656 28.890625 L 84.921875 28.890625 L 84.921875 56.347656 "/>
<path style=" stroke:none;fill-rule:nonzero;fill:rgb(0%,13.72549%,24.705882%);fill-opacity:1;" d="M 21.109375 41.429688 C 21.109375 44.128906 18.890625 46.347656 16.191406 46.347656 L 9.207031 46.347656 C 6.507812 46.347656 4.285156 44.128906 4.285156 41.429688 L 4.285156 28.730469 C 4.285156 26.03125 6.507812 23.808594 9.207031 23.808594 L 16.191406 23.808594 C 18.890625 23.808594 21.109375 26.03125 21.109375 28.730469 C 21.109375 28.730469 21.109375 41.429688 21.109375 41.429688 Z M 21.109375 41.429688 "/>
<path style=" stroke:none;fill-rule:nonzero;fill:rgb(49.803922%,52.941176%,52.156863%);fill-opacity:1;" d="M 21.109375 40.160156 C 21.109375 42.855469 18.890625 45.078125 16.191406 45.078125 L 9.207031 45.078125 C 6.507812 45.078125 4.285156 42.855469 4.285156 40.160156 L 4.285156 27.460938 C 4.285156 24.761719 6.507812 22.539062 9.207031 22.539062 L 16.191406 22.539062 C 18.890625 22.539062 21.109375 24.761719 21.109375 27.460938 C 21.109375 27.460938 21.109375 40.160156 21.109375 40.160156 Z M 21.109375 40.160156 "/>
<path style=" stroke:none;fill-rule:nonzero;fill:rgb(40.784314%,44.705882%,43.921569%);fill-opacity:1;" d="M 9.207031 22.539062 L 16.191406 22.539062 C 18.890625 22.539062 21.109375 24.761719 21.109375 27.460938 L 21.109375 40.160156 C 21.109375 42.855469 18.890625 45.078125 16.191406 45.078125 "/>
<path style=" stroke:none;fill-rule:nonzero;fill:rgb(74.901961%,84.705882%,82.745098%);fill-opacity:1;" d="M 19.683594 33.808594 C 19.683594 33.96875 19.523438 34.285156 19.207031 34.285156 L 6.03125 34.285156 C 5.871094 34.285156 5.554688 34.128906 5.554688 33.808594 C 5.554688 33.652344 5.714844 33.332031 6.03125 33.332031 L 19.207031 33.332031 C 19.523438 33.492188 19.683594 33.652344 19.683594 33.808594 Z M 19.683594 33.808594 "/>
<path style=" stroke:none;fill-rule:nonzero;fill:rgb(74.901961%,84.705882%,82.745098%);fill-opacity:1;" d="M 42.539062 17.460938 C 42.539062 17.8125 42.253906 18.09375 41.90625 18.09375 C 41.554688 18.09375 41.269531 17.8125 41.269531 17.460938 C 41.269531 17.109375 41.554688 16.824219 41.90625 16.824219 C 42.253906 16.824219 42.539062 17.109375 42.539062 17.460938 Z M 42.539062 17.460938 "/>
<path style=" stroke:none;fill-rule:nonzero;fill:rgb(74.901961%,84.705882%,82.745098%);fill-opacity:1;" d="M 46.667969 17.460938 C 46.667969 17.8125 46.382812 18.09375 46.03125 18.09375 C 45.679688 18.09375 45.398438 17.8125 45.398438 17.460938 C 45.398438 17.109375 45.679688 16.824219 46.03125 16.824219 C 46.382812 16.824219 46.667969 17.109375 46.667969 17.460938 Z M 46.667969 17.460938 "/>
<path style=" stroke:none;fill-rule:nonzero;fill:rgb(74.901961%,84.705882%,82.745098%);fill-opacity:1;" d="M 50.636719 17.460938 C 50.636719 17.8125 50.351562 18.09375 50 18.09375 C 49.648438 18.09375 49.363281 17.8125 49.363281 17.460938 C 49.363281 17.109375 49.648438 16.824219 50 16.824219 C 50.351562 16.824219 50.636719 17.109375 50.636719 17.460938 Z M 50.636719 17.460938 "/>
<path style=" stroke:none;fill-rule:nonzero;fill:rgb(74.901961%,84.705882%,82.745098%);fill-opacity:1;" d="M 54.601562 17.460938 C 54.601562 17.8125 54.320312 18.09375 53.96875 18.09375 C 53.617188 18.09375 53.332031 17.8125 53.332031 17.460938 C 53.332031 17.109375 53.617188 16.824219 53.96875 16.824219 C 54.320312 16.824219 54.601562 17.109375 54.601562 17.460938 Z M 54.601562 17.460938 "/>
<path style=" stroke:none;fill-rule:nonzero;fill:rgb(74.901961%,84.705882%,82.745098%);fill-opacity:1;" d="M 58.730469 17.460938 C 58.730469 17.8125 58.445312 18.09375 58.09375 18.09375 C 57.746094 18.09375 57.460938 17.8125 57.460938 17.460938 C 57.460938 17.109375 57.746094 16.824219 58.09375 16.824219 C 58.445312 16.824219 58.730469 17.109375 58.730469 17.460938 Z M 58.730469 17.460938 "/>
<path style=" stroke:none;fill-rule:nonzero;fill:rgb(16.078431%,27.843137%,41.960784%);fill-opacity:1;" d="M 3.808594 84.601562 C 3.808594 84.253906 3.242188 83.96875 2.539062 83.96875 C 1.839844 83.96875 1.269531 84.253906 1.269531 84.601562 C 1.269531 84.953125 1.839844 85.238281 2.539062 85.238281 C 3.242188 85.238281 3.808594 84.953125 3.808594 84.601562 Z M 3.808594 84.601562 "/>
<path style=" stroke:none;fill-rule:nonzero;fill:rgb(0%,13.72549%,24.705882%);fill-opacity:1;" d="M 12.699219 84.601562 C 12.699219 83.113281 10.28125 81.90625 7.300781 81.90625 C 4.320312 81.90625 1.90625 83.113281 1.90625 84.601562 C 1.90625 86.09375 4.320312 87.300781 7.300781 87.300781 C 10.28125 87.300781 12.699219 86.09375 12.699219 84.601562 Z M 12.699219 84.601562 "/>
<path style=" stroke:none;fill-rule:nonzero;fill:rgb(16.078431%,27.843137%,41.960784%);fill-opacity:1;" d="M 98.730469 84.601562 C 98.730469 86.347656 97.300781 87.9375 95.398438 87.9375 L 8.730469 87.9375 C 6.984375 87.9375 5.554688 86.507812 5.554688 84.601562 C 5.554688 82.855469 6.984375 81.269531 8.890625 81.269531 L 95.554688 81.269531 C 97.144531 81.429688 98.730469 82.855469 98.730469 84.601562 Z M 98.730469 84.601562 "/>
<path style=" stroke:none;fill-rule:nonzero;fill:rgb(0%,13.72549%,24.705882%);fill-opacity:1;" d="M 98.730469 84.601562 C 98.730469 86.347656 97.300781 87.9375 95.398438 87.9375 L 8.730469 87.9375 C 6.984375 87.9375 5.554688 86.507812 5.554688 84.601562 "/>
<path style=" stroke:none;fill-rule:nonzero;fill:rgb(89.803922%,30.588235%,57.254902%);fill-opacity:1;" d="M 50.160156 86.824219 C 50.160156 87.144531 50 87.300781 49.683594 87.300781 C 49.363281 87.300781 49.207031 87.144531 49.207031 86.824219 L 49.207031 82.539062 C 49.207031 82.222656 49.363281 82.0625 49.683594 82.0625 C 50 82.0625 50.160156 82.222656 50.160156 82.539062 Z M 50.160156 86.824219 "/>
<path style=" stroke:none;fill-rule:nonzero;fill:rgb(89.803922%,30.588235%,57.254902%);fill-opacity:1;" d="M 52.0625 86.824219 C 52.0625 87.144531 51.90625 87.300781 51.585938 87.300781 C 51.269531 87.300781 51.109375 87.144531 51.109375 86.824219 L 51.109375 82.539062 C 51.109375 82.222656 51.269531 82.0625 51.585938 82.0625 C 51.90625 82.0625 52.0625 82.222656 52.0625 82.539062 Z M 52.0625 86.824219 "/>
<path style=" stroke:none;fill-rule:nonzero;fill:rgb(89.803922%,30.588235%,57.254902%);fill-opacity:1;" d="M 54.128906 86.824219 C 54.128906 87.144531 53.96875 87.300781 53.652344 87.300781 C 53.332031 87.300781 53.175781 87.144531 53.175781 86.824219 L 53.175781 82.539062 C 53.175781 82.222656 53.332031 82.0625 53.652344 82.0625 C 53.96875 82.0625 54.128906 82.222656 54.128906 82.539062 Z M 54.128906 86.824219 "/>
<path style=" stroke:none;fill-rule:nonzero;fill:rgb(84.705882%,91.764706%,90.196078%);fill-opacity:1;" d="M 96.191406 84.601562 C 96.191406 85.21875 95.691406 85.714844 95.078125 85.714844 C 94.464844 85.714844 93.96875 85.21875 93.96875 84.601562 C 93.96875 83.988281 94.464844 83.492188 95.078125 83.492188 C 95.691406 83.492188 96.191406 83.988281 96.191406 84.601562 Z M 96.191406 84.601562 "/>
<path style=" stroke:none;fill-rule:nonzero;fill:rgb(74.901961%,84.705882%,82.745098%);fill-opacity:1;" d="M 96.191406 84.601562 C 96.191406 85.238281 95.714844 85.714844 95.078125 85.714844 C 94.445312 85.714844 93.96875 85.238281 93.96875 84.601562 "/>
</g>
</svg>
<!-- iconic normalized -->