<?xml version="1.0" encoding="UTF-8"?>
<svg xmlns="http://www.w3.org/2000/svg" xmlns:xlink="http://www.w3.org/1999/xlink" width="100px" height="100px" viewBox="0 0 100 100" version="1.1">
<g id="surface1">
<path style=" stroke:none;fill-rule:nonzero;fill:rgb(71.372549%,72.156863%,74.509804%);fill-opacity:1;" d="M 11.753906 21.214844 C 12.066406 21.476562 12.441406 21.605469 12.820312 21.605469 C 13.277344 21.605469 13.738281 21.410156 14.066406 21.03125 C 14.65625 20.359375 14.574219 19.3125 13.902344 18.722656 C 13.210938 18.132812 12.179688 18.195312 11.589844 18.886719 C 10.984375 19.574219 11.066406 20.605469 11.753906 21.214844 Z M 11.753906 21.214844 "/>
<path style=" stroke:none;fill-rule:nonzero;fill:rgb(71.372549%,72.156863%,74.509804%);fill-opacity:1;" d="M 8.050781 73.476562 C 7.296875 73.964844 7.066406 74.984375 7.554688 75.738281 C 7.867188 76.230469 8.410156 76.492188 8.933594 76.492188 C 9.246094 76.492188 9.558594 76.410156 9.835938 76.230469 C 10.589844 75.738281 10.804688 74.71875 10.328125 73.964844 C 9.820312 73.195312 8.804688 72.984375 8.050781 73.476562 Z M 8.050781 73.476562 "/>
<path style=" stroke:none;fill-rule:nonzero;fill:rgb(71.372549%,72.156863%,74.509804%);fill-opacity:1;" d="M 11.804688 78.851562 C 11.117188 79.441406 11.050781 80.476562 11.640625 81.164062 C 11.949219 81.539062 12.410156 81.71875 12.867188 81.71875 C 13.261719 81.71875 13.636719 81.589844 13.949219 81.328125 C 14.621094 80.738281 14.703125 79.6875 14.113281 79.015625 C 13.523438 78.328125 12.472656 78.261719 11.804688 78.851562 Z M 11.804688 78.851562 "/>
<path style=" stroke:none;fill-rule:nonzero;fill:rgb(71.372549%,72.156863%,74.509804%);fill-opacity:1;" d="M 18.574219 83.476562 L 18.589844 83.476562 C 17.902344 82.886719 16.867188 82.949219 16.261719 83.640625 C 15.671875 84.328125 15.753906 85.359375 16.425781 85.949219 C 16.738281 86.230469 17.132812 86.359375 17.507812 86.359375 C 17.96875 86.359375 18.425781 86.164062 18.753906 85.785156 C 19.34375 85.097656 19.261719 84.066406 18.574219 83.476562 Z M 18.574219 83.476562 "/>
<path style=" stroke:none;fill-rule:nonzero;fill:rgb(71.372549%,72.156863%,74.509804%);fill-opacity:1;" d="M 23.640625 87.261719 C 22.886719 86.769531 21.867188 87 21.378906 87.753906 C 20.886719 88.523438 21.113281 89.539062 21.867188 90.015625 C 22.148438 90.195312 22.441406 90.277344 22.753906 90.277344 C 23.292969 90.277344 23.820312 90.015625 24.128906 89.523438 C 24.621094 88.769531 24.410156 87.753906 23.640625 87.261719 Z M 23.640625 87.261719 "/>
<path style=" stroke:none;fill-rule:nonzero;fill:rgb(71.372549%,72.156863%,74.509804%);fill-opacity:1;" d="M 1.640625 51.6875 C 2.539062 51.671875 3.277344 50.949219 3.277344 50.046875 C 3.277344 49.128906 2.539062 48.410156 1.640625 48.410156 C 0.738281 48.410156 0 49.128906 0 50.046875 C 0 50.949219 0.738281 51.6875 1.640625 51.6875 Z M 1.640625 51.6875 "/>
<path style=" stroke:none;fill-rule:nonzero;fill:rgb(71.372549%,72.156863%,74.509804%);fill-opacity:1;" d="M 7.277344 68.425781 C 6.902344 67.605469 5.933594 67.246094 5.097656 67.621094 C 4.277344 68 3.917969 68.96875 4.296875 69.785156 C 4.574219 70.394531 5.164062 70.753906 5.789062 70.753906 C 6.015625 70.753906 6.246094 70.703125 6.476562 70.589844 C 7.296875 70.210938 7.65625 69.246094 7.277344 68.425781 Z M 7.277344 68.425781 "/>
<path style=" stroke:none;fill-rule:nonzero;fill:rgb(71.372549%,72.156863%,74.509804%);fill-opacity:1;" d="M 5.066406 62.507812 C 4.820312 61.640625 3.902344 61.148438 3.03125 61.410156 C 2.164062 61.65625 1.671875 62.574219 1.917969 63.441406 C 2.128906 64.148438 2.785156 64.621094 3.492188 64.621094 C 3.640625 64.621094 3.800781 64.589844 3.949219 64.539062 C 4.820312 64.292969 5.328125 63.375 5.066406 62.507812 Z M 5.066406 62.507812 "/>
<path style=" stroke:none;fill-rule:nonzero;fill:rgb(71.372549%,72.156863%,74.509804%);fill-opacity:1;" d="M 60.050781 92.476562 C 59.179688 92.722656 58.6875 93.640625 58.949219 94.507812 C 59.164062 95.210938 59.800781 95.671875 60.523438 95.671875 C 60.671875 95.671875 60.835938 95.65625 60.984375 95.605469 C 61.851562 95.359375 62.34375 94.441406 62.097656 93.574219 C 61.835938 92.703125 60.933594 92.214844 60.050781 92.476562 Z M 60.050781 92.476562 "/>
<path style=" stroke:none;fill-rule:nonzero;fill:rgb(71.372549%,72.156863%,74.509804%);fill-opacity:1;" d="M 53.886719 93.820312 C 52.984375 93.933594 52.359375 94.769531 52.492188 95.671875 C 52.621094 96.492188 53.3125 97.066406 54.113281 97.066406 C 54.195312 97.066406 54.277344 97.066406 54.359375 97.046875 C 54.34375 97.046875 54.34375 97.046875 54.34375 97.046875 C 55.246094 96.933594 55.867188 96.097656 55.738281 95.195312 C 55.605469 94.3125 54.785156 93.6875 53.886719 93.820312 Z M 53.886719 93.820312 "/>
<path style=" stroke:none;fill-rule:nonzero;fill:rgb(71.372549%,72.156863%,74.509804%);fill-opacity:1;" d="M 65.96875 90.261719 C 65.148438 90.640625 64.785156 91.605469 65.164062 92.425781 C 65.425781 93.03125 66.03125 93.378906 66.65625 93.378906 C 66.886719 93.378906 67.113281 93.328125 67.328125 93.230469 C 68.144531 92.851562 68.523438 91.886719 68.128906 91.066406 C 67.753906 90.230469 66.789062 89.882812 65.96875 90.261719 Z M 65.96875 90.261719 "/>
<path style=" stroke:none;fill-rule:nonzero;fill:rgb(71.372549%,72.156863%,74.509804%);fill-opacity:1;" d="M 1.867188 45.128906 C 1.949219 45.148438 2.015625 45.148438 2.097656 45.148438 C 2.902344 45.148438 3.605469 44.558594 3.71875 43.738281 C 3.851562 42.835938 3.214844 42.015625 2.328125 41.886719 C 1.425781 41.753906 0.589844 42.375 0.476562 43.277344 C 0.34375 44.179688 0.96875 45 1.867188 45.128906 Z M 1.867188 45.128906 "/>
<path style=" stroke:none;fill-rule:nonzero;fill:rgb(71.372549%,72.156863%,74.509804%);fill-opacity:1;" d="M 71.507812 87.210938 C 70.738281 87.703125 70.523438 88.71875 71.015625 89.492188 C 71.328125 89.96875 71.851562 90.230469 72.394531 90.230469 C 72.703125 90.230469 73 90.148438 73.277344 89.96875 C 74.050781 89.476562 74.261719 88.476562 73.769531 87.703125 C 73.277344 86.949219 72.261719 86.722656 71.507812 87.210938 Z M 71.507812 87.210938 "/>
<path style=" stroke:none;fill-rule:nonzero;fill:rgb(71.372549%,72.156863%,74.509804%);fill-opacity:1;" d="M 41.277344 93.820312 C 40.375 93.6875 39.558594 94.3125 39.425781 95.210938 C 39.308594 96.113281 39.917969 96.933594 40.820312 97.066406 C 40.902344 97.082031 40.984375 97.082031 41.066406 97.082031 C 41.851562 97.082031 42.558594 96.492188 42.671875 95.671875 C 42.800781 94.769531 42.179688 93.949219 41.277344 93.820312 Z M 41.277344 93.820312 "/>
<path style=" stroke:none;fill-rule:nonzero;fill:rgb(71.372549%,72.156863%,74.509804%);fill-opacity:1;" d="M 35.113281 92.492188 C 34.246094 92.246094 33.328125 92.738281 33.082031 93.605469 C 32.820312 94.476562 33.308594 95.394531 34.179688 95.640625 C 34.195312 95.640625 34.195312 95.640625 34.195312 95.640625 C 34.34375 95.6875 34.492188 95.703125 34.640625 95.703125 C 35.359375 95.703125 36.015625 95.246094 36.230469 94.523438 C 36.476562 93.65625 35.964844 92.738281 35.113281 92.492188 Z M 35.113281 92.492188 "/>
<path style=" stroke:none;fill-rule:nonzero;fill:rgb(71.372549%,72.156863%,74.509804%);fill-opacity:1;" d="M 47.589844 94.261719 C 46.671875 94.261719 45.953125 95 45.953125 95.902344 C 45.953125 96.804688 46.671875 97.539062 47.589844 97.539062 C 48.492188 97.539062 49.230469 96.804688 49.230469 95.902344 C 49.230469 95 48.492188 94.261719 47.589844 94.261719 Z M 47.589844 94.261719 "/>
<path style=" stroke:none;fill-rule:nonzero;fill:rgb(71.372549%,72.156863%,74.509804%);fill-opacity:1;" d="M 29.179688 90.292969 C 28.359375 89.917969 27.394531 90.277344 27.015625 91.097656 C 26.640625 91.917969 27 92.902344 27.820312 93.277344 C 28.046875 93.375 28.277344 93.425781 28.507812 93.425781 C 29.128906 93.425781 29.722656 93.066406 30 92.457031 C 30.378906 91.640625 30.015625 90.671875 29.179688 90.292969 Z M 29.179688 90.292969 "/>
<path style=" stroke:none;fill-rule:nonzero;fill:rgb(71.372549%,72.156863%,74.509804%);fill-opacity:1;" d="M 65.902344 9.703125 C 66.113281 9.804688 66.359375 9.851562 66.574219 9.851562 C 67.195312 9.851562 67.785156 9.507812 68.066406 8.902344 C 68.441406 8.082031 68.082031 7.097656 67.261719 6.71875 C 66.441406 6.359375 65.457031 6.71875 65.082031 7.539062 C 64.71875 8.359375 65.082031 9.328125 65.902344 9.703125 Z M 65.902344 9.703125 "/>
<path style=" stroke:none;fill-rule:nonzero;fill:rgb(71.372549%,72.156863%,74.509804%);fill-opacity:1;" d="M 76.558594 83.425781 C 75.871094 84.015625 75.785156 85.050781 76.394531 85.738281 C 76.722656 86.113281 77.164062 86.292969 77.621094 86.292969 C 78.015625 86.292969 78.390625 86.164062 78.703125 85.902344 C 79.394531 85.3125 79.457031 84.261719 78.867188 83.589844 C 78.261719 82.902344 77.226562 82.835938 76.558594 83.425781 Z M 76.558594 83.425781 "/>
<path style=" stroke:none;fill-rule:nonzero;fill:rgb(71.372549%,72.156863%,74.509804%);fill-opacity:1;" d="M 71.441406 12.738281 C 71.722656 12.917969 72.03125 13 72.328125 13 C 72.867188 13 73.390625 12.738281 73.703125 12.246094 C 74.195312 11.476562 73.984375 10.472656 73.214844 9.984375 C 72.460938 9.492188 71.441406 9.703125 70.953125 10.472656 C 70.457031 11.230469 70.6875 12.246094 71.441406 12.738281 Z M 71.441406 12.738281 "/>
<path style=" stroke:none;fill-rule:nonzero;fill:rgb(71.372549%,72.156863%,74.509804%);fill-opacity:1;" d="M 59.984375 7.507812 C 60.128906 7.558594 60.277344 7.574219 60.425781 7.574219 C 61.148438 7.574219 61.804688 7.113281 62.015625 6.394531 C 62.261719 5.523438 61.769531 4.605469 60.902344 4.359375 C 60.03125 4.113281 59.113281 4.605469 58.871094 5.476562 C 58.605469 6.34375 59.113281 7.261719 59.984375 7.507812 Z M 59.984375 7.507812 "/>
<path style=" stroke:none;fill-rule:nonzero;fill:rgb(71.372549%,72.156863%,74.509804%);fill-opacity:1;" d="M 53.800781 6.179688 C 53.886719 6.195312 53.96875 6.195312 54.03125 6.195312 C 54.835938 6.195312 55.539062 5.605469 55.65625 4.785156 C 55.789062 3.882812 55.164062 3.066406 54.261719 2.933594 C 53.359375 2.804688 52.539062 3.425781 52.410156 4.328125 C 52.277344 5.210938 52.902344 6.050781 53.800781 6.179688 Z M 53.800781 6.179688 "/>
<path style=" stroke:none;fill-rule:nonzero;fill:rgb(71.372549%,72.156863%,74.509804%);fill-opacity:1;" d="M 47.492188 5.738281 C 47.496094 5.738281 47.5 5.738281 47.507812 5.738281 C 48.410156 5.738281 49.148438 5 49.148438 4.097656 C 49.128906 3.195312 48.410156 2.460938 47.492188 2.460938 C 46.589844 2.460938 45.851562 3.195312 45.851562 4.097656 C 45.851562 5 46.589844 5.738281 47.492188 5.738281 Z M 47.492188 5.738281 "/>
<path style=" stroke:none;fill-rule:nonzero;fill:rgb(71.372549%,72.156863%,74.509804%);fill-opacity:1;" d="M 90.015625 37.492188 C 90.214844 38.195312 90.867188 38.671875 91.574219 38.671875 C 91.738281 38.671875 91.886719 38.640625 92.046875 38.605469 C 92.917969 38.34375 93.410156 37.425781 93.164062 36.574219 C 93.164062 36.558594 93.164062 36.558594 93.164062 36.558594 C 92.902344 35.6875 91.980469 35.195312 91.113281 35.460938 C 90.246094 35.703125 89.753906 36.621094 90.015625 37.492188 Z M 90.015625 37.492188 "/>
<path style=" stroke:none;fill-rule:nonzero;fill:rgb(71.372549%,72.156863%,74.509804%);fill-opacity:1;" d="M 3.015625 38.671875 C 3.164062 38.71875 3.328125 38.738281 3.476562 38.738281 C 4.179688 38.738281 4.835938 38.277344 5.050781 37.558594 C 5.292969 36.6875 4.804688 35.785156 3.933594 35.523438 C 3.066406 35.277344 2.148438 35.785156 1.902344 36.65625 C 1.902344 36.640625 1.902344 36.640625 1.902344 36.640625 C 1.65625 37.507812 2.148438 38.425781 3.015625 38.671875 Z M 3.015625 38.671875 "/>
<path style=" stroke:none;fill-rule:nonzero;fill:rgb(71.372549%,72.156863%,74.509804%);fill-opacity:1;" d="M 76.507812 16.523438 C 76.820312 16.785156 77.195312 16.917969 77.574219 16.917969 C 78.03125 16.917969 78.492188 16.738281 78.820312 16.359375 C 79.410156 15.671875 79.328125 14.640625 78.65625 14.050781 C 77.964844 13.460938 76.933594 13.523438 76.34375 14.214844 C 75.738281 14.902344 75.820312 15.933594 76.507812 16.523438 Z M 76.507812 16.523438 "/>
<path style=" stroke:none;fill-rule:nonzero;fill:rgb(71.372549%,72.156863%,74.509804%);fill-opacity:1;" d="M 87.800781 31.574219 C 88.082031 32.179688 88.671875 32.539062 89.292969 32.539062 C 89.507812 32.539062 89.753906 32.492188 89.96875 32.378906 C 90.785156 32 91.148438 31.03125 90.769531 30.210938 C 90.785156 30.210938 90.785156 30.210938 90.785156 30.210938 C 90.410156 29.394531 89.425781 29.03125 88.605469 29.410156 C 87.785156 29.785156 87.425781 30.753906 87.800781 31.574219 Z M 87.800781 31.574219 "/>
<path style=" stroke:none;fill-rule:nonzero;fill:rgb(71.372549%,72.156863%,74.509804%);fill-opacity:1;" d="M 8.015625 26.589844 C 8.277344 26.769531 8.589844 26.851562 8.902344 26.851562 C 9.441406 26.851562 9.96875 26.589844 10.277344 26.097656 C 10.769531 25.328125 10.539062 24.3125 9.785156 23.835938 C 9.015625 23.34375 8 23.558594 7.523438 24.328125 C 7.03125 25.082031 7.246094 26.097656 8.015625 26.589844 Z M 8.015625 26.589844 "/>
<path style=" stroke:none;fill-rule:nonzero;fill:rgb(71.372549%,72.156863%,74.509804%);fill-opacity:1;" d="M 5.082031 32.457031 C 5.292969 32.558594 5.523438 32.605469 5.753906 32.605469 C 6.375 32.605469 6.96875 32.246094 7.246094 31.640625 C 7.621094 30.820312 7.261719 29.851562 6.441406 29.476562 C 5.605469 29.097656 4.640625 29.457031 4.261719 30.277344 C 3.886719 31.097656 4.246094 32.082031 5.082031 32.457031 Z M 5.082031 32.457031 "/>
<path style=" stroke:none;fill-rule:nonzero;fill:rgb(71.372549%,72.156863%,74.509804%);fill-opacity:1;" d="M 40.96875 6.195312 C 41.050781 6.195312 41.113281 6.195312 41.195312 6.179688 C 42.097656 6.050781 42.71875 5.230469 42.589844 4.328125 C 42.457031 3.425781 41.621094 2.804688 40.738281 2.933594 C 39.835938 3.066406 39.214844 3.902344 39.34375 4.785156 C 39.457031 5.605469 40.164062 6.195312 40.96875 6.195312 Z M 40.96875 6.195312 "/>
<path style=" stroke:none;fill-rule:nonzero;fill:rgb(71.372549%,72.156863%,74.509804%);fill-opacity:1;" d="M 17.457031 16.964844 C 17.835938 16.964844 18.210938 16.835938 18.523438 16.574219 C 19.210938 15.96875 19.292969 14.933594 18.6875 14.246094 C 18.097656 13.574219 17.066406 13.492188 16.378906 14.097656 C 15.6875 14.6875 15.625 15.722656 16.210938 16.410156 C 16.539062 16.769531 17 16.964844 17.457031 16.964844 Z M 17.457031 16.964844 "/>
<path style=" stroke:none;fill-rule:nonzero;fill:rgb(71.372549%,72.156863%,74.509804%);fill-opacity:1;" d="M 34.574219 7.589844 C 34.722656 7.589844 34.867188 7.574219 35.03125 7.523438 C 35.902344 7.261719 36.394531 6.359375 36.132812 5.492188 C 35.882812 4.621094 34.96875 4.132812 34.097656 4.375 C 33.230469 4.636719 32.738281 5.539062 33 6.425781 C 33.210938 7.128906 33.851562 7.589844 34.574219 7.589844 Z M 34.574219 7.589844 "/>
<path style=" stroke:none;fill-rule:nonzero;fill:rgb(71.372549%,72.156863%,74.509804%);fill-opacity:1;" d="M 22.6875 13.03125 C 23 13.03125 23.3125 12.949219 23.574219 12.769531 C 24.34375 12.277344 24.554688 11.277344 24.066406 10.507812 C 23.574219 9.753906 22.558594 9.523438 21.804688 10.015625 C 21.03125 10.507812 20.820312 11.523438 21.3125 12.296875 C 21.621094 12.769531 22.148438 13.03125 22.6875 13.03125 Z M 22.6875 13.03125 "/>
<path style=" stroke:none;fill-rule:nonzero;fill:rgb(71.372549%,72.156863%,74.509804%);fill-opacity:1;" d="M 28.441406 9.886719 C 28.65625 9.886719 28.902344 9.835938 29.113281 9.738281 C 29.933594 9.359375 30.292969 8.394531 29.917969 7.574219 C 29.539062 6.738281 28.574219 6.375 27.753906 6.753906 C 26.917969 7.128906 26.558594 8.113281 26.933594 8.933594 C 27.210938 9.539062 27.820312 9.886719 28.441406 9.886719 Z M 28.441406 9.886719 "/>
<path style=" stroke:none;fill-rule:nonzero;fill:rgb(71.372549%,72.156863%,74.509804%);fill-opacity:1;" d="M 2.328125 58.195312 C 3.230469 58.066406 3.851562 57.246094 3.71875 56.34375 C 3.589844 55.441406 2.769531 54.820312 1.867188 54.949219 C 0.96875 55.082031 0.34375 55.917969 0.476562 56.804688 C 0.589844 57.621094 1.296875 58.210938 2.097656 58.210938 C 2.179688 58.210938 2.261719 58.210938 2.328125 58.195312 Z M 2.328125 58.195312 "/>
<path style=" stroke:none;fill-rule:nonzero;fill:rgb(71.372549%,72.156863%,74.509804%);fill-opacity:1;" d="M 93.773438 43.449219 C 93.816406 43.453125 93.855469 43.457031 93.894531 43.460938 C 93.964844 43.464844 94.03125 43.46875 94.101562 43.476562 C 94.152344 43.480469 94.203125 43.488281 94.253906 43.496094 C 94.308594 43.5 94.367188 43.507812 94.421875 43.515625 C 94.476562 43.523438 94.535156 43.535156 94.59375 43.546875 C 94.59375 43.546875 94.597656 43.546875 94.601562 43.546875 C 94.609375 43.433594 94.609375 43.316406 94.589844 43.195312 C 94.476562 42.292969 93.640625 41.671875 92.738281 41.804688 C 91.851562 41.933594 91.226562 42.769531 91.359375 43.65625 C 91.367188 43.695312 91.375 43.734375 91.382812 43.773438 C 92.03125 43.558594 92.722656 43.441406 93.441406 43.441406 C 93.554688 43.441406 93.664062 43.445312 93.773438 43.449219 Z M 93.773438 43.449219 "/>
<path style=" stroke:none;fill-rule:nonzero;fill:rgb(71.372549%,72.156863%,74.509804%);fill-opacity:1;" d="M 90 67.539062 C 89.179688 67.164062 88.210938 67.523438 87.835938 68.34375 C 87.457031 69.179688 87.820312 70.148438 88.636719 70.523438 C 88.867188 70.621094 89.097656 70.671875 89.328125 70.671875 C 89.949219 70.671875 90.539062 70.3125 90.820312 69.703125 C 91.195312 68.886719 90.820312 67.917969 90 67.539062 Z M 90 67.539062 "/>
<path style=" stroke:none;fill-rule:nonzero;fill:rgb(71.372549%,72.156863%,74.509804%);fill-opacity:1;" d="M 91.367188 56.21875 C 91.367188 56.234375 91.363281 56.246094 91.359375 56.261719 C 91.226562 57.148438 91.851562 57.984375 92.753906 58.113281 C 92.835938 58.113281 92.917969 58.132812 92.984375 58.132812 C 93.785156 58.132812 94.492188 57.539062 94.605469 56.71875 C 94.605469 56.703125 94.605469 56.703125 94.605469 56.703125 C 94.621094 56.617188 94.621094 56.535156 94.621094 56.449219 C 94.238281 56.519531 93.84375 56.558594 93.441406 56.558594 C 92.71875 56.558594 92.019531 56.4375 91.367188 56.21875 Z M 91.367188 56.21875 "/>
<path style=" stroke:none;fill-rule:nonzero;fill:rgb(71.372549%,72.156863%,74.509804%);fill-opacity:1;" d="M 87.066406 73.410156 C 86.308594 72.917969 85.296875 73.132812 84.800781 73.902344 C 84.3125 74.65625 84.539062 75.671875 85.296875 76.164062 C 85.574219 76.34375 85.882812 76.425781 86.179688 76.425781 C 86.71875 76.425781 87.246094 76.164062 87.558594 75.671875 C 88.050781 74.902344 87.835938 73.886719 87.066406 73.410156 Z M 87.066406 73.410156 "/>
<path style=" stroke:none;fill-rule:nonzero;fill:rgb(71.372549%,72.156863%,74.509804%);fill-opacity:1;" d="M 92.066406 61.3125 C 91.195312 61.066406 90.296875 61.558594 90.03125 62.425781 C 89.769531 63.292969 90.277344 64.214844 91.148438 64.457031 C 91.292969 64.507812 91.460938 64.523438 91.605469 64.523438 C 92.3125 64.523438 92.96875 64.066406 93.179688 63.34375 C 93.425781 62.476562 92.933594 61.574219 92.066406 61.3125 Z M 92.066406 61.3125 "/>
<path style=" stroke:none;fill-rule:nonzero;fill:rgb(71.372549%,72.156863%,74.509804%);fill-opacity:1;" d="M 82.210938 21.558594 C 82.589844 21.558594 82.964844 21.425781 83.277344 21.164062 C 83.964844 20.558594 84.046875 19.523438 83.441406 18.851562 C 83.441406 18.835938 83.441406 18.835938 83.441406 18.835938 C 82.851562 18.164062 81.820312 18.082031 81.132812 18.671875 C 80.460938 19.277344 80.378906 20.3125 80.964844 21 C 81.292969 21.359375 81.753906 21.558594 82.210938 21.558594 Z M 82.210938 21.558594 "/>
<path style=" stroke:none;fill-rule:nonzero;fill:rgb(71.372549%,72.156863%,74.509804%);fill-opacity:1;" d="M 83.328125 78.785156 C 82.640625 78.195312 81.605469 78.277344 81.015625 78.949219 C 80.425781 79.636719 80.507812 80.671875 81.179688 81.261719 C 81.492188 81.539062 81.867188 81.671875 82.261719 81.671875 C 82.722656 81.671875 83.179688 81.476562 83.492188 81.097656 C 84.097656 80.410156 84.015625 79.375 83.328125 78.785156 Z M 83.328125 78.785156 "/>
<path style=" stroke:none;fill-rule:nonzero;fill:rgb(71.372549%,72.156863%,74.509804%);fill-opacity:1;" d="M 86.148438 26.800781 C 86.441406 26.800781 86.753906 26.703125 87.03125 26.523438 C 87.785156 26.046875 88.015625 25.03125 87.523438 24.261719 C 87.03125 23.507812 86.015625 23.296875 85.261719 23.785156 C 84.492188 24.261719 84.277344 25.277344 84.769531 26.046875 C 85.082031 26.523438 85.605469 26.800781 86.148438 26.800781 Z M 86.148438 26.800781 "/>
<path style=" stroke:none;fill-rule:nonzero;fill:rgb(28.235294%,73.333333%,93.333333%);fill-opacity:1;" d="M 53.199219 17.699219 C 53.3125 17.71875 53.421875 17.742188 53.535156 17.761719 C 53.421875 17.742188 53.3125 17.71875 53.199219 17.699219 Z M 53.199219 17.699219 "/>
<path style=" stroke:none;fill-rule:nonzero;fill:rgb(28.235294%,73.333333%,93.333333%);fill-opacity:1;" d="M 58.359375 19.042969 C 60.980469 19.957031 63.449219 21.199219 65.722656 22.714844 C 65.71875 22.714844 65.714844 22.714844 65.714844 22.714844 C 68 24.242188 70.085938 26.046875 71.917969 28.085938 L 71.921875 28.082031 C 72.488281 28.714844 73.03125 29.371094 73.546875 30.042969 C 73.546875 30.042969 73.546875 30.046875 73.546875 30.046875 C 73.933594 30.550781 74.308594 31.066406 74.667969 31.59375 C 74.695312 31.632812 74.722656 31.675781 74.75 31.714844 C 75.082031 32.210938 75.402344 32.714844 75.707031 33.226562 C 75.753906 33.300781 75.796875 33.378906 75.84375 33.457031 C 76.074219 33.851562 76.304688 34.253906 76.519531 34.660156 L 76.519531 34.667969 C 78.359375 38.140625 79.597656 41.988281 80.085938 46.0625 C 80.007812 46.070312 79.925781 46.074219 79.851562 46.050781 L 69.320312 42.703125 L 69.8125 44.886719 C 69.917969 45.34375 70.199219 45.722656 70.605469 45.953125 C 71.015625 46.183594 71.484375 46.230469 71.925781 46.082031 L 73.144531 45.679688 C 73.308594 45.625 73.492188 45.652344 73.636719 45.757812 C 73.777344 45.859375 73.859375 46.023438 73.859375 46.199219 L 73.859375 49.171875 C 73.859375 50.382812 73.285156 51.519531 72.3125 52.242188 L 69.1875 54.757812 C 68.707031 55.144531 68 55.054688 67.628906 54.558594 L 62.566406 47.8125 C 62.035156 47.101562 61.296875 46.570312 60.453125 46.289062 L 58.46875 45.628906 L 66.738281 56.367188 C 67.484375 56.988281 68.441406 57.316406 69.449219 57.246094 L 71 57.140625 C 71.167969 57.132812 71.332031 57.195312 71.445312 57.320312 C 71.558594 57.445312 71.605469 57.617188 71.578125 57.78125 L 70.9375 61.300781 C 70.917969 61.414062 70.859375 61.519531 70.777344 61.601562 L 64.371094 67.632812 L 59.585938 79.726562 C 59.523438 79.886719 59.394531 80.003906 59.230469 80.050781 C 58.625 80.226562 58.011719 80.3125 57.402344 80.3125 C 56.292969 80.3125 55.191406 80.027344 54.195312 79.46875 C 52.664062 78.605469 51.5625 77.203125 51.09375 75.515625 C 50.726562 74.175781 50.546875 73.285156 50.546875 72.789062 L 50.546875 68.226562 L 49.808594 67.941406 C 48.105469 67.289062 46.601562 66.195312 45.457031 64.777344 L 43.765625 62.683594 L 36.503906 63.980469 C 36.191406 64.035156 35.878906 64.058594 35.566406 64.050781 C 37.664062 71.796875 42.527344 78.40625 49.03125 82.75 C 48.539062 82.773438 48.042969 82.789062 47.539062 82.789062 C 65.648438 82.789062 80.328125 68.109375 80.328125 50 C 80.328125 35.683594 71.148438 23.511719 58.359375 19.042969 Z M 58.359375 19.042969 "/>
<path style=" stroke:none;fill-rule:nonzero;fill:rgb(28.235294%,73.333333%,93.333333%);fill-opacity:1;" d="M 42.9375 42.855469 C 44.109375 42.855469 45.253906 43.195312 46.25 43.855469 L 49.054688 45.710938 C 49.617188 46.082031 50.316406 46.175781 50.953125 45.964844 L 56.003906 44.273438 L 56.847656 43.511719 C 57.351562 43.054688 57.640625 42.402344 57.636719 41.71875 C 57.636719 41.136719 57.417969 40.574219 57.039062 40.144531 L 51.703125 41.726562 C 51.519531 41.78125 51.320312 41.734375 51.179688 41.605469 L 47.597656 38.324219 C 47.359375 38.105469 47.09375 38.191406 47.019531 38.222656 C 46.945312 38.253906 46.695312 38.378906 46.683594 38.703125 L 46.988281 41.132812 C 47.019531 41.359375 46.902344 41.578125 46.703125 41.683594 C 46.5 41.789062 46.253906 41.761719 46.085938 41.609375 L 43.109375 38.972656 C 42.089844 38.433594 40.835938 38.59375 39.976562 39.386719 L 39.027344 41.777344 C 38.875 42.152344 38.625 42.476562 38.304688 42.71875 L 36.792969 43.847656 L 41.886719 42.949219 C 42.234375 42.886719 42.585938 42.855469 42.9375 42.855469 Z M 42.9375 42.855469 "/>
<path style=" stroke:none;fill-rule:nonzero;fill:rgb(28.235294%,73.333333%,93.333333%);fill-opacity:1;" d="M 49.082031 17.25 C 49.160156 17.253906 49.234375 17.257812 49.308594 17.261719 C 49.234375 17.257812 49.160156 17.253906 49.082031 17.25 Z M 49.082031 17.25 "/>
<path style=" stroke:none;fill-rule:nonzero;fill:rgb(28.235294%,73.333333%,93.333333%);fill-opacity:1;" d="M 63.277344 36.679688 C 63.5 36.679688 63.722656 36.609375 63.917969 36.46875 C 63.976562 36.425781 64.027344 36.378906 64.074219 36.328125 C 64.214844 36.175781 64.300781 35.988281 64.339844 35.792969 L 64.34375 35.792969 C 64.398438 35.503906 64.34375 35.195312 64.15625 34.941406 L 61.359375 31.105469 C 61.003906 30.617188 60.320312 30.511719 59.832031 30.867188 C 59.347656 31.222656 59.238281 31.90625 59.59375 32.394531 L 62.390625 36.230469 C 62.605469 36.523438 62.9375 36.679688 63.277344 36.679688 Z M 63.277344 36.679688 "/>
<path style=" stroke:none;fill-rule:nonzero;fill:rgb(28.235294%,73.333333%,93.333333%);fill-opacity:1;" d="M 54.644531 17.988281 C 54.855469 18.035156 55.066406 18.082031 55.273438 18.132812 C 55.066406 18.082031 54.855469 18.035156 54.644531 17.988281 Z M 54.644531 17.988281 "/>
<path style=" stroke:none;fill-rule:nonzero;fill:rgb(28.235294%,73.333333%,93.333333%);fill-opacity:1;" d="M 53.90625 17.832031 C 54.023438 17.855469 54.140625 17.878906 54.257812 17.902344 C 54.140625 17.878906 54.023438 17.855469 53.90625 17.832031 Z M 53.90625 17.832031 "/>
<path style=" stroke:none;fill-rule:nonzero;fill:rgb(28.235294%,73.333333%,93.333333%);fill-opacity:1;" d="M 48.300781 17.222656 C 48.375 17.222656 48.453125 17.226562 48.527344 17.230469 C 48.453125 17.226562 48.375 17.222656 48.300781 17.222656 Z M 48.300781 17.222656 "/>
<path style=" stroke:none;fill-rule:nonzero;fill:rgb(28.235294%,73.333333%,93.333333%);fill-opacity:1;" d="M 57.796875 18.851562 C 57.972656 18.910156 58.152344 18.96875 58.328125 19.03125 C 58.152344 18.96875 57.972656 18.910156 57.796875 18.851562 Z M 57.796875 18.851562 "/>
<path style=" stroke:none;fill-rule:nonzero;fill:rgb(28.235294%,73.333333%,93.333333%);fill-opacity:1;" d="M 50.046875 17.308594 C 50.082031 17.308594 50.121094 17.3125 50.15625 17.316406 C 50.121094 17.3125 50.082031 17.308594 50.046875 17.308594 Z M 50.046875 17.308594 "/>
<path style=" stroke:none;fill-rule:nonzero;fill:rgb(28.235294%,73.333333%,93.333333%);fill-opacity:1;" d="M 56.179688 18.367188 C 56.695312 18.507812 57.210938 18.660156 57.71875 18.824219 C 57.210938 18.660156 56.695312 18.507812 56.179688 18.367188 Z M 56.179688 18.367188 "/>
<path style=" stroke:none;fill-rule:nonzero;fill:rgb(28.235294%,73.333333%,93.333333%);fill-opacity:1;" d="M 55.535156 18.195312 C 55.679688 18.234375 55.824219 18.269531 55.96875 18.308594 C 55.824219 18.269531 55.679688 18.234375 55.535156 18.195312 Z M 55.535156 18.195312 "/>
<path style=" stroke:none;fill-rule:nonzero;fill:rgb(28.235294%,73.333333%,93.333333%);fill-opacity:1;" d="M 57.320312 37.726562 C 57.320312 37.726562 57.324219 37.722656 57.328125 37.722656 L 59.027344 36.464844 C 59.097656 36.414062 59.144531 36.34375 59.199219 36.277344 L 59.226562 36.269531 C 59.53125 35.890625 59.558594 35.34375 59.257812 34.9375 C 58.902344 34.449219 58.214844 34.347656 57.730469 34.707031 L 56.320312 35.75 L 53.644531 35.75 C 53.039062 35.75 52.550781 36.238281 52.550781 36.84375 C 52.550781 37.445312 53.039062 37.9375 53.644531 37.9375 L 56.679688 37.9375 C 56.90625 37.9375 57.132812 37.863281 57.320312 37.726562 Z M 57.320312 37.726562 "/>
<path style=" stroke:none;fill-rule:nonzero;fill:rgb(28.235294%,73.333333%,93.333333%);fill-opacity:1;" d="M 51.539062 17.457031 C 51.628906 17.46875 51.71875 17.476562 51.808594 17.488281 C 51.71875 17.476562 51.628906 17.46875 51.539062 17.457031 Z M 51.539062 17.457031 "/>
<path style=" stroke:none;fill-rule:nonzero;fill:rgb(28.235294%,73.333333%,93.333333%);fill-opacity:1;" d="M 52.488281 17.585938 C 52.574219 17.597656 52.660156 17.613281 52.746094 17.625 C 52.660156 17.613281 52.574219 17.597656 52.488281 17.585938 Z M 52.488281 17.585938 "/>
<path style=" stroke:none;fill-rule:nonzero;fill:rgb(28.235294%,73.333333%,93.333333%);fill-opacity:1;" d="M 50.785156 17.371094 C 50.875 17.382812 50.960938 17.390625 51.050781 17.398438 C 50.960938 17.390625 50.875 17.382812 50.785156 17.371094 Z M 50.785156 17.371094 "/>
<path style=" stroke:none;fill-rule:nonzero;fill:rgb(5.490196%,58.039216%,84.313725%);fill-opacity:1;" d="M 35.566406 64.050781 C 35.046875 64.042969 34.53125 63.957031 34.046875 63.789062 C 33.441406 63.582031 32.882812 63.257812 32.398438 62.832031 C 32.371094 62.808594 32.34375 62.78125 32.316406 62.757812 C 32.269531 62.714844 32.226562 62.675781 32.183594 62.632812 C 32.144531 62.59375 32.105469 62.554688 32.066406 62.515625 C 32.03125 62.476562 31.996094 62.441406 31.964844 62.402344 C 31.917969 62.347656 31.875 62.296875 31.828125 62.242188 C 31.804688 62.210938 31.777344 62.179688 31.753906 62.148438 C 31.683594 62.0625 31.617188 61.972656 31.554688 61.878906 L 30.761719 60.695312 C 29.621094 59 29.179688 56.972656 29.445312 55.011719 C 29.449219 54.996094 29.449219 54.980469 29.453125 54.964844 C 29.464844 54.871094 29.484375 54.773438 29.503906 54.679688 C 29.519531 54.59375 29.53125 54.511719 29.546875 54.425781 C 29.554688 54.386719 29.570312 54.347656 29.578125 54.304688 C 29.609375 54.167969 29.640625 54.03125 29.679688 53.898438 C 29.679688 53.898438 29.679688 53.894531 29.679688 53.894531 C 29.679688 53.890625 29.679688 53.890625 29.683594 53.886719 C 29.6875 53.867188 29.695312 53.847656 29.703125 53.824219 C 29.796875 53.496094 29.914062 53.171875 30.050781 52.855469 C 30.058594 52.835938 30.066406 52.820312 30.074219 52.804688 C 30.144531 52.652344 30.214844 52.503906 30.289062 52.355469 L 31.964844 49.125 L 31.941406 47.996094 C 31.902344 46.257812 33.011719 44.75 34.636719 44.257812 L 33.152344 43.84375 C 32.019531 43.527344 31.21875 42.527344 31.15625 41.355469 L 31.078125 39.894531 C 31 38.445312 32.070312 37.1875 33.515625 37.03125 L 34.972656 36.878906 L 34.972656 34.296875 C 34.972656 34.125 35.054688 33.960938 35.191406 33.859375 L 39.535156 30.582031 C 39.832031 30.355469 40.074219 30.082031 40.257812 29.757812 L 41.007812 28.453125 L 36.148438 29.40625 C 35.988281 29.4375 35.824219 29.394531 35.699219 29.292969 C 35.570312 29.1875 35.496094 29.035156 35.496094 28.871094 L 35.496094 27.371094 C 35.496094 25.878906 36.164062 24.484375 37.328125 23.542969 L 44.171875 18.023438 C 44.347656 17.882812 44.59375 17.863281 44.789062 17.976562 L 49.578125 20.734375 C 49.707031 20.808594 49.855469 20.828125 50 20.789062 C 50.140625 20.75 50.261719 20.65625 50.332031 20.527344 L 52.160156 17.546875 L 52.164062 17.542969 C 57.125 18.242188 61.726562 20.054688 65.714844 22.714844 C 65.714844 22.714844 65.71875 22.714844 65.722656 22.714844 C 63.449219 21.199219 60.980469 19.957031 58.359375 19.042969 C 58.347656 19.039062 58.339844 19.035156 58.328125 19.03125 C 58.152344 18.96875 57.972656 18.910156 57.796875 18.851562 C 57.769531 18.84375 57.746094 18.835938 57.71875 18.824219 C 57.210938 18.660156 56.699219 18.507812 56.179688 18.363281 C 56.109375 18.34375 56.039062 18.328125 55.96875 18.308594 C 55.824219 18.269531 55.679688 18.230469 55.535156 18.195312 C 55.449219 18.175781 55.363281 18.152344 55.273438 18.132812 C 55.066406 18.082031 54.855469 18.03125 54.644531 17.984375 C 54.515625 17.957031 54.386719 17.929688 54.257812 17.902344 C 54.140625 17.878906 54.023438 17.855469 53.90625 17.832031 C 53.78125 17.808594 53.660156 17.785156 53.535156 17.761719 C 53.421875 17.738281 53.3125 17.71875 53.199219 17.699219 C 53.046875 17.671875 52.894531 17.648438 52.746094 17.625 C 52.660156 17.609375 52.574219 17.597656 52.488281 17.582031 C 52.261719 17.550781 52.035156 17.519531 51.808594 17.488281 C 51.71875 17.476562 51.628906 17.464844 51.539062 17.457031 C 51.375 17.433594 51.214844 17.417969 51.050781 17.398438 C 50.960938 17.390625 50.875 17.378906 50.785156 17.371094 C 50.578125 17.351562 50.367188 17.332031 50.15625 17.316406 C 50.121094 17.3125 50.082031 17.308594 50.046875 17.308594 C 49.800781 17.289062 49.554688 17.273438 49.308594 17.261719 C 49.234375 17.257812 49.160156 17.253906 49.082031 17.25 C 48.898438 17.242188 48.710938 17.234375 48.527344 17.226562 C 48.453125 17.226562 48.375 17.222656 48.300781 17.222656 C 48.046875 17.21875 47.792969 17.214844 47.539062 17.214844 C 29.433594 17.214844 14.753906 31.890625 14.753906 50 C 14.753906 68.109375 29.433594 82.785156 47.539062 82.785156 C 48.042969 82.785156 48.539062 82.769531 49.035156 82.75 C 42.527344 78.40625 37.664062 71.796875 35.566406 64.050781 Z M 30.214844 29.226562 C 30.53125 28.710938 31.207031 28.550781 31.71875 28.867188 L 33.46875 29.941406 C 33.863281 30.183594 34.0625 30.652344 33.960938 31.109375 L 33.1875 34.589844 C 33.078125 35.097656 32.625 35.445312 32.125 35.445312 C 32.042969 35.445312 31.964844 35.4375 31.886719 35.417969 C 31.296875 35.285156 30.925781 34.703125 31.054688 34.113281 L 31.660156 31.394531 L 30.574219 30.730469 C 30.0625 30.414062 29.898438 29.742188 30.214844 29.226562 Z M 30.214844 29.226562 "/>
<path style=" stroke:none;fill-rule:nonzero;fill:rgb(0%,89.019608%,53.72549%);fill-opacity:1;" d="M 64.074219 36.328125 C 64.027344 36.378906 63.976562 36.425781 63.917969 36.46875 C 63.976562 36.425781 64.027344 36.378906 64.074219 36.328125 Z M 64.074219 36.328125 "/>
<path style=" stroke:none;fill-rule:nonzero;fill:rgb(0%,89.019608%,53.72549%);fill-opacity:1;" d="M 59.886719 56.617188 L 59.765625 56.796875 C 58.957031 58.011719 57.589844 58.742188 56.128906 58.742188 L 43.324219 58.742188 C 41.863281 58.742188 40.496094 59.472656 39.6875 60.691406 L 37.628906 63.777344 L 36.503906 63.976562 C 35.664062 64.128906 34.820312 64.054688 34.046875 63.789062 C 34.53125 63.957031 35.046875 64.042969 35.566406 64.050781 C 35.878906 64.058594 36.191406 64.035156 36.503906 63.976562 L 43.765625 62.679688 L 45.457031 64.777344 C 46.601562 66.191406 48.105469 67.289062 49.808594 67.941406 L 50.546875 68.226562 L 50.546875 72.789062 C 50.546875 73.285156 50.726562 74.175781 51.09375 75.515625 C 51.5625 77.203125 52.664062 78.605469 54.195312 79.464844 C 55.195312 80.027344 56.292969 80.308594 57.402344 80.308594 C 58.011719 80.308594 58.625 80.226562 59.230469 80.050781 C 59.394531 80.003906 59.527344 79.886719 59.585938 79.726562 L 64.371094 67.632812 L 70.777344 61.597656 C 70.859375 61.519531 70.917969 61.414062 70.9375 61.300781 L 71.578125 57.78125 C 71.605469 57.617188 71.558594 57.445312 71.445312 57.320312 C 71.335938 57.195312 71.167969 57.132812 71.003906 57.140625 L 69.449219 57.246094 C 68.441406 57.316406 67.484375 56.988281 66.742188 56.367188 L 62.027344 55.667969 C 61.191406 55.542969 60.355469 55.914062 59.886719 56.617188 Z M 59.886719 56.617188 "/>
<path style=" stroke:none;fill-rule:nonzero;fill:rgb(0%,89.019608%,53.72549%);fill-opacity:1;" d="M 56.679688 37.9375 C 56.910156 37.9375 57.132812 37.863281 57.320312 37.726562 C 57.132812 37.863281 56.90625 37.9375 56.679688 37.9375 Z M 56.679688 37.9375 "/>
<path style=" stroke:none;fill-rule:nonzero;fill:rgb(0%,89.019608%,53.72549%);fill-opacity:1;" d="M 75.425781 42.265625 L 76.121094 44.863281 L 69.320312 42.703125 L 79.851562 46.050781 C 79.925781 46.074219 80.007812 46.070312 80.085938 46.0625 C 79.597656 41.988281 78.359375 38.140625 76.519531 34.667969 L 75.488281 38.082031 C 75.082031 39.441406 75.058594 40.890625 75.425781 42.265625 Z M 75.425781 42.265625 "/>
<path style=" stroke:none;fill-rule:nonzero;fill:rgb(0%,89.019608%,53.72549%);fill-opacity:1;" d="M 74.667969 31.59375 C 74.695312 31.632812 74.722656 31.675781 74.75 31.714844 C 74.722656 31.675781 74.695312 31.632812 74.667969 31.59375 Z M 74.667969 31.59375 "/>
<path style=" stroke:none;fill-rule:nonzero;fill:rgb(0%,89.019608%,53.72549%);fill-opacity:1;" d="M 75.707031 33.226562 C 75.753906 33.304688 75.796875 33.378906 75.84375 33.457031 C 75.796875 33.378906 75.753906 33.304688 75.707031 33.226562 Z M 75.707031 33.226562 "/>
<path style=" stroke:none;fill-rule:nonzero;fill:rgb(0%,89.019608%,53.72549%);fill-opacity:1;" d="M 49.054688 45.710938 L 46.25 43.855469 L 49.945312 46.300781 L 56.003906 44.273438 L 50.953125 45.964844 C 50.316406 46.175781 49.617188 46.082031 49.054688 45.710938 Z M 49.054688 45.710938 "/>
<path style=" stroke:none;fill-rule:nonzero;fill:rgb(0%,89.019608%,53.72549%);fill-opacity:1;" d="M 52.160156 17.546875 C 52.179688 17.550781 52.199219 17.550781 52.21875 17.554688 C 54.003906 17.808594 55.746094 18.210938 57.429688 18.742188 C 57.550781 18.78125 57.667969 18.828125 57.792969 18.867188 C 58.480469 19.09375 59.164062 19.339844 59.832031 19.609375 C 60.054688 19.699219 60.273438 19.800781 60.492188 19.898438 C 61.050781 20.136719 61.605469 20.390625 62.148438 20.660156 C 62.398438 20.785156 62.644531 20.917969 62.890625 21.046875 C 63.394531 21.316406 63.890625 21.59375 64.378906 21.886719 C 64.625 22.035156 64.875 22.1875 65.117188 22.34375 C 65.304688 22.464844 65.488281 22.59375 65.671875 22.71875 C 52.308594 23.335938 41.03125 31.957031 36.527344 43.898438 L 36.792969 43.847656 L 38.304688 42.71875 C 38.625 42.476562 38.878906 42.152344 39.027344 41.777344 L 39.976562 39.386719 C 40.835938 38.59375 42.089844 38.433594 43.109375 38.972656 L 46.085938 41.609375 C 46.253906 41.761719 46.5 41.789062 46.703125 41.683594 C 46.902344 41.578125 47.019531 41.359375 46.992188 41.132812 L 46.683594 38.703125 C 46.695312 38.378906 46.945312 38.253906 47.019531 38.222656 C 47.09375 38.191406 47.359375 38.105469 47.597656 38.324219 L 51.179688 41.605469 C 51.320312 41.734375 51.519531 41.78125 51.707031 41.726562 L 57.039062 40.144531 L 54.097656 41.015625 L 53.820312 40.523438 C 53.34375 39.671875 53.507812 38.601562 54.222656 37.9375 L 53.644531 37.9375 C 53.039062 37.9375 52.550781 37.445312 52.550781 36.84375 C 52.550781 36.238281 53.039062 35.75 53.644531 35.75 L 56.320312 35.75 L 57.730469 34.707031 C 58.214844 34.347656 58.902344 34.453125 59.257812 34.9375 C 59.558594 35.34375 59.53125 35.890625 59.226562 36.269531 L 60.65625 35.792969 L 62.074219 35.792969 L 62.390625 36.230469 L 59.59375 32.394531 C 59.238281 31.90625 59.347656 31.222656 59.832031 30.867188 C 60.320312 30.511719 61.003906 30.617188 61.359375 31.105469 L 64.15625 34.941406 C 64.34375 35.195312 64.398438 35.503906 64.34375 35.792969 L 66.519531 35.191406 C 67.660156 34.878906 68.625 34.113281 69.195312 33.074219 L 71.917969 28.085938 C 70.085938 26.046875 68 24.242188 65.710938 22.714844 C 61.726562 20.054688 57.125 18.242188 52.160156 17.542969 Z M 52.160156 17.546875 "/>
<path style=" stroke:none;fill-rule:nonzero;fill:rgb(0%,73.333333%,73.333333%);fill-opacity:1;" d="M 30.574219 30.730469 L 31.660156 31.394531 L 31.054688 34.113281 C 30.925781 34.703125 31.296875 35.285156 31.886719 35.417969 C 31.964844 35.4375 32.042969 35.445312 32.121094 35.445312 C 32.625 35.445312 33.074219 35.097656 33.1875 34.589844 L 33.960938 31.109375 C 34.0625 30.652344 33.863281 30.183594 33.464844 29.941406 L 31.71875 28.867188 C 31.203125 28.550781 30.53125 28.710938 30.214844 29.226562 C 29.898438 29.742188 30.0625 30.414062 30.574219 30.730469 Z M 30.574219 30.730469 "/>
<path style=" stroke:none;fill-rule:nonzero;fill:rgb(0%,73.333333%,73.333333%);fill-opacity:1;" d="M 36.527344 43.898438 C 41.03125 31.957031 52.308594 23.335938 65.671875 22.71875 C 65.488281 22.59375 65.304688 22.464844 65.117188 22.34375 C 64.875 22.1875 64.625 22.035156 64.378906 21.886719 C 63.890625 21.59375 63.394531 21.316406 62.890625 21.046875 C 62.644531 20.917969 62.398438 20.785156 62.148438 20.660156 C 61.605469 20.390625 61.050781 20.136719 60.492188 19.898438 C 60.273438 19.800781 60.054688 19.703125 59.832031 19.609375 C 59.164062 19.339844 58.480469 19.09375 57.789062 18.867188 C 57.667969 18.828125 57.550781 18.78125 57.429688 18.742188 C 55.746094 18.210938 54.003906 17.808594 52.21875 17.554688 C 52.199219 17.550781 52.179688 17.550781 52.160156 17.546875 L 50.332031 20.527344 C 50.261719 20.65625 50.140625 20.75 50 20.789062 C 49.855469 20.828125 49.707031 20.8125 49.578125 20.738281 L 44.789062 17.976562 C 44.59375 17.863281 44.347656 17.882812 44.171875 18.027344 L 37.328125 23.546875 C 36.164062 24.484375 35.496094 25.878906 35.496094 27.375 L 35.496094 28.871094 C 35.496094 29.035156 35.570312 29.1875 35.695312 29.292969 C 35.824219 29.398438 35.988281 29.4375 36.148438 29.40625 L 41.007812 28.453125 L 40.257812 29.757812 C 40.074219 30.082031 39.832031 30.359375 39.535156 30.582031 L 35.191406 33.859375 C 35.050781 33.964844 34.972656 34.125 34.972656 34.296875 L 34.972656 36.878906 L 33.515625 37.035156 C 32.070312 37.1875 31 38.445312 31.078125 39.898438 L 31.15625 41.359375 C 31.21875 42.53125 32.019531 43.527344 33.152344 43.84375 L 34.636719 44.257812 Z M 36.527344 43.898438 "/>
<path style=" stroke:none;fill-rule:nonzero;fill:rgb(0%,73.333333%,73.333333%);fill-opacity:1;" d="M 29.546875 54.425781 C 29.554688 54.386719 29.570312 54.347656 29.578125 54.304688 C 29.566406 54.347656 29.554688 54.386719 29.546875 54.425781 Z M 29.546875 54.425781 "/>
<path style=" stroke:none;fill-rule:nonzero;fill:rgb(0%,73.333333%,73.333333%);fill-opacity:1;" d="M 30.050781 52.855469 C 30.058594 52.839844 30.066406 52.820312 30.074219 52.804688 C 30.066406 52.820312 30.058594 52.839844 30.050781 52.855469 Z M 30.050781 52.855469 "/>
<path style=" stroke:none;fill-rule:nonzero;fill:rgb(0%,73.333333%,73.333333%);fill-opacity:1;" d="M 29.453125 54.964844 C 29.464844 54.871094 29.484375 54.773438 29.503906 54.679688 C 29.484375 54.773438 29.464844 54.871094 29.453125 54.964844 Z M 29.453125 54.964844 "/>
<path style=" stroke:none;fill-rule:nonzero;fill:rgb(0%,73.333333%,73.333333%);fill-opacity:1;" d="M 29.980469 59.230469 C 29.789062 58.757812 29.644531 58.273438 29.542969 57.78125 C 29.527344 57.714844 29.515625 57.648438 29.503906 57.578125 C 29.445312 57.265625 29.40625 56.953125 29.386719 56.636719 C 29.375 56.441406 29.367188 56.242188 29.371094 56.046875 C 29.371094 55.820312 29.386719 55.597656 29.40625 55.371094 C 29.417969 55.253906 29.429688 55.132812 29.445312 55.011719 C 29.179688 56.972656 29.621094 59 30.761719 60.695312 C 30.65625 60.539062 30.558594 60.378906 30.464844 60.21875 C 30.28125 59.898438 30.117188 59.566406 29.980469 59.230469 Z M 29.980469 59.230469 "/>
<path style=" stroke:none;fill-rule:nonzero;fill:rgb(100%,92.941176%,72.54902%);fill-opacity:1;" d="M 66.519531 35.191406 L 64.34375 35.792969 L 64.339844 35.792969 C 64.304688 35.988281 64.214844 36.175781 64.074219 36.328125 C 64.027344 36.378906 63.976562 36.425781 63.917969 36.46875 C 63.722656 36.609375 63.5 36.679688 63.277344 36.679688 C 62.9375 36.679688 62.605469 36.523438 62.390625 36.230469 L 62.074219 35.792969 L 60.65625 35.792969 L 59.226562 36.269531 L 59.199219 36.277344 C 59.144531 36.34375 59.097656 36.414062 59.03125 36.464844 L 57.328125 37.722656 C 57.324219 37.726562 57.320312 37.726562 57.320312 37.726562 C 57.132812 37.863281 56.910156 37.9375 56.679688 37.9375 L 54.222656 37.9375 C 53.507812 38.601562 53.34375 39.671875 53.820312 40.523438 L 54.097656 41.015625 L 57.039062 40.144531 C 57.417969 40.578125 57.636719 41.136719 57.636719 41.722656 C 57.640625 42.402344 57.351562 43.054688 56.847656 43.511719 L 56.003906 44.277344 L 49.941406 46.300781 L 46.25 43.855469 C 45.253906 43.199219 44.109375 42.855469 42.9375 42.855469 C 42.585938 42.855469 42.234375 42.886719 41.886719 42.949219 L 36.792969 43.847656 L 36.527344 43.898438 L 34.636719 44.257812 L 36.535156 43.894531 C 35.175781 47.492188 34.425781 51.390625 34.425781 55.464844 C 34.425781 58.433594 34.828125 61.308594 35.570312 64.042969 C 34.398438 64.027344 33.273438 63.597656 32.398438 62.832031 C 32.882812 63.257812 33.441406 63.582031 34.046875 63.789062 C 34.820312 64.054688 35.664062 64.128906 36.503906 63.976562 L 37.628906 63.777344 L 39.6875 60.691406 C 40.496094 59.472656 41.859375 58.742188 43.324219 58.742188 L 56.128906 58.742188 C 57.589844 58.742188 58.957031 58.011719 59.765625 56.796875 L 59.886719 56.617188 C 60.355469 55.914062 61.191406 55.542969 62.027344 55.667969 L 66.738281 56.367188 L 58.46875 45.628906 L 60.453125 46.289062 C 61.296875 46.570312 62.035156 47.101562 62.566406 47.8125 L 67.628906 54.558594 C 68 55.054688 68.707031 55.144531 69.1875 54.757812 L 72.3125 52.242188 C 73.285156 51.519531 73.859375 50.382812 73.859375 49.167969 L 73.859375 46.199219 C 73.859375 46.023438 73.777344 45.859375 73.636719 45.753906 C 73.492188 45.652344 73.308594 45.625 73.144531 45.679688 L 71.925781 46.082031 C 71.484375 46.230469 71.015625 46.183594 70.605469 45.953125 C 70.199219 45.722656 69.917969 45.34375 69.8125 44.886719 L 69.320312 42.703125 L 76.121094 44.863281 L 75.425781 42.265625 C 75.058594 40.890625 75.082031 39.441406 75.488281 38.082031 L 76.519531 34.667969 L 76.519531 34.660156 C 76.304688 34.253906 76.074219 33.855469 75.84375 33.457031 C 75.796875 33.378906 75.753906 33.300781 75.707031 33.226562 C 75.402344 32.714844 75.082031 32.210938 74.75 31.714844 C 74.722656 31.675781 74.695312 31.632812 74.667969 31.59375 C 74.308594 31.066406 73.933594 30.550781 73.546875 30.046875 C 73.546875 30.046875 73.546875 30.042969 73.546875 30.042969 C 73.03125 29.371094 72.488281 28.714844 71.921875 28.082031 L 71.917969 28.085938 L 69.195312 33.074219 C 68.625 34.113281 67.660156 34.878906 66.519531 35.191406 Z M 66.519531 35.191406 "/>
<path style=" stroke:none;fill-rule:nonzero;fill:rgb(100%,92.941176%,72.54902%);fill-opacity:1;" d="M 31.964844 62.402344 C 31.996094 62.441406 32.03125 62.476562 32.066406 62.515625 C 32.03125 62.476562 31.996094 62.441406 31.964844 62.402344 Z M 31.964844 62.402344 "/>
<path style=" stroke:none;fill-rule:nonzero;fill:rgb(100%,92.941176%,72.54902%);fill-opacity:1;" d="M 31.753906 62.148438 C 31.777344 62.179688 31.804688 62.210938 31.828125 62.242188 C 31.804688 62.210938 31.777344 62.179688 31.753906 62.148438 Z M 31.753906 62.148438 "/>
<path style=" stroke:none;fill-rule:nonzero;fill:rgb(100%,92.941176%,72.54902%);fill-opacity:1;" d="M 32.183594 62.632812 C 32.226562 62.675781 32.269531 62.714844 32.3125 62.757812 C 32.269531 62.714844 32.226562 62.675781 32.183594 62.632812 Z M 32.183594 62.632812 "/>
<path style=" stroke:none;fill-rule:nonzero;fill:rgb(100%,92.941176%,72.54902%);fill-opacity:1;" d="M 29.371094 56.046875 C 29.371094 55.820312 29.386719 55.597656 29.40625 55.371094 C 29.386719 55.597656 29.371094 55.820312 29.371094 56.046875 Z M 29.371094 56.046875 "/>
<path style=" stroke:none;fill-rule:nonzero;fill:rgb(100%,92.941176%,72.54902%);fill-opacity:1;" d="M 29.703125 53.824219 C 29.695312 53.847656 29.6875 53.867188 29.679688 53.886719 C 29.679688 53.890625 29.679688 53.890625 29.679688 53.894531 C 29.679688 53.894531 29.679688 53.898438 29.679688 53.898438 C 29.683594 53.875 29.695312 53.847656 29.703125 53.824219 Z M 29.703125 53.824219 "/>
<path style=" stroke:none;fill-rule:nonzero;fill:rgb(100%,92.941176%,72.54902%);fill-opacity:1;" d="M 29.386719 56.636719 C 29.40625 56.953125 29.445312 57.265625 29.503906 57.578125 C 29.445312 57.269531 29.40625 56.953125 29.386719 56.636719 Z M 29.386719 56.636719 "/>
<path style=" stroke:none;fill-rule:nonzero;fill:rgb(100%,92.941176%,72.54902%);fill-opacity:1;" d="M 29.542969 57.78125 C 29.644531 58.273438 29.789062 58.757812 29.980469 59.230469 C 29.789062 58.757812 29.644531 58.273438 29.542969 57.78125 Z M 29.542969 57.78125 "/>
<path style=" stroke:none;fill-rule:nonzero;fill:rgb(100%,92.941176%,72.54902%);fill-opacity:1;" d="M 29.980469 59.230469 C 30.117188 59.566406 30.28125 59.898438 30.464844 60.21875 C 30.28125 59.898438 30.117188 59.566406 29.980469 59.230469 Z M 29.980469 59.230469 "/>
<path style=" stroke:none;fill-rule:nonzero;fill:rgb(100%,83.529412%,52.54902%);fill-opacity:1;" d="M 35.570312 64.042969 C 34.828125 61.308594 34.425781 58.433594 34.425781 55.464844 C 34.425781 51.390625 35.175781 47.492188 36.535156 43.894531 L 34.636719 44.257812 C 33.011719 44.75 31.902344 46.257812 31.941406 47.996094 L 31.964844 49.125 L 30.289062 52.355469 C 30.210938 52.503906 30.140625 52.652344 30.074219 52.804688 C 30.066406 52.820312 30.058594 52.839844 30.050781 52.855469 C 29.914062 53.171875 29.796875 53.496094 29.703125 53.824219 C 29.695312 53.847656 29.683594 53.875 29.679688 53.898438 C 29.640625 54.03125 29.609375 54.167969 29.578125 54.304688 C 29.570312 54.347656 29.554688 54.386719 29.546875 54.425781 C 29.53125 54.511719 29.519531 54.59375 29.503906 54.679688 C 29.484375 54.773438 29.464844 54.871094 29.453125 54.964844 C 29.449219 54.980469 29.449219 54.996094 29.445312 55.011719 C 29.429688 55.132812 29.417969 55.253906 29.40625 55.375 C 29.386719 55.597656 29.371094 55.824219 29.371094 56.046875 C 29.367188 56.242188 29.375 56.441406 29.386719 56.636719 C 29.40625 56.953125 29.445312 57.269531 29.503906 57.578125 C 29.515625 57.648438 29.527344 57.714844 29.542969 57.78125 C 29.644531 58.273438 29.789062 58.757812 29.980469 59.230469 C 30.117188 59.566406 30.28125 59.898438 30.464844 60.21875 C 30.558594 60.378906 30.65625 60.539062 30.761719 60.695312 L 31.554688 61.878906 C 31.621094 61.972656 31.683594 62.0625 31.753906 62.148438 C 31.777344 62.179688 31.804688 62.210938 31.828125 62.242188 C 31.875 62.296875 31.917969 62.351562 31.964844 62.402344 C 32 62.441406 32.03125 62.476562 32.066406 62.515625 C 32.105469 62.554688 32.144531 62.59375 32.183594 62.632812 C 32.226562 62.675781 32.269531 62.714844 32.316406 62.757812 C 32.34375 62.78125 32.371094 62.808594 32.398438 62.832031 C 33.273438 63.59375 34.398438 64.027344 35.570312 64.042969 Z M 35.570312 64.042969 "/>
<path style=" stroke:none;fill-rule:nonzero;fill:rgb(100%,92.941176%,72.54902%);fill-opacity:1;" d="M 100 50 C 100 48.015625 99.117188 46.242188 97.726562 45.039062 C 97.804688 45.105469 97.878906 45.171875 97.949219 45.242188 C 97.691406 45.210938 97.425781 45.191406 97.160156 45.191406 C 93.535156 45.191406 90.601562 48.128906 90.601562 51.75 C 90.601562 53.625 91.390625 55.3125 92.648438 56.507812 C 91.738281 56.398438 90.882812 56.101562 90.125 55.65625 C 90.515625 55.886719 90.929688 56.074219 91.367188 56.21875 C 92.019531 56.4375 92.71875 56.558594 93.441406 56.558594 C 93.84375 56.558594 94.238281 56.519531 94.621094 56.449219 C 97.679688 55.894531 100 53.21875 100 50 Z M 100 50 "/>
<path style=" stroke:none;fill-rule:nonzero;fill:rgb(100%,92.941176%,72.54902%);fill-opacity:1;" d="M 87.039062 51.414062 C 87.03125 51.367188 87.019531 51.320312 87.011719 51.277344 C 87.019531 51.320312 87.03125 51.367188 87.039062 51.414062 Z M 87.039062 51.414062 "/>
<path style=" stroke:none;fill-rule:nonzero;fill:rgb(100%,92.941176%,72.54902%);fill-opacity:1;" d="M 87.425781 52.605469 C 87.402344 52.558594 87.382812 52.511719 87.363281 52.460938 C 87.382812 52.511719 87.402344 52.558594 87.425781 52.605469 Z M 87.425781 52.605469 "/>
<path style=" stroke:none;fill-rule:nonzero;fill:rgb(100%,92.941176%,72.54902%);fill-opacity:1;" d="M 87.308594 52.316406 C 87.289062 52.269531 87.273438 52.222656 87.257812 52.175781 C 87.273438 52.222656 87.289062 52.269531 87.308594 52.316406 Z M 87.308594 52.316406 "/>
<path style=" stroke:none;fill-rule:nonzero;fill:rgb(100%,92.941176%,72.54902%);fill-opacity:1;" d="M 87.113281 51.722656 C 87.101562 51.675781 87.089844 51.628906 87.078125 51.582031 C 87.089844 51.628906 87.101562 51.675781 87.113281 51.722656 Z M 87.113281 51.722656 "/>
<path style=" stroke:none;fill-rule:nonzero;fill:rgb(100%,92.941176%,72.54902%);fill-opacity:1;" d="M 87.203125 52.023438 C 87.191406 51.976562 87.175781 51.929688 87.160156 51.882812 C 87.175781 51.929688 87.191406 51.976562 87.203125 52.023438 Z M 87.203125 52.023438 "/>
<path style=" stroke:none;fill-rule:nonzero;fill:rgb(100%,92.941176%,72.54902%);fill-opacity:1;" d="M 87.554688 52.886719 C 87.53125 52.839844 87.507812 52.789062 87.484375 52.742188 C 87.507812 52.789062 87.53125 52.839844 87.554688 52.886719 Z M 87.554688 52.886719 "/>
<path style=" stroke:none;fill-rule:nonzero;fill:rgb(100%,92.941176%,72.54902%);fill-opacity:1;" d="M 90.121094 55.652344 C 90.042969 55.609375 89.964844 55.558594 89.890625 55.511719 C 89.964844 55.558594 90.042969 55.609375 90.121094 55.652344 Z M 90.121094 55.652344 "/>
<path style=" stroke:none;fill-rule:nonzero;fill:rgb(100%,92.941176%,72.54902%);fill-opacity:1;" d="M 88.519531 54.332031 C 88.464844 54.269531 88.414062 54.207031 88.359375 54.144531 C 88.414062 54.207031 88.464844 54.269531 88.519531 54.332031 Z M 88.519531 54.332031 "/>
<path style=" stroke:none;fill-rule:nonzero;fill:rgb(100%,92.941176%,72.54902%);fill-opacity:1;" d="M 89.617188 55.324219 C 89.550781 55.277344 89.484375 55.226562 89.421875 55.175781 C 89.484375 55.226562 89.550781 55.277344 89.617188 55.324219 Z M 89.617188 55.324219 "/>
<path style=" stroke:none;fill-rule:nonzero;fill:rgb(100%,92.941176%,72.54902%);fill-opacity:1;" d="M 88.714844 54.542969 C 88.660156 54.484375 88.609375 54.429688 88.554688 54.371094 C 88.605469 54.429688 88.660156 54.484375 88.714844 54.542969 Z M 88.714844 54.542969 "/>
<path style=" stroke:none;fill-rule:nonzero;fill:rgb(100%,92.941176%,72.54902%);fill-opacity:1;" d="M 88.359375 54.140625 C 88.191406 53.933594 88.035156 53.71875 87.890625 53.492188 C 88.035156 53.71875 88.191406 53.933594 88.359375 54.140625 Z M 88.359375 54.140625 "/>
<path style=" stroke:none;fill-rule:nonzero;fill:rgb(100%,92.941176%,72.54902%);fill-opacity:1;" d="M 87.847656 53.421875 C 87.816406 53.371094 87.789062 53.320312 87.757812 53.265625 C 87.789062 53.320312 87.816406 53.371094 87.847656 53.421875 Z M 87.847656 53.421875 "/>
<path style=" stroke:none;fill-rule:nonzero;fill:rgb(100%,92.941176%,72.54902%);fill-opacity:1;" d="M 87.695312 53.160156 C 87.667969 53.109375 87.644531 53.058594 87.617188 53.011719 C 87.644531 53.058594 87.667969 53.109375 87.695312 53.160156 Z M 87.695312 53.160156 "/>
<path style=" stroke:none;fill-rule:nonzero;fill:rgb(100%,92.941176%,72.54902%);fill-opacity:1;" d="M 89.375 55.140625 C 89.3125 55.09375 89.253906 55.042969 89.191406 54.992188 C 89.253906 55.042969 89.3125 55.09375 89.375 55.140625 Z M 89.375 55.140625 "/>
<path style=" stroke:none;fill-rule:nonzero;fill:rgb(100%,92.941176%,72.54902%);fill-opacity:1;" d="M 89.863281 55.496094 C 89.792969 55.449219 89.722656 55.398438 89.652344 55.351562 C 89.722656 55.398438 89.792969 55.449219 89.863281 55.496094 Z M 89.863281 55.496094 "/>
<path style=" stroke:none;fill-rule:nonzero;fill:rgb(100%,92.941176%,72.54902%);fill-opacity:1;" d="M 95.929688 43.933594 C 96.003906 43.964844 96.078125 43.996094 96.152344 44.027344 C 96.078125 43.996094 96.003906 43.964844 95.929688 43.933594 Z M 95.929688 43.933594 "/>
<path style=" stroke:none;fill-rule:nonzero;fill:rgb(100%,92.941176%,72.54902%);fill-opacity:1;" d="M 96.75 44.339844 C 96.828125 44.382812 96.90625 44.429688 96.980469 44.480469 C 96.90625 44.433594 96.828125 44.382812 96.75 44.339844 Z M 96.75 44.339844 "/>
<path style=" stroke:none;fill-rule:nonzero;fill:rgb(100%,92.941176%,72.54902%);fill-opacity:1;" d="M 96.484375 44.191406 C 96.5625 44.230469 96.636719 44.273438 96.714844 44.316406 C 96.636719 44.273438 96.5625 44.230469 96.484375 44.191406 Z M 96.484375 44.191406 "/>
<path style=" stroke:none;fill-rule:nonzero;fill:rgb(100%,92.941176%,72.54902%);fill-opacity:1;" d="M 86.980469 51.097656 C 86.972656 51.054688 86.964844 51.007812 86.957031 50.964844 C 86.964844 51.007812 86.972656 51.054688 86.980469 51.097656 Z M 86.980469 51.097656 "/>
<path style=" stroke:none;fill-rule:nonzero;fill:rgb(100%,92.941176%,72.54902%);fill-opacity:1;" d="M 88.925781 54.75 C 88.867188 54.695312 88.8125 54.644531 88.757812 54.589844 C 88.8125 54.644531 88.867188 54.695312 88.925781 54.75 Z M 88.925781 54.75 "/>
<path style=" stroke:none;fill-rule:nonzero;fill:rgb(100%,92.941176%,72.54902%);fill-opacity:1;" d="M 97.007812 44.496094 C 97.085938 44.546875 97.164062 44.601562 97.238281 44.65625 C 97.164062 44.601562 97.085938 44.546875 97.007812 44.496094 Z M 97.007812 44.496094 "/>
<path style=" stroke:none;fill-rule:nonzero;fill:rgb(100%,92.941176%,72.54902%);fill-opacity:1;" d="M 97.253906 44.667969 C 97.332031 44.722656 97.410156 44.78125 97.488281 44.839844 C 97.410156 44.78125 97.332031 44.722656 97.253906 44.667969 Z M 97.253906 44.667969 "/>
<path style=" stroke:none;fill-rule:nonzero;fill:rgb(100%,92.941176%,72.54902%);fill-opacity:1;" d="M 89.144531 54.949219 C 89.085938 54.898438 89.027344 54.847656 88.972656 54.796875 C 89.027344 54.847656 89.085938 54.898438 89.144531 54.949219 Z M 89.144531 54.949219 "/>
<path style=" stroke:none;fill-rule:nonzero;fill:rgb(100%,92.941176%,72.54902%);fill-opacity:1;" d="M 97.496094 44.847656 C 97.574219 44.90625 97.648438 44.972656 97.722656 45.035156 C 97.648438 44.972656 97.574219 44.90625 97.496094 44.847656 Z M 97.496094 44.847656 "/>
<path style=" stroke:none;fill-rule:nonzero;fill:rgb(100%,92.941176%,72.54902%);fill-opacity:1;" d="M 96.210938 44.054688 C 96.289062 44.089844 96.363281 44.128906 96.4375 44.167969 C 96.363281 44.128906 96.289062 44.089844 96.210938 44.054688 Z M 96.210938 44.054688 "/>
<path style=" stroke:none;fill-rule:nonzero;fill:rgb(100%,92.941176%,72.54902%);fill-opacity:1;" d="M 86.902344 50.433594 C 86.898438 50.398438 86.894531 50.363281 86.894531 50.324219 C 86.894531 50.363281 86.898438 50.398438 86.902344 50.433594 Z M 86.902344 50.433594 "/>
<path style=" stroke:none;fill-rule:nonzero;fill:rgb(100%,92.941176%,72.54902%);fill-opacity:1;" d="M 86.933594 50.773438 C 86.925781 50.730469 86.921875 50.691406 86.917969 50.648438 C 86.921875 50.691406 86.925781 50.730469 86.933594 50.773438 Z M 86.933594 50.773438 "/>
<path style=" stroke:none;fill-rule:nonzero;fill:rgb(100%,92.941176%,72.54902%);fill-opacity:1;" d="M 95.640625 43.820312 C 95.714844 43.847656 95.785156 43.875 95.855469 43.902344 C 95.785156 43.875 95.714844 43.847656 95.640625 43.820312 Z M 95.640625 43.820312 "/>
<path style=" stroke:none;fill-rule:nonzero;fill:rgb(100%,92.941176%,72.54902%);fill-opacity:1;" d="M 94.734375 43.570312 C 94.796875 43.582031 94.859375 43.597656 94.917969 43.613281 C 94.859375 43.597656 94.796875 43.582031 94.734375 43.570312 Z M 94.734375 43.570312 "/>
<path style=" stroke:none;fill-rule:nonzero;fill:rgb(100%,92.941176%,72.54902%);fill-opacity:1;" d="M 95.042969 43.640625 C 95.109375 43.65625 95.175781 43.675781 95.242188 43.695312 C 95.175781 43.675781 95.109375 43.65625 95.042969 43.640625 Z M 95.042969 43.640625 "/>
<path style=" stroke:none;fill-rule:nonzero;fill:rgb(100%,92.941176%,72.54902%);fill-opacity:1;" d="M 95.347656 43.722656 C 95.414062 43.746094 95.484375 43.769531 95.550781 43.792969 C 95.484375 43.769531 95.414062 43.746094 95.347656 43.722656 Z M 95.347656 43.722656 "/>
<path style=" stroke:none;fill-rule:nonzero;fill:rgb(100%,92.941176%,72.54902%);fill-opacity:1;" d="M 94.59375 43.546875 C 94.535156 43.535156 94.476562 43.523438 94.421875 43.515625 C 94.476562 43.523438 94.535156 43.535156 94.59375 43.546875 Z M 94.59375 43.546875 "/>
<path style=" stroke:none;fill-rule:nonzero;fill:rgb(100%,92.941176%,72.54902%);fill-opacity:1;" d="M 94.253906 43.496094 C 94.203125 43.488281 94.152344 43.480469 94.101562 43.476562 C 94.152344 43.480469 94.203125 43.488281 94.253906 43.496094 Z M 94.253906 43.496094 "/>
<path style=" stroke:none;fill-rule:nonzero;fill:rgb(100%,92.941176%,72.54902%);fill-opacity:1;" d="M 93.894531 43.460938 C 93.855469 43.457031 93.816406 43.453125 93.773438 43.449219 C 93.816406 43.453125 93.855469 43.457031 93.894531 43.460938 Z M 93.894531 43.460938 "/>
<path style=" stroke:none;fill-rule:nonzero;fill:rgb(100%,83.529412%,52.54902%);fill-opacity:1;" d="M 92.648438 56.507812 C 91.390625 55.3125 90.601562 53.625 90.601562 51.75 C 90.601562 48.128906 93.535156 45.191406 97.160156 45.191406 C 97.425781 45.191406 97.691406 45.210938 97.949219 45.242188 C 97.878906 45.171875 97.804688 45.105469 97.726562 45.039062 C 97.726562 45.039062 97.726562 45.035156 97.722656 45.035156 C 97.648438 44.972656 97.574219 44.90625 97.496094 44.847656 C 97.492188 44.84375 97.488281 44.84375 97.488281 44.839844 C 97.410156 44.78125 97.332031 44.722656 97.253906 44.667969 C 97.25 44.664062 97.246094 44.660156 97.238281 44.65625 C 97.164062 44.601562 97.085938 44.546875 97.007812 44.496094 C 97 44.492188 96.988281 44.484375 96.980469 44.480469 C 96.90625 44.429688 96.828125 44.382812 96.75 44.339844 C 96.738281 44.332031 96.726562 44.324219 96.714844 44.316406 C 96.636719 44.273438 96.5625 44.230469 96.484375 44.191406 C 96.46875 44.183594 96.453125 44.175781 96.4375 44.167969 C 96.363281 44.128906 96.285156 44.089844 96.210938 44.054688 C 96.191406 44.046875 96.171875 44.035156 96.148438 44.027344 C 96.078125 43.996094 96.003906 43.960938 95.929688 43.933594 C 95.90625 43.921875 95.878906 43.914062 95.855469 43.902344 C 95.785156 43.875 95.714844 43.847656 95.640625 43.820312 C 95.613281 43.8125 95.582031 43.800781 95.550781 43.792969 C 95.484375 43.769531 95.414062 43.746094 95.347656 43.722656 C 95.3125 43.714844 95.277344 43.703125 95.242188 43.695312 C 95.175781 43.675781 95.109375 43.65625 95.042969 43.640625 C 95.003906 43.628906 94.960938 43.621094 94.917969 43.613281 C 94.859375 43.597656 94.796875 43.582031 94.734375 43.570312 C 94.691406 43.5625 94.648438 43.554688 94.601562 43.546875 C 94.597656 43.546875 94.59375 43.546875 94.59375 43.546875 C 94.535156 43.535156 94.476562 43.523438 94.421875 43.515625 C 94.367188 43.507812 94.308594 43.5 94.253906 43.496094 C 94.203125 43.488281 94.152344 43.480469 94.101562 43.476562 C 94.03125 43.46875 93.964844 43.464844 93.894531 43.460938 C 93.855469 43.457031 93.816406 43.453125 93.773438 43.449219 C 93.664062 43.445312 93.554688 43.441406 93.441406 43.441406 C 92.722656 43.441406 92.03125 43.558594 91.382812 43.773438 C 88.769531 44.640625 86.886719 47.097656 86.886719 50 C 86.886719 50.109375 86.886719 50.21875 86.894531 50.324219 C 86.894531 50.363281 86.898438 50.398438 86.902344 50.433594 C 86.90625 50.503906 86.910156 50.574219 86.917969 50.648438 C 86.921875 50.6875 86.925781 50.730469 86.933594 50.773438 C 86.941406 50.835938 86.945312 50.902344 86.957031 50.964844 C 86.964844 51.007812 86.972656 51.054688 86.976562 51.097656 C 86.988281 51.15625 87 51.214844 87.011719 51.273438 C 87.019531 51.320312 87.03125 51.367188 87.039062 51.414062 C 87.050781 51.46875 87.066406 51.527344 87.078125 51.582031 C 87.089844 51.628906 87.101562 51.675781 87.113281 51.722656 C 87.128906 51.773438 87.144531 51.828125 87.160156 51.882812 C 87.175781 51.929688 87.191406 51.976562 87.203125 52.023438 C 87.222656 52.074219 87.238281 52.125 87.257812 52.175781 C 87.273438 52.222656 87.289062 52.269531 87.308594 52.316406 C 87.328125 52.367188 87.34375 52.414062 87.363281 52.460938 C 87.382812 52.507812 87.402344 52.558594 87.425781 52.605469 C 87.445312 52.652344 87.464844 52.695312 87.484375 52.742188 C 87.507812 52.789062 87.53125 52.835938 87.554688 52.886719 C 87.574219 52.925781 87.597656 52.96875 87.617188 53.011719 C 87.644531 53.058594 87.667969 53.109375 87.695312 53.15625 C 87.714844 53.195312 87.738281 53.230469 87.757812 53.265625 C 87.789062 53.316406 87.816406 53.371094 87.847656 53.421875 C 87.863281 53.445312 87.878906 53.46875 87.890625 53.488281 C 88.035156 53.714844 88.191406 53.933594 88.359375 54.140625 C 88.359375 54.140625 88.359375 54.140625 88.359375 54.144531 C 88.414062 54.207031 88.464844 54.269531 88.519531 54.332031 C 88.53125 54.34375 88.542969 54.355469 88.554688 54.371094 C 88.605469 54.429688 88.660156 54.484375 88.714844 54.542969 C 88.730469 54.554688 88.746094 54.574219 88.757812 54.585938 C 88.8125 54.644531 88.867188 54.695312 88.925781 54.75 C 88.941406 54.765625 88.957031 54.78125 88.972656 54.792969 C 89.027344 54.847656 89.085938 54.898438 89.144531 54.949219 C 89.160156 54.964844 89.175781 54.976562 89.191406 54.992188 C 89.253906 55.042969 89.3125 55.09375 89.375 55.140625 C 89.390625 55.152344 89.40625 55.164062 89.421875 55.175781 C 89.484375 55.226562 89.550781 55.277344 89.617188 55.324219 C 89.628906 55.332031 89.640625 55.339844 89.652344 55.351562 C 89.722656 55.398438 89.792969 55.449219 89.863281 55.492188 C 89.875 55.5 89.882812 55.503906 89.890625 55.511719 C 89.964844 55.558594 90.042969 55.609375 90.121094 55.652344 C 90.125 55.65625 90.125 55.65625 90.125 55.65625 C 90.882812 56.101562 91.738281 56.398438 92.648438 56.507812 Z M 92.648438 56.507812 "/>
</g>
</svg>
<!-- iconic normalized -->