<?xml version="1.0" encoding="UTF-8"?>
<svg xmlns="http://www.w3.org/2000/svg" xmlns:xlink="http://www.w3.org/1999/xlink" width="100px" height="100px" viewBox="0 0 100 100" version="1.1">
<g id="surface1">
<path style=" stroke:none;fill-rule:nonzero;fill:rgb(71.372549%,72.156863%,74.509804%);fill-opacity:1;" d="M 27.683594 80.070312 L 33.839844 80.949219 C 34.957031 79.25 36.878906 78.125 39.0625 78.125 L 39.0625 23.4375 C 39.0625 22.808594 39.074219 22.183594 39.09375 21.570312 C 39.078125 21.648438 39.066406 21.730469 39.0625 21.8125 C 38.492188 35.949219 31.332031 48.074219 25 58.777344 L 25 76.976562 C 25 78.53125 26.144531 79.851562 27.683594 80.070312 Z M 27.683594 80.070312 "/>
<path style=" stroke:none;fill-rule:nonzero;fill:rgb(71.372549%,72.156863%,74.509804%);fill-opacity:1;" d="M 15.625 87.5 C 15.625 87.941406 15.808594 88.34375 16.105469 88.628906 C 15.808594 88.34375 15.625 87.941406 15.625 87.5 Z M 15.625 87.5 "/>
<path style=" stroke:none;fill-rule:nonzero;fill:rgb(100%,30.980392%,9.803922%);fill-opacity:1;" d="M 33.839844 80.949219 L 27.683594 80.070312 C 26.144531 79.851562 25 78.53125 25 76.976562 L 25 58.777344 C 24.988281 58.796875 24.972656 58.820312 24.960938 58.84375 C 19.949219 67.308594 15.625 74.617188 15.625 81.25 L 15.625 87.5 C 15.625 87.941406 15.808594 88.34375 16.105469 88.628906 C 16.339844 88.851562 16.640625 89.003906 16.980469 89.046875 L 32.8125 91.160156 L 32.8125 84.375 C 32.8125 83.109375 33.191406 81.933594 33.839844 80.949219 Z M 33.839844 80.949219 "/>
<path style=" stroke:none;fill-rule:nonzero;fill:rgb(71.372549%,72.156863%,74.509804%);fill-opacity:1;" d="M 84.375 87.5 C 84.375 87.941406 84.191406 88.34375 83.894531 88.628906 C 84.191406 88.34375 84.375 87.941406 84.375 87.5 Z M 84.375 87.5 "/>
<path style=" stroke:none;fill-rule:nonzero;fill:rgb(71.372549%,72.156863%,74.509804%);fill-opacity:1;" d="M 60.9375 78.125 C 63.121094 78.125 65.042969 79.25 66.160156 80.949219 L 72.316406 80.070312 C 73.855469 79.851562 75 78.53125 75 76.976562 L 75 58.777344 C 68.667969 48.074219 61.507812 35.949219 60.9375 21.8125 C 60.933594 21.730469 60.921875 21.648438 60.90625 21.570312 C 60.925781 22.183594 60.9375 22.808594 60.9375 23.4375 Z M 60.9375 78.125 "/>
<path style=" stroke:none;fill-rule:nonzero;fill:rgb(100%,30.980392%,9.803922%);fill-opacity:1;" d="M 75.039062 58.84375 C 75.027344 58.820312 75.011719 58.796875 75 58.777344 L 75 76.976562 C 75 78.53125 73.855469 79.851562 72.316406 80.070312 L 66.160156 80.949219 C 66.808594 81.933594 67.1875 83.109375 67.1875 84.375 L 67.1875 91.160156 L 83.019531 89.046875 C 83.359375 89.003906 83.660156 88.851562 83.894531 88.628906 C 84.191406 88.34375 84.375 87.941406 84.375 87.5 L 84.375 81.25 C 84.375 74.617188 80.050781 67.308594 75.039062 58.84375 Z M 75.039062 58.84375 "/>
<path style=" stroke:none;fill-rule:nonzero;fill:rgb(89.019608%,90.196078%,91.372549%);fill-opacity:1;" d="M 39.0625 78.125 C 40.199219 78.125 41.265625 78.433594 42.1875 78.964844 L 42.1875 20.90625 C 42.1875 20.527344 42.359375 20.160156 42.671875 19.875 C 44.539062 18.167969 47.210938 17.1875 50 17.1875 C 52.789062 17.1875 55.460938 18.167969 57.328125 19.875 C 57.640625 20.160156 57.8125 20.527344 57.8125 20.90625 L 57.8125 78.964844 C 58.730469 78.433594 59.800781 78.125 60.9375 78.125 L 60.9375 23.4375 C 60.9375 22.808594 60.925781 22.183594 60.90625 21.570312 C 60.488281 9.148438 55.941406 0 50 0 C 44.058594 0 39.507812 9.148438 39.09375 21.570312 C 39.074219 22.183594 39.0625 22.808594 39.0625 23.4375 Z M 39.0625 78.125 "/>
<path style=" stroke:none;fill-rule:nonzero;fill:rgb(83.529412%,85.098039%,87.058824%);fill-opacity:1;" d="M 56.25 25 L 43.75 25 C 42.671875 25 42.1875 24.300781 42.1875 23.4375 L 42.1875 78.964844 C 43.617188 79.796875 44.691406 81.171875 45.113281 82.8125 L 48.4375 82.8125 L 48.4375 64.0625 C 48.4375 63.199219 49.136719 62.5 50 62.5 C 50.863281 62.5 51.5625 63.199219 51.5625 64.0625 L 51.5625 82.8125 L 54.886719 82.8125 C 55.308594 81.175781 56.382812 79.796875 57.8125 78.964844 L 57.8125 23.4375 C 57.8125 24.300781 57.328125 25 56.25 25 Z M 56.25 25 "/>
<path style=" stroke:none;fill-rule:nonzero;fill:rgb(36.078431%,32.941176%,41.568627%);fill-opacity:1;" d="M 54.886719 82.8125 L 51.5625 82.8125 L 51.5625 93.75 L 54.6875 93.75 L 54.6875 84.375 C 54.6875 83.835938 54.757812 83.3125 54.886719 82.8125 Z M 54.886719 82.8125 "/>
<path style=" stroke:none;fill-rule:nonzero;fill:rgb(36.078431%,32.941176%,41.568627%);fill-opacity:1;" d="M 45.113281 82.8125 C 45.242188 83.3125 45.3125 83.835938 45.3125 84.375 L 45.3125 93.75 L 48.4375 93.75 L 48.4375 82.8125 Z M 45.113281 82.8125 "/>
<path style=" stroke:none;fill-rule:nonzero;fill:rgb(53.333333%,52.54902%,57.647059%);fill-opacity:1;" d="M 45.113281 82.8125 C 44.691406 81.171875 43.617188 79.796875 42.1875 78.964844 C 41.265625 78.433594 40.199219 78.125 39.0625 78.125 C 36.878906 78.125 34.957031 79.25 33.839844 80.949219 C 33.191406 81.933594 32.8125 83.109375 32.8125 84.375 L 32.8125 93.75 L 45.3125 93.75 L 45.3125 84.375 C 45.3125 83.835938 45.242188 83.3125 45.113281 82.8125 Z M 45.113281 82.8125 "/>
<path style=" stroke:none;fill-rule:nonzero;fill:rgb(89.803922%,0%,11.764706%);fill-opacity:1;" d="M 51.5625 64.0625 C 51.5625 63.199219 50.863281 62.5 50 62.5 C 49.136719 62.5 48.4375 63.199219 48.4375 64.0625 L 48.4375 98.4375 C 48.4375 99.300781 49.136719 100 50 100 C 50.863281 100 51.5625 99.300781 51.5625 98.4375 Z M 51.5625 64.0625 "/>
<path style=" stroke:none;fill-rule:nonzero;fill:rgb(36.078431%,32.941176%,41.568627%);fill-opacity:1;" d="M 43.75 25 L 56.25 25 C 57.328125 25 57.8125 24.300781 57.8125 23.4375 L 57.8125 20.90625 C 57.8125 20.527344 57.640625 20.160156 57.328125 19.875 C 55.460938 18.167969 52.789062 17.1875 50 17.1875 C 47.210938 17.1875 44.539062 18.167969 42.671875 19.875 C 42.359375 20.160156 42.1875 20.527344 42.1875 20.90625 L 42.1875 23.4375 C 42.1875 24.300781 42.671875 25 43.75 25 Z M 43.75 25 "/>
<path style=" stroke:none;fill-rule:nonzero;fill:rgb(36.078431%,32.941176%,41.568627%);fill-opacity:1;" d="M 40.625 93.75 L 32.8125 93.75 L 32.8125 98.4375 C 32.8125 99.300781 33.511719 100 34.375 100 L 43.75 100 C 44.613281 100 45.3125 99.300781 45.3125 98.4375 L 45.3125 93.75 Z M 40.625 93.75 "/>
<path style=" stroke:none;fill-rule:nonzero;fill:rgb(53.333333%,52.54902%,57.647059%);fill-opacity:1;" d="M 67.1875 84.375 C 67.1875 83.109375 66.808594 81.933594 66.160156 80.949219 C 65.042969 79.25 63.121094 78.125 60.9375 78.125 C 59.800781 78.125 58.730469 78.433594 57.8125 78.964844 C 56.382812 79.796875 55.308594 81.171875 54.886719 82.8125 C 54.757812 83.3125 54.6875 83.835938 54.6875 84.375 L 54.6875 93.75 L 67.1875 93.75 Z M 67.1875 84.375 "/>
<path style=" stroke:none;fill-rule:nonzero;fill:rgb(36.078431%,32.941176%,41.568627%);fill-opacity:1;" d="M 56.25 93.75 L 54.6875 93.75 L 54.6875 98.4375 C 54.6875 99.300781 55.386719 100 56.25 100 L 65.625 100 C 66.488281 100 67.1875 99.300781 67.1875 98.4375 L 67.1875 93.75 Z M 56.25 93.75 "/>
</g>
</svg>
<!-- iconic normalized -->