<?xml version="1.0" encoding="UTF-8"?>
<svg xmlns="http://www.w3.org/2000/svg" xmlns:xlink="http://www.w3.org/1999/xlink" width="100px" height="100px" viewBox="0 0 100 100" version="1.1">
<g id="surface1">
<path style=" stroke:none;fill-rule:nonzero;fill:rgb(100%,43.137255%,11.372549%);fill-opacity:1;" d="M 80.46875 15.382812 L 19.53125 15.382812 C 14.695312 15.382812 10.742188 19.339844 10.742188 24.175781 L 10.742188 47.070312 L 89.257812 47.070312 L 89.257812 24.175781 C 89.257812 19.339844 85.304688 15.382812 80.46875 15.382812 Z M 80.46875 15.382812 "/>
<path style=" stroke:none;fill-rule:nonzero;fill:rgb(100%,100%,100%);fill-opacity:1;" d="M 80.46875 24.175781 L 80.46875 44.871094 L 66.011719 44.871094 L 68.210938 24.292969 L 68.210938 24.175781 Z M 80.46875 24.175781 "/>
<path style=" stroke:none;fill-rule:nonzero;fill:rgb(100%,100%,100%);fill-opacity:1;" d="M 56.070312 24.292969 L 58.269531 44.871094 L 41.707031 44.871094 L 43.90625 24.175781 L 56.070312 24.175781 Z M 56.070312 24.292969 "/>
<path style=" stroke:none;fill-rule:nonzero;fill:rgb(100%,100%,100%);fill-opacity:1;" d="M 31.71875 24.175781 L 33.917969 44.871094 L 19.53125 44.871094 L 19.53125 24.175781 Z M 31.71875 24.175781 "/>
<path style=" stroke:none;fill-rule:nonzero;fill:rgb(94.901961%,92.156863%,85.098039%);fill-opacity:1;" d="M 31.71875 0 L 43.90625 0 L 43.90625 44.871094 L 31.71875 44.871094 Z M 31.71875 0 "/>
<path style=" stroke:none;fill-rule:nonzero;fill:rgb(94.901961%,92.156863%,85.098039%);fill-opacity:1;" d="M 68.210938 24.292969 L 68.210938 44.871094 L 56.070312 44.871094 L 56.070312 24.175781 L 68.210938 24.175781 Z M 68.210938 24.292969 "/>
<path style=" stroke:none;fill-rule:nonzero;fill:rgb(100%,80%,45.882353%);fill-opacity:1;" d="M 5.796875 27.839844 C 4.886719 27.839844 4.148438 28.578125 4.148438 29.488281 L 4.148438 42.675781 L 7.445312 44.871094 L 7.445312 29.488281 C 7.445312 28.578125 6.707031 27.839844 5.796875 27.839844 Z M 5.796875 27.839844 "/>
<path style=" stroke:none;fill-rule:nonzero;fill:rgb(100%,80%,45.882353%);fill-opacity:1;" d="M 94.203125 27.839844 C 93.292969 27.839844 92.554688 28.578125 92.554688 29.488281 L 92.554688 44.871094 L 95.851562 42.675781 L 95.851562 29.488281 C 95.851562 28.578125 95.113281 27.839844 94.203125 27.839844 Z M 94.203125 27.839844 "/>
<path style=" stroke:none;fill-rule:nonzero;fill:rgb(100%,80%,45.882353%);fill-opacity:1;" d="M 4.148438 42.675781 L 95.851562 42.675781 L 95.851562 100 L 4.148438 100 Z M 4.148438 42.675781 "/>
<path style=" stroke:none;fill-rule:nonzero;fill:rgb(100%,100%,100%);fill-opacity:1;" d="M 31.71875 58.058594 L 33.917969 72.4375 L 31.71875 86.8125 L 28.324219 86.8125 C 23.488281 86.8125 19.53125 82.855469 19.53125 78.023438 L 19.53125 66.851562 C 19.53125 62.015625 23.488281 58.058594 28.324219 58.058594 Z M 31.71875 58.058594 "/>
<path style=" stroke:none;fill-rule:nonzero;fill:rgb(100%,100%,100%);fill-opacity:1;" d="M 56.070312 58.058594 L 58.269531 72.4375 L 56.070312 86.8125 L 43.90625 86.8125 L 41.707031 72.4375 L 43.90625 58.058594 Z M 56.070312 58.058594 "/>
<path style=" stroke:none;fill-rule:nonzero;fill:rgb(100%,100%,100%);fill-opacity:1;" d="M 80.46875 66.851562 L 80.46875 78.023438 C 80.46875 82.855469 76.511719 86.8125 71.675781 86.8125 L 68.210938 86.8125 L 66.011719 72.4375 L 68.210938 58.058594 L 71.675781 58.058594 C 76.511719 58.058594 80.46875 62.015625 80.46875 66.851562 Z M 80.46875 66.851562 "/>
<path style=" stroke:none;fill-rule:nonzero;fill:rgb(94.901961%,92.156863%,85.098039%);fill-opacity:1;" d="M 31.71875 58.058594 L 43.90625 58.058594 L 43.90625 86.8125 L 31.71875 86.8125 Z M 31.71875 58.058594 "/>
<path style=" stroke:none;fill-rule:nonzero;fill:rgb(94.901961%,92.156863%,85.098039%);fill-opacity:1;" d="M 56.070312 58.058594 L 68.210938 58.058594 L 68.210938 86.8125 L 56.070312 86.8125 Z M 56.070312 58.058594 "/>
</g>
</svg>
<!-- iconic normalized -->