<?xml version="1.0" encoding="UTF-8"?>
<svg xmlns="http://www.w3.org/2000/svg" xmlns:xlink="http://www.w3.org/1999/xlink" width="100px" height="100px" viewBox="0 0 100 100" version="1.1">
<g id="surface1">
<path style=" stroke:none;fill-rule:nonzero;fill:rgb(75.686275%,90.980392%,90.196078%);fill-opacity:1;" d="M 0 37.242188 L 50 82.90625 L 100 37.242188 Z M 0 37.242188 "/>
<path style=" stroke:none;fill-rule:nonzero;fill:rgb(94.901961%,92.156863%,85.098039%);fill-opacity:1;" d="M 50 0 L 52.199219 80.710938 L 13.1875 47.546875 L 13.1875 0 Z M 50 0 "/>
<path style=" stroke:none;fill-rule:nonzero;fill:rgb(100%,80%,45.882353%);fill-opacity:1;" d="M 86.8125 47.546875 L 50 80.710938 L 50 0 L 86.8125 0 Z M 86.8125 47.546875 "/>
<path style=" stroke:none;fill-rule:nonzero;fill:rgb(59.607843%,85.098039%,83.529412%);fill-opacity:1;" d="M 59.84375 68.621094 L 59.84375 95.605469 L 100 100 L 100 37.242188 Z M 59.84375 68.621094 "/>
<path style=" stroke:none;fill-rule:nonzero;fill:rgb(59.607843%,85.098039%,83.529412%);fill-opacity:1;" d="M 0 37.242188 L 0 100 L 40.15625 95.605469 L 40.15625 68.621094 Z M 0 37.242188 "/>
<path style=" stroke:none;fill-rule:nonzero;fill:rgb(94.901961%,28.235294%,29.411765%);fill-opacity:1;" d="M 79.835938 22.28125 L 77.089844 22.28125 L 77.089844 19.53125 C 77.089844 18.621094 76.351562 17.882812 75.441406 17.882812 C 74.527344 17.882812 73.792969 18.621094 73.792969 19.53125 L 73.792969 22.28125 L 71.042969 22.28125 C 70.132812 22.28125 69.394531 23.015625 69.394531 23.929688 C 69.394531 24.839844 70.132812 25.578125 71.042969 25.578125 L 73.792969 25.578125 L 73.792969 28.324219 C 73.792969 29.234375 74.527344 29.972656 75.441406 29.972656 C 76.351562 29.972656 77.089844 29.234375 77.089844 28.324219 L 77.089844 25.578125 L 79.835938 25.578125 C 80.746094 25.578125 81.484375 24.839844 81.484375 23.929688 C 81.484375 23.015625 80.746094 22.28125 79.835938 22.28125 Z M 79.835938 22.28125 "/>
<path style=" stroke:none;fill-rule:nonzero;fill:rgb(94.901961%,28.235294%,29.411765%);fill-opacity:1;" d="M 69.792969 29.1875 C 69.789062 29.179688 69.789062 29.171875 69.785156 29.164062 L 65.535156 18.902344 C 65.277344 18.285156 64.675781 17.882812 64.011719 17.882812 C 63.34375 17.882812 62.742188 18.285156 62.488281 18.902344 L 58.234375 29.167969 C 58.234375 29.171875 58.230469 29.175781 58.230469 29.183594 L 55.457031 35.882812 C 55.105469 36.722656 55.507812 37.6875 56.347656 38.035156 C 57.1875 38.382812 58.152344 37.984375 58.5 37.140625 L 60.851562 31.464844 L 67.167969 31.464844 L 69.519531 37.140625 C 69.785156 37.777344 70.398438 38.160156 71.042969 38.160156 C 71.253906 38.160156 71.46875 38.121094 71.675781 38.035156 C 72.515625 37.6875 72.914062 36.722656 72.566406 35.882812 Z M 62.21875 28.167969 L 64.011719 23.839844 L 65.804688 28.167969 Z M 62.21875 28.167969 "/>
<path style=" stroke:none;fill-rule:nonzero;fill:rgb(42.745098%,65.882353%,83.921569%);fill-opacity:1;" d="M 39.011719 14.835938 L 24.175781 14.835938 C 23.265625 14.835938 22.527344 14.097656 22.527344 13.1875 C 22.527344 12.277344 23.265625 11.539062 24.175781 11.539062 L 39.011719 11.539062 C 39.921875 11.539062 40.660156 12.277344 40.660156 13.1875 C 40.660156 14.097656 39.921875 14.835938 39.011719 14.835938 Z M 39.011719 14.835938 "/>
<path style=" stroke:none;fill-rule:nonzero;fill:rgb(42.745098%,65.882353%,83.921569%);fill-opacity:1;" d="M 39.011719 24.726562 L 24.175781 24.726562 C 23.265625 24.726562 22.527344 23.988281 22.527344 23.078125 C 22.527344 22.167969 23.265625 21.429688 24.175781 21.429688 L 39.011719 21.429688 C 39.921875 21.429688 40.660156 22.167969 40.660156 23.078125 C 40.660156 23.988281 39.921875 24.726562 39.011719 24.726562 Z M 39.011719 24.726562 "/>
<path style=" stroke:none;fill-rule:nonzero;fill:rgb(42.745098%,65.882353%,83.921569%);fill-opacity:1;" d="M 39.011719 34.617188 L 24.175781 34.617188 C 23.265625 34.617188 22.527344 33.878906 22.527344 32.96875 C 22.527344 32.054688 23.265625 31.320312 24.175781 31.320312 L 39.011719 31.320312 C 39.921875 31.320312 40.660156 32.054688 40.660156 32.96875 C 40.660156 33.878906 39.921875 34.617188 39.011719 34.617188 Z M 39.011719 34.617188 "/>
<path style=" stroke:none;fill-rule:nonzero;fill:rgb(42.745098%,65.882353%,83.921569%);fill-opacity:1;" d="M 39.011719 44.503906 L 24.175781 44.503906 C 23.265625 44.503906 22.527344 43.769531 22.527344 42.855469 C 22.527344 41.945312 23.265625 41.207031 24.175781 41.207031 L 39.011719 41.207031 C 39.921875 41.207031 40.660156 41.945312 40.660156 42.855469 C 40.660156 43.769531 39.921875 44.503906 39.011719 44.503906 Z M 39.011719 44.503906 "/>
<path style=" stroke:none;fill-rule:nonzero;fill:rgb(75.686275%,90.980392%,90.196078%);fill-opacity:1;" d="M 59.84375 68.621094 L 50 76.3125 L 40.15625 68.621094 L 0 100 L 100 100 Z M 59.84375 68.621094 "/>
</g>
</svg>
<!-- iconic normalized -->