<?xml version="1.0" encoding="UTF-8"?>
<svg xmlns="http://www.w3.org/2000/svg" xmlns:xlink="http://www.w3.org/1999/xlink" width="100px" height="100px" viewBox="0 0 100 100" version="1.1">
<g id="surface1">
<path style=" stroke:none;fill-rule:nonzero;fill:rgb(100%,80%,45.882353%);fill-opacity:1;" d="M 50 5.261719 C 49.089844 5.261719 48.351562 6 48.351562 6.910156 L 48.351562 15.703125 L 51.648438 15.703125 L 51.648438 6.910156 C 51.648438 6 50.910156 5.261719 50 5.261719 Z M 50 5.261719 "/>
<path style=" stroke:none;fill-rule:nonzero;fill:rgb(100%,80%,45.882353%);fill-opacity:1;" d="M 6.59375 28.890625 L 93.40625 28.890625 L 93.40625 39.878906 L 6.59375 39.878906 Z M 6.59375 28.890625 "/>
<path style=" stroke:none;fill-rule:nonzero;fill:rgb(94.901961%,92.156863%,85.098039%);fill-opacity:1;" d="M 4.394531 81.550781 L 95.605469 81.550781 L 95.605469 90.339844 L 4.394531 90.339844 Z M 4.394531 81.550781 "/>
<path style=" stroke:none;fill-rule:nonzero;fill:rgb(100%,80%,45.882353%);fill-opacity:1;" d="M 10.988281 46.472656 L 17.582031 46.472656 L 17.582031 81.550781 L 10.988281 81.550781 Z M 10.988281 46.472656 "/>
<path style=" stroke:none;fill-rule:nonzero;fill:rgb(100%,80%,45.882353%);fill-opacity:1;" d="M 28.847656 46.472656 L 35.441406 46.472656 L 35.441406 81.550781 L 28.847656 81.550781 Z M 28.847656 46.472656 "/>
<path style=" stroke:none;fill-rule:nonzero;fill:rgb(100%,80%,45.882353%);fill-opacity:1;" d="M 46.703125 46.472656 L 53.296875 46.472656 L 53.296875 81.550781 L 46.703125 81.550781 Z M 46.703125 46.472656 "/>
<path style=" stroke:none;fill-rule:nonzero;fill:rgb(100%,80%,45.882353%);fill-opacity:1;" d="M 64.558594 46.472656 L 71.152344 46.472656 L 71.152344 81.550781 L 64.558594 81.550781 Z M 64.558594 46.472656 "/>
<path style=" stroke:none;fill-rule:nonzero;fill:rgb(100%,80%,45.882353%);fill-opacity:1;" d="M 82.417969 46.472656 L 89.011719 46.472656 L 89.011719 81.550781 L 82.417969 81.550781 Z M 82.417969 46.472656 "/>
<path style=" stroke:none;fill-rule:nonzero;fill:rgb(94.901961%,92.156863%,85.098039%);fill-opacity:1;" d="M 50 13.503906 L 4.394531 22.296875 L 4.394531 28.890625 L 95.605469 28.890625 L 95.605469 22.296875 Z M 50 13.503906 "/>
<path style=" stroke:none;fill-rule:nonzero;fill:rgb(95.686275%,50.980392%,1.960784%);fill-opacity:1;" d="M 19.230469 48.121094 L 9.339844 48.121094 C 8.429688 48.121094 7.691406 47.382812 7.691406 46.472656 C 7.691406 45.5625 8.429688 44.824219 9.339844 44.824219 L 19.230469 44.824219 C 20.140625 44.824219 20.878906 45.5625 20.878906 46.472656 C 20.878906 47.382812 20.140625 48.121094 19.230469 48.121094 Z M 19.230469 48.121094 "/>
<path style=" stroke:none;fill-rule:nonzero;fill:rgb(95.686275%,50.980392%,1.960784%);fill-opacity:1;" d="M 90.660156 48.121094 L 80.769531 48.121094 C 79.859375 48.121094 79.121094 47.382812 79.121094 46.472656 C 79.121094 45.5625 79.859375 44.824219 80.769531 44.824219 L 90.660156 44.824219 C 91.570312 44.824219 92.308594 45.5625 92.308594 46.472656 C 92.308594 47.382812 91.570312 48.121094 90.660156 48.121094 Z M 90.660156 48.121094 "/>
<path style=" stroke:none;fill-rule:nonzero;fill:rgb(95.686275%,50.980392%,1.960784%);fill-opacity:1;" d="M 72.800781 48.121094 L 62.910156 48.121094 C 62 48.121094 61.265625 47.382812 61.265625 46.472656 C 61.265625 45.5625 62 44.824219 62.910156 44.824219 L 72.800781 44.824219 C 73.710938 44.824219 74.449219 45.5625 74.449219 46.472656 C 74.449219 47.382812 73.710938 48.121094 72.800781 48.121094 Z M 72.800781 48.121094 "/>
<path style=" stroke:none;fill-rule:nonzero;fill:rgb(95.686275%,50.980392%,1.960784%);fill-opacity:1;" d="M 54.945312 48.121094 L 45.054688 48.121094 C 44.144531 48.121094 43.40625 47.382812 43.40625 46.472656 C 43.40625 45.5625 44.144531 44.824219 45.054688 44.824219 L 54.945312 44.824219 C 55.855469 44.824219 56.59375 45.5625 56.59375 46.472656 C 56.59375 47.382812 55.855469 48.121094 54.945312 48.121094 Z M 54.945312 48.121094 "/>
<path style=" stroke:none;fill-rule:nonzero;fill:rgb(95.686275%,50.980392%,1.960784%);fill-opacity:1;" d="M 37.089844 48.121094 L 27.199219 48.121094 C 26.289062 48.121094 25.550781 47.382812 25.550781 46.472656 C 25.550781 45.5625 26.289062 44.824219 27.199219 44.824219 L 37.089844 44.824219 C 38 44.824219 38.734375 45.5625 38.734375 46.472656 C 38.734375 47.382812 38 48.121094 37.089844 48.121094 Z M 37.089844 48.121094 "/>
<path style=" stroke:none;fill-rule:nonzero;fill:rgb(95.686275%,50.980392%,1.960784%);fill-opacity:1;" d="M 95.605469 14.054688 C 94.695312 14.054688 93.957031 14.792969 93.957031 15.703125 L 93.957031 27.242188 L 6.042969 27.242188 L 6.042969 15.703125 C 6.042969 14.792969 5.304688 14.054688 4.394531 14.054688 C 3.484375 14.054688 2.746094 14.792969 2.746094 15.703125 L 2.746094 30.539062 L 97.253906 30.539062 L 97.253906 15.703125 C 97.253906 14.792969 96.515625 14.054688 95.605469 14.054688 Z M 95.605469 14.054688 "/>
<path style=" stroke:none;fill-rule:nonzero;fill:rgb(100%,80%,45.882353%);fill-opacity:1;" d="M 0 88.144531 L 100 88.144531 L 100 94.738281 L 0 94.738281 Z M 0 88.144531 "/>
</g>
</svg>
<!-- iconic normalized -->