<?xml version="1.0" encoding="UTF-8"?>
<svg xmlns="http://www.w3.org/2000/svg" xmlns:xlink="http://www.w3.org/1999/xlink" width="100px" height="100px" viewBox="0 0 100 100" version="1.1">
<defs>
<filter id="alpha" filterUnits="objectBoundingBox" x="0%" y="0%" width="100%" height="100%">
  <feColorMatrix type="matrix" in="SourceGraphic" values="0 0 0 0 1 0 0 0 0 1 0 0 0 0 1 0 0 0 1 0"/>
</filter>
<mask id="mask0">
  <g filter="url(#alpha)">
<rect x="0" y="0" width="100" height="100" style="fill:rgb(0%,0%,0%);fill-opacity:0.14902;stroke:none;"/>
  </g>
</mask>
<clipPath id="clip1">
  <rect width="100" height="100"/>
</clipPath>
<g id="surface1" clip-path="url(#clip1)">
<path style=" stroke:none;fill-rule:nonzero;fill:rgb(100%,100%,100%);fill-opacity:1;" d="M 57.0625 27.816406 L 21.140625 63.738281 L 21.140625 86.332031 L 32.878906 86.332031 L 57.707031 61.5 L 57.707031 27.816406 Z M 57.0625 27.816406 "/>
</g>
</defs>
<g id="surface1">
<path style=" stroke:none;fill-rule:nonzero;fill:rgb(20%,24.313725%,28.235294%);fill-opacity:1;" d="M 14.347656 6.394531 L 64.503906 6.394531 L 64.503906 93.605469 L 14.347656 93.605469 Z M 14.347656 6.394531 "/>
<path style=" stroke:none;fill-rule:nonzero;fill:rgb(76.470588%,77.647059%,78.431373%);fill-opacity:1;" d="M 12.386719 89.488281 L 66.464844 89.488281 L 66.464844 93.246094 L 12.386719 93.246094 Z M 12.386719 89.488281 "/>
<path style=" stroke:none;fill-rule:nonzero;fill:rgb(38.039216%,70.588235%,89.411765%);fill-opacity:1;" d="M 21.140625 27.816406 L 57.707031 27.816406 L 57.707031 86.332031 L 21.140625 86.332031 Z M 21.140625 27.816406 "/>
<path style=" stroke:none;fill-rule:nonzero;fill:rgb(38.039216%,70.588235%,89.411765%);fill-opacity:1;" d="M 21.140625 13.429688 L 57.707031 13.429688 L 57.707031 21.824219 L 21.140625 21.824219 Z M 21.140625 13.429688 "/>
<path style=" stroke:none;fill-rule:nonzero;fill:rgb(11.764706%,14.509804%,16.862745%);fill-opacity:1;" d="M 67.53125 2.398438 C 67.53125 1.078125 66.453125 0 65.132812 0 L 13.71875 0 C 12.398438 0 11.320312 1.078125 11.320312 2.398438 L 11.320312 6.234375 C 11.320312 7.554688 12.398438 8.632812 13.71875 8.632812 L 65.132812 8.632812 C 66.453125 8.632812 67.53125 7.554688 67.53125 6.234375 Z M 67.53125 2.398438 "/>
<path style=" stroke:none;fill-rule:nonzero;fill:rgb(11.764706%,14.509804%,16.862745%);fill-opacity:1;" d="M 67.53125 97.601562 C 67.53125 98.921875 66.453125 100 65.132812 100 L 13.71875 100 C 12.398438 100 11.320312 98.921875 11.320312 97.601562 L 11.320312 93.765625 C 11.320312 92.445312 12.398438 91.367188 13.71875 91.367188 L 65.132812 91.367188 C 66.453125 91.367188 67.53125 92.445312 67.53125 93.765625 Z M 67.53125 97.601562 "/>
<path style=" stroke:none;fill-rule:nonzero;fill:rgb(11.764706%,14.509804%,16.862745%);fill-opacity:1;" d="M 28.003906 44.773438 L 28.003906 38.429688 C 28.558594 37.996094 28.914062 37.324219 28.914062 36.570312 C 28.914062 35.265625 27.859375 34.210938 26.558594 34.210938 C 25.253906 34.210938 24.199219 35.265625 24.199219 36.570312 C 24.199219 37.324219 24.558594 37.996094 25.113281 38.429688 L 25.113281 44.773438 C 24.558594 45.203125 24.199219 45.875 24.199219 46.632812 C 24.199219 47.933594 25.253906 48.992188 26.558594 48.992188 C 27.859375 48.992188 28.914062 47.933594 28.914062 46.632812 C 28.914062 45.875 28.558594 45.203125 28.003906 44.773438 Z M 28.003906 44.773438 "/>
<path style=" stroke:none;fill-rule:nonzero;fill:rgb(100%,100%,100%);fill-opacity:1;" d="M 41.96875 32.113281 C 41.96875 30.792969 40.890625 29.714844 39.570312 29.714844 L 28.957031 29.714844 C 27.636719 29.714844 26.558594 30.792969 26.558594 32.113281 L 26.558594 51.085938 C 26.558594 52.40625 27.636719 53.484375 28.957031 53.484375 L 39.570312 53.484375 C 40.890625 53.484375 41.96875 52.40625 41.96875 51.085938 Z M 41.96875 32.113281 "/>
<path style=" stroke:none;fill-rule:nonzero;fill:rgb(11.764706%,14.509804%,16.862745%);fill-opacity:1;" d="M 32.058594 36.066406 C 32.058594 36.363281 31.816406 36.601562 31.519531 36.601562 L 29.90625 36.601562 C 29.609375 36.601562 29.367188 36.363281 29.367188 36.066406 L 29.367188 34.933594 C 29.367188 34.640625 29.609375 34.398438 29.90625 34.398438 L 31.519531 34.398438 C 31.816406 34.398438 32.058594 34.640625 32.058594 34.933594 Z M 32.058594 36.066406 "/>
<path style=" stroke:none;fill-rule:nonzero;fill:rgb(11.764706%,14.509804%,16.862745%);fill-opacity:1;" d="M 35.609375 36.066406 C 35.609375 36.363281 35.367188 36.601562 35.070312 36.601562 L 33.457031 36.601562 C 33.160156 36.601562 32.917969 36.363281 32.917969 36.066406 L 32.917969 34.933594 C 32.917969 34.640625 33.160156 34.398438 33.457031 34.398438 L 35.070312 34.398438 C 35.367188 34.398438 35.609375 34.640625 35.609375 34.933594 Z M 35.609375 36.066406 "/>
<path style=" stroke:none;fill-rule:nonzero;fill:rgb(11.764706%,14.509804%,16.862745%);fill-opacity:1;" d="M 39.160156 36.066406 C 39.160156 36.363281 38.917969 36.601562 38.621094 36.601562 L 37.007812 36.601562 C 36.710938 36.601562 36.46875 36.363281 36.46875 36.066406 L 36.46875 34.933594 C 36.46875 34.640625 36.710938 34.398438 37.007812 34.398438 L 38.621094 34.398438 C 38.917969 34.398438 39.160156 34.640625 39.160156 34.933594 Z M 39.160156 36.066406 "/>
<path style=" stroke:none;fill-rule:nonzero;fill:rgb(11.764706%,14.509804%,16.862745%);fill-opacity:1;" d="M 32.058594 39.28125 C 32.058594 39.574219 31.816406 39.816406 31.519531 39.816406 L 29.90625 39.816406 C 29.609375 39.816406 29.367188 39.574219 29.367188 39.28125 L 29.367188 38.148438 C 29.367188 37.855469 29.609375 37.609375 29.90625 37.609375 L 31.519531 37.609375 C 31.816406 37.609375 32.058594 37.855469 32.058594 38.148438 Z M 32.058594 39.28125 "/>
<path style=" stroke:none;fill-rule:nonzero;fill:rgb(11.764706%,14.509804%,16.862745%);fill-opacity:1;" d="M 35.609375 39.28125 C 35.609375 39.574219 35.367188 39.816406 35.070312 39.816406 L 33.457031 39.816406 C 33.160156 39.816406 32.917969 39.574219 32.917969 39.28125 L 32.917969 38.148438 C 32.917969 37.855469 33.160156 37.609375 33.457031 37.609375 L 35.070312 37.609375 C 35.367188 37.609375 35.609375 37.855469 35.609375 38.148438 Z M 35.609375 39.28125 "/>
<path style=" stroke:none;fill-rule:nonzero;fill:rgb(11.764706%,14.509804%,16.862745%);fill-opacity:1;" d="M 39.160156 39.28125 C 39.160156 39.574219 38.917969 39.816406 38.621094 39.816406 L 37.007812 39.816406 C 36.710938 39.816406 36.46875 39.574219 36.46875 39.28125 L 36.46875 38.148438 C 36.46875 37.855469 36.710938 37.609375 37.007812 37.609375 L 38.621094 37.609375 C 38.917969 37.609375 39.160156 37.855469 39.160156 38.148438 Z M 39.160156 39.28125 "/>
<path style=" stroke:none;fill-rule:nonzero;fill:rgb(11.764706%,14.509804%,16.862745%);fill-opacity:1;" d="M 32.058594 42.492188 C 32.058594 42.789062 31.816406 43.03125 31.519531 43.03125 L 29.90625 43.03125 C 29.609375 43.03125 29.367188 42.789062 29.367188 42.492188 L 29.367188 41.363281 C 29.367188 41.066406 29.609375 40.824219 29.90625 40.824219 L 31.519531 40.824219 C 31.816406 40.824219 32.058594 41.066406 32.058594 41.363281 Z M 32.058594 42.492188 "/>
<path style=" stroke:none;fill-rule:nonzero;fill:rgb(11.764706%,14.509804%,16.862745%);fill-opacity:1;" d="M 35.609375 42.492188 C 35.609375 42.789062 35.367188 43.03125 35.070312 43.03125 L 33.457031 43.03125 C 33.160156 43.03125 32.917969 42.789062 32.917969 42.492188 L 32.917969 41.363281 C 32.917969 41.066406 33.160156 40.824219 33.457031 40.824219 L 35.070312 40.824219 C 35.367188 40.824219 35.609375 41.066406 35.609375 41.363281 Z M 35.609375 42.492188 "/>
<path style=" stroke:none;fill-rule:nonzero;fill:rgb(11.764706%,14.509804%,16.862745%);fill-opacity:1;" d="M 39.160156 42.492188 C 39.160156 42.789062 38.917969 43.03125 38.621094 43.03125 L 37.007812 43.03125 C 36.710938 43.03125 36.46875 42.789062 36.46875 42.492188 L 36.46875 41.363281 C 36.46875 41.066406 36.710938 40.824219 37.007812 40.824219 L 38.621094 40.824219 C 38.917969 40.824219 39.160156 41.066406 39.160156 41.363281 Z M 39.160156 42.492188 "/>
<path style=" stroke:none;fill-rule:nonzero;fill:rgb(11.764706%,14.509804%,16.862745%);fill-opacity:1;" d="M 32.058594 45.707031 C 32.058594 46.003906 31.816406 46.246094 31.519531 46.246094 L 29.90625 46.246094 C 29.609375 46.246094 29.367188 46.003906 29.367188 45.707031 L 29.367188 44.578125 C 29.367188 44.28125 29.609375 44.039062 29.90625 44.039062 L 31.519531 44.039062 C 31.816406 44.039062 32.058594 44.28125 32.058594 44.578125 Z M 32.058594 45.707031 "/>
<path style=" stroke:none;fill-rule:nonzero;fill:rgb(11.764706%,14.509804%,16.862745%);fill-opacity:1;" d="M 35.609375 45.707031 C 35.609375 46.003906 35.367188 46.246094 35.070312 46.246094 L 33.457031 46.246094 C 33.160156 46.246094 32.917969 46.003906 32.917969 45.707031 L 32.917969 44.578125 C 32.917969 44.28125 33.160156 44.039062 33.457031 44.039062 L 35.070312 44.039062 C 35.367188 44.039062 35.609375 44.28125 35.609375 44.578125 Z M 35.609375 45.707031 "/>
<path style=" stroke:none;fill-rule:nonzero;fill:rgb(11.764706%,14.509804%,16.862745%);fill-opacity:1;" d="M 39.160156 45.707031 C 39.160156 46.003906 38.917969 46.246094 38.621094 46.246094 L 37.007812 46.246094 C 36.710938 46.246094 36.46875 46.003906 36.46875 45.707031 L 36.46875 44.578125 C 36.46875 44.28125 36.710938 44.039062 37.007812 44.039062 L 38.621094 44.039062 C 38.917969 44.039062 39.160156 44.28125 39.160156 44.578125 Z M 39.160156 45.707031 "/>
<use xlink:href="#surface1" mask="url(#mask0)"/>
<path style=" stroke:none;fill-rule:nonzero;fill:rgb(20%,24.313725%,28.235294%);fill-opacity:1;" d="M 43.34375 54.207031 L 43.34375 26.285156 L 35.507812 26.285156 L 35.507812 54.207031 L 17.925781 54.207031 L 17.925781 59.941406 L 35.507812 59.941406 L 35.507812 87.863281 L 43.34375 87.863281 L 43.34375 59.941406 L 60.925781 59.941406 L 60.925781 54.207031 Z M 43.34375 54.207031 "/>
<path style=" stroke:none;fill-rule:nonzero;fill:rgb(0%,36.078431%,72.54902%);fill-opacity:1;" d="M 72.398438 20.28125 C 75.789062 19.910156 79.644531 20.132812 84.1875 24.199219 C 88.730469 28.261719 91.90625 40.015625 83.097656 58.058594 C 74.460938 75.753906 65.199219 80.332031 56.960938 80.210938 C 50.265625 80.109375 45.839844 76.464844 45.335938 75.445312 C 44.828125 74.429688 44.164062 73.542969 45.742188 71.773438 C 47.320312 70.003906 51.855469 64.925781 52.699219 64.066406 C 53.539062 63.207031 54.523438 61.425781 56.707031 62.457031 C 58.890625 63.492188 60.773438 64.304688 61.8125 64.71875 C 62.851562 65.128906 66.898438 66.851562 73.148438 54.390625 C 79.402344 41.925781 77.328125 41.074219 75.394531 40.3125 C 73.460938 39.550781 71.871094 38.941406 71.121094 38.382812 C 70.371094 37.828125 69.527344 37.324219 69.554688 35.753906 C 69.585938 34.179688 69.699219 22.785156 69.710938 22.164062 C 69.71875 21.546875 70.421875 20.496094 72.398438 20.28125 Z M 72.398438 20.28125 "/>
</g>
</svg>
<!-- iconic normalized -->