<?xml version="1.0" encoding="UTF-8"?>
<svg xmlns="http://www.w3.org/2000/svg" xmlns:xlink="http://www.w3.org/1999/xlink" width="100px" height="100px" viewBox="0 0 100 100" version="1.1">
<g id="surface1">
<path style=" stroke:none;fill-rule:nonzero;fill:rgb(99.607843%,87.843137%,31.372549%);fill-opacity:1;" d="M 50 62.292969 C 27.09375 62.292969 7.964844 78.457031 3.386719 100 L 96.617188 100 C 92.035156 78.457031 72.910156 62.292969 50 62.292969 Z M 50 62.292969 "/>
<path style=" stroke:none;fill-rule:nonzero;fill:rgb(20%,24.313725%,28.235294%);fill-opacity:1;" d="M 89.078125 44.449219 C 87.59375 44.449219 86.390625 43.246094 86.390625 41.761719 C 86.390625 21.695312 70.066406 5.371094 50 5.371094 C 29.933594 5.371094 13.609375 21.695312 13.609375 41.761719 C 13.609375 43.246094 12.40625 44.449219 10.921875 44.449219 C 9.441406 44.449219 8.238281 43.246094 8.238281 41.761719 C 8.238281 18.734375 26.972656 0 50 0 C 73.027344 0 91.761719 18.734375 91.761719 41.761719 C 91.761719 43.246094 90.558594 44.449219 89.078125 44.449219 Z M 89.078125 44.449219 "/>
<path style=" stroke:none;fill-rule:nonzero;fill:rgb(11.764706%,14.509804%,16.862745%);fill-opacity:1;" d="M 98.246094 41.761719 C 98.246094 47.675781 93.453125 52.464844 87.542969 52.464844 C 81.632812 52.464844 76.839844 47.675781 76.839844 41.761719 C 76.839844 35.851562 81.632812 31.058594 87.542969 31.058594 C 93.453125 31.058594 98.246094 35.851562 98.246094 41.761719 Z M 98.246094 41.761719 "/>
<path style=" stroke:none;fill-rule:nonzero;fill:rgb(11.764706%,14.509804%,16.862745%);fill-opacity:1;" d="M 23.160156 41.761719 C 23.160156 47.675781 18.367188 52.464844 12.457031 52.464844 C 6.546875 52.464844 1.753906 47.675781 1.753906 41.761719 C 1.753906 35.851562 6.546875 31.058594 12.457031 31.058594 C 18.367188 31.058594 23.160156 35.851562 23.160156 41.761719 Z M 23.160156 41.761719 "/>
<path style=" stroke:none;fill-rule:nonzero;fill:rgb(99.607843%,87.843137%,31.372549%);fill-opacity:1;" d="M 87.542969 41.761719 C 87.542969 21.027344 70.734375 4.21875 50 4.21875 C 29.265625 4.21875 12.457031 21.027344 12.457031 41.761719 C 12.457031 62.496094 29.265625 79.304688 50 79.304688 C 70.734375 79.304688 87.542969 62.496094 87.542969 41.761719 Z M 87.542969 41.761719 "/>
<path style=" stroke:none;fill-rule:nonzero;fill:rgb(11.764706%,14.509804%,16.862745%);fill-opacity:1;" d="M 30.582031 33.960938 C 30.582031 36.398438 28.605469 38.375 26.167969 38.375 C 23.730469 38.375 21.753906 36.398438 21.753906 33.960938 C 21.753906 31.523438 23.730469 29.546875 26.167969 29.546875 C 28.605469 29.546875 30.582031 31.523438 30.582031 33.960938 Z M 30.582031 33.960938 "/>
<path style=" stroke:none;fill-rule:nonzero;fill:rgb(11.764706%,14.509804%,16.862745%);fill-opacity:1;" d="M 78.246094 33.960938 C 78.246094 36.398438 76.269531 38.375 73.832031 38.375 C 71.394531 38.375 69.417969 36.398438 69.417969 33.960938 C 69.417969 31.523438 71.394531 29.546875 73.832031 29.546875 C 76.269531 29.546875 78.246094 31.523438 78.246094 33.960938 Z M 78.246094 33.960938 "/>
<path style=" stroke:none;fill-rule:nonzero;fill:rgb(68.627451%,51.764706%,0%);fill-opacity:1;" d="M 70.746094 41.761719 C 70.746094 53.21875 61.460938 62.507812 50 62.507812 C 38.542969 62.507812 29.253906 53.21875 29.253906 41.761719 Z M 70.746094 41.761719 "/>
<path style=" stroke:none;fill-rule:nonzero;fill:rgb(20%,24.313725%,28.235294%);fill-opacity:1;" d="M 31.058594 63.796875 L 20.984375 63.796875 C 13.085938 63.796875 6.660156 57.371094 6.660156 49.472656 L 6.660156 45.382812 C 6.660156 44.113281 7.691406 43.082031 8.964844 43.082031 C 10.234375 43.082031 11.265625 44.113281 11.265625 45.382812 L 11.265625 49.472656 C 11.265625 54.835938 15.625 59.195312 20.984375 59.195312 L 31.058594 59.195312 C 32.328125 59.195312 33.359375 60.226562 33.359375 61.496094 C 33.359375 62.769531 32.328125 63.796875 31.058594 63.796875 Z M 31.058594 63.796875 "/>
<path style=" stroke:none;fill-rule:nonzero;fill:rgb(11.764706%,14.509804%,16.862745%);fill-opacity:1;" d="M 35.148438 61.496094 C 35.148438 63.757812 33.316406 65.589844 31.058594 65.589844 C 28.796875 65.589844 26.964844 63.757812 26.964844 61.496094 C 26.964844 59.234375 28.796875 57.402344 31.058594 57.402344 C 33.316406 57.402344 35.148438 59.234375 35.148438 61.496094 Z M 35.148438 61.496094 "/>
</g>
</svg>
<!-- iconic normalized -->