<?xml version="1.0" encoding="UTF-8"?>
<svg xmlns="http://www.w3.org/2000/svg" xmlns:xlink="http://www.w3.org/1999/xlink" width="100px" height="100px" viewBox="0 0 100 100" version="1.1">
<g id="surface1">
<path style=" stroke:none;fill-rule:nonzero;fill:rgb(36.078431%,40%,43.921569%);fill-opacity:1;" d="M 91.394531 1.949219 L 2.203125 1.949219 C 0.988281 1.949219 0 2.9375 0 4.152344 L 0 95.847656 C 0 97.066406 0.988281 98.050781 2.203125 98.050781 L 93.898438 98.050781 C 95.117188 98.050781 96.105469 97.0625 96.105469 95.847656 L 96.105469 6.65625 Z M 91.394531 1.949219 "/>
<path style=" stroke:none;fill-rule:nonzero;fill:rgb(20%,24.313725%,28.235294%);fill-opacity:1;" d="M 95.292969 1.949219 L 6.101562 1.949219 C 4.882812 1.949219 3.894531 2.933594 3.894531 4.152344 L 3.894531 95.847656 C 3.894531 97.066406 4.882812 98.050781 6.101562 98.050781 L 97.796875 98.050781 C 99.011719 98.050781 100 97.0625 100 95.847656 L 100 6.65625 Z M 95.292969 1.949219 "/>
<path style=" stroke:none;fill-rule:nonzero;fill:rgb(36.078431%,40%,43.921569%);fill-opacity:1;" d="M 15.871094 1.949219 L 84.414062 1.949219 L 84.414062 32.46875 L 15.871094 32.46875 Z M 15.871094 1.949219 "/>
<path style=" stroke:none;fill-rule:nonzero;fill:rgb(64.313725%,66.27451%,67.843137%);fill-opacity:1;" d="M 41.234375 1.949219 L 41.234375 32.46875 L 84.414062 32.46875 L 84.414062 1.949219 Z M 78.894531 27.472656 L 66.558594 27.472656 L 66.558594 6.945312 L 78.894531 6.945312 Z M 78.894531 27.472656 "/>
<path style=" stroke:none;fill-rule:nonzero;fill:rgb(76.470588%,77.647059%,78.431373%);fill-opacity:1;" d="M 15.871094 50 L 88.027344 50 L 88.027344 98.050781 L 15.871094 98.050781 Z M 15.871094 50 "/>
<path style=" stroke:none;fill-rule:nonzero;fill:rgb(0%,44.313725%,80.784314%);fill-opacity:1;" d="M 15.871094 50 L 88.027344 50 L 88.027344 56.820312 L 15.871094 56.820312 Z M 15.871094 50 "/>
</g>
</svg>
<!-- iconic normalized -->