<?xml version="1.0" encoding="UTF-8"?>
<svg xmlns="http://www.w3.org/2000/svg" xmlns:xlink="http://www.w3.org/1999/xlink" width="100px" height="100px" viewBox="0 0 100 100" version="1.1">
<g id="surface1">
<path style=" stroke:none;fill-rule:nonzero;fill:rgb(36.078431%,40%,43.921569%);fill-opacity:1;" d="M 94.269531 38.78125 C 94.269531 34.972656 91.148438 31.855469 87.339844 31.855469 L 6.929688 31.855469 C 3.117188 31.855469 0 34.972656 0 38.78125 L 0 80.304688 C 0 84.117188 3.117188 87.234375 6.929688 87.234375 L 87.339844 87.234375 C 91.148438 87.234375 94.269531 84.117188 94.269531 80.304688 Z M 94.269531 38.78125 "/>
<path style=" stroke:none;fill-rule:nonzero;fill:rgb(87.843137%,69.019608%,23.137255%);fill-opacity:1;" d="M 0 76.902344 L 0 80.304688 C 0 84.117188 3.117188 87.234375 6.929688 87.234375 L 17.804688 87.234375 L 17.804688 76.902344 Z M 0 76.902344 "/>
<path style=" stroke:none;fill-rule:nonzero;fill:rgb(20%,24.313725%,28.235294%);fill-opacity:1;" d="M 0 40.976562 L 0 33.195312 C 0 29.386719 3.117188 26.269531 6.929688 26.269531 L 87.339844 26.269531 C 91.148438 26.269531 94.269531 29.386719 94.269531 33.195312 L 94.269531 40.976562 Z M 0 40.976562 "/>
<path style=" stroke:none;fill-rule:nonzero;fill:rgb(20%,24.313725%,28.235294%);fill-opacity:1;" d="M 100 41.503906 C 100 37.691406 96.882812 34.574219 93.070312 34.574219 L 12.660156 34.574219 C 8.851562 34.574219 5.730469 37.691406 5.730469 41.503906 L 5.730469 76.902344 L 16.0625 87.234375 L 93.070312 87.234375 C 96.882812 87.234375 100 84.117188 100 80.304688 Z M 100 41.503906 "/>
<path style=" stroke:none;fill-rule:nonzero;fill:rgb(100%,78.431373%,26.27451%);fill-opacity:1;" d="M 89.667969 87.234375 L 93.070312 87.234375 C 96.882812 87.234375 100 84.117188 100 80.304688 L 100 76.902344 C 94.292969 76.902344 89.667969 81.527344 89.667969 87.234375 Z M 89.667969 87.234375 "/>
<path style=" stroke:none;fill-rule:nonzero;fill:rgb(100%,78.431373%,26.27451%);fill-opacity:1;" d="M 16.0625 87.234375 L 12.660156 87.234375 C 8.847656 87.234375 5.730469 84.117188 5.730469 80.304688 L 5.730469 76.902344 C 11.4375 76.902344 16.0625 81.527344 16.0625 87.234375 Z M 16.0625 87.234375 "/>
<path style=" stroke:none;fill-rule:nonzero;fill:rgb(11.764706%,14.509804%,16.862745%);fill-opacity:1;" d="M 100 47.050781 C 100 50.863281 96.882812 53.980469 93.070312 53.980469 L 12.660156 53.980469 C 8.851562 53.980469 5.730469 50.863281 5.730469 47.050781 L 5.730469 33.195312 C 5.730469 29.386719 8.851562 26.269531 12.660156 26.269531 L 93.070312 26.269531 C 96.882812 26.269531 100 29.386719 100 33.195312 Z M 100 47.050781 "/>
<path style=" stroke:none;fill-rule:nonzero;fill:rgb(100%,78.431373%,26.27451%);fill-opacity:1;" d="M 22.105469 48.992188 L 32.082031 48.992188 L 32.082031 58.96875 L 22.105469 58.96875 Z M 22.105469 48.992188 "/>
<path style=" stroke:none;fill-rule:nonzero;fill:rgb(11.764706%,14.509804%,16.862745%);fill-opacity:1;" d="M 24.460938 51.347656 L 29.726562 51.347656 L 29.726562 56.613281 L 24.460938 56.613281 Z M 24.460938 51.347656 "/>
<path style=" stroke:none;fill-rule:nonzero;fill:rgb(100%,78.431373%,26.27451%);fill-opacity:1;" d="M 73.648438 48.992188 L 83.625 48.992188 L 83.625 58.96875 L 73.648438 58.96875 Z M 73.648438 48.992188 "/>
<path style=" stroke:none;fill-rule:nonzero;fill:rgb(11.764706%,14.509804%,16.862745%);fill-opacity:1;" d="M 76.003906 51.347656 L 81.269531 51.347656 L 81.269531 56.613281 L 76.003906 56.613281 Z M 76.003906 51.347656 "/>
<path style=" stroke:none;fill-rule:nonzero;fill:rgb(11.764706%,14.509804%,16.862745%);fill-opacity:1;" d="M 76.011719 26.269531 L 70.46875 26.269531 L 70.46875 22.464844 C 70.46875 20.171875 68.605469 18.308594 66.3125 18.308594 L 39.421875 18.308594 C 37.128906 18.308594 35.265625 20.171875 35.265625 22.464844 L 35.265625 26.269531 L 29.722656 26.269531 L 29.722656 22.464844 C 29.722656 17.117188 34.070312 12.765625 39.421875 12.765625 L 66.3125 12.765625 C 71.660156 12.765625 76.011719 17.117188 76.011719 22.464844 Z M 76.011719 26.269531 "/>
<path style=" stroke:none;fill-rule:nonzero;fill:rgb(74.901961%,32.54902%,30.980392%);fill-opacity:1;" d="M 22.84375 82.066406 L 82.890625 82.066406 L 82.890625 87.234375 L 22.84375 87.234375 Z M 22.84375 82.066406 "/>
</g>
</svg>
<!-- iconic normalized -->