<?xml version="1.0" encoding="UTF-8"?>
<svg xmlns="http://www.w3.org/2000/svg" xmlns:xlink="http://www.w3.org/1999/xlink" width="100px" height="100px" viewBox="0 0 100 100" version="1.1">
<g id="surface1">
<path style=" stroke:none;fill-rule:nonzero;fill:rgb(34.117647%,37.647059%,38.823529%);fill-opacity:1;" d="M 91.535156 99.519531 L 88.339844 78.433594 L 73.960938 73.484375 L 73.960938 73.003906 L 69.167969 71.566406 L 69.167969 72.042969 L 68.210938 71.566406 L 68.371094 71.566406 C 68.371094 71.566406 67.890625 70.925781 67.253906 71.085938 C 67.09375 71.085938 67.09375 71.085938 67.09375 71.085938 L 66.933594 71.085938 L 67.414062 69.808594 L 60.863281 67.09375 L 59.585938 67.890625 L 59.265625 63.417969 C 59.425781 63.097656 59.746094 62.9375 59.902344 62.621094 C 64.21875 56.710938 64.535156 48.242188 64.378906 43.449219 C 64.21875 40.097656 65.335938 39.136719 65.65625 38.179688 C 65.816406 37.859375 65.972656 37.539062 66.132812 37.0625 C 67.09375 34.183594 64.535156 23.164062 55.113281 22.84375 C 53.832031 20.449219 46.964844 19.328125 39.9375 21.726562 C 32.269531 24.28125 33.386719 30.03125 33.386719 30.03125 C 29.871094 32.429688 31.949219 37.21875 31.949219 37.21875 C 30.832031 39.9375 33.546875 41.375 34.027344 41.535156 C 34.027344 42.011719 34.027344 42.492188 34.027344 43.132812 C 33.867188 47.921875 34.183594 56.390625 38.5 62.300781 C 38.65625 62.621094 38.976562 62.9375 39.136719 63.097656 L 38.816406 67.414062 L 37.859375 66.773438 L 31.308594 69.488281 L 31.789062 70.605469 L 31.148438 70.925781 C 31.148438 70.925781 30.992188 70.925781 30.671875 70.925781 C 30.03125 70.765625 29.394531 71.40625 29.394531 71.40625 C 29.394531 71.40625 29.710938 71.566406 29.550781 71.566406 L 29.234375 71.886719 L 29.234375 71.40625 L 24.441406 72.84375 L 24.441406 73.324219 L 10.0625 78.273438 L 6.867188 99.519531 Z M 91.535156 99.519531 "/>
<path style=" stroke:none;fill-rule:nonzero;fill:rgb(20%,23.137255%,23.921569%);fill-opacity:1;" d="M 54.953125 22.683594 C 53.675781 20.289062 46.804688 19.167969 39.777344 21.566406 C 32.109375 24.121094 33.226562 29.871094 33.226562 29.871094 C 29.871094 32.429688 31.949219 37.21875 31.949219 37.21875 C 30.832031 39.9375 33.546875 41.375 34.027344 41.535156 C 34.027344 42.011719 34.027344 42.492188 34.027344 43.132812 C 33.867188 47.921875 34.183594 56.390625 38.5 62.300781 C 38.65625 62.621094 38.976562 62.9375 39.136719 63.097656 L 38.816406 67.414062 L 37.859375 66.773438 L 34.34375 68.210938 L 67.253906 99.519531 L 91.535156 99.519531 L 88.339844 78.433594 L 73.960938 73.484375 L 73.960938 73.003906 L 69.167969 71.566406 L 69.167969 72.042969 L 68.210938 71.566406 L 68.371094 71.566406 C 68.371094 71.566406 67.890625 70.925781 67.253906 71.085938 C 67.09375 71.085938 67.09375 71.085938 67.09375 71.085938 L 66.933594 71.085938 L 67.414062 69.808594 L 60.863281 67.09375 L 59.585938 67.890625 L 59.265625 63.417969 C 59.425781 63.097656 59.746094 62.9375 59.902344 62.621094 C 64.21875 56.710938 64.535156 48.242188 64.378906 43.449219 C 64.21875 40.097656 65.335938 39.136719 65.65625 38.179688 C 65.816406 37.859375 65.972656 37.539062 66.132812 37.0625 C 66.613281 35.621094 66.132812 32.269531 64.535156 29.074219 C 64.535156 29.074219 62.460938 25.238281 59.265625 23.800781 C 57.828125 23.003906 56.550781 22.683594 54.953125 22.683594 Z M 54.953125 22.683594 "/>
<path style=" stroke:none;fill-rule:nonzero;fill:rgb(96.862745%,69.803922%,3.137255%);fill-opacity:1;" d="M 20.289062 22.042969 L 33.226562 18.371094 L 20.289062 14.535156 L 16.613281 1.597656 L 12.9375 14.535156 L 0 18.371094 L 12.9375 22.042969 L 16.613281 34.984375 Z M 20.289062 22.042969 "/>
<path style=" stroke:none;fill-rule:nonzero;fill:rgb(97.647059%,47.058824%,1.176471%);fill-opacity:1;" d="M 20.289062 14.535156 L 16.613281 1.597656 L 12.9375 14.535156 L 12.460938 14.695312 L 20.289062 22.363281 L 20.289062 22.042969 L 33.226562 18.371094 Z M 20.289062 14.535156 "/>
<path style=" stroke:none;fill-rule:nonzero;fill:rgb(96.862745%,69.803922%,3.137255%);fill-opacity:1;" d="M 87.0625 49.839844 L 100 46.007812 L 87.0625 42.332031 L 83.226562 29.394531 L 79.550781 42.332031 L 66.613281 46.007812 L 79.550781 49.839844 L 83.226562 62.78125 Z M 87.0625 49.839844 "/>
<path style=" stroke:none;fill-rule:nonzero;fill:rgb(97.647059%,47.058824%,1.176471%);fill-opacity:1;" d="M 87.0625 42.332031 L 83.226562 29.394531 L 79.550781 42.332031 L 79.234375 42.332031 L 86.902344 50.160156 L 87.0625 49.839844 L 100 46.007812 Z M 87.0625 42.332031 "/>
<path style=" stroke:none;fill-rule:nonzero;fill:rgb(96.862745%,69.803922%,3.137255%);fill-opacity:1;" d="M 72.683594 22.363281 L 76.515625 21.246094 L 72.683594 20.128906 L 71.566406 16.453125 L 70.449219 20.128906 L 66.773438 21.246094 L 70.449219 22.363281 L 71.566406 26.199219 Z M 72.683594 22.363281 "/>
<path style=" stroke:none;fill-rule:nonzero;fill:rgb(97.647059%,47.058824%,1.176471%);fill-opacity:1;" d="M 72.683594 20.128906 L 71.566406 16.453125 L 70.449219 20.128906 L 70.449219 20.289062 L 72.683594 22.523438 L 72.683594 22.363281 L 76.515625 21.246094 Z M 72.683594 20.128906 "/>
<path style=" stroke:none;fill-rule:nonzero;fill:rgb(96.862745%,69.803922%,3.137255%);fill-opacity:1;" d="M 59.902344 6.867188 L 63.417969 0.480469 L 57.027344 3.992188 L 50.640625 0.480469 L 54.152344 6.867188 L 50.640625 13.097656 L 57.027344 9.746094 L 63.417969 13.097656 Z M 59.902344 6.867188 "/>
<path style=" stroke:none;fill-rule:nonzero;fill:rgb(97.647059%,47.058824%,1.176471%);fill-opacity:1;" d="M 57.027344 3.992188 L 50.640625 0.480469 L 54.152344 6.710938 L 54.152344 6.867188 L 60.0625 6.867188 L 59.902344 6.710938 L 63.417969 0.480469 Z M 57.027344 3.992188 "/>
</g>
</svg>
<!-- iconic normalized -->