<?xml version="1.0" encoding="UTF-8"?>
<svg xmlns="http://www.w3.org/2000/svg" xmlns:xlink="http://www.w3.org/1999/xlink" width="100px" height="100px" viewBox="0 0 100 100" version="1.1">
<g id="surface1">
<path style=" stroke:none;fill-rule:nonzero;fill:rgb(47.058824%,65.882353%,59.607843%);fill-opacity:1;" d="M 76.289062 4.71875 C 75.324219 3.75 73.871094 3.75 72.902344 4.71875 L 50 27.78125 L 26.933594 4.71875 C 25.96875 3.75 24.515625 3.75 23.546875 4.71875 C 22.582031 5.683594 22.582031 7.136719 23.546875 8.105469 L 46.613281 31.167969 L 36.453125 41.332031 C 35.484375 42.296875 35.484375 43.75 36.453125 44.71875 C 36.933594 45.203125 37.582031 45.363281 38.066406 45.363281 C 38.546875 45.363281 39.195312 45.203125 39.675781 44.71875 L 49.839844 34.554688 L 60 44.71875 C 60.484375 45.203125 61.128906 45.363281 61.613281 45.363281 C 62.097656 45.363281 62.742188 45.203125 63.226562 44.71875 C 64.195312 43.75 64.195312 42.296875 63.226562 41.332031 L 53.066406 31.167969 L 76.289062 8.105469 C 77.257812 7.136719 77.257812 5.683594 76.289062 4.71875 Z M 76.289062 4.71875 "/>
<path style=" stroke:none;fill-rule:nonzero;fill:rgb(17.647059%,71.764706%,0%);fill-opacity:1;" d="M 17.257812 93.105469 C 17.257812 94.71875 15.96875 96.007812 14.355469 96.007812 C 12.742188 96.007812 11.453125 94.71875 11.453125 93.105469 L 11.453125 89.234375 C 11.453125 87.621094 12.742188 86.332031 14.355469 86.332031 C 15.96875 86.332031 17.257812 87.621094 17.257812 89.234375 Z M 17.257812 93.105469 "/>
<path style=" stroke:none;fill-rule:nonzero;fill:rgb(17.647059%,71.764706%,0%);fill-opacity:1;" d="M 88.386719 93.105469 C 88.386719 94.71875 87.097656 96.007812 85.484375 96.007812 C 83.871094 96.007812 82.582031 94.71875 82.582031 93.105469 L 82.582031 89.234375 C 82.582031 87.621094 83.871094 86.332031 85.484375 86.332031 C 87.097656 86.332031 88.386719 87.621094 88.386719 89.234375 Z M 88.386719 93.105469 "/>
<path style=" stroke:none;fill-rule:nonzero;fill:rgb(31.764706%,80.784314%,0%);fill-opacity:1;" d="M 100 85.363281 C 100 88.75 97.097656 91.652344 93.546875 91.652344 L 6.453125 91.652344 C 2.902344 91.652344 0 88.910156 0 85.363281 L 0 33.75 C 0 30.363281 2.902344 27.460938 6.453125 27.460938 L 93.546875 27.460938 C 97.097656 27.460938 100 30.203125 100 33.75 Z M 100 85.363281 "/>
<path style=" stroke:none;fill-rule:nonzero;fill:rgb(38.431373%,53.72549%,48.235294%);fill-opacity:1;" d="M 56.289062 21.492188 L 50 27.78125 L 43.710938 21.492188 L 37.097656 21.492188 L 46.613281 31.007812 L 36.453125 41.167969 C 35.484375 42.136719 35.484375 43.589844 36.453125 44.554688 C 36.933594 45.039062 37.582031 45.203125 38.066406 45.203125 C 38.546875 45.203125 39.195312 45.039062 39.675781 44.554688 L 49.839844 34.394531 L 60 44.554688 C 60.484375 45.039062 61.128906 45.203125 61.613281 45.203125 C 62.097656 45.203125 62.742188 45.039062 63.226562 44.554688 C 64.195312 43.589844 64.195312 42.136719 63.226562 41.167969 L 53.066406 31.007812 L 62.582031 21.492188 Z M 56.289062 21.492188 "/>
<path style=" stroke:none;fill-rule:nonzero;fill:rgb(31.764706%,80.784314%,0%);fill-opacity:1;" d="M 100 83.425781 C 100 86.816406 97.097656 89.71875 93.546875 89.71875 L 6.453125 89.71875 C 2.902344 89.71875 0 86.976562 0 83.425781 L 0 31.816406 C 0 28.425781 2.902344 25.523438 6.453125 25.523438 L 93.546875 25.523438 C 97.097656 25.523438 100 28.265625 100 31.816406 Z M 100 83.425781 "/>
<path style=" stroke:none;fill-rule:nonzero;fill:rgb(17.647059%,71.764706%,0%);fill-opacity:1;" d="M 0 33.75 C 0 30.363281 2.902344 27.460938 6.453125 27.460938 L 93.546875 27.460938 C 97.097656 27.460938 100 30.203125 100 33.75 L 100 85.363281 C 100 88.75 97.097656 91.652344 93.546875 91.652344 "/>
<path style=" stroke:none;fill-rule:nonzero;fill:rgb(6.27451%,64.705882%,1.568627%);fill-opacity:1;" d="M 74.195312 67.296875 C 74.195312 77.296875 65.96875 85.523438 55.96875 85.523438 L 26.933594 85.523438 C 16.773438 85.523438 8.546875 77.296875 8.546875 67.136719 L 8.546875 54.878906 C 8.546875 44.71875 16.773438 36.492188 26.933594 36.492188 L 55.96875 36.492188 C 66.128906 36.492188 74.355469 44.71875 74.355469 54.878906 L 74.355469 67.296875 Z M 74.195312 67.296875 "/>
<path style=" stroke:none;fill-rule:nonzero;fill:rgb(20.784314%,24.705882%,24.313725%);fill-opacity:1;" d="M 74.195312 65.683594 C 74.195312 75.847656 65.96875 84.074219 55.804688 84.074219 L 26.773438 84.074219 C 16.613281 84.074219 8.386719 75.847656 8.386719 65.683594 L 8.386719 53.425781 C 8.386719 43.265625 16.613281 35.039062 26.773438 35.039062 L 55.804688 35.039062 C 65.96875 35.039062 74.195312 43.265625 74.195312 53.425781 Z M 74.195312 65.683594 "/>
<path style=" stroke:none;fill-rule:nonzero;fill:rgb(6.27451%,8.627451%,8.235294%);fill-opacity:1;" d="M 26.933594 35.203125 L 55.96875 35.203125 C 66.128906 35.203125 74.355469 43.425781 74.355469 53.589844 L 74.355469 65.847656 C 74.355469 76.007812 66.128906 84.234375 55.96875 84.234375 "/>
<path style=" stroke:none;fill-rule:nonzero;fill:rgb(6.27451%,64.705882%,1.568627%);fill-opacity:1;" d="M 94.355469 61.167969 C 94.355469 61.816406 93.871094 62.136719 93.386719 62.136719 L 81.613281 62.136719 C 80.96875 62.136719 80.644531 61.652344 80.644531 61.167969 C 80.644531 60.523438 81.128906 60.203125 81.613281 60.203125 L 93.386719 60.203125 C 93.871094 60.039062 94.355469 60.523438 94.355469 61.167969 Z M 94.355469 61.167969 "/>
<path style=" stroke:none;fill-rule:nonzero;fill:rgb(6.27451%,64.705882%,1.568627%);fill-opacity:1;" d="M 94.355469 66.167969 C 94.355469 66.816406 93.871094 67.136719 93.386719 67.136719 L 81.613281 67.136719 C 80.96875 67.136719 80.644531 66.652344 80.644531 66.167969 C 80.644531 65.523438 81.128906 65.203125 81.613281 65.203125 L 93.386719 65.203125 C 93.871094 65.203125 94.355469 65.683594 94.355469 66.167969 Z M 94.355469 66.167969 "/>
<path style=" stroke:none;fill-rule:nonzero;fill:rgb(6.27451%,64.705882%,1.568627%);fill-opacity:1;" d="M 94.355469 71.332031 C 94.355469 71.976562 93.871094 72.296875 93.386719 72.296875 L 81.613281 72.296875 C 80.96875 72.296875 80.644531 71.816406 80.644531 71.332031 C 80.644531 70.683594 81.128906 70.363281 81.613281 70.363281 L 93.386719 70.363281 C 93.871094 70.203125 94.355469 70.683594 94.355469 71.332031 Z M 94.355469 71.332031 "/>
<path style=" stroke:none;fill-rule:nonzero;fill:rgb(6.27451%,64.705882%,1.568627%);fill-opacity:1;" d="M 94.355469 76.332031 C 94.355469 76.976562 93.871094 77.296875 93.386719 77.296875 L 81.613281 77.296875 C 80.96875 77.296875 80.644531 76.816406 80.644531 76.332031 C 80.644531 75.683594 81.128906 75.363281 81.613281 75.363281 L 93.386719 75.363281 C 93.871094 75.363281 94.355469 75.847656 94.355469 76.332031 Z M 94.355469 76.332031 "/>
<path style=" stroke:none;fill-rule:nonzero;fill:rgb(20.784314%,24.705882%,24.313725%);fill-opacity:1;" d="M 94.355469 60.039062 C 94.355469 60.683594 93.871094 61.007812 93.386719 61.007812 L 81.613281 61.007812 C 80.96875 61.007812 80.644531 60.523438 80.644531 60.039062 C 80.644531 59.394531 81.128906 59.074219 81.613281 59.074219 L 93.386719 59.074219 C 93.871094 59.074219 94.355469 59.554688 94.355469 60.039062 Z M 94.355469 60.039062 "/>
<path style=" stroke:none;fill-rule:nonzero;fill:rgb(20.784314%,24.705882%,24.313725%);fill-opacity:1;" d="M 94.355469 65.203125 C 94.355469 65.847656 93.871094 66.167969 93.386719 66.167969 L 81.613281 66.167969 C 80.96875 66.167969 80.644531 65.683594 80.644531 65.203125 C 80.644531 64.554688 81.128906 64.234375 81.613281 64.234375 L 93.386719 64.234375 C 93.871094 64.074219 94.355469 64.554688 94.355469 65.203125 Z M 94.355469 65.203125 "/>
<path style=" stroke:none;fill-rule:nonzero;fill:rgb(20.784314%,24.705882%,24.313725%);fill-opacity:1;" d="M 94.355469 70.203125 C 94.355469 70.847656 93.871094 71.167969 93.386719 71.167969 L 81.613281 71.167969 C 80.96875 71.167969 80.644531 70.683594 80.644531 70.203125 C 80.644531 69.554688 81.128906 69.234375 81.613281 69.234375 L 93.386719 69.234375 C 93.871094 69.234375 94.355469 69.71875 94.355469 70.203125 Z M 94.355469 70.203125 "/>
<path style=" stroke:none;fill-rule:nonzero;fill:rgb(20.784314%,24.705882%,24.313725%);fill-opacity:1;" d="M 94.355469 75.363281 C 94.355469 76.007812 93.871094 76.332031 93.386719 76.332031 L 81.613281 76.332031 C 80.96875 76.332031 80.644531 75.847656 80.644531 75.363281 C 80.644531 74.71875 81.128906 74.394531 81.613281 74.394531 L 93.386719 74.394531 C 93.871094 74.234375 94.355469 74.71875 94.355469 75.363281 Z M 94.355469 75.363281 "/>
<path style=" stroke:none;fill-rule:nonzero;fill:rgb(6.27451%,64.705882%,1.568627%);fill-opacity:1;" d="M 95.160156 46.652344 C 95.160156 50.839844 91.765625 54.234375 87.582031 54.234375 C 83.394531 54.234375 80 50.839844 80 46.652344 C 80 42.464844 83.394531 39.074219 87.582031 39.074219 C 91.765625 39.074219 95.160156 42.464844 95.160156 46.652344 Z M 95.160156 46.652344 "/>
<path style=" stroke:none;fill-rule:nonzero;fill:rgb(58.431373%,75.686275%,71.372549%);fill-opacity:1;" d="M 95.160156 44.394531 C 95.160156 48.582031 91.765625 51.976562 87.582031 51.976562 C 83.394531 51.976562 80 48.582031 80 44.394531 C 80 40.207031 83.394531 36.816406 87.582031 36.816406 C 91.765625 36.816406 95.160156 40.207031 95.160156 44.394531 Z M 95.160156 44.394531 "/>
<path style=" stroke:none;fill-rule:nonzero;fill:rgb(52.54902%,69.803922%,64.705882%);fill-opacity:1;" d="M 82.257812 39.074219 C 85.160156 36.167969 90 36.167969 92.902344 39.074219 C 95.804688 41.976562 95.804688 46.816406 92.902344 49.71875 "/>
<path style=" stroke:none;fill-rule:nonzero;fill:rgb(47.058824%,65.882353%,59.607843%);fill-opacity:1;" d="M 92.417969 44.394531 C 92.417969 47.066406 90.253906 49.234375 87.582031 49.234375 C 84.910156 49.234375 82.742188 47.066406 82.742188 44.394531 C 82.742188 41.722656 84.910156 39.554688 87.582031 39.554688 C 90.253906 39.554688 92.417969 41.722656 92.417969 44.394531 Z M 92.417969 44.394531 "/>
<path style=" stroke:none;fill-rule:nonzero;fill:rgb(52.54902%,69.803922%,64.705882%);fill-opacity:1;" d="M 84.03125 47.78125 C 82.097656 45.847656 82.097656 42.78125 84.03125 40.847656 C 85.96875 38.910156 89.03125 38.910156 90.96875 40.847656 "/>
</g>
</svg>
<!-- iconic normalized -->