<?xml version="1.0" encoding="UTF-8"?>
<svg xmlns="http://www.w3.org/2000/svg" xmlns:xlink="http://www.w3.org/1999/xlink" width="100px" height="100px" viewBox="0 0 100 100" version="1.1">
<g id="surface1">
<path style=" stroke:none;fill-rule:nonzero;fill:rgb(67.843137%,50.588235%,24.313725%);fill-opacity:1;" d="M 43.433594 10.917969 L 10.960938 10.917969 C 8.59375 10.917969 6.675781 12.839844 6.675781 15.207031 L 6.675781 26.554688 C 6.675781 28.921875 8.59375 30.839844 10.960938 30.839844 L 43.433594 30.839844 C 45.800781 30.839844 47.71875 28.921875 47.71875 26.554688 L 47.71875 15.207031 C 47.71875 12.839844 45.800781 10.917969 43.433594 10.917969 Z M 43.433594 10.917969 "/>
<path style=" stroke:none;fill-rule:nonzero;fill:rgb(99.215686%,80%,25.098039%);fill-opacity:1;" d="M 95.714844 89.082031 L 4.285156 89.082031 C 1.917969 89.082031 0 87.160156 0 84.792969 L 0 27.410156 C 0 25.042969 1.917969 23.125 4.285156 23.125 L 95.714844 23.125 C 98.082031 23.125 100 25.042969 100 27.410156 L 100 84.792969 C 100 87.160156 98.082031 89.082031 95.714844 89.082031 Z M 95.714844 89.082031 "/>
<path style=" stroke:none;fill-rule:nonzero;fill:rgb(87.058824%,70.588235%,22.745098%);fill-opacity:1;" d="M 50 89.082031 L 4.285156 89.082031 C 1.917969 89.082031 0 87.160156 0 84.792969 L 0 27.410156 C 0 25.042969 1.917969 23.125 4.285156 23.125 L 50 23.125 Z M 50 89.082031 "/>
</g>
</svg>
<!-- iconic normalized -->