<?xml version="1.0" encoding="UTF-8"?>
<svg xmlns="http://www.w3.org/2000/svg" xmlns:xlink="http://www.w3.org/1999/xlink" width="100px" height="100px" viewBox="0 0 100 100" version="1.1">
<g id="surface1">
<path style=" stroke:none;fill-rule:nonzero;fill:rgb(19.607843%,21.568627%,23.137255%);fill-opacity:1;" d="M 100 50 C 100 77.613281 77.613281 100 50 100 C 22.386719 100 0 77.613281 0 50 C 0 22.386719 22.386719 0 50 0 C 77.613281 0 100 22.386719 100 50 Z M 100 50 "/>
<path style=" stroke:none;fill-rule:nonzero;fill:rgb(14.901961%,14.901961%,14.901961%);fill-opacity:1;" d="M 99.296875 41.625 L 80.277344 22.582031 L 44.445312 46.667969 C 44.675781 51.792969 45.816406 63.917969 40.910156 65.824219 C 36.84375 67.59375 32.40625 67.6875 27.839844 67.480469 L 22.792969 71.707031 L 51.074219 99.988281 C 78.191406 99.414062 100 77.253906 100 50 C 100 47.144531 99.757812 44.347656 99.296875 41.625 Z M 99.296875 41.625 "/>
<path style=" stroke:none;fill-rule:nonzero;fill:rgb(75.294118%,75.294118%,72.156863%);fill-opacity:1;" d="M 40.601562 68.183594 L 27.777344 68.183594 C 26.941406 68.183594 26.261719 67.503906 26.261719 66.667969 C 26.261719 65.828125 26.941406 65.152344 27.777344 65.152344 L 40.601562 65.152344 C 41.882812 65.152344 42.929688 64.105469 42.929688 62.824219 L 42.929688 50 C 42.929688 49.164062 43.609375 48.484375 44.445312 48.484375 C 45.28125 48.484375 45.960938 49.164062 45.960938 50 L 45.960938 62.824219 C 45.960938 65.777344 43.554688 68.183594 40.601562 68.183594 Z M 40.601562 68.183594 "/>
<path style=" stroke:none;fill-rule:nonzero;fill:rgb(100%,100%,100%);fill-opacity:1;" d="M 48.148438 53.199219 L 40.742188 53.199219 C 39.71875 53.199219 38.890625 52.371094 38.890625 51.347656 L 38.890625 43.9375 C 38.890625 42.917969 39.71875 42.085938 40.742188 42.085938 L 48.148438 42.085938 C 49.171875 42.085938 50 42.917969 50 43.9375 L 50 51.347656 C 50 52.371094 49.171875 53.199219 48.148438 53.199219 Z M 48.148438 53.199219 "/>
<path style=" stroke:none;fill-rule:nonzero;fill:rgb(72.156863%,78.823529%,94.509804%);fill-opacity:1;" d="M 31.480469 72.222656 L 24.074219 72.222656 C 23.050781 72.222656 22.222656 71.394531 22.222656 70.371094 L 22.222656 62.964844 C 22.222656 61.941406 23.050781 61.109375 24.074219 61.109375 L 31.480469 61.109375 C 32.503906 61.109375 33.332031 61.941406 33.332031 62.964844 L 33.332031 70.371094 C 33.332031 71.394531 32.503906 72.222656 31.480469 72.222656 Z M 31.480469 72.222656 "/>
<path style=" stroke:none;fill-rule:nonzero;fill:rgb(72.156863%,78.823529%,94.509804%);fill-opacity:1;" d="M 72.128906 40.554688 L 80.09375 40.554688 C 81.269531 40.554688 82.222656 39.601562 82.222656 38.425781 L 82.222656 30.464844 C 82.222656 29.285156 81.269531 28.332031 80.09375 28.332031 L 72.128906 28.332031 C 70.953125 28.332031 70 29.285156 70 30.464844 L 70 38.425781 C 70 39.601562 70.953125 40.554688 72.128906 40.554688 Z M 72.128906 40.554688 "/>
<path style=" stroke:none;fill-rule:nonzero;fill:rgb(81.568627%,83.529412%,85.098039%);fill-opacity:1;" d="M 71.449219 46.667969 L 32.4375 46.667969 C 29.863281 46.667969 27.777344 44.582031 27.777344 42.007812 L 27.777344 26.882812 C 27.777344 24.308594 29.863281 22.222656 32.4375 22.222656 L 71.449219 22.222656 C 74.023438 22.222656 76.109375 24.308594 76.109375 26.882812 L 76.109375 42.007812 C 76.109375 44.582031 74.023438 46.667969 71.449219 46.667969 Z M 71.449219 46.667969 "/>
<path style=" stroke:none;fill-rule:nonzero;fill:rgb(66.27451%,69.019608%,70.980392%);fill-opacity:1;" d="M 71.449219 22.222656 L 51.457031 22.222656 L 51.457031 46.667969 L 71.449219 46.667969 C 74.023438 46.667969 76.109375 44.582031 76.109375 42.007812 L 76.109375 26.882812 C 76.109375 24.308594 74.023438 22.222656 71.449219 22.222656 Z M 71.449219 22.222656 "/>
<path style=" stroke:none;fill-rule:nonzero;fill:rgb(100%,100%,100%);fill-opacity:1;" d="M 80.253906 24.191406 L 70.339844 34.105469 C 70.121094 34.324219 69.828125 34.445312 69.523438 34.445312 L 28.933594 34.445312 C 28.292969 34.445312 27.777344 33.929688 27.777344 33.289062 L 27.777344 23.375 C 27.777344 22.738281 28.292969 22.222656 28.933594 22.222656 L 79.4375 22.222656 C 80.464844 22.222656 80.980469 23.464844 80.253906 24.191406 Z M 80.253906 24.191406 "/>
<path style=" stroke:none;fill-rule:nonzero;fill:rgb(81.568627%,83.529412%,85.098039%);fill-opacity:1;" d="M 79.4375 22.222656 L 51.460938 22.222656 L 51.460938 34.445312 L 69.523438 34.445312 C 69.828125 34.445312 70.121094 34.324219 70.339844 34.105469 L 80.253906 24.191406 C 80.980469 23.464844 80.464844 22.222656 79.4375 22.222656 Z M 79.4375 22.222656 "/>
</g>
</svg>
<!-- iconic normalized -->