<?xml version="1.0" encoding="UTF-8"?>
<svg xmlns="http://www.w3.org/2000/svg" xmlns:xlink="http://www.w3.org/1999/xlink" width="100px" height="100px" viewBox="0 0 100 100" version="1.1">
<g id="surface1">
<path style=" stroke:none;fill-rule:nonzero;fill:rgb(100%,81.176471%,42.745098%);fill-opacity:1;" d="M 100 50 C 100 77.613281 77.613281 100 50 100 C 22.386719 100 0 77.613281 0 50 C 0 22.386719 22.386719 0 50 0 C 77.613281 0 100 22.386719 100 50 Z M 100 50 "/>
<path style=" stroke:none;fill-rule:nonzero;fill:rgb(87.843137%,66.666667%,29.411765%);fill-opacity:1;" d="M 59.917969 19.785156 C 58.742188 20.296875 57.484375 20.238281 57.070312 20.035156 C 50 17.339844 41.582031 17.003906 37.207031 24.074219 C 35.859375 26.429688 35.523438 29.125 35.859375 31.480469 C 36.863281 48.207031 39.878906 64.9375 31.339844 80.675781 L 50.640625 99.992188 C 74.882812 99.6875 94.96875 82.132812 99.183594 59.035156 Z M 59.917969 19.785156 "/>
<path style=" stroke:none;fill-rule:nonzero;fill:rgb(54.117647%,56.470588%,57.647059%);fill-opacity:1;" d="M 63.214844 25.535156 C 60.558594 17.195312 51.582031 12.625 43.253906 15.429688 C 35.101562 18.175781 30.789062 27.101562 33.398438 35.296875 L 38.078125 50 L 41.472656 43.429688 L 38.367188 33.671875 C 36.640625 28.242188 39.433594 22.296875 44.816406 20.421875 C 50.398438 18.472656 56.449219 21.523438 58.230469 27.121094 L 58.242188 27.15625 C 58.636719 28.390625 59.984375 29.042969 61.195312 28.589844 L 61.851562 28.34375 C 62.980469 27.917969 63.582031 26.683594 63.214844 25.535156 Z M 63.214844 25.535156 "/>
<path style=" stroke:none;fill-rule:nonzero;fill:rgb(45.490196%,47.843137%,48.627451%);fill-opacity:1;" d="M 63.214844 25.535156 C 61.238281 19.332031 55.765625 15.214844 49.664062 14.667969 L 49.664062 19.929688 C 53.542969 20.453125 56.964844 23.144531 58.230469 27.121094 L 58.242188 27.15625 C 58.636719 28.390625 59.984375 29.042969 61.195312 28.589844 L 61.851562 28.34375 C 62.980469 27.917969 63.582031 26.683594 63.214844 25.535156 Z M 63.214844 25.535156 "/>
<path style=" stroke:none;fill-rule:nonzero;fill:rgb(19.607843%,21.568627%,23.137255%);fill-opacity:1;" d="M 35.359375 82.199219 L 64.640625 82.199219 C 67.992188 82.199219 70.707031 79.480469 70.707031 76.132812 L 70.707031 46.847656 C 70.707031 43.5 67.992188 40.785156 64.640625 40.785156 L 35.359375 40.785156 C 32.007812 40.785156 29.292969 43.5 29.292969 46.847656 L 29.292969 76.132812 C 29.292969 79.480469 32.007812 82.199219 35.359375 82.199219 Z M 35.359375 82.199219 "/>
<path style=" stroke:none;fill-rule:nonzero;fill:rgb(16.078431%,17.647059%,18.823529%);fill-opacity:1;" d="M 64.640625 40.785156 L 49.664062 40.785156 L 49.664062 82.199219 L 64.640625 82.199219 C 67.992188 82.199219 70.707031 79.480469 70.707031 76.132812 L 70.707031 46.847656 C 70.707031 43.5 67.992188 40.785156 64.640625 40.785156 Z M 64.640625 40.785156 "/>
<path style=" stroke:none;fill-rule:nonzero;fill:rgb(100%,100%,100%);fill-opacity:1;" d="M 54.078125 58.941406 C 54.078125 56.6875 52.253906 54.863281 50 54.863281 C 47.746094 54.863281 45.921875 56.6875 45.921875 58.941406 C 45.921875 60.230469 46.519531 61.375 47.449219 62.121094 L 47.449219 65.570312 C 47.449219 66.976562 48.59375 68.117188 50 68.117188 C 51.40625 68.117188 52.550781 66.976562 52.550781 65.570312 L 52.550781 62.121094 C 53.480469 61.375 54.078125 60.230469 54.078125 58.941406 Z M 54.078125 58.941406 "/>
<path style=" stroke:none;fill-rule:nonzero;fill:rgb(89.019608%,89.803922%,89.411765%);fill-opacity:1;" d="M 50 54.863281 C 49.886719 54.863281 49.773438 54.871094 49.664062 54.878906 L 49.664062 68.09375 C 49.773438 68.109375 49.886719 68.117188 50 68.117188 C 51.40625 68.117188 52.550781 66.976562 52.550781 65.570312 L 52.550781 62.121094 C 53.480469 61.375 54.078125 60.226562 54.078125 58.941406 C 54.078125 56.6875 52.253906 54.863281 50 54.863281 Z M 50 54.863281 "/>
</g>
</svg>
<!-- iconic normalized -->