<?xml version="1.0" encoding="UTF-8"?>
<svg xmlns="http://www.w3.org/2000/svg" xmlns:xlink="http://www.w3.org/1999/xlink" width="100px" height="100px" viewBox="0 0 100 100" version="1.1">
<g id="surface1">
<path style=" stroke:none;fill-rule:nonzero;fill:rgb(53.333333%,75.294118%,34.117647%);fill-opacity:1;" d="M 77.964844 59.320312 C 77.53125 59.320312 77.097656 59.15625 76.769531 58.824219 C 76.105469 58.164062 76.105469 57.089844 76.769531 56.429688 L 86.9375 46.257812 C 87.601562 45.597656 88.671875 45.597656 89.332031 46.257812 C 89.996094 46.921875 89.996094 47.992188 89.332031 48.65625 L 79.164062 58.824219 C 78.832031 59.15625 78.398438 59.320312 77.964844 59.320312 Z M 77.964844 59.320312 "/>
<path style=" stroke:none;fill-rule:nonzero;fill:rgb(53.333333%,75.294118%,34.117647%);fill-opacity:1;" d="M 98.304688 59.320312 C 97.871094 59.320312 97.4375 59.15625 97.105469 58.824219 L 86.9375 48.65625 C 86.273438 47.992188 86.273438 46.921875 86.9375 46.257812 C 87.601562 45.597656 88.671875 45.597656 89.332031 46.257812 L 99.503906 56.429688 C 100.167969 57.089844 100.167969 58.164062 99.503906 58.824219 C 99.171875 59.15625 98.738281 59.320312 98.304688 59.320312 Z M 98.304688 59.320312 "/>
<path style=" stroke:none;fill-rule:nonzero;fill:rgb(53.333333%,75.294118%,34.117647%);fill-opacity:1;" d="M 88.136719 96.609375 C 87.199219 96.609375 86.441406 95.851562 86.441406 94.914062 L 86.441406 47.457031 C 86.441406 46.519531 87.199219 45.761719 88.136719 45.761719 C 89.074219 45.761719 89.832031 46.519531 89.832031 47.457031 L 89.832031 94.914062 C 89.832031 95.851562 89.074219 96.609375 88.136719 96.609375 Z M 88.136719 96.609375 "/>
<path style=" stroke:none;fill-rule:nonzero;fill:rgb(17.254902%,18.431373%,21.960784%);fill-opacity:1;" d="M 0 3.390625 L 0 11.863281 L 77.964844 11.863281 L 77.964844 3.390625 Z M 0 3.390625 "/>
<path style=" stroke:none;fill-rule:nonzero;fill:rgb(83.921569%,63.921569%,37.254902%);fill-opacity:1;" d="M 5.085938 8.472656 L 5.085938 89.460938 C 5.085938 92.472656 7.527344 94.914062 10.539062 94.914062 L 67.429688 94.914062 C 70.441406 94.914062 72.882812 92.472656 72.882812 89.460938 L 72.882812 8.472656 Z M 5.085938 8.472656 "/>
<path style=" stroke:none;fill-rule:nonzero;fill:rgb(92.54902%,94.117647%,94.509804%);fill-opacity:1;" d="M 15.253906 27.117188 L 25.421875 27.117188 L 25.421875 40.679688 L 15.253906 40.679688 Z M 15.253906 27.117188 "/>
<path style=" stroke:none;fill-rule:nonzero;fill:rgb(92.54902%,94.117647%,94.509804%);fill-opacity:1;" d="M 15.253906 47.457031 L 25.421875 47.457031 L 25.421875 61.015625 L 15.253906 61.015625 Z M 15.253906 47.457031 "/>
<path style=" stroke:none;fill-rule:nonzero;fill:rgb(92.54902%,94.117647%,94.509804%);fill-opacity:1;" d="M 15.253906 67.796875 L 25.421875 67.796875 L 25.421875 81.355469 L 15.253906 81.355469 Z M 15.253906 67.796875 "/>
<path style=" stroke:none;fill-rule:nonzero;fill:rgb(67.843137%,50.196078%,28.627451%);fill-opacity:1;" d="M 59.320312 59.320312 C 58.382812 59.320312 57.628906 58.5625 57.628906 57.628906 L 57.628906 42.371094 C 57.628906 41.4375 58.382812 40.679688 59.320312 40.679688 C 60.257812 40.679688 61.015625 41.4375 61.015625 42.371094 L 61.015625 57.628906 C 61.015625 58.5625 60.257812 59.320312 59.320312 59.320312 Z M 59.320312 59.320312 "/>
<path style=" stroke:none;fill-rule:nonzero;fill:rgb(67.843137%,50.196078%,28.627451%);fill-opacity:1;" d="M 59.320312 81.355469 C 58.382812 81.355469 57.628906 80.597656 57.628906 79.660156 L 57.628906 64.40625 C 57.628906 63.46875 58.382812 62.710938 59.320312 62.710938 C 60.257812 62.710938 61.015625 63.46875 61.015625 64.40625 L 61.015625 79.660156 C 61.015625 80.597656 60.257812 81.355469 59.320312 81.355469 Z M 59.320312 81.355469 "/>
<path style=" stroke:none;fill-rule:nonzero;fill:rgb(67.843137%,50.196078%,28.627451%);fill-opacity:1;" d="M 50.847656 45.761719 C 49.910156 45.761719 49.152344 45.003906 49.152344 44.066406 L 49.152344 42.371094 C 49.152344 41.4375 49.910156 40.679688 50.847656 40.679688 C 51.785156 40.679688 52.542969 41.4375 52.542969 42.371094 L 52.542969 44.066406 C 52.542969 45.003906 51.785156 45.761719 50.847656 45.761719 Z M 50.847656 45.761719 "/>
<path style=" stroke:none;fill-rule:nonzero;fill:rgb(67.843137%,50.196078%,28.627451%);fill-opacity:1;" d="M 50.847656 55.933594 C 49.910156 55.933594 49.152344 55.175781 49.152344 54.238281 L 49.152344 50.847656 C 49.152344 49.910156 49.910156 49.152344 50.847656 49.152344 C 51.785156 49.152344 52.542969 49.910156 52.542969 50.847656 L 52.542969 54.238281 C 52.542969 55.175781 51.785156 55.933594 50.847656 55.933594 Z M 50.847656 55.933594 "/>
<path style=" stroke:none;fill-rule:nonzero;fill:rgb(67.843137%,50.196078%,28.627451%);fill-opacity:1;" d="M 50.847656 64.40625 C 49.910156 64.40625 49.152344 63.648438 49.152344 62.710938 L 49.152344 61.015625 C 49.152344 60.078125 49.910156 59.320312 50.847656 59.320312 C 51.785156 59.320312 52.542969 60.078125 52.542969 61.015625 L 52.542969 62.710938 C 52.542969 63.648438 51.785156 64.40625 50.847656 64.40625 Z M 50.847656 64.40625 "/>
<path style=" stroke:none;fill-rule:nonzero;fill:rgb(67.843137%,50.196078%,28.627451%);fill-opacity:1;" d="M 50.847656 74.578125 C 49.910156 74.578125 49.152344 73.820312 49.152344 72.882812 L 49.152344 69.492188 C 49.152344 68.554688 49.910156 67.796875 50.847656 67.796875 C 51.785156 67.796875 52.542969 68.554688 52.542969 69.492188 L 52.542969 72.882812 C 52.542969 73.820312 51.785156 74.578125 50.847656 74.578125 Z M 50.847656 74.578125 "/>
<path style=" stroke:none;fill-rule:nonzero;fill:rgb(67.843137%,50.196078%,28.627451%);fill-opacity:1;" d="M 50.847656 81.355469 C 50.40625 81.355469 49.964844 81.167969 49.644531 80.863281 C 49.335938 80.542969 49.152344 80.101562 49.152344 79.660156 C 49.152344 79.21875 49.335938 78.777344 49.644531 78.457031 C 50.289062 77.832031 51.421875 77.832031 52.050781 78.457031 C 52.355469 78.777344 52.542969 79.21875 52.542969 79.660156 C 52.542969 80.117188 52.355469 80.542969 52.050781 80.863281 C 51.730469 81.167969 51.304688 81.355469 50.847656 81.355469 Z M 50.847656 81.355469 "/>
<path style=" stroke:none;fill-rule:nonzero;fill:rgb(92.54902%,94.117647%,94.509804%);fill-opacity:1;" d="M 15.253906 8.472656 L 25.421875 8.472656 L 25.421875 20.339844 L 15.253906 20.339844 Z M 15.253906 8.472656 "/>
<path style=" stroke:none;fill-rule:nonzero;fill:rgb(94.117647%,76.862745%,9.803922%);fill-opacity:1;" d="M 44.066406 10.167969 L 44.066406 31.769531 C 44.066406 32.945312 45.019531 33.898438 46.195312 33.898438 L 62.28125 33.898438 C 63.453125 33.898438 64.40625 32.945312 64.40625 31.769531 L 64.40625 10.167969 Z M 44.066406 10.167969 "/>
<path style=" stroke:none;fill-rule:nonzero;fill:rgb(95.294118%,83.529412%,35.686275%);fill-opacity:1;" d="M 62.28125 35.59375 L 46.195312 35.59375 C 44.089844 35.59375 42.371094 33.878906 42.371094 31.769531 L 42.371094 8.472656 L 66.101562 8.472656 L 66.101562 31.769531 C 66.101562 33.878906 64.386719 35.59375 62.28125 35.59375 Z M 45.761719 11.863281 L 45.761719 31.769531 C 45.761719 32.011719 45.957031 32.203125 46.195312 32.203125 L 62.28125 32.203125 C 62.519531 32.203125 62.710938 32.011719 62.710938 31.769531 L 62.710938 11.863281 Z M 45.761719 11.863281 "/>
<path style=" stroke:none;fill-rule:nonzero;fill:rgb(94.117647%,76.862745%,9.803922%);fill-opacity:1;" d="M 62.28125 33.898438 C 63.453125 33.898438 64.40625 32.945312 64.40625 31.769531 L 64.40625 19.078125 C 64.40625 17.902344 63.453125 16.949219 62.28125 16.949219 L 46.195312 16.949219 C 45.019531 16.949219 44.066406 17.902344 44.066406 19.078125 L 44.066406 21.601562 C 44.066406 22.777344 45.019531 23.730469 46.195312 23.730469 L 55.5 23.730469 C 56.675781 23.730469 57.628906 24.679688 57.628906 25.855469 L 57.628906 31.769531 C 57.628906 32.945312 58.578125 33.898438 59.753906 33.898438 Z M 62.28125 33.898438 "/>
<path style=" stroke:none;fill-rule:nonzero;fill:rgb(95.294118%,83.529412%,35.686275%);fill-opacity:1;" d="M 62.28125 35.59375 L 59.753906 35.59375 C 57.648438 35.59375 55.933594 33.878906 55.933594 31.769531 L 55.933594 25.855469 C 55.933594 25.617188 55.738281 25.421875 55.5 25.421875 L 46.195312 25.421875 C 44.089844 25.421875 42.371094 23.707031 42.371094 21.601562 L 42.371094 19.078125 C 42.371094 16.96875 44.089844 15.253906 46.195312 15.253906 L 62.28125 15.253906 C 64.386719 15.253906 66.101562 16.96875 66.101562 19.078125 L 66.101562 31.769531 C 66.101562 33.878906 64.386719 35.59375 62.28125 35.59375 Z M 46.195312 18.644531 C 45.957031 18.644531 45.761719 18.835938 45.761719 19.078125 L 45.761719 21.601562 C 45.761719 21.839844 45.957031 22.035156 46.195312 22.035156 L 55.5 22.035156 C 57.605469 22.035156 59.320312 23.75 59.320312 25.855469 L 59.320312 31.769531 C 59.320312 32.011719 59.515625 32.203125 59.753906 32.203125 L 62.28125 32.203125 C 62.519531 32.203125 62.710938 32.011719 62.710938 31.769531 L 62.710938 19.078125 C 62.710938 18.835938 62.519531 18.644531 62.28125 18.644531 Z M 46.195312 18.644531 "/>
<path style=" stroke:none;fill-rule:nonzero;fill:rgb(95.294118%,83.529412%,35.686275%);fill-opacity:1;" d="M 50.847656 35.59375 C 49.910156 35.59375 49.152344 34.835938 49.152344 33.898438 L 49.152344 23.730469 C 49.152344 22.792969 49.910156 22.035156 50.847656 22.035156 C 51.785156 22.035156 52.542969 22.792969 52.542969 23.730469 L 52.542969 33.898438 C 52.542969 34.835938 51.785156 35.59375 50.847656 35.59375 Z M 50.847656 35.59375 "/>
<path style=" stroke:none;fill-rule:nonzero;fill:rgb(95.294118%,83.529412%,35.686275%);fill-opacity:1;" d="M 57.628906 18.644531 C 56.691406 18.644531 55.933594 17.886719 55.933594 16.949219 L 55.933594 10.167969 C 55.933594 9.230469 56.691406 8.472656 57.628906 8.472656 C 58.5625 8.472656 59.320312 9.230469 59.320312 10.167969 L 59.320312 16.949219 C 59.320312 17.886719 58.5625 18.644531 57.628906 18.644531 Z M 57.628906 18.644531 "/>
<path style=" stroke:none;fill-rule:nonzero;fill:rgb(95.294118%,83.529412%,35.686275%);fill-opacity:1;" d="M 50.847656 18.644531 C 49.910156 18.644531 49.152344 17.886719 49.152344 16.949219 L 49.152344 10.167969 C 49.152344 9.230469 49.910156 8.472656 50.847656 8.472656 C 51.785156 8.472656 52.542969 9.230469 52.542969 10.167969 L 52.542969 16.949219 C 52.542969 17.886719 51.785156 18.644531 50.847656 18.644531 Z M 50.847656 18.644531 "/>
</g>
</svg>
<!-- iconic normalized -->