<?xml version="1.0" encoding="UTF-8"?>
<svg xmlns="http://www.w3.org/2000/svg" xmlns:xlink="http://www.w3.org/1999/xlink" width="100px" height="100px" viewBox="0 0 100 100" version="1.1">
<g id="surface1">
<path style=" stroke:none;fill-rule:nonzero;fill:rgb(87.843137%,77.647059%,66.27451%);fill-opacity:1;" d="M 2.542969 8.472656 L 97.457031 8.472656 L 97.457031 32.203125 L 2.542969 32.203125 Z M 2.542969 8.472656 "/>
<path style=" stroke:none;fill-rule:nonzero;fill:rgb(100%,92.54902%,84.313725%);fill-opacity:1;" d="M 85.59375 18.644531 L 95.761719 8.472656 L 99.152344 8.472656 L 99.152344 32.203125 L 95.761719 32.203125 L 85.59375 18.644531 "/>
<path style=" stroke:none;fill-rule:nonzero;fill:rgb(80%,69.803922%,59.215686%);fill-opacity:1;" d="M 85.59375 18.644531 L 85.59375 32.203125 L 95.761719 32.203125 Z M 85.59375 18.644531 "/>
<path style=" stroke:none;fill-rule:nonzero;fill:rgb(100%,92.54902%,84.313725%);fill-opacity:1;" d="M 14.40625 18.644531 L 4.238281 8.472656 L 0.847656 8.472656 L 0.847656 32.203125 L 4.238281 32.203125 L 14.40625 18.644531 "/>
<path style=" stroke:none;fill-rule:nonzero;fill:rgb(80%,69.803922%,59.215686%);fill-opacity:1;" d="M 14.40625 18.644531 L 14.40625 32.203125 L 4.238281 32.203125 Z M 14.40625 18.644531 "/>
<path style=" stroke:none;fill-rule:nonzero;fill:rgb(94.117647%,84.313725%,72.156863%);fill-opacity:1;" d="M 92.808594 100 L 7.191406 100 C 3.6875 100 0.847656 97.160156 0.847656 93.65625 L 0.847656 32.203125 L 99.152344 32.203125 L 99.152344 93.65625 C 99.152344 97.160156 96.3125 100 92.808594 100 Z M 92.808594 100 "/>
<path style=" stroke:none;fill-rule:nonzero;fill:rgb(44.705882%,32.941176%,22.745098%);fill-opacity:1;" d="M 34.746094 45.761719 C 34.746094 48.570312 32.46875 50.847656 29.660156 50.847656 C 26.851562 50.847656 24.578125 48.570312 24.578125 45.761719 C 24.578125 42.953125 26.851562 40.679688 29.660156 40.679688 C 32.46875 40.679688 34.746094 42.953125 34.746094 45.761719 Z M 34.746094 45.761719 "/>
<path style=" stroke:none;fill-rule:nonzero;fill:rgb(44.705882%,32.941176%,22.745098%);fill-opacity:1;" d="M 75.421875 45.761719 C 75.421875 48.570312 73.148438 50.847656 70.339844 50.847656 C 67.53125 50.847656 65.253906 48.570312 65.253906 45.761719 C 65.253906 42.953125 67.53125 40.679688 70.339844 40.679688 C 73.148438 40.679688 75.421875 42.953125 75.421875 45.761719 Z M 75.421875 45.761719 "/>
<path style=" stroke:none;fill-rule:nonzero;fill:rgb(80.784314%,71.372549%,61.960784%);fill-opacity:1;" d="M 50 77.964844 C 37.851562 77.964844 27.964844 68.082031 27.964844 55.933594 L 27.964844 45.761719 C 27.964844 44.824219 28.722656 44.066406 29.660156 44.066406 C 30.597656 44.066406 31.355469 44.824219 31.355469 45.761719 L 31.355469 55.933594 C 31.355469 66.210938 39.71875 74.578125 50 74.578125 C 60.28125 74.578125 68.644531 66.210938 68.644531 55.933594 L 68.644531 45.761719 C 68.644531 44.824219 69.402344 44.066406 70.339844 44.066406 C 71.277344 44.066406 72.035156 44.824219 72.035156 45.761719 L 72.035156 55.933594 C 72.035156 68.082031 62.148438 77.964844 50 77.964844 Z M 50 77.964844 "/>
<path style=" stroke:none;fill-rule:nonzero;fill:rgb(92.941176%,44.313725%,38.039216%);fill-opacity:1;" d="M 63.558594 13.558594 C 63.558594 21.046875 57.488281 27.117188 50 27.117188 C 42.511719 27.117188 36.441406 21.046875 36.441406 13.558594 C 36.441406 6.070312 42.511719 0 50 0 C 57.488281 0 63.558594 6.070312 63.558594 13.558594 Z M 63.558594 13.558594 "/>
<path style=" stroke:none;fill-rule:nonzero;fill:rgb(100%,100%,100%);fill-opacity:1;" d="M 50 23.597656 C 49.0625 23.597656 48.304688 22.839844 48.304688 21.902344 L 48.304688 5.214844 C 48.304688 4.277344 49.0625 3.519531 50 3.519531 C 50.9375 3.519531 51.695312 4.277344 51.695312 5.214844 L 51.695312 21.902344 C 51.695312 22.839844 50.9375 23.597656 50 23.597656 Z M 50 23.597656 "/>
<path style=" stroke:none;fill-rule:nonzero;fill:rgb(100%,100%,100%);fill-opacity:1;" d="M 42.699219 14.210938 C 42.265625 14.210938 41.832031 14.046875 41.5 13.714844 C 40.835938 13.050781 40.835938 11.980469 41.5 11.320312 L 48.800781 4.015625 C 49.464844 3.355469 50.535156 3.355469 51.199219 4.015625 C 51.859375 4.679688 51.859375 5.75 51.199219 6.414062 L 43.898438 13.714844 C 43.566406 14.046875 43.132812 14.210938 42.699219 14.210938 Z M 42.699219 14.210938 "/>
<path style=" stroke:none;fill-rule:nonzero;fill:rgb(100%,100%,100%);fill-opacity:1;" d="M 57.300781 14.210938 C 56.867188 14.210938 56.433594 14.046875 56.101562 13.714844 L 48.800781 6.414062 C 48.140625 5.75 48.140625 4.679688 48.800781 4.015625 C 49.464844 3.355469 50.535156 3.355469 51.199219 4.015625 L 58.5 11.320312 C 59.164062 11.980469 59.164062 13.050781 58.5 13.714844 C 58.167969 14.046875 57.734375 14.210938 57.300781 14.210938 Z M 57.300781 14.210938 "/>
</g>
</svg>
<!-- iconic normalized -->