<?xml version="1.0" encoding="UTF-8"?>
<svg xmlns="http://www.w3.org/2000/svg" xmlns:xlink="http://www.w3.org/1999/xlink" width="100px" height="100px" viewBox="0 0 100 100" version="1.1">
<g id="surface1">
<path style=" stroke:none;fill-rule:nonzero;fill:rgb(52.54902%,34.117647%,24.705882%);fill-opacity:1;" d="M 95.863281 22.757812 C 94.070312 21.414062 91.894531 20.691406 89.65625 20.691406 L 10.34375 20.691406 C 8.105469 20.691406 5.929688 21.414062 4.136719 22.757812 C 1.53125 24.710938 0 27.777344 0 31.035156 L 0 86.207031 L 4.117188 86.207031 C 8.507812 86.207031 12.070312 89.765625 12.070312 94.160156 L 12.070312 98.277344 L 87.929688 98.277344 L 87.929688 94.160156 C 87.929688 89.765625 91.492188 86.207031 95.882812 86.207031 L 100 86.207031 L 100 31.035156 C 100 27.777344 98.46875 24.710938 95.863281 22.757812 Z M 95.863281 22.757812 "/>
<path style=" stroke:none;fill-rule:nonzero;fill:rgb(62.745098%,40%,27.45098%);fill-opacity:1;" d="M 19.277344 15.515625 L 15.207031 15.515625 C 13.472656 15.515625 12.070312 16.921875 12.070312 18.652344 L 12.070312 70.691406 C 12.070312 73.546875 14.382812 75.863281 17.242188 75.863281 C 20.097656 75.863281 22.414062 73.546875 22.414062 70.691406 L 22.414062 18.652344 C 22.414062 16.921875 21.007812 15.515625 19.277344 15.515625 Z M 19.277344 15.515625 "/>
<path style=" stroke:none;fill-rule:nonzero;fill:rgb(62.745098%,40%,27.45098%);fill-opacity:1;" d="M 84.792969 15.515625 L 80.722656 15.515625 C 78.992188 15.515625 77.585938 16.921875 77.585938 18.652344 L 77.585938 70.691406 C 77.585938 73.546875 79.902344 75.863281 82.757812 75.863281 C 85.617188 75.863281 87.929688 73.546875 87.929688 70.691406 L 87.929688 18.652344 C 87.929688 16.921875 86.527344 15.515625 84.792969 15.515625 Z M 84.792969 15.515625 "/>
<path style=" stroke:none;fill-rule:nonzero;fill:rgb(79.607843%,69.803922%,57.254902%);fill-opacity:1;" d="M 12.070312 98.277344 L 7.625 98.277344 C 3.414062 98.277344 0 94.863281 0 90.652344 L 0 86.207031 L 4.117188 86.207031 C 8.507812 86.207031 12.070312 89.765625 12.070312 94.160156 Z M 12.070312 98.277344 "/>
<path style=" stroke:none;fill-rule:nonzero;fill:rgb(79.607843%,69.803922%,57.254902%);fill-opacity:1;" d="M 100 86.207031 L 100 90.652344 C 100 94.863281 96.585938 98.277344 92.375 98.277344 L 87.929688 98.277344 L 87.929688 94.160156 C 87.929688 89.765625 91.492188 86.207031 95.882812 86.207031 Z M 100 86.207031 "/>
<path style=" stroke:none;fill-rule:nonzero;fill:rgb(83.921569%,85.490196%,85.882353%);fill-opacity:1;" d="M 27.585938 15.515625 L 41.378906 15.515625 L 41.378906 20.691406 L 27.585938 20.691406 Z M 27.585938 15.515625 "/>
<path style=" stroke:none;fill-rule:nonzero;fill:rgb(83.921569%,85.490196%,85.882353%);fill-opacity:1;" d="M 58.621094 15.515625 L 72.414062 15.515625 L 72.414062 20.691406 L 58.621094 20.691406 Z M 58.621094 15.515625 "/>
<path style=" stroke:none;fill-rule:nonzero;fill:rgb(48.235294%,40.392157%,37.254902%);fill-opacity:1;" d="M 62.070312 11.109375 L 62.070312 15.515625 L 68.964844 15.515625 L 68.964844 11.878906 C 68.964844 6.269531 64.421875 1.722656 58.8125 1.722656 L 41.1875 1.722656 C 35.578125 1.722656 31.035156 6.269531 31.035156 11.878906 L 31.035156 15.515625 L 37.929688 15.515625 L 37.929688 11.109375 C 37.929688 9.191406 39.878906 7.886719 41.652344 8.621094 C 47 10.828125 53 10.828125 58.347656 8.621094 C 60.121094 7.886719 62.070312 9.191406 62.070312 11.109375 Z M 62.070312 11.109375 "/>
<path style=" stroke:none;fill-rule:nonzero;fill:rgb(79.607843%,69.803922%,57.254902%);fill-opacity:1;" d="M 41.378906 36.207031 L 58.621094 36.207031 L 58.621094 43.101562 L 41.378906 43.101562 Z M 41.378906 36.207031 "/>
<path style=" stroke:none;fill-rule:nonzero;fill:rgb(34.509804%,21.568627%,15.686275%);fill-opacity:1;" d="M 0 56.898438 L 8.621094 56.898438 L 8.621094 60.34375 L 0 60.34375 Z M 0 56.898438 "/>
<path style=" stroke:none;fill-rule:nonzero;fill:rgb(34.509804%,21.568627%,15.686275%);fill-opacity:1;" d="M 91.378906 56.898438 L 100 56.898438 L 100 60.34375 L 91.378906 60.34375 Z M 91.378906 56.898438 "/>
<path style=" stroke:none;fill-rule:nonzero;fill:rgb(34.509804%,21.568627%,15.686275%);fill-opacity:1;" d="M 25.863281 56.898438 L 74.136719 56.898438 L 74.136719 60.34375 L 25.863281 60.34375 Z M 25.863281 56.898438 "/>
<path style=" stroke:none;fill-rule:nonzero;fill:rgb(29.411765%,18.823529%,12.941176%);fill-opacity:1;" d="M 18.964844 43.101562 C 18.964844 44.054688 18.195312 44.828125 17.242188 44.828125 C 16.289062 44.828125 15.515625 44.054688 15.515625 43.101562 C 15.515625 42.152344 16.289062 41.378906 17.242188 41.378906 C 18.195312 41.378906 18.964844 42.152344 18.964844 43.101562 Z M 18.964844 43.101562 "/>
<path style=" stroke:none;fill-rule:nonzero;fill:rgb(29.411765%,18.823529%,12.941176%);fill-opacity:1;" d="M 18.964844 68.964844 C 18.964844 69.917969 18.195312 70.691406 17.242188 70.691406 C 16.289062 70.691406 15.515625 69.917969 15.515625 68.964844 C 15.515625 68.011719 16.289062 67.242188 17.242188 67.242188 C 18.195312 67.242188 18.964844 68.011719 18.964844 68.964844 Z M 18.964844 68.964844 "/>
<path style=" stroke:none;fill-rule:nonzero;fill:rgb(29.411765%,18.823529%,12.941176%);fill-opacity:1;" d="M 84.484375 43.101562 C 84.484375 44.054688 83.710938 44.828125 82.757812 44.828125 C 81.804688 44.828125 81.035156 44.054688 81.035156 43.101562 C 81.035156 42.152344 81.804688 41.378906 82.757812 41.378906 C 83.710938 41.378906 84.484375 42.152344 84.484375 43.101562 Z M 84.484375 43.101562 "/>
<path style=" stroke:none;fill-rule:nonzero;fill:rgb(29.411765%,18.823529%,12.941176%);fill-opacity:1;" d="M 84.484375 68.964844 C 84.484375 69.917969 83.710938 70.691406 82.757812 70.691406 C 81.804688 70.691406 81.035156 69.917969 81.035156 68.964844 C 81.035156 68.011719 81.804688 67.242188 82.757812 67.242188 C 83.710938 67.242188 84.484375 68.011719 84.484375 68.964844 Z M 84.484375 68.964844 "/>
<path style=" stroke:none;fill-rule:nonzero;fill:rgb(34.509804%,21.568627%,15.686275%);fill-opacity:1;" d="M 48.277344 60.34375 L 51.722656 60.34375 L 51.722656 98.277344 L 48.277344 98.277344 Z M 48.277344 60.34375 "/>
<path style=" stroke:none;fill-rule:nonzero;fill:rgb(79.607843%,69.803922%,57.254902%);fill-opacity:1;" d="M 17.242188 58.621094 C 16.289062 58.621094 15.515625 57.851562 15.515625 56.898438 L 15.515625 50 C 15.515625 49.046875 16.289062 48.277344 17.242188 48.277344 C 18.191406 48.277344 18.964844 49.046875 18.964844 50 L 18.964844 56.898438 C 18.964844 57.851562 18.191406 58.621094 17.242188 58.621094 Z M 17.242188 58.621094 "/>
<path style=" stroke:none;fill-rule:nonzero;fill:rgb(79.607843%,69.803922%,57.254902%);fill-opacity:1;" d="M 82.757812 58.621094 C 81.808594 58.621094 81.035156 57.851562 81.035156 56.898438 L 81.035156 50 C 81.035156 49.046875 81.808594 48.277344 82.757812 48.277344 C 83.710938 48.277344 84.484375 49.046875 84.484375 50 L 84.484375 56.898438 C 84.484375 57.851562 83.710938 58.621094 82.757812 58.621094 Z M 82.757812 58.621094 "/>
<path style=" stroke:none;fill-rule:nonzero;fill:rgb(79.607843%,69.803922%,57.254902%);fill-opacity:1;" d="M 22.414062 51.722656 L 22.414062 55.171875 L 24.136719 55.171875 L 24.136719 62.070312 L 10.34375 62.070312 L 10.34375 55.171875 L 12.070312 55.171875 L 12.070312 51.722656 L 6.898438 51.722656 L 6.898438 65.515625 L 27.585938 65.515625 L 27.585938 51.722656 Z M 22.414062 51.722656 "/>
<path style=" stroke:none;fill-rule:nonzero;fill:rgb(79.607843%,69.803922%,57.254902%);fill-opacity:1;" d="M 87.929688 51.722656 L 87.929688 55.171875 L 89.65625 55.171875 L 89.65625 62.070312 L 75.863281 62.070312 L 75.863281 55.171875 L 77.585938 55.171875 L 77.585938 51.722656 L 72.414062 51.722656 L 72.414062 65.515625 L 93.101562 65.515625 L 93.101562 51.722656 Z M 87.929688 51.722656 "/>
</g>
</svg>
<!-- iconic normalized -->