<?xml version="1.0" encoding="UTF-8"?>
<svg xmlns="http://www.w3.org/2000/svg" xmlns:xlink="http://www.w3.org/1999/xlink" width="100px" height="100px" viewBox="0 0 100 100" version="1.1">
<g id="surface1">
<path style=" stroke:none;fill-rule:nonzero;fill:rgb(44.313725%,76.078431%,52.156863%);fill-opacity:1;" d="M 25.421875 66.101562 L 16.667969 22.035156 L 98.304688 22.035156 L 98.304688 59.34375 C 98.304688 63.078125 95.28125 66.101562 91.546875 66.101562 L 25.421875 66.101562 "/>
<path style=" stroke:none;fill-rule:nonzero;fill:rgb(33.333333%,37.647059%,50.196078%);fill-opacity:1;" d="M 91.546875 67.796875 L 24.03125 67.796875 L 14.601562 20.339844 L 100 20.339844 L 100 59.34375 C 100 64.003906 96.207031 67.796875 91.546875 67.796875 Z M 26.816406 64.40625 L 91.546875 64.40625 C 94.339844 64.40625 96.609375 62.136719 96.609375 59.34375 L 96.609375 23.730469 L 18.730469 23.730469 Z M 26.816406 64.40625 "/>
<path style=" stroke:none;fill-rule:nonzero;fill:rgb(100%,100%,100%);fill-opacity:1;" d="M 45.761719 81.355469 C 45.761719 86.035156 41.96875 89.832031 37.289062 89.832031 C 32.609375 89.832031 28.8125 86.035156 28.8125 81.355469 C 28.8125 76.675781 32.609375 72.882812 37.289062 72.882812 C 41.96875 72.882812 45.761719 76.675781 45.761719 81.355469 Z M 45.761719 81.355469 "/>
<path style=" stroke:none;fill-rule:nonzero;fill:rgb(33.333333%,37.647059%,50.196078%);fill-opacity:1;" d="M 37.289062 91.527344 C 31.679688 91.527344 27.117188 86.964844 27.117188 81.355469 C 27.117188 75.746094 31.679688 71.1875 37.289062 71.1875 C 42.898438 71.1875 47.457031 75.746094 47.457031 81.355469 C 47.457031 86.964844 42.898438 91.527344 37.289062 91.527344 Z M 37.289062 74.578125 C 33.550781 74.578125 30.507812 77.617188 30.507812 81.355469 C 30.507812 85.09375 33.550781 88.136719 37.289062 88.136719 C 41.027344 88.136719 44.066406 85.09375 44.066406 81.355469 C 44.066406 77.617188 41.027344 74.578125 37.289062 74.578125 Z M 37.289062 74.578125 "/>
<path style=" stroke:none;fill-rule:nonzero;fill:rgb(100%,100%,100%);fill-opacity:1;" d="M 84.746094 81.355469 C 84.746094 86.035156 80.953125 89.832031 76.269531 89.832031 C 71.589844 89.832031 67.796875 86.035156 67.796875 81.355469 C 67.796875 76.675781 71.589844 72.882812 76.269531 72.882812 C 80.953125 72.882812 84.746094 76.675781 84.746094 81.355469 Z M 84.746094 81.355469 "/>
<path style=" stroke:none;fill-rule:nonzero;fill:rgb(33.333333%,37.647059%,50.196078%);fill-opacity:1;" d="M 76.269531 91.527344 C 70.664062 91.527344 66.101562 86.964844 66.101562 81.355469 C 66.101562 75.746094 70.664062 71.1875 76.269531 71.1875 C 81.878906 71.1875 86.441406 75.746094 86.441406 81.355469 C 86.441406 86.964844 81.878906 91.527344 76.269531 91.527344 Z M 76.269531 74.578125 C 72.53125 74.578125 69.492188 77.617188 69.492188 81.355469 C 69.492188 85.09375 72.53125 88.136719 76.269531 88.136719 C 80.011719 88.136719 83.050781 85.09375 83.050781 81.355469 C 83.050781 77.617188 80.011719 74.578125 76.269531 74.578125 Z M 76.269531 74.578125 "/>
<path style=" stroke:none;fill-rule:nonzero;fill:rgb(33.333333%,37.647059%,50.196078%);fill-opacity:1;" d="M 93.21875 81.355469 L 84.574219 81.355469 C 83.636719 81.355469 82.878906 80.597656 82.878906 79.660156 C 82.878906 78.722656 83.636719 77.964844 84.574219 77.964844 L 93.21875 77.964844 C 94.15625 77.964844 94.914062 78.722656 94.914062 79.660156 C 94.914062 80.597656 94.15625 81.355469 93.21875 81.355469 Z M 93.21875 81.355469 "/>
<path style=" stroke:none;fill-rule:nonzero;fill:rgb(33.333333%,37.647059%,50.196078%);fill-opacity:1;" d="M 67.96875 81.355469 L 45.589844 81.355469 C 44.652344 81.355469 43.898438 80.597656 43.898438 79.660156 C 43.898438 78.722656 44.652344 77.964844 45.589844 77.964844 L 67.964844 77.964844 C 68.902344 77.964844 69.660156 78.722656 69.660156 79.660156 C 69.660156 80.597656 68.902344 81.355469 67.96875 81.355469 Z M 67.96875 81.355469 "/>
<path style=" stroke:none;fill-rule:nonzero;fill:rgb(33.333333%,37.647059%,50.196078%);fill-opacity:1;" d="M 16.664062 23.730469 C 15.851562 23.730469 15.132812 23.140625 14.996094 22.3125 L 13.816406 15.253906 L 10.167969 15.253906 C 9.230469 15.253906 8.472656 14.496094 8.472656 13.558594 C 8.472656 12.621094 9.230469 11.863281 10.167969 11.863281 L 16.691406 11.863281 L 18.339844 21.757812 C 18.492188 22.679688 17.871094 23.550781 16.945312 23.707031 C 16.847656 23.722656 16.757812 23.730469 16.664062 23.730469 Z M 16.664062 23.730469 "/>
<path style=" stroke:none;fill-rule:nonzero;fill:rgb(32.156863%,49.803922%,44.705882%);fill-opacity:1;" d="M 42.394531 32.203125 L 39.003906 32.203125 L 39.003906 28.8125 C 39.003906 27.875 38.246094 27.117188 37.308594 27.117188 C 36.371094 27.117188 35.617188 27.875 35.617188 28.8125 L 35.617188 32.203125 L 32.226562 32.203125 C 31.289062 32.203125 30.53125 32.960938 30.53125 33.898438 C 30.53125 34.835938 31.289062 35.59375 32.226562 35.59375 L 35.617188 35.59375 L 35.617188 38.984375 C 35.617188 39.921875 36.371094 40.679688 37.308594 40.679688 C 38.246094 40.679688 39.003906 39.921875 39.003906 38.984375 L 39.003906 35.59375 L 42.394531 35.59375 C 43.332031 35.59375 44.089844 34.835938 44.089844 33.898438 C 44.089844 32.960938 43.332031 32.203125 42.394531 32.203125 Z M 42.394531 32.203125 "/>
<path style=" stroke:none;fill-rule:nonzero;fill:rgb(32.156863%,49.803922%,44.705882%);fill-opacity:1;" d="M 42.394531 52.542969 L 39.003906 52.542969 L 39.003906 49.152344 C 39.003906 48.214844 38.246094 47.457031 37.308594 47.457031 C 36.371094 47.457031 35.617188 48.214844 35.617188 49.152344 L 35.617188 52.542969 L 32.226562 52.542969 C 31.289062 52.542969 30.53125 53.300781 30.53125 54.238281 C 30.53125 55.175781 31.289062 55.933594 32.226562 55.933594 L 35.617188 55.933594 L 35.617188 59.320312 C 35.617188 60.257812 36.371094 61.015625 37.308594 61.015625 C 38.246094 61.015625 39.003906 60.257812 39.003906 59.320312 L 39.003906 55.933594 L 42.394531 55.933594 C 43.332031 55.933594 44.089844 55.175781 44.089844 54.238281 C 44.089844 53.300781 43.332031 52.542969 42.394531 52.542969 Z M 42.394531 52.542969 "/>
<path style=" stroke:none;fill-rule:nonzero;fill:rgb(32.156863%,49.803922%,44.705882%);fill-opacity:1;" d="M 64.429688 32.203125 L 61.039062 32.203125 L 61.039062 28.8125 C 61.039062 27.875 60.28125 27.117188 59.34375 27.117188 C 58.40625 27.117188 57.648438 27.875 57.648438 28.8125 L 57.648438 32.203125 L 54.257812 32.203125 C 53.320312 32.203125 52.5625 32.960938 52.5625 33.898438 C 52.5625 34.835938 53.320312 35.59375 54.257812 35.59375 L 57.648438 35.59375 L 57.648438 38.984375 C 57.648438 39.921875 58.40625 40.679688 59.34375 40.679688 C 60.28125 40.679688 61.039062 39.921875 61.039062 38.984375 L 61.039062 35.59375 L 64.429688 35.59375 C 65.367188 35.59375 66.125 34.835938 66.125 33.898438 C 66.125 32.960938 65.363281 32.203125 64.429688 32.203125 Z M 64.429688 32.203125 "/>
<path style=" stroke:none;fill-rule:nonzero;fill:rgb(32.156863%,49.803922%,44.705882%);fill-opacity:1;" d="M 64.429688 52.542969 L 61.039062 52.542969 L 61.039062 49.152344 C 61.039062 48.214844 60.28125 47.457031 59.34375 47.457031 C 58.40625 47.457031 57.648438 48.214844 57.648438 49.152344 L 57.648438 52.542969 L 54.257812 52.542969 C 53.320312 52.542969 52.5625 53.300781 52.5625 54.238281 C 52.5625 55.175781 53.320312 55.933594 54.257812 55.933594 L 57.648438 55.933594 L 57.648438 59.320312 C 57.648438 60.257812 58.40625 61.015625 59.34375 61.015625 C 60.28125 61.015625 61.039062 60.257812 61.039062 59.320312 L 61.039062 55.933594 L 64.429688 55.933594 C 65.367188 55.933594 66.125 55.175781 66.125 54.238281 C 66.125 53.300781 65.363281 52.542969 64.429688 52.542969 Z M 64.429688 52.542969 "/>
<path style=" stroke:none;fill-rule:nonzero;fill:rgb(32.156863%,49.803922%,44.705882%);fill-opacity:1;" d="M 76.292969 35.59375 L 79.683594 35.59375 L 79.683594 38.984375 C 79.683594 39.921875 80.441406 40.679688 81.378906 40.679688 C 82.316406 40.679688 83.074219 39.921875 83.074219 38.984375 L 83.074219 35.59375 L 86.460938 35.59375 C 87.398438 35.59375 88.15625 34.835938 88.15625 33.898438 C 88.15625 32.960938 87.398438 32.203125 86.460938 32.203125 L 83.074219 32.203125 L 83.074219 28.8125 C 83.074219 27.875 82.316406 27.117188 81.378906 27.117188 C 80.441406 27.117188 79.683594 27.875 79.683594 28.8125 L 79.683594 32.203125 L 76.292969 32.203125 C 75.355469 32.203125 74.597656 32.960938 74.597656 33.898438 C 74.597656 34.835938 75.355469 35.59375 76.292969 35.59375 Z M 76.292969 35.59375 "/>
<path style=" stroke:none;fill-rule:nonzero;fill:rgb(32.156863%,49.803922%,44.705882%);fill-opacity:1;" d="M 86.460938 52.542969 L 83.074219 52.542969 L 83.074219 49.152344 C 83.074219 48.214844 82.316406 47.457031 81.378906 47.457031 C 80.441406 47.457031 79.683594 48.214844 79.683594 49.152344 L 79.683594 52.542969 L 76.292969 52.542969 C 75.355469 52.542969 74.597656 53.300781 74.597656 54.238281 C 74.597656 55.175781 75.355469 55.933594 76.292969 55.933594 L 79.683594 55.933594 L 79.683594 59.320312 C 79.683594 60.257812 80.441406 61.015625 81.378906 61.015625 C 82.316406 61.015625 83.074219 60.257812 83.074219 59.320312 L 83.074219 55.933594 L 86.460938 55.933594 C 87.398438 55.933594 88.15625 55.175781 88.15625 54.238281 C 88.15625 53.300781 87.398438 52.542969 86.460938 52.542969 Z M 86.460938 52.542969 "/>
<path style=" stroke:none;fill-rule:nonzero;fill:rgb(33.333333%,37.647059%,50.196078%);fill-opacity:1;" d="M 28.984375 81.355469 L 23.730469 81.355469 C 21.347656 81.355469 19.054688 80.332031 17.445312 78.554688 C 15.839844 76.78125 15.058594 74.398438 15.296875 72.015625 C 15.730469 67.75 19.574219 64.40625 24.046875 64.40625 C 24.984375 64.40625 25.742188 65.164062 25.742188 66.101562 C 25.742188 67.039062 24.984375 67.796875 24.046875 67.796875 C 21.289062 67.796875 18.925781 69.800781 18.667969 72.355469 C 18.523438 73.804688 18.980469 75.199219 19.960938 76.28125 C 20.929688 77.351562 22.300781 77.964844 23.730469 77.964844 L 28.984375 77.964844 C 29.921875 77.964844 30.679688 78.722656 30.679688 79.660156 C 30.679688 80.597656 29.921875 81.355469 28.984375 81.355469 Z M 28.984375 81.355469 "/>
<path style=" stroke:none;fill-rule:nonzero;fill:rgb(90.196078%,29.803922%,23.529412%);fill-opacity:1;" d="M 10.167969 13.558594 C 10.167969 16.367188 7.894531 18.644531 5.085938 18.644531 C 2.277344 18.644531 0 16.367188 0 13.558594 C 0 10.75 2.277344 8.472656 5.085938 8.472656 C 7.894531 8.472656 10.167969 10.75 10.167969 13.558594 Z M 10.167969 13.558594 "/>
</g>
</svg>
<!-- iconic normalized -->