<?xml version="1.0" encoding="UTF-8"?>
<svg xmlns="http://www.w3.org/2000/svg" xmlns:xlink="http://www.w3.org/1999/xlink" width="100px" height="100px" viewBox="0 0 100 100" version="1.1">
<g id="surface1">
<path style=" stroke:none;fill-rule:nonzero;fill:rgb(44.313725%,76.078431%,52.156863%);fill-opacity:1;" d="M 15.515625 23.277344 L 98.277344 23.277344 L 98.277344 64.65625 L 15.515625 64.65625 Z M 15.515625 23.277344 "/>
<path style=" stroke:none;fill-rule:nonzero;fill:rgb(33.333333%,37.647059%,50.196078%);fill-opacity:1;" d="M 100 66.378906 L 13.792969 66.378906 L 13.792969 21.550781 L 100 21.550781 Z M 17.242188 62.929688 L 96.550781 62.929688 L 96.550781 25 L 17.242188 25 Z M 17.242188 62.929688 "/>
<path style=" stroke:none;fill-rule:nonzero;fill:rgb(33.333333%,37.647059%,50.196078%);fill-opacity:1;" d="M 15.515625 9.484375 L 6.898438 9.484375 C 5.945312 9.484375 5.171875 8.710938 5.171875 7.757812 C 5.171875 6.804688 5.945312 6.035156 6.898438 6.035156 L 15.515625 6.035156 C 16.46875 6.035156 17.242188 6.804688 17.242188 7.757812 C 17.242188 8.710938 16.46875 9.484375 15.515625 9.484375 Z M 15.515625 9.484375 "/>
<path style=" stroke:none;fill-rule:nonzero;fill:rgb(33.333333%,37.647059%,50.196078%);fill-opacity:1;" d="M 15.515625 25 C 14.566406 25 13.792969 24.230469 13.792969 23.277344 L 13.792969 7.757812 C 13.792969 6.804688 14.566406 6.035156 15.515625 6.035156 C 16.46875 6.035156 17.242188 6.804688 17.242188 7.757812 L 17.242188 23.277344 C 17.242188 24.230469 16.46875 25 15.515625 25 Z M 15.515625 25 "/>
<path style=" stroke:none;fill-rule:nonzero;fill:rgb(33.333333%,37.647059%,50.196078%);fill-opacity:1;" d="M 15.515625 83.621094 C 14.566406 83.621094 13.792969 82.851562 13.792969 81.898438 L 13.792969 64.65625 C 13.792969 63.703125 14.566406 62.929688 15.515625 62.929688 C 16.46875 62.929688 17.242188 63.703125 17.242188 64.65625 L 17.242188 81.898438 C 17.242188 82.851562 16.46875 83.621094 15.515625 83.621094 Z M 15.515625 83.621094 "/>
<path style=" stroke:none;fill-rule:nonzero;fill:rgb(33.333333%,37.647059%,50.196078%);fill-opacity:1;" d="M 39.65625 90.515625 C 39.65625 94.324219 36.566406 97.414062 32.757812 97.414062 C 28.949219 97.414062 25.863281 94.324219 25.863281 90.515625 C 25.863281 86.707031 28.949219 83.621094 32.757812 83.621094 C 36.566406 83.621094 39.65625 86.707031 39.65625 90.515625 Z M 39.65625 90.515625 "/>
<path style=" stroke:none;fill-rule:nonzero;fill:rgb(33.333333%,37.647059%,50.196078%);fill-opacity:1;" d="M 81.035156 90.515625 C 81.035156 94.324219 77.945312 97.414062 74.136719 97.414062 C 70.328125 97.414062 67.242188 94.324219 67.242188 90.515625 C 67.242188 86.707031 70.328125 83.621094 74.136719 83.621094 C 77.945312 83.621094 81.035156 86.707031 81.035156 90.515625 Z M 81.035156 90.515625 "/>
<path style=" stroke:none;fill-rule:nonzero;fill:rgb(33.333333%,37.647059%,50.196078%);fill-opacity:1;" d="M 89.65625 83.621094 L 15.515625 83.621094 C 14.566406 83.621094 13.792969 82.851562 13.792969 81.898438 C 13.792969 80.941406 14.566406 80.171875 15.515625 80.171875 L 89.65625 80.171875 C 90.609375 80.171875 91.378906 80.941406 91.378906 81.898438 C 91.378906 82.851562 90.609375 83.621094 89.65625 83.621094 Z M 89.65625 83.621094 "/>
<path style=" stroke:none;fill-rule:nonzero;fill:rgb(90.196078%,29.803922%,23.529412%);fill-opacity:1;" d="M 10.34375 7.757812 C 10.34375 10.617188 8.027344 12.929688 5.171875 12.929688 C 2.316406 12.929688 0 10.617188 0 7.757812 C 0 4.902344 2.316406 2.585938 5.171875 2.585938 C 8.027344 2.585938 10.34375 4.902344 10.34375 7.757812 Z M 10.34375 7.757812 "/>
<path style=" stroke:none;fill-rule:nonzero;fill:rgb(64.313725%,90.980392%,41.176471%);fill-opacity:1;" d="M 53.449219 33.621094 C 53.449219 34.574219 52.675781 35.34375 51.722656 35.34375 C 50.773438 35.34375 50 34.574219 50 33.621094 C 50 32.667969 50.773438 31.898438 51.722656 31.898438 C 52.675781 31.898438 53.449219 32.667969 53.449219 33.621094 Z M 53.449219 33.621094 "/>
<path style=" stroke:none;fill-rule:nonzero;fill:rgb(64.313725%,90.980392%,41.176471%);fill-opacity:1;" d="M 58.621094 28.449219 C 58.621094 29.402344 57.847656 30.171875 56.898438 30.171875 C 55.945312 30.171875 55.171875 29.402344 55.171875 28.449219 C 55.171875 27.496094 55.945312 26.722656 56.898438 26.722656 C 57.847656 26.722656 58.621094 27.496094 58.621094 28.449219 Z M 58.621094 28.449219 "/>
<path style=" stroke:none;fill-rule:nonzero;fill:rgb(64.313725%,90.980392%,41.176471%);fill-opacity:1;" d="M 58.621094 38.792969 C 58.621094 39.746094 57.847656 40.515625 56.898438 40.515625 C 55.945312 40.515625 55.171875 39.746094 55.171875 38.792969 C 55.171875 37.839844 55.945312 37.070312 56.898438 37.070312 C 57.847656 37.070312 58.621094 37.839844 58.621094 38.792969 Z M 58.621094 38.792969 "/>
<path style=" stroke:none;fill-rule:nonzero;fill:rgb(64.313725%,90.980392%,41.176471%);fill-opacity:1;" d="M 63.792969 33.621094 C 63.792969 34.574219 63.019531 35.34375 62.070312 35.34375 C 61.117188 35.34375 60.34375 34.574219 60.34375 33.621094 C 60.34375 32.667969 61.117188 31.898438 62.070312 31.898438 C 63.019531 31.898438 63.792969 32.667969 63.792969 33.621094 Z M 63.792969 33.621094 "/>
<path style=" stroke:none;fill-rule:nonzero;fill:rgb(64.313725%,90.980392%,41.176471%);fill-opacity:1;" d="M 43.101562 33.621094 C 43.101562 34.574219 42.332031 35.34375 41.378906 35.34375 C 40.425781 35.34375 39.65625 34.574219 39.65625 33.621094 C 39.65625 32.667969 40.425781 31.898438 41.378906 31.898438 C 42.332031 31.898438 43.101562 32.667969 43.101562 33.621094 Z M 43.101562 33.621094 "/>
<path style=" stroke:none;fill-rule:nonzero;fill:rgb(64.313725%,90.980392%,41.176471%);fill-opacity:1;" d="M 48.277344 28.449219 C 48.277344 29.402344 47.503906 30.171875 46.550781 30.171875 C 45.597656 30.171875 44.828125 29.402344 44.828125 28.449219 C 44.828125 27.496094 45.597656 26.722656 46.550781 26.722656 C 47.503906 26.722656 48.277344 27.496094 48.277344 28.449219 Z M 48.277344 28.449219 "/>
<path style=" stroke:none;fill-rule:nonzero;fill:rgb(64.313725%,90.980392%,41.176471%);fill-opacity:1;" d="M 48.277344 38.792969 C 48.277344 39.746094 47.503906 40.515625 46.550781 40.515625 C 45.597656 40.515625 44.828125 39.746094 44.828125 38.792969 C 44.828125 37.839844 45.597656 37.070312 46.550781 37.070312 C 47.503906 37.070312 48.277344 37.839844 48.277344 38.792969 Z M 48.277344 38.792969 "/>
<path style=" stroke:none;fill-rule:nonzero;fill:rgb(64.313725%,90.980392%,41.176471%);fill-opacity:1;" d="M 22.414062 33.621094 C 22.414062 34.574219 21.640625 35.34375 20.691406 35.34375 C 19.738281 35.34375 18.964844 34.574219 18.964844 33.621094 C 18.964844 32.667969 19.738281 31.898438 20.691406 31.898438 C 21.640625 31.898438 22.414062 32.667969 22.414062 33.621094 Z M 22.414062 33.621094 "/>
<path style=" stroke:none;fill-rule:nonzero;fill:rgb(64.313725%,90.980392%,41.176471%);fill-opacity:1;" d="M 32.757812 33.621094 C 32.757812 34.574219 31.988281 35.34375 31.035156 35.34375 C 30.082031 35.34375 29.308594 34.574219 29.308594 33.621094 C 29.308594 32.667969 30.082031 31.898438 31.035156 31.898438 C 31.988281 31.898438 32.757812 32.667969 32.757812 33.621094 Z M 32.757812 33.621094 "/>
<path style=" stroke:none;fill-rule:nonzero;fill:rgb(64.313725%,90.980392%,41.176471%);fill-opacity:1;" d="M 27.585938 28.449219 C 27.585938 29.402344 26.8125 30.171875 25.863281 30.171875 C 24.910156 30.171875 24.136719 29.402344 24.136719 28.449219 C 24.136719 27.496094 24.910156 26.722656 25.863281 26.722656 C 26.8125 26.722656 27.585938 27.496094 27.585938 28.449219 Z M 27.585938 28.449219 "/>
<path style=" stroke:none;fill-rule:nonzero;fill:rgb(64.313725%,90.980392%,41.176471%);fill-opacity:1;" d="M 37.929688 28.449219 C 37.929688 29.402344 37.160156 30.171875 36.207031 30.171875 C 35.253906 30.171875 34.484375 29.402344 34.484375 28.449219 C 34.484375 27.496094 35.253906 26.722656 36.207031 26.722656 C 37.160156 26.722656 37.929688 27.496094 37.929688 28.449219 Z M 37.929688 28.449219 "/>
<path style=" stroke:none;fill-rule:nonzero;fill:rgb(64.313725%,90.980392%,41.176471%);fill-opacity:1;" d="M 27.585938 38.792969 C 27.585938 39.746094 26.8125 40.515625 25.863281 40.515625 C 24.910156 40.515625 24.136719 39.746094 24.136719 38.792969 C 24.136719 37.839844 24.910156 37.070312 25.863281 37.070312 C 26.8125 37.070312 27.585938 37.839844 27.585938 38.792969 Z M 27.585938 38.792969 "/>
<path style=" stroke:none;fill-rule:nonzero;fill:rgb(64.313725%,90.980392%,41.176471%);fill-opacity:1;" d="M 37.929688 38.792969 C 37.929688 39.746094 37.160156 40.515625 36.207031 40.515625 C 35.253906 40.515625 34.484375 39.746094 34.484375 38.792969 C 34.484375 37.839844 35.253906 37.070312 36.207031 37.070312 C 37.160156 37.070312 37.929688 37.839844 37.929688 38.792969 Z M 37.929688 38.792969 "/>
<path style=" stroke:none;fill-rule:nonzero;fill:rgb(64.313725%,90.980392%,41.176471%);fill-opacity:1;" d="M 94.828125 33.621094 C 94.828125 34.574219 94.054688 35.34375 93.101562 35.34375 C 92.152344 35.34375 91.378906 34.574219 91.378906 33.621094 C 91.378906 32.667969 92.152344 31.898438 93.101562 31.898438 C 94.054688 31.898438 94.828125 32.667969 94.828125 33.621094 Z M 94.828125 33.621094 "/>
<path style=" stroke:none;fill-rule:nonzero;fill:rgb(64.313725%,90.980392%,41.176471%);fill-opacity:1;" d="M 68.964844 28.449219 C 68.964844 29.402344 68.195312 30.171875 67.242188 30.171875 C 66.289062 30.171875 65.515625 29.402344 65.515625 28.449219 C 65.515625 27.496094 66.289062 26.722656 67.242188 26.722656 C 68.195312 26.722656 68.964844 27.496094 68.964844 28.449219 Z M 68.964844 28.449219 "/>
<path style=" stroke:none;fill-rule:nonzero;fill:rgb(64.313725%,90.980392%,41.176471%);fill-opacity:1;" d="M 68.964844 38.792969 C 68.964844 39.746094 68.195312 40.515625 67.242188 40.515625 C 66.289062 40.515625 65.515625 39.746094 65.515625 38.792969 C 65.515625 37.839844 66.289062 37.070312 67.242188 37.070312 C 68.195312 37.070312 68.964844 37.839844 68.964844 38.792969 Z M 68.964844 38.792969 "/>
<path style=" stroke:none;fill-rule:nonzero;fill:rgb(64.313725%,90.980392%,41.176471%);fill-opacity:1;" d="M 74.136719 33.621094 C 74.136719 34.574219 73.367188 35.34375 72.414062 35.34375 C 71.460938 35.34375 70.691406 34.574219 70.691406 33.621094 C 70.691406 32.667969 71.460938 31.898438 72.414062 31.898438 C 73.367188 31.898438 74.136719 32.667969 74.136719 33.621094 Z M 74.136719 33.621094 "/>
<path style=" stroke:none;fill-rule:nonzero;fill:rgb(64.313725%,90.980392%,41.176471%);fill-opacity:1;" d="M 84.484375 33.621094 C 84.484375 34.574219 83.710938 35.34375 82.757812 35.34375 C 81.804688 35.34375 81.035156 34.574219 81.035156 33.621094 C 81.035156 32.667969 81.804688 31.898438 82.757812 31.898438 C 83.710938 31.898438 84.484375 32.667969 84.484375 33.621094 Z M 84.484375 33.621094 "/>
<path style=" stroke:none;fill-rule:nonzero;fill:rgb(64.313725%,90.980392%,41.176471%);fill-opacity:1;" d="M 53.449219 43.964844 C 53.449219 44.917969 52.675781 45.691406 51.722656 45.691406 C 50.773438 45.691406 50 44.917969 50 43.964844 C 50 43.011719 50.773438 42.242188 51.722656 42.242188 C 52.675781 42.242188 53.449219 43.011719 53.449219 43.964844 Z M 53.449219 43.964844 "/>
<path style=" stroke:none;fill-rule:nonzero;fill:rgb(64.313725%,90.980392%,41.176471%);fill-opacity:1;" d="M 63.792969 43.964844 C 63.792969 44.917969 63.019531 45.691406 62.070312 45.691406 C 61.117188 45.691406 60.34375 44.917969 60.34375 43.964844 C 60.34375 43.011719 61.117188 42.242188 62.070312 42.242188 C 63.019531 42.242188 63.792969 43.011719 63.792969 43.964844 Z M 63.792969 43.964844 "/>
<path style=" stroke:none;fill-rule:nonzero;fill:rgb(64.313725%,90.980392%,41.176471%);fill-opacity:1;" d="M 43.101562 43.964844 C 43.101562 44.917969 42.332031 45.691406 41.378906 45.691406 C 40.425781 45.691406 39.65625 44.917969 39.65625 43.964844 C 39.65625 43.011719 40.425781 42.242188 41.378906 42.242188 C 42.332031 42.242188 43.101562 43.011719 43.101562 43.964844 Z M 43.101562 43.964844 "/>
<path style=" stroke:none;fill-rule:nonzero;fill:rgb(64.313725%,90.980392%,41.176471%);fill-opacity:1;" d="M 22.414062 43.964844 C 22.414062 44.917969 21.640625 45.691406 20.691406 45.691406 C 19.738281 45.691406 18.964844 44.917969 18.964844 43.964844 C 18.964844 43.011719 19.738281 42.242188 20.691406 42.242188 C 21.640625 42.242188 22.414062 43.011719 22.414062 43.964844 Z M 22.414062 43.964844 "/>
<path style=" stroke:none;fill-rule:nonzero;fill:rgb(64.313725%,90.980392%,41.176471%);fill-opacity:1;" d="M 32.757812 43.964844 C 32.757812 44.917969 31.988281 45.691406 31.035156 45.691406 C 30.082031 45.691406 29.308594 44.917969 29.308594 43.964844 C 29.308594 43.011719 30.082031 42.242188 31.035156 42.242188 C 31.988281 42.242188 32.757812 43.011719 32.757812 43.964844 Z M 32.757812 43.964844 "/>
<path style=" stroke:none;fill-rule:nonzero;fill:rgb(64.313725%,90.980392%,41.176471%);fill-opacity:1;" d="M 94.828125 43.964844 C 94.828125 44.917969 94.054688 45.691406 93.101562 45.691406 C 92.152344 45.691406 91.378906 44.917969 91.378906 43.964844 C 91.378906 43.011719 92.152344 42.242188 93.101562 42.242188 C 94.054688 42.242188 94.828125 43.011719 94.828125 43.964844 Z M 94.828125 43.964844 "/>
<path style=" stroke:none;fill-rule:nonzero;fill:rgb(64.313725%,90.980392%,41.176471%);fill-opacity:1;" d="M 74.136719 43.964844 C 74.136719 44.917969 73.367188 45.691406 72.414062 45.691406 C 71.460938 45.691406 70.691406 44.917969 70.691406 43.964844 C 70.691406 43.011719 71.460938 42.242188 72.414062 42.242188 C 73.367188 42.242188 74.136719 43.011719 74.136719 43.964844 Z M 74.136719 43.964844 "/>
<path style=" stroke:none;fill-rule:nonzero;fill:rgb(64.313725%,90.980392%,41.176471%);fill-opacity:1;" d="M 84.484375 43.964844 C 84.484375 44.917969 83.710938 45.691406 82.757812 45.691406 C 81.804688 45.691406 81.035156 44.917969 81.035156 43.964844 C 81.035156 43.011719 81.804688 42.242188 82.757812 42.242188 C 83.710938 42.242188 84.484375 43.011719 84.484375 43.964844 Z M 84.484375 43.964844 "/>
<path style=" stroke:none;fill-rule:nonzero;fill:rgb(64.313725%,90.980392%,41.176471%);fill-opacity:1;" d="M 79.308594 28.449219 C 79.308594 29.402344 78.539062 30.171875 77.585938 30.171875 C 76.632812 30.171875 75.863281 29.402344 75.863281 28.449219 C 75.863281 27.496094 76.632812 26.722656 77.585938 26.722656 C 78.539062 26.722656 79.308594 27.496094 79.308594 28.449219 Z M 79.308594 28.449219 "/>
<path style=" stroke:none;fill-rule:nonzero;fill:rgb(64.313725%,90.980392%,41.176471%);fill-opacity:1;" d="M 89.65625 28.449219 C 89.65625 29.402344 88.882812 30.171875 87.929688 30.171875 C 86.980469 30.171875 86.207031 29.402344 86.207031 28.449219 C 86.207031 27.496094 86.980469 26.722656 87.929688 26.722656 C 88.882812 26.722656 89.65625 27.496094 89.65625 28.449219 Z M 89.65625 28.449219 "/>
<path style=" stroke:none;fill-rule:nonzero;fill:rgb(64.313725%,90.980392%,41.176471%);fill-opacity:1;" d="M 79.308594 38.792969 C 79.308594 39.746094 78.539062 40.515625 77.585938 40.515625 C 76.632812 40.515625 75.863281 39.746094 75.863281 38.792969 C 75.863281 37.839844 76.632812 37.070312 77.585938 37.070312 C 78.539062 37.070312 79.308594 37.839844 79.308594 38.792969 Z M 79.308594 38.792969 "/>
<path style=" stroke:none;fill-rule:nonzero;fill:rgb(64.313725%,90.980392%,41.176471%);fill-opacity:1;" d="M 89.65625 38.792969 C 89.65625 39.746094 88.882812 40.515625 87.929688 40.515625 C 86.980469 40.515625 86.207031 39.746094 86.207031 38.792969 C 86.207031 37.839844 86.980469 37.070312 87.929688 37.070312 C 88.882812 37.070312 89.65625 37.839844 89.65625 38.792969 Z M 89.65625 38.792969 "/>
<path style=" stroke:none;fill-rule:nonzero;fill:rgb(64.313725%,90.980392%,41.176471%);fill-opacity:1;" d="M 53.449219 54.308594 C 53.449219 55.261719 52.675781 56.035156 51.722656 56.035156 C 50.773438 56.035156 50 55.261719 50 54.308594 C 50 53.359375 50.773438 52.585938 51.722656 52.585938 C 52.675781 52.585938 53.449219 53.359375 53.449219 54.308594 Z M 53.449219 54.308594 "/>
<path style=" stroke:none;fill-rule:nonzero;fill:rgb(64.313725%,90.980392%,41.176471%);fill-opacity:1;" d="M 58.621094 49.136719 C 58.621094 50.089844 57.847656 50.863281 56.898438 50.863281 C 55.945312 50.863281 55.171875 50.089844 55.171875 49.136719 C 55.171875 48.1875 55.945312 47.414062 56.898438 47.414062 C 57.847656 47.414062 58.621094 48.1875 58.621094 49.136719 Z M 58.621094 49.136719 "/>
<path style=" stroke:none;fill-rule:nonzero;fill:rgb(64.313725%,90.980392%,41.176471%);fill-opacity:1;" d="M 58.621094 59.484375 C 58.621094 60.433594 57.847656 61.207031 56.898438 61.207031 C 55.945312 61.207031 55.171875 60.433594 55.171875 59.484375 C 55.171875 58.53125 55.945312 57.757812 56.898438 57.757812 C 57.847656 57.757812 58.621094 58.53125 58.621094 59.484375 Z M 58.621094 59.484375 "/>
<path style=" stroke:none;fill-rule:nonzero;fill:rgb(64.313725%,90.980392%,41.176471%);fill-opacity:1;" d="M 63.792969 54.308594 C 63.792969 55.261719 63.019531 56.035156 62.070312 56.035156 C 61.117188 56.035156 60.34375 55.261719 60.34375 54.308594 C 60.34375 53.359375 61.117188 52.585938 62.070312 52.585938 C 63.019531 52.585938 63.792969 53.359375 63.792969 54.308594 Z M 63.792969 54.308594 "/>
<path style=" stroke:none;fill-rule:nonzero;fill:rgb(64.313725%,90.980392%,41.176471%);fill-opacity:1;" d="M 43.101562 54.308594 C 43.101562 55.261719 42.332031 56.035156 41.378906 56.035156 C 40.425781 56.035156 39.65625 55.261719 39.65625 54.308594 C 39.65625 53.359375 40.425781 52.585938 41.378906 52.585938 C 42.332031 52.585938 43.101562 53.359375 43.101562 54.308594 Z M 43.101562 54.308594 "/>
<path style=" stroke:none;fill-rule:nonzero;fill:rgb(64.313725%,90.980392%,41.176471%);fill-opacity:1;" d="M 48.277344 49.136719 C 48.277344 50.089844 47.503906 50.863281 46.550781 50.863281 C 45.597656 50.863281 44.828125 50.089844 44.828125 49.136719 C 44.828125 48.1875 45.597656 47.414062 46.550781 47.414062 C 47.503906 47.414062 48.277344 48.1875 48.277344 49.136719 Z M 48.277344 49.136719 "/>
<path style=" stroke:none;fill-rule:nonzero;fill:rgb(64.313725%,90.980392%,41.176471%);fill-opacity:1;" d="M 48.277344 59.484375 C 48.277344 60.433594 47.503906 61.207031 46.550781 61.207031 C 45.597656 61.207031 44.828125 60.433594 44.828125 59.484375 C 44.828125 58.53125 45.597656 57.757812 46.550781 57.757812 C 47.503906 57.757812 48.277344 58.53125 48.277344 59.484375 Z M 48.277344 59.484375 "/>
<path style=" stroke:none;fill-rule:nonzero;fill:rgb(64.313725%,90.980392%,41.176471%);fill-opacity:1;" d="M 22.414062 54.308594 C 22.414062 55.261719 21.640625 56.035156 20.691406 56.035156 C 19.738281 56.035156 18.964844 55.261719 18.964844 54.308594 C 18.964844 53.359375 19.738281 52.585938 20.691406 52.585938 C 21.640625 52.585938 22.414062 53.359375 22.414062 54.308594 Z M 22.414062 54.308594 "/>
<path style=" stroke:none;fill-rule:nonzero;fill:rgb(64.313725%,90.980392%,41.176471%);fill-opacity:1;" d="M 32.757812 54.308594 C 32.757812 55.261719 31.988281 56.035156 31.035156 56.035156 C 30.082031 56.035156 29.308594 55.261719 29.308594 54.308594 C 29.308594 53.359375 30.082031 52.585938 31.035156 52.585938 C 31.988281 52.585938 32.757812 53.359375 32.757812 54.308594 Z M 32.757812 54.308594 "/>
<path style=" stroke:none;fill-rule:nonzero;fill:rgb(64.313725%,90.980392%,41.176471%);fill-opacity:1;" d="M 27.585938 49.136719 C 27.585938 50.089844 26.8125 50.863281 25.863281 50.863281 C 24.910156 50.863281 24.136719 50.089844 24.136719 49.136719 C 24.136719 48.1875 24.910156 47.414062 25.863281 47.414062 C 26.8125 47.414062 27.585938 48.1875 27.585938 49.136719 Z M 27.585938 49.136719 "/>
<path style=" stroke:none;fill-rule:nonzero;fill:rgb(64.313725%,90.980392%,41.176471%);fill-opacity:1;" d="M 37.929688 49.136719 C 37.929688 50.089844 37.160156 50.863281 36.207031 50.863281 C 35.253906 50.863281 34.484375 50.089844 34.484375 49.136719 C 34.484375 48.1875 35.253906 47.414062 36.207031 47.414062 C 37.160156 47.414062 37.929688 48.1875 37.929688 49.136719 Z M 37.929688 49.136719 "/>
<path style=" stroke:none;fill-rule:nonzero;fill:rgb(64.313725%,90.980392%,41.176471%);fill-opacity:1;" d="M 27.585938 59.484375 C 27.585938 60.433594 26.8125 61.207031 25.863281 61.207031 C 24.910156 61.207031 24.136719 60.433594 24.136719 59.484375 C 24.136719 58.53125 24.910156 57.757812 25.863281 57.757812 C 26.8125 57.757812 27.585938 58.53125 27.585938 59.484375 Z M 27.585938 59.484375 "/>
<path style=" stroke:none;fill-rule:nonzero;fill:rgb(64.313725%,90.980392%,41.176471%);fill-opacity:1;" d="M 37.929688 59.484375 C 37.929688 60.433594 37.160156 61.207031 36.207031 61.207031 C 35.253906 61.207031 34.484375 60.433594 34.484375 59.484375 C 34.484375 58.53125 35.253906 57.757812 36.207031 57.757812 C 37.160156 57.757812 37.929688 58.53125 37.929688 59.484375 Z M 37.929688 59.484375 "/>
<path style=" stroke:none;fill-rule:nonzero;fill:rgb(64.313725%,90.980392%,41.176471%);fill-opacity:1;" d="M 94.828125 54.308594 C 94.828125 55.261719 94.054688 56.035156 93.101562 56.035156 C 92.152344 56.035156 91.378906 55.261719 91.378906 54.308594 C 91.378906 53.359375 92.152344 52.585938 93.101562 52.585938 C 94.054688 52.585938 94.828125 53.359375 94.828125 54.308594 Z M 94.828125 54.308594 "/>
<path style=" stroke:none;fill-rule:nonzero;fill:rgb(64.313725%,90.980392%,41.176471%);fill-opacity:1;" d="M 68.964844 49.136719 C 68.964844 50.089844 68.195312 50.863281 67.242188 50.863281 C 66.289062 50.863281 65.515625 50.089844 65.515625 49.136719 C 65.515625 48.1875 66.289062 47.414062 67.242188 47.414062 C 68.195312 47.414062 68.964844 48.1875 68.964844 49.136719 Z M 68.964844 49.136719 "/>
<path style=" stroke:none;fill-rule:nonzero;fill:rgb(64.313725%,90.980392%,41.176471%);fill-opacity:1;" d="M 68.964844 59.484375 C 68.964844 60.433594 68.195312 61.207031 67.242188 61.207031 C 66.289062 61.207031 65.515625 60.433594 65.515625 59.484375 C 65.515625 58.53125 66.289062 57.757812 67.242188 57.757812 C 68.195312 57.757812 68.964844 58.53125 68.964844 59.484375 Z M 68.964844 59.484375 "/>
<path style=" stroke:none;fill-rule:nonzero;fill:rgb(64.313725%,90.980392%,41.176471%);fill-opacity:1;" d="M 74.136719 54.308594 C 74.136719 55.261719 73.367188 56.035156 72.414062 56.035156 C 71.460938 56.035156 70.691406 55.261719 70.691406 54.308594 C 70.691406 53.359375 71.460938 52.585938 72.414062 52.585938 C 73.367188 52.585938 74.136719 53.359375 74.136719 54.308594 Z M 74.136719 54.308594 "/>
<path style=" stroke:none;fill-rule:nonzero;fill:rgb(64.313725%,90.980392%,41.176471%);fill-opacity:1;" d="M 84.484375 54.308594 C 84.484375 55.261719 83.710938 56.035156 82.757812 56.035156 C 81.804688 56.035156 81.035156 55.261719 81.035156 54.308594 C 81.035156 53.359375 81.804688 52.585938 82.757812 52.585938 C 83.710938 52.585938 84.484375 53.359375 84.484375 54.308594 Z M 84.484375 54.308594 "/>
<path style=" stroke:none;fill-rule:nonzero;fill:rgb(64.313725%,90.980392%,41.176471%);fill-opacity:1;" d="M 79.308594 49.136719 C 79.308594 50.089844 78.539062 50.863281 77.585938 50.863281 C 76.632812 50.863281 75.863281 50.089844 75.863281 49.136719 C 75.863281 48.1875 76.632812 47.414062 77.585938 47.414062 C 78.539062 47.414062 79.308594 48.1875 79.308594 49.136719 Z M 79.308594 49.136719 "/>
<path style=" stroke:none;fill-rule:nonzero;fill:rgb(64.313725%,90.980392%,41.176471%);fill-opacity:1;" d="M 89.65625 49.136719 C 89.65625 50.089844 88.882812 50.863281 87.929688 50.863281 C 86.980469 50.863281 86.207031 50.089844 86.207031 49.136719 C 86.207031 48.1875 86.980469 47.414062 87.929688 47.414062 C 88.882812 47.414062 89.65625 48.1875 89.65625 49.136719 Z M 89.65625 49.136719 "/>
<path style=" stroke:none;fill-rule:nonzero;fill:rgb(64.313725%,90.980392%,41.176471%);fill-opacity:1;" d="M 79.308594 59.484375 C 79.308594 60.433594 78.539062 61.207031 77.585938 61.207031 C 76.632812 61.207031 75.863281 60.433594 75.863281 59.484375 C 75.863281 58.53125 76.632812 57.757812 77.585938 57.757812 C 78.539062 57.757812 79.308594 58.53125 79.308594 59.484375 Z M 79.308594 59.484375 "/>
<path style=" stroke:none;fill-rule:nonzero;fill:rgb(64.313725%,90.980392%,41.176471%);fill-opacity:1;" d="M 89.65625 59.484375 C 89.65625 60.433594 88.882812 61.207031 87.929688 61.207031 C 86.980469 61.207031 86.207031 60.433594 86.207031 59.484375 C 86.207031 58.53125 86.980469 57.757812 87.929688 57.757812 C 88.882812 57.757812 89.65625 58.53125 89.65625 59.484375 Z M 89.65625 59.484375 "/>
</g>
</svg>
<!-- iconic normalized -->