<?xml version="1.0" encoding="UTF-8"?>
<svg xmlns="http://www.w3.org/2000/svg" xmlns:xlink="http://www.w3.org/1999/xlink" width="100px" height="100px" viewBox="0 0 100 100" version="1.1">
<g id="surface1">
<path style=" stroke:none;fill-rule:nonzero;fill:rgb(74.117647%,76.470588%,78.039216%);fill-opacity:1;" d="M 100 69.828125 L 13.792969 69.828125 L 13.792969 25 L 100 25 Z M 17.242188 66.378906 L 96.550781 66.378906 L 96.550781 28.449219 L 17.242188 28.449219 Z M 17.242188 66.378906 "/>
<path style=" stroke:none;fill-rule:nonzero;fill:rgb(74.117647%,76.470588%,78.039216%);fill-opacity:1;" d="M 15.515625 81.898438 C 14.5625 81.898438 13.792969 81.125 13.792969 80.171875 L 13.792969 68.101562 C 13.792969 67.148438 14.5625 66.378906 15.515625 66.378906 C 16.46875 66.378906 17.242188 67.148438 17.242188 68.101562 L 17.242188 80.171875 C 17.242188 81.125 16.46875 81.898438 15.515625 81.898438 Z M 15.515625 81.898438 "/>
<path style=" stroke:none;fill-rule:nonzero;fill:rgb(33.333333%,37.647059%,50.196078%);fill-opacity:1;" d="M 39.65625 88.792969 C 39.65625 92.601562 36.566406 95.691406 32.757812 95.691406 C 28.949219 95.691406 25.863281 92.601562 25.863281 88.792969 C 25.863281 84.984375 28.949219 81.898438 32.757812 81.898438 C 36.566406 81.898438 39.65625 84.984375 39.65625 88.792969 Z M 39.65625 88.792969 "/>
<path style=" stroke:none;fill-rule:nonzero;fill:rgb(33.333333%,37.647059%,50.196078%);fill-opacity:1;" d="M 81.035156 88.792969 C 81.035156 92.601562 77.945312 95.691406 74.136719 95.691406 C 70.328125 95.691406 67.242188 92.601562 67.242188 88.792969 C 67.242188 84.984375 70.328125 81.898438 74.136719 81.898438 C 77.945312 81.898438 81.035156 84.984375 81.035156 88.792969 Z M 81.035156 88.792969 "/>
<path style=" stroke:none;fill-rule:nonzero;fill:rgb(74.117647%,76.470588%,78.039216%);fill-opacity:1;" d="M 89.65625 81.898438 L 15.515625 81.898438 C 14.5625 81.898438 13.792969 81.125 13.792969 80.171875 C 13.792969 79.21875 14.5625 78.449219 15.515625 78.449219 L 89.65625 78.449219 C 90.609375 78.449219 91.378906 79.21875 91.378906 80.171875 C 91.378906 81.125 90.609375 81.898438 89.65625 81.898438 Z M 89.65625 81.898438 "/>
<path style=" stroke:none;fill-rule:nonzero;fill:rgb(14.117647%,68.235294%,37.254902%);fill-opacity:1;" d="M 79.308594 26.722656 C 79.308594 39.101562 69.273438 49.136719 56.898438 49.136719 C 44.519531 49.136719 34.484375 39.101562 34.484375 26.722656 C 34.484375 14.34375 44.519531 4.308594 56.898438 4.308594 C 69.273438 4.308594 79.308594 14.34375 79.308594 26.722656 Z M 79.308594 26.722656 "/>
<path style=" stroke:none;fill-rule:nonzero;fill:rgb(100%,100%,100%);fill-opacity:1;" d="M 55.171875 37.070312 C 54.78125 37.070312 54.390625 36.9375 54.066406 36.671875 L 43.722656 28.050781 C 42.992188 27.441406 42.894531 26.351562 43.5 25.621094 C 44.113281 24.890625 45.195312 24.792969 45.929688 25.398438 L 56.277344 34.019531 C 57.007812 34.632812 57.105469 35.71875 56.496094 36.449219 C 56.15625 36.859375 55.664062 37.070312 55.171875 37.070312 Z M 55.171875 37.070312 "/>
<path style=" stroke:none;fill-rule:nonzero;fill:rgb(100%,100%,100%);fill-opacity:1;" d="M 55.171875 37.070312 C 54.765625 37.070312 54.355469 36.925781 54.027344 36.632812 C 53.316406 36 53.25 34.910156 53.882812 34.199219 L 67.675781 18.683594 C 68.308594 17.96875 69.398438 17.90625 70.109375 18.539062 C 70.824219 19.171875 70.886719 20.261719 70.253906 20.972656 L 56.460938 36.488281 C 56.121094 36.875 55.648438 37.070312 55.171875 37.070312 Z M 55.171875 37.070312 "/>
<path style=" stroke:none;fill-rule:nonzero;fill:rgb(74.117647%,76.470588%,78.039216%);fill-opacity:1;" d="M 15.515625 12.929688 L 6.898438 12.929688 C 5.941406 12.929688 5.171875 12.160156 5.171875 11.207031 C 5.171875 10.253906 5.941406 9.484375 6.898438 9.484375 L 15.515625 9.484375 C 16.46875 9.484375 17.242188 10.253906 17.242188 11.207031 C 17.242188 12.160156 16.46875 12.929688 15.515625 12.929688 Z M 15.515625 12.929688 "/>
<path style=" stroke:none;fill-rule:nonzero;fill:rgb(74.117647%,76.470588%,78.039216%);fill-opacity:1;" d="M 15.515625 28.449219 C 14.5625 28.449219 13.792969 27.675781 13.792969 26.722656 L 13.792969 11.207031 C 13.792969 10.253906 14.5625 9.484375 15.515625 9.484375 C 16.46875 9.484375 17.242188 10.253906 17.242188 11.207031 L 17.242188 26.722656 C 17.242188 27.675781 16.46875 28.449219 15.515625 28.449219 Z M 15.515625 28.449219 "/>
<path style=" stroke:none;fill-rule:nonzero;fill:rgb(84.705882%,38.431373%,36.862745%);fill-opacity:1;" d="M 10.34375 11.207031 C 10.34375 14.0625 8.027344 16.378906 5.171875 16.378906 C 2.316406 16.378906 0 14.0625 0 11.207031 C 0 8.351562 2.316406 6.035156 5.171875 6.035156 C 8.027344 6.035156 10.34375 8.351562 10.34375 11.207031 Z M 10.34375 11.207031 "/>
</g>
</svg>
<!-- iconic normalized -->