<?xml version="1.0" encoding="UTF-8"?>
<svg xmlns="http://www.w3.org/2000/svg" xmlns:xlink="http://www.w3.org/1999/xlink" width="100px" height="100px" viewBox="0 0 100 100" version="1.1">
<g id="surface1">
<path style=" stroke:none;fill-rule:nonzero;fill:rgb(56.078431%,38.039216%,15.294118%);fill-opacity:1;" d="M 17.242188 17.242188 L 82.757812 17.242188 L 82.757812 82.757812 L 17.242188 82.757812 Z M 17.242188 17.242188 "/>
<path style=" stroke:none;fill-rule:nonzero;fill:rgb(67.843137%,49.411765%,30.588235%);fill-opacity:1;" d="M 17.242188 0 L 100 0 L 100 17.242188 L 17.242188 17.242188 Z M 17.242188 0 "/>
<path style=" stroke:none;fill-rule:nonzero;fill:rgb(79.215686%,58.823529%,35.294118%);fill-opacity:1;" d="M 82.757812 17.242188 L 100 17.242188 L 100 100 L 82.757812 100 Z M 82.757812 17.242188 "/>
<path style=" stroke:none;fill-rule:nonzero;fill:rgb(67.843137%,49.411765%,30.588235%);fill-opacity:1;" d="M 0 82.757812 L 82.757812 82.757812 L 82.757812 100 L 0 100 Z M 0 82.757812 "/>
<path style=" stroke:none;fill-rule:nonzero;fill:rgb(79.215686%,58.823529%,35.294118%);fill-opacity:1;" d="M 0 0 L 17.242188 0 L 17.242188 82.757812 L 0 82.757812 Z M 0 0 "/>
<path style=" stroke:none;fill-rule:nonzero;fill:rgb(90.196078%,90.588235%,90.980392%);fill-opacity:1;" d="M 94.828125 5.171875 C 94.828125 6.125 94.054688 6.898438 93.101562 6.898438 C 92.152344 6.898438 91.378906 6.125 91.378906 5.171875 C 91.378906 4.21875 92.152344 3.449219 93.101562 3.449219 C 94.054688 3.449219 94.828125 4.21875 94.828125 5.171875 Z M 94.828125 5.171875 "/>
<path style=" stroke:none;fill-rule:nonzero;fill:rgb(90.196078%,90.588235%,90.980392%);fill-opacity:1;" d="M 87.929688 5.171875 C 87.929688 6.125 87.160156 6.898438 86.207031 6.898438 C 85.253906 6.898438 84.484375 6.125 84.484375 5.171875 C 84.484375 4.21875 85.253906 3.449219 86.207031 3.449219 C 87.160156 3.449219 87.929688 4.21875 87.929688 5.171875 Z M 87.929688 5.171875 "/>
<path style=" stroke:none;fill-rule:nonzero;fill:rgb(90.196078%,90.588235%,90.980392%);fill-opacity:1;" d="M 94.828125 12.070312 C 94.828125 13.019531 94.054688 13.792969 93.101562 13.792969 C 92.152344 13.792969 91.378906 13.019531 91.378906 12.070312 C 91.378906 11.117188 92.152344 10.34375 93.101562 10.34375 C 94.054688 10.34375 94.828125 11.117188 94.828125 12.070312 Z M 94.828125 12.070312 "/>
<path style=" stroke:none;fill-rule:nonzero;fill:rgb(90.196078%,90.588235%,90.980392%);fill-opacity:1;" d="M 87.929688 12.070312 C 87.929688 13.019531 87.160156 13.792969 86.207031 13.792969 C 85.253906 13.792969 84.484375 13.019531 84.484375 12.070312 C 84.484375 11.117188 85.253906 10.34375 86.207031 10.34375 C 87.160156 10.34375 87.929688 11.117188 87.929688 12.070312 Z M 87.929688 12.070312 "/>
<path style=" stroke:none;fill-rule:nonzero;fill:rgb(90.196078%,90.588235%,90.980392%);fill-opacity:1;" d="M 96.550781 93.101562 C 96.550781 94.054688 95.78125 94.828125 94.828125 94.828125 C 93.875 94.828125 93.101562 94.054688 93.101562 93.101562 C 93.101562 92.152344 93.875 91.378906 94.828125 91.378906 C 95.78125 91.378906 96.550781 92.152344 96.550781 93.101562 Z M 96.550781 93.101562 "/>
<path style=" stroke:none;fill-rule:nonzero;fill:rgb(90.196078%,90.588235%,90.980392%);fill-opacity:1;" d="M 96.550781 86.207031 C 96.550781 87.160156 95.78125 87.929688 94.828125 87.929688 C 93.875 87.929688 93.101562 87.160156 93.101562 86.207031 C 93.101562 85.253906 93.875 84.484375 94.828125 84.484375 C 95.78125 84.484375 96.550781 85.253906 96.550781 86.207031 Z M 96.550781 86.207031 "/>
<path style=" stroke:none;fill-rule:nonzero;fill:rgb(90.196078%,90.588235%,90.980392%);fill-opacity:1;" d="M 89.65625 93.101562 C 89.65625 94.054688 88.882812 94.828125 87.929688 94.828125 C 86.980469 94.828125 86.207031 94.054688 86.207031 93.101562 C 86.207031 92.152344 86.980469 91.378906 87.929688 91.378906 C 88.882812 91.378906 89.65625 92.152344 89.65625 93.101562 Z M 89.65625 93.101562 "/>
<path style=" stroke:none;fill-rule:nonzero;fill:rgb(90.196078%,90.588235%,90.980392%);fill-opacity:1;" d="M 89.65625 86.207031 C 89.65625 87.160156 88.882812 87.929688 87.929688 87.929688 C 86.980469 87.929688 86.207031 87.160156 86.207031 86.207031 C 86.207031 85.253906 86.980469 84.484375 87.929688 84.484375 C 88.882812 84.484375 89.65625 85.253906 89.65625 86.207031 Z M 89.65625 86.207031 "/>
<path style=" stroke:none;fill-rule:nonzero;fill:rgb(90.196078%,90.588235%,90.980392%);fill-opacity:1;" d="M 8.621094 94.828125 C 8.621094 95.78125 7.847656 96.550781 6.898438 96.550781 C 5.945312 96.550781 5.171875 95.78125 5.171875 94.828125 C 5.171875 93.875 5.945312 93.101562 6.898438 93.101562 C 7.847656 93.101562 8.621094 93.875 8.621094 94.828125 Z M 8.621094 94.828125 "/>
<path style=" stroke:none;fill-rule:nonzero;fill:rgb(90.196078%,90.588235%,90.980392%);fill-opacity:1;" d="M 15.515625 94.828125 C 15.515625 95.78125 14.746094 96.550781 13.792969 96.550781 C 12.839844 96.550781 12.070312 95.78125 12.070312 94.828125 C 12.070312 93.875 12.839844 93.101562 13.792969 93.101562 C 14.746094 93.101562 15.515625 93.875 15.515625 94.828125 Z M 15.515625 94.828125 "/>
<path style=" stroke:none;fill-rule:nonzero;fill:rgb(90.196078%,90.588235%,90.980392%);fill-opacity:1;" d="M 8.621094 87.929688 C 8.621094 88.882812 7.847656 89.65625 6.898438 89.65625 C 5.945312 89.65625 5.171875 88.882812 5.171875 87.929688 C 5.171875 86.980469 5.945312 86.207031 6.898438 86.207031 C 7.847656 86.207031 8.621094 86.980469 8.621094 87.929688 Z M 8.621094 87.929688 "/>
<path style=" stroke:none;fill-rule:nonzero;fill:rgb(90.196078%,90.588235%,90.980392%);fill-opacity:1;" d="M 15.515625 87.929688 C 15.515625 88.882812 14.746094 89.65625 13.792969 89.65625 C 12.839844 89.65625 12.070312 88.882812 12.070312 87.929688 C 12.070312 86.980469 12.839844 86.207031 13.792969 86.207031 C 14.746094 86.207031 15.515625 86.980469 15.515625 87.929688 Z M 15.515625 87.929688 "/>
<path style=" stroke:none;fill-rule:nonzero;fill:rgb(90.196078%,90.588235%,90.980392%);fill-opacity:1;" d="M 6.898438 6.898438 C 6.898438 7.847656 6.125 8.621094 5.171875 8.621094 C 4.21875 8.621094 3.449219 7.847656 3.449219 6.898438 C 3.449219 5.945312 4.21875 5.171875 5.171875 5.171875 C 6.125 5.171875 6.898438 5.945312 6.898438 6.898438 Z M 6.898438 6.898438 "/>
<path style=" stroke:none;fill-rule:nonzero;fill:rgb(90.196078%,90.588235%,90.980392%);fill-opacity:1;" d="M 6.898438 13.792969 C 6.898438 14.746094 6.125 15.515625 5.171875 15.515625 C 4.21875 15.515625 3.449219 14.746094 3.449219 13.792969 C 3.449219 12.839844 4.21875 12.070312 5.171875 12.070312 C 6.125 12.070312 6.898438 12.839844 6.898438 13.792969 Z M 6.898438 13.792969 "/>
<path style=" stroke:none;fill-rule:nonzero;fill:rgb(90.196078%,90.588235%,90.980392%);fill-opacity:1;" d="M 13.792969 6.898438 C 13.792969 7.847656 13.019531 8.621094 12.070312 8.621094 C 11.117188 8.621094 10.34375 7.847656 10.34375 6.898438 C 10.34375 5.945312 11.117188 5.171875 12.070312 5.171875 C 13.019531 5.171875 13.792969 5.945312 13.792969 6.898438 Z M 13.792969 6.898438 "/>
<path style=" stroke:none;fill-rule:nonzero;fill:rgb(90.196078%,90.588235%,90.980392%);fill-opacity:1;" d="M 13.792969 13.792969 C 13.792969 14.746094 13.019531 15.515625 12.070312 15.515625 C 11.117188 15.515625 10.34375 14.746094 10.34375 13.792969 C 10.34375 12.839844 11.117188 12.070312 12.070312 12.070312 C 13.019531 12.070312 13.792969 12.839844 13.792969 13.792969 Z M 13.792969 13.792969 "/>
<path style=" stroke:none;fill-rule:nonzero;fill:rgb(43.921569%,28.627451%,11.764706%);fill-opacity:1;" d="M 66.308594 82.757812 L 82.757812 66.308594 L 82.757812 46.804688 L 46.804688 82.757812 Z M 66.308594 82.757812 "/>
<path style=" stroke:none;fill-rule:nonzero;fill:rgb(43.921569%,28.627451%,11.764706%);fill-opacity:1;" d="M 82.757812 27.296875 L 82.757812 17.242188 L 73.308594 17.242188 L 17.242188 73.308594 L 17.242188 82.757812 L 27.296875 82.757812 Z M 82.757812 27.296875 "/>
<path style=" stroke:none;fill-rule:nonzero;fill:rgb(43.921569%,28.627451%,11.764706%);fill-opacity:1;" d="M 17.242188 53.800781 L 53.800781 17.242188 L 34.292969 17.242188 L 17.242188 34.292969 Z M 17.242188 53.800781 "/>
</g>
</svg>
<!-- iconic normalized -->