<?xml version="1.0" encoding="UTF-8"?>
<svg xmlns="http://www.w3.org/2000/svg" xmlns:xlink="http://www.w3.org/1999/xlink" width="100px" height="100px" viewBox="0 0 100 100" version="1.1">
<g id="surface1">
<path style=" stroke:none;fill-rule:nonzero;fill:rgb(83.529412%,72.156863%,60.392157%);fill-opacity:1;" d="M 94.453125 86.207031 L 5.546875 86.207031 C 2.484375 86.207031 0 83.722656 0 80.660156 L 0 19.339844 C 0 16.277344 2.484375 13.792969 5.546875 13.792969 L 94.453125 13.792969 C 97.515625 13.792969 100 16.277344 100 19.339844 L 100 80.660156 C 100 83.722656 97.515625 86.207031 94.453125 86.207031 "/>
<path style=" stroke:none;fill-rule:nonzero;fill:rgb(90.588235%,29.803922%,23.921569%);fill-opacity:1;" d="M 79.308594 34.484375 C 79.308594 40.195312 74.679688 44.828125 68.964844 44.828125 C 63.25 44.828125 58.621094 40.195312 58.621094 34.484375 C 58.621094 28.769531 63.25 24.136719 68.964844 24.136719 C 74.679688 24.136719 79.308594 28.769531 79.308594 34.484375 "/>
<path style=" stroke:none;fill-rule:nonzero;fill:rgb(94.117647%,76.862745%,10.588235%);fill-opacity:1;" d="M 91.378906 34.484375 C 91.378906 40.195312 86.75 44.828125 81.035156 44.828125 C 75.320312 44.828125 70.691406 40.195312 70.691406 34.484375 C 70.691406 28.769531 75.320312 24.136719 81.035156 24.136719 C 86.75 24.136719 91.378906 28.769531 91.378906 34.484375 "/>
<path style=" stroke:none;fill-rule:nonzero;fill:rgb(89.411765%,83.921569%,71.372549%);fill-opacity:1;" d="M 24.136719 25.863281 L 8.621094 25.863281 C 7.667969 25.863281 6.898438 26.632812 6.898438 27.585938 C 6.898438 28.539062 7.667969 29.308594 8.621094 29.308594 L 24.136719 29.308594 C 25.089844 29.308594 25.863281 28.539062 25.863281 27.585938 C 25.863281 26.632812 25.089844 25.863281 24.136719 25.863281 "/>
<path style=" stroke:none;fill-rule:nonzero;fill:rgb(89.411765%,83.921569%,71.372549%);fill-opacity:1;" d="M 48.277344 27.585938 C 48.277344 26.632812 47.503906 25.863281 46.550781 25.863281 L 31.035156 25.863281 C 30.082031 25.863281 29.308594 26.632812 29.308594 27.585938 C 29.308594 28.539062 30.082031 29.308594 31.035156 29.308594 L 46.550781 29.308594 C 47.503906 29.308594 48.277344 28.539062 48.277344 27.585938 "/>
<path style=" stroke:none;fill-rule:nonzero;fill:rgb(89.411765%,83.921569%,71.372549%);fill-opacity:1;" d="M 10.34375 34.484375 L 8.621094 34.484375 C 7.667969 34.484375 6.898438 35.253906 6.898438 36.207031 C 6.898438 37.160156 7.667969 37.929688 8.621094 37.929688 L 10.34375 37.929688 C 11.296875 37.929688 12.070312 37.160156 12.070312 36.207031 C 12.070312 35.253906 11.296875 34.484375 10.34375 34.484375 "/>
<path style=" stroke:none;fill-rule:nonzero;fill:rgb(89.411765%,83.921569%,71.372549%);fill-opacity:1;" d="M 20.691406 34.484375 L 17.242188 34.484375 C 16.289062 34.484375 15.515625 35.253906 15.515625 36.207031 C 15.515625 37.160156 16.289062 37.929688 17.242188 37.929688 L 20.691406 37.929688 C 21.644531 37.929688 22.414062 37.160156 22.414062 36.207031 C 22.414062 35.253906 21.644531 34.484375 20.691406 34.484375 "/>
<path style=" stroke:none;fill-rule:nonzero;fill:rgb(89.411765%,83.921569%,71.372549%);fill-opacity:1;" d="M 29.308594 34.484375 L 27.585938 34.484375 C 26.632812 34.484375 25.863281 35.253906 25.863281 36.207031 C 25.863281 37.160156 26.632812 37.929688 27.585938 37.929688 L 29.308594 37.929688 C 30.265625 37.929688 31.035156 37.160156 31.035156 36.207031 C 31.035156 35.253906 30.265625 34.484375 29.308594 34.484375 "/>
<path style=" stroke:none;fill-rule:nonzero;fill:rgb(89.411765%,83.921569%,71.372549%);fill-opacity:1;" d="M 39.65625 34.484375 L 36.207031 34.484375 C 35.253906 34.484375 34.484375 35.253906 34.484375 36.207031 C 34.484375 37.160156 35.253906 37.929688 36.207031 37.929688 L 39.65625 37.929688 C 40.609375 37.929688 41.378906 37.160156 41.378906 36.207031 C 41.378906 35.253906 40.609375 34.484375 39.65625 34.484375 "/>
<path style=" stroke:none;fill-rule:nonzero;fill:rgb(89.411765%,83.921569%,71.372549%);fill-opacity:1;" d="M 45.34375 34.984375 C 45.015625 35.308594 44.828125 35.742188 44.828125 36.207031 C 44.828125 36.671875 45.015625 37.101562 45.328125 37.429688 C 45.652344 37.742188 46.101562 37.929688 46.550781 37.929688 C 47 37.929688 47.445312 37.742188 47.777344 37.429688 C 48.085938 37.101562 48.277344 36.65625 48.277344 36.207031 C 48.277344 35.757812 48.085938 35.308594 47.777344 35 C 47.136719 34.34375 45.964844 34.34375 45.34375 34.984375 "/>
<path style=" stroke:none;fill-rule:nonzero;fill:rgb(40%,32.156863%,28.235294%);fill-opacity:1;" d="M 8.621094 63.792969 L 24.136719 63.792969 L 24.136719 74.136719 L 8.621094 74.136719 Z M 8.621094 63.792969 "/>
<path style=" stroke:none;fill-rule:nonzero;fill:rgb(40%,32.156863%,28.235294%);fill-opacity:1;" d="M 31.035156 63.792969 L 46.550781 63.792969 L 46.550781 74.136719 L 31.035156 74.136719 Z M 31.035156 63.792969 "/>
<path style=" stroke:none;fill-rule:nonzero;fill:rgb(40%,32.156863%,28.235294%);fill-opacity:1;" d="M 53.449219 63.792969 L 68.964844 63.792969 L 68.964844 74.136719 L 53.449219 74.136719 Z M 53.449219 63.792969 "/>
<path style=" stroke:none;fill-rule:nonzero;fill:rgb(40%,32.156863%,28.235294%);fill-opacity:1;" d="M 75.863281 63.792969 L 91.378906 63.792969 L 91.378906 74.136719 L 75.863281 74.136719 Z M 75.863281 63.792969 "/>
</g>
</svg>
<!-- iconic normalized -->