<?xml version="1.0" encoding="UTF-8"?>
<svg xmlns="http://www.w3.org/2000/svg" xmlns:xlink="http://www.w3.org/1999/xlink" width="100px" height="100px" viewBox="0 0 100 100" version="1.1">
<g id="surface1">
<path style=" stroke:none;fill-rule:nonzero;fill:rgb(33.72549%,70.588235%,43.529412%);fill-opacity:1;" d="M 0 28.570312 L 100 28.570312 L 100 85.714844 L 0 85.714844 Z M 0 28.570312 "/>
<path style=" stroke:none;fill-rule:nonzero;fill:rgb(45.490196%,74.509804%,52.54902%);fill-opacity:1;" d="M 92.855469 28.570312 L 3.570312 28.570312 L 3.570312 21.429688 Z M 92.855469 28.570312 "/>
<path style=" stroke:none;fill-rule:nonzero;fill:rgb(30.196078%,50.588235%,34.117647%);fill-opacity:1;" d="M 73.214844 57.144531 C 73.214844 69.964844 62.820312 80.355469 50 80.355469 C 37.179688 80.355469 26.785156 69.964844 26.785156 57.144531 C 26.785156 44.320312 37.179688 33.929688 50 33.929688 C 62.820312 33.929688 73.214844 44.320312 73.214844 57.144531 "/>
<path style=" stroke:none;fill-rule:nonzero;fill:rgb(91.764706%,91.764706%,84.313725%);fill-opacity:1;" d="M 37.667969 76.785156 C 31.140625 72.675781 26.785156 65.425781 26.785156 57.144531 C 26.785156 48.859375 31.140625 41.609375 37.667969 37.5 L 19.597656 37.5 C 19.625 37.792969 19.644531 38.089844 19.644531 38.394531 C 19.644531 43.816406 15.246094 48.214844 9.820312 48.214844 C 9.519531 48.214844 9.222656 48.195312 8.929688 48.167969 L 8.929688 66.117188 C 9.222656 66.089844 9.519531 66.070312 9.820312 66.070312 C 15.246094 66.070312 19.644531 70.46875 19.644531 75.894531 C 19.644531 76.195312 19.625 76.492188 19.597656 76.785156 Z M 37.667969 76.785156 "/>
<path style=" stroke:none;fill-rule:nonzero;fill:rgb(91.764706%,91.764706%,84.313725%);fill-opacity:1;" d="M 90.179688 48.214844 C 84.753906 48.214844 80.355469 43.816406 80.355469 38.394531 C 80.355469 38.089844 80.375 37.792969 80.402344 37.5 L 62.332031 37.5 C 68.859375 41.609375 73.214844 48.859375 73.214844 57.144531 C 73.214844 65.425781 68.859375 72.675781 62.332031 76.785156 L 80.402344 76.785156 C 80.375 76.492188 80.355469 76.195312 80.355469 75.894531 C 80.355469 70.46875 84.753906 66.070312 90.179688 66.070312 C 90.480469 66.070312 90.777344 66.089844 91.070312 66.117188 L 91.070312 48.167969 C 90.777344 48.195312 90.480469 48.214844 90.179688 48.214844 "/>
<path style=" stroke:none;fill-rule:nonzero;fill:rgb(91.764706%,91.764706%,84.313725%);fill-opacity:1;" d="M 9.820312 42.855469 C 7.359375 42.855469 5.355469 40.855469 5.355469 38.394531 C 5.355469 35.929688 7.359375 33.929688 9.820312 33.929688 C 12.285156 33.929688 14.285156 35.929688 14.285156 38.394531 C 14.285156 40.855469 12.285156 42.855469 9.820312 42.855469 "/>
<path style=" stroke:none;fill-rule:nonzero;fill:rgb(91.764706%,91.764706%,84.313725%);fill-opacity:1;" d="M 90.179688 42.855469 C 87.714844 42.855469 85.714844 40.855469 85.714844 38.394531 C 85.714844 35.929688 87.714844 33.929688 90.179688 33.929688 C 92.640625 33.929688 94.644531 35.929688 94.644531 38.394531 C 94.644531 40.855469 92.640625 42.855469 90.179688 42.855469 "/>
<path style=" stroke:none;fill-rule:nonzero;fill:rgb(91.764706%,91.764706%,84.313725%);fill-opacity:1;" d="M 9.820312 80.355469 C 7.359375 80.355469 5.355469 78.355469 5.355469 75.894531 C 5.355469 73.429688 7.359375 71.429688 9.820312 71.429688 C 12.285156 71.429688 14.285156 73.429688 14.285156 75.894531 C 14.285156 78.355469 12.285156 80.355469 9.820312 80.355469 "/>
<path style=" stroke:none;fill-rule:nonzero;fill:rgb(91.764706%,91.764706%,84.313725%);fill-opacity:1;" d="M 90.179688 80.355469 C 87.714844 80.355469 85.714844 78.355469 85.714844 75.894531 C 85.714844 73.429688 87.714844 71.429688 90.179688 71.429688 C 92.640625 71.429688 94.644531 73.429688 94.644531 75.894531 C 94.644531 78.355469 92.640625 80.355469 90.179688 80.355469 "/>
<path style=" stroke:none;fill-rule:nonzero;fill:rgb(51.372549%,76.470588%,55.686275%);fill-opacity:1;" d="M 8.929688 14.285156 L 8.929688 21.855469 L 92.855469 28.570312 L 98.214844 28.570312 Z M 8.929688 14.285156 "/>
<path style=" stroke:none;fill-rule:nonzero;fill:rgb(91.764706%,91.764706%,84.313725%);fill-opacity:1;" d="M 59.941406 62.542969 C 61.210938 62.152344 62.144531 60.980469 62.144531 59.585938 L 62.144531 58.035156 C 62.144531 56.84375 61.457031 55.8125 60.46875 55.292969 C 59.78125 49.445312 55.917969 47.082031 49.707031 47.082031 C 49.414062 47.082031 49.125 47.089844 48.839844 47.113281 C 46.730469 47.28125 44.59375 46.886719 42.835938 45.703125 C 42.105469 45.207031 41.492188 44.6875 41.0625 44.136719 C 40.863281 43.886719 40.46875 44.046875 40.503906 44.363281 C 40.566406 44.90625 40.660156 45.542969 40.796875 46.234375 C 41.3125 48.816406 41.003906 48.4375 40.003906 50.875 C 39.453125 52.222656 39.097656 53.714844 38.933594 55.296875 C 37.949219 55.824219 37.269531 56.847656 37.269531 58.035156 L 37.269531 59.585938 C 37.269531 60.980469 38.203125 62.152344 39.46875 62.542969 C 40.308594 65.691406 42.035156 68.207031 45.042969 69.5 L 45.042969 71.28125 C 45.042969 71.738281 44.78125 72.152344 44.375 72.355469 L 38.375 75.3125 C 37.855469 75.59375 37.425781 75.980469 37.042969 76.40625 C 40.742188 78.898438 45.203125 80.355469 50 80.355469 C 54.621094 80.355469 58.914062 78.992188 62.53125 76.664062 C 62.085938 76.125 61.527344 75.675781 60.875 75.351562 L 55.019531 72.355469 C 54.621094 72.152344 54.371094 71.742188 54.371094 71.292969 L 54.371094 69.5 C 57.375 68.207031 59.101562 65.691406 59.941406 62.542969 "/>
</g>
</svg>
<!-- iconic normalized -->