<?xml version="1.0" encoding="UTF-8"?>
<svg xmlns="http://www.w3.org/2000/svg" xmlns:xlink="http://www.w3.org/1999/xlink" width="100px" height="100px" viewBox="0 0 100 100" version="1.1">
<g id="surface1">
<path style=" stroke:none;fill-rule:nonzero;fill:rgb(94.117647%,47.058824%,35.294118%);fill-opacity:1;" d="M 53.449219 46.484375 L 99.867188 46.484375 C 98.171875 21.621094 78.3125 1.761719 53.449219 0.0664062 Z M 53.449219 46.484375 "/>
<path style=" stroke:none;fill-rule:nonzero;fill:rgb(94.117647%,76.862745%,9.803922%);fill-opacity:1;" d="M 86.871094 83.820312 C 94.359375 75.699219 99.203125 65.097656 100 53.382812 L 56.4375 53.382812 Z M 86.871094 83.820312 "/>
<path style=" stroke:none;fill-rule:nonzero;fill:rgb(33.333333%,37.647059%,50.196078%);fill-opacity:1;" d="M 46.550781 48.507812 L 46.550781 0.0664062 C 20.546875 1.839844 0 23.480469 0 49.933594 C 0 62.5 4.648438 73.972656 12.300781 82.757812 Z M 46.550781 48.507812 "/>
<path style=" stroke:none;fill-rule:nonzero;fill:rgb(44.313725%,76.078431%,52.156863%);fill-opacity:1;" d="M 48.988281 55.820312 L 17.175781 87.632812 C 25.960938 95.289062 37.433594 99.933594 50 99.933594 C 62.050781 99.933594 73.097656 95.660156 81.726562 88.558594 Z M 48.988281 55.820312 "/>
</g>
</svg>
<!-- iconic normalized -->