<?xml version="1.0" encoding="UTF-8"?>
<svg xmlns="http://www.w3.org/2000/svg" xmlns:xlink="http://www.w3.org/1999/xlink" width="100px" height="100px" viewBox="0 0 100 100" version="1.1">
<g id="surface1">
<path style=" stroke:none;fill-rule:nonzero;fill:rgb(90.980392%,83.529412%,69.803922%);fill-opacity:1;" d="M 51.21875 8.472656 L 2.101562 57.996094 C 0.429688 59.667969 0.429688 62.382812 2.101562 64.058594 L 36.792969 98.746094 C 38.464844 100.417969 41.179688 100.417969 42.851562 98.746094 L 90.679688 49.628906 L 90.679688 8.472656 Z M 73.730469 32.203125 C 69.984375 32.203125 66.949219 29.167969 66.949219 25.421875 C 66.949219 21.679688 69.984375 18.644531 73.730469 18.644531 C 77.472656 18.644531 80.507812 21.679688 80.507812 25.421875 C 80.507812 29.167969 77.472656 32.203125 73.730469 32.203125 Z M 73.730469 32.203125 "/>
<path style=" stroke:none;fill-rule:nonzero;fill:rgb(79.607843%,69.803922%,57.254902%);fill-opacity:1;" d="M 73.730469 11.863281 C 66.242188 11.863281 60.167969 17.9375 60.167969 25.421875 C 60.167969 32.910156 66.242188 38.984375 73.730469 38.984375 C 81.21875 38.984375 87.289062 32.910156 87.289062 25.421875 C 87.289062 17.9375 81.21875 11.863281 73.730469 11.863281 Z M 73.730469 32.203125 C 69.984375 32.203125 66.949219 29.167969 66.949219 25.421875 C 66.949219 21.679688 69.984375 18.644531 73.730469 18.644531 C 77.472656 18.644531 80.507812 21.679688 80.507812 25.421875 C 80.507812 29.167969 77.472656 32.203125 73.730469 32.203125 Z M 73.730469 32.203125 "/>
<path style=" stroke:none;fill-rule:nonzero;fill:rgb(84.313725%,35.294118%,29.019608%);fill-opacity:1;" d="M 73.730469 27.117188 C 73.292969 27.117188 72.859375 26.953125 72.53125 26.621094 C 71.867188 25.960938 71.867188 24.886719 72.53125 24.226562 L 96.257812 0.496094 C 96.921875 -0.167969 97.992188 -0.167969 98.65625 0.496094 C 99.320312 1.160156 99.320312 2.230469 98.65625 2.894531 L 74.925781 26.621094 C 74.597656 26.953125 74.164062 27.117188 73.730469 27.117188 Z M 73.730469 27.117188 "/>
<path style=" stroke:none;fill-rule:nonzero;fill:rgb(92.54902%,94.117647%,94.509804%);fill-opacity:1;" d="M 21.441406 38.5 L 2.101562 57.996094 C 0.429688 59.667969 0.429688 62.382812 2.101562 64.058594 L 36.792969 98.746094 C 38.464844 100.417969 41.179688 100.417969 42.851562 98.746094 L 62.011719 79.070312 Z M 21.441406 38.5 "/>
<path style=" stroke:none;fill-rule:nonzero;fill:rgb(58.431373%,64.705882%,64.705882%);fill-opacity:1;" d="M 9.273438 63.878906 C 8.839844 63.878906 8.40625 63.710938 8.078125 63.382812 C 7.414062 62.71875 7.414062 61.648438 8.078125 60.984375 L 22.457031 46.601562 C 23.121094 45.941406 24.191406 45.941406 24.855469 46.601562 C 25.515625 47.265625 25.515625 48.335938 24.855469 49 L 10.472656 63.382812 C 10.140625 63.710938 9.707031 63.878906 9.273438 63.878906 Z M 9.273438 63.878906 "/>
<path style=" stroke:none;fill-rule:nonzero;fill:rgb(58.431373%,64.705882%,64.705882%);fill-opacity:1;" d="M 20.0625 60.28125 C 19.628906 60.28125 19.191406 60.117188 18.863281 59.785156 C 18.199219 59.121094 18.199219 58.050781 18.863281 57.386719 L 26.054688 50.195312 C 26.71875 49.535156 27.789062 49.535156 28.449219 50.195312 C 29.113281 50.859375 29.113281 51.929688 28.449219 52.59375 L 21.257812 59.785156 C 20.929688 60.117188 20.496094 60.28125 20.0625 60.28125 Z M 20.0625 60.28125 "/>
<path style=" stroke:none;fill-rule:nonzero;fill:rgb(58.431373%,64.705882%,64.705882%);fill-opacity:1;" d="M 24.855469 65.078125 C 24.421875 65.078125 23.988281 64.910156 23.65625 64.578125 C 22.996094 63.917969 22.996094 62.847656 23.65625 62.183594 L 30.847656 54.992188 C 31.511719 54.332031 32.582031 54.332031 33.246094 54.992188 C 33.910156 55.65625 33.910156 56.726562 33.246094 57.390625 L 26.054688 64.578125 C 25.722656 64.910156 25.289062 65.078125 24.855469 65.078125 Z M 24.855469 65.078125 "/>
<path style=" stroke:none;fill-rule:nonzero;fill:rgb(58.431373%,64.705882%,64.705882%);fill-opacity:1;" d="M 28.449219 68.671875 C 28.015625 68.671875 27.582031 68.503906 27.253906 68.175781 C 26.589844 67.511719 26.589844 66.441406 27.253906 65.777344 L 34.441406 58.589844 C 35.105469 57.925781 36.175781 57.925781 36.839844 58.589844 C 37.5 59.25 37.5 60.320312 36.839844 60.984375 L 29.648438 68.175781 C 29.320312 68.503906 28.882812 68.671875 28.449219 68.671875 Z M 28.449219 68.671875 "/>
<path style=" stroke:none;fill-rule:nonzero;fill:rgb(58.431373%,64.705882%,64.705882%);fill-opacity:1;" d="M 34.441406 74.664062 C 34.007812 74.664062 33.574219 74.5 33.242188 74.167969 C 32.582031 73.503906 32.582031 72.433594 33.242188 71.769531 L 40.4375 64.578125 C 41.097656 63.917969 42.167969 63.917969 42.832031 64.578125 C 43.496094 65.242188 43.496094 66.3125 42.832031 66.976562 L 35.640625 74.167969 C 35.308594 74.5 34.875 74.664062 34.441406 74.664062 Z M 34.441406 74.664062 "/>
<path style=" stroke:none;fill-rule:nonzero;fill:rgb(58.431373%,64.705882%,64.705882%);fill-opacity:1;" d="M 38.039062 78.257812 C 37.605469 78.257812 37.171875 78.09375 36.839844 77.761719 C 36.179688 77.101562 36.179688 76.027344 36.839844 75.367188 L 44.03125 68.175781 C 44.695312 67.511719 45.765625 67.511719 46.429688 68.175781 C 47.089844 68.835938 47.089844 69.910156 46.429688 70.570312 L 39.238281 77.761719 C 38.90625 78.09375 38.472656 78.257812 38.039062 78.257812 Z M 38.039062 78.257812 "/>
<path style=" stroke:none;fill-rule:nonzero;fill:rgb(58.431373%,64.705882%,64.705882%);fill-opacity:1;" d="M 41.632812 81.855469 C 41.199219 81.855469 40.765625 81.6875 40.4375 81.359375 C 39.773438 80.695312 39.773438 79.625 40.4375 78.960938 L 47.628906 71.769531 C 48.289062 71.109375 49.359375 71.109375 50.023438 71.769531 C 50.6875 72.433594 50.6875 73.503906 50.023438 74.167969 L 42.832031 81.359375 C 42.5 81.6875 42.066406 81.855469 41.632812 81.855469 Z M 41.632812 81.855469 "/>
<path style=" stroke:none;fill-rule:nonzero;fill:rgb(58.431373%,64.705882%,64.705882%);fill-opacity:1;" d="M 38.039062 92.640625 C 37.605469 92.640625 37.171875 92.472656 36.839844 92.144531 C 36.179688 91.480469 36.179688 90.410156 36.839844 89.746094 L 51.222656 75.367188 C 51.882812 74.703125 52.957031 74.703125 53.617188 75.367188 C 54.28125 76.027344 54.28125 77.101562 53.617188 77.761719 L 39.238281 92.144531 C 38.90625 92.476562 38.472656 92.640625 38.039062 92.640625 Z M 38.039062 92.640625 "/>
<path style=" stroke:none;fill-rule:nonzero;fill:rgb(58.431373%,64.705882%,64.705882%);fill-opacity:1;" d="M 14.070312 66.273438 C 13.636719 66.273438 13.203125 66.109375 12.871094 65.777344 C 12.207031 65.117188 12.207031 64.042969 12.871094 63.382812 L 14.070312 62.183594 C 14.730469 61.519531 15.804688 61.519531 16.464844 62.183594 C 17.128906 62.847656 17.128906 63.917969 16.464844 64.578125 L 15.269531 65.777344 C 14.9375 66.109375 14.503906 66.273438 14.070312 66.273438 Z M 14.070312 66.273438 "/>
<path style=" stroke:none;fill-rule:nonzero;fill:rgb(58.431373%,64.705882%,64.705882%);fill-opacity:1;" d="M 18.863281 71.066406 C 18.429688 71.066406 17.996094 70.902344 17.664062 70.570312 C 17 69.910156 17 68.835938 17.664062 68.175781 L 18.863281 66.976562 C 19.527344 66.3125 20.597656 66.3125 21.257812 66.976562 C 21.921875 67.640625 21.921875 68.710938 21.257812 69.371094 L 20.0625 70.570312 C 19.730469 70.902344 19.296875 71.066406 18.863281 71.066406 Z M 18.863281 71.066406 "/>
<path style=" stroke:none;fill-rule:nonzero;fill:rgb(58.431373%,64.705882%,64.705882%);fill-opacity:1;" d="M 22.457031 74.664062 C 22.023438 74.664062 21.589844 74.5 21.257812 74.167969 C 20.597656 73.503906 20.597656 72.433594 21.257812 71.769531 L 22.457031 70.574219 C 23.121094 69.910156 24.191406 69.910156 24.855469 70.574219 C 25.515625 71.234375 25.515625 72.308594 24.855469 72.96875 L 23.65625 74.167969 C 23.324219 74.5 22.890625 74.664062 22.457031 74.664062 Z M 22.457031 74.664062 "/>
<path style=" stroke:none;fill-rule:nonzero;fill:rgb(58.431373%,64.705882%,64.705882%);fill-opacity:1;" d="M 28.449219 80.65625 C 28.015625 80.65625 27.582031 80.488281 27.253906 80.160156 C 26.589844 79.496094 26.589844 78.425781 27.253906 77.761719 L 28.449219 76.5625 C 29.113281 75.902344 30.183594 75.902344 30.847656 76.5625 C 31.511719 77.226562 31.511719 78.296875 30.847656 78.960938 L 29.648438 80.160156 C 29.320312 80.488281 28.882812 80.65625 28.449219 80.65625 Z M 28.449219 80.65625 "/>
<path style=" stroke:none;fill-rule:nonzero;fill:rgb(58.431373%,64.705882%,64.705882%);fill-opacity:1;" d="M 32.046875 84.25 C 31.613281 84.25 31.179688 84.085938 30.847656 83.753906 C 30.183594 83.089844 30.183594 82.019531 30.847656 81.359375 L 32.046875 80.160156 C 32.707031 79.496094 33.78125 79.496094 34.441406 80.160156 C 35.105469 80.820312 35.105469 81.894531 34.441406 82.554688 L 33.242188 83.753906 C 32.914062 84.085938 32.480469 84.25 32.046875 84.25 Z M 32.046875 84.25 "/>
<path style=" stroke:none;fill-rule:nonzero;fill:rgb(58.431373%,64.705882%,64.705882%);fill-opacity:1;" d="M 35.640625 87.847656 C 35.207031 87.847656 34.773438 87.679688 34.441406 87.351562 C 33.78125 86.691406 33.78125 85.617188 34.441406 84.953125 L 35.640625 83.753906 C 36.304688 83.089844 37.378906 83.089844 38.039062 83.753906 C 38.703125 84.414062 38.703125 85.488281 38.039062 86.152344 L 36.839844 87.351562 C 36.511719 87.679688 36.074219 87.847656 35.640625 87.847656 Z M 35.640625 87.847656 "/>
</g>
</svg>
<!-- iconic normalized -->