<?xml version="1.0" encoding="UTF-8"?>
<svg xmlns="http://www.w3.org/2000/svg" xmlns:xlink="http://www.w3.org/1999/xlink" width="100px" height="100px" viewBox="0 0 100 100" version="1.1">
<g id="surface1">
<path style=" stroke:none;fill-rule:nonzero;fill:rgb(95.686275%,70.588235%,34.901961%);fill-opacity:1;" d="M 58.0625 81.265625 C 58.0625 68.472656 68.433594 58.109375 81.222656 58.109375 C 83.386719 58.109375 85.476562 58.429688 87.464844 58.984375 L 87.464844 6.328125 L 93.710938 6.328125 L 93.710938 0.0859375 L 87.464844 0.0859375 L 87.464844 0 C 87.464844 0 36.800781 0.0625 18.792969 0.0820312 C 15.261719 0.0820312 12.53125 2.734375 12.53125 6.339844 L 12.53125 99.996094 L 67.640625 99.996094 C 61.847656 95.789062 58.0625 88.976562 58.0625 81.265625 Z M 58.0625 81.265625 "/>
<path style=" stroke:none;fill-rule:nonzero;fill:rgb(81.568627%,48.627451%,25.098039%);fill-opacity:1;" d="M 93.710938 0.0859375 C 90.265625 0.0859375 87.46875 2.886719 87.46875 6.332031 L 87.46875 12.578125 L 93.710938 12.578125 C 97.160156 12.578125 99.957031 9.777344 99.957031 6.332031 C 99.957031 2.882812 97.160156 0.0859375 93.710938 0.0859375 Z M 93.710938 0.0859375 "/>
<path style=" stroke:none;fill-rule:nonzero;fill:rgb(23.921569%,70.196078%,61.960784%);fill-opacity:1;" d="M 81.222656 62.53125 C 91.570312 62.53125 99.957031 70.917969 99.957031 81.265625 C 99.957031 91.605469 91.570312 100 81.222656 100 C 70.882812 100 62.488281 91.609375 62.488281 81.265625 C 62.488281 70.917969 70.882812 62.53125 81.222656 62.53125 Z M 81.222656 62.53125 "/>
<path style=" stroke:none;fill-rule:nonzero;fill:rgb(100%,100%,100%);fill-opacity:1;" d="M 87.46875 78.144531 L 84.34375 78.144531 L 84.34375 75.019531 C 84.34375 73.292969 82.949219 71.898438 81.222656 71.898438 C 79.496094 71.898438 78.101562 73.292969 78.101562 75.019531 L 78.101562 78.144531 L 74.976562 78.144531 C 73.25 78.144531 71.855469 79.539062 71.855469 81.265625 C 71.855469 82.992188 73.25 84.386719 74.976562 84.386719 L 78.101562 84.386719 L 78.101562 87.511719 C 78.101562 89.238281 79.496094 90.632812 81.222656 90.632812 C 82.949219 90.632812 84.34375 89.238281 84.34375 87.511719 L 84.34375 84.386719 L 87.46875 84.386719 C 89.195312 84.386719 90.589844 82.992188 90.589844 81.265625 C 90.589844 79.539062 89.195312 78.144531 87.46875 78.144531 Z M 87.46875 78.144531 "/>
<path style=" stroke:none;fill-rule:nonzero;fill:rgb(81.568627%,48.627451%,25.098039%);fill-opacity:1;" d="M 58.9375 87.511719 L 6.289062 87.511719 C 2.839844 87.511719 0.0429688 90.308594 0.0429688 93.753906 C 0.0429688 97.203125 2.839844 100 6.289062 100 L 67.648438 100 C 63.476562 96.972656 60.367188 92.601562 58.9375 87.511719 Z M 58.9375 87.511719 "/>
<path style=" stroke:none;fill-rule:nonzero;fill:rgb(100%,100%,100%);fill-opacity:1;" d="M 61.582031 37.542969 C 60.691406 37.542969 59.339844 38.386719 59.339844 39.90625 L 59.339844 57.089844 C 59.339844 58.605469 60.691406 59.453125 61.582031 59.453125 C 62.480469 59.453125 63.828125 58.609375 63.828125 57.089844 L 63.828125 39.90625 C 63.828125 38.390625 62.480469 37.542969 61.582031 37.542969 Z M 47.011719 40.042969 C 46.503906 38.601562 45.402344 37.550781 43.824219 37.550781 C 42.304688 37.550781 41.140625 38.660156 40.636719 40.042969 L 34.640625 56.363281 C 34.582031 56.511719 34.433594 56.871094 34.433594 57.351562 C 34.433594 58.550781 35.445312 59.453125 36.640625 59.453125 C 37.863281 59.453125 38.492188 58.792969 38.789062 57.863281 L 39.683594 55.070312 L 47.96875 55.070312 L 48.863281 57.890625 C 49.164062 58.789062 49.789062 59.449219 51.035156 59.449219 C 52.140625 59.449219 53.09375 58.636719 53.09375 57.46875 C 53.09375 57.257812 53.03125 56.835938 52.855469 56.359375 C 52.855469 56.359375 47.011719 40.042969 47.011719 40.042969 Z M 40.957031 50.929688 L 43.789062 42.230469 L 43.847656 42.230469 L 46.621094 50.929688 Z M 40.957031 50.929688 "/>
</g>
</svg>
<!-- iconic normalized -->