<?xml version="1.0" encoding="UTF-8"?>
<svg xmlns="http://www.w3.org/2000/svg" xmlns:xlink="http://www.w3.org/1999/xlink" width="100px" height="100px" viewBox="0 0 100 100" version="1.1">
<g id="surface1">
<path style=" stroke:none;fill-rule:nonzero;fill:rgb(23.921569%,70.196078%,61.960784%);fill-opacity:1;" d="M 12.5 0 L 65.601562 0 L 93.75 28.039062 L 93.75 93.75 C 93.75 97.203125 90.949219 100 87.5 100 L 12.5 100 C 9.050781 100 6.25 97.203125 6.25 93.75 L 6.25 6.25 C 6.25 2.796875 9.050781 0 12.5 0 Z M 12.5 0 "/>
<path style=" stroke:none;fill-rule:nonzero;fill:rgb(18.431373%,54.117647%,47.058824%);fill-opacity:1;" d="M 93.660156 28.125 L 71.875 28.125 C 68.425781 28.125 65.625 25.324219 65.625 21.875 L 65.625 0.0625 Z M 93.660156 28.125 "/>
<path style=" stroke:none;fill-rule:nonzero;fill:rgb(54.509804%,81.960784%,77.254902%);fill-opacity:1;" d="M 25 40.625 L 25 81.25 L 75 81.25 L 75 40.625 Z M 62.5 43.75 L 62.5 50 L 56.25 50 L 56.25 43.75 Z M 43.75 59.375 L 37.5 59.375 L 37.5 53.128906 L 43.75 53.128906 Z M 46.875 53.128906 L 53.125 53.128906 L 53.125 59.375 L 46.875 59.375 Z M 43.75 62.503906 L 43.75 68.75 L 37.5 68.75 L 37.5 62.503906 Z M 46.875 62.503906 L 53.125 62.503906 L 53.125 68.75 L 46.875 68.75 Z M 56.25 62.503906 L 62.5 62.503906 L 62.5 68.75 L 56.25 68.75 Z M 56.25 59.375 L 56.25 53.128906 L 62.5 53.128906 L 62.5 59.375 Z M 53.125 43.75 L 53.125 50 L 46.875 50 L 46.875 43.75 Z M 43.75 43.75 L 43.75 50 L 37.5 50 L 37.5 43.75 Z M 28.125 43.75 L 34.375 43.75 L 34.375 50 L 28.125 50 Z M 28.125 53.128906 L 34.375 53.128906 L 34.375 59.375 L 28.125 59.375 Z M 28.125 62.503906 L 34.375 62.503906 L 34.375 68.75 L 28.125 68.75 Z M 28.125 78.128906 L 28.125 71.875 L 34.375 71.875 L 34.375 78.128906 Z M 37.5 78.128906 L 37.5 71.875 L 43.75 71.875 L 43.75 78.128906 Z M 46.875 78.128906 L 46.875 71.875 L 53.125 71.875 L 53.125 78.128906 Z M 56.25 78.128906 L 56.25 71.875 L 62.5 71.875 L 62.5 78.128906 Z M 71.875 78.128906 L 65.625 78.128906 L 65.625 71.875 L 71.875 71.875 Z M 71.875 68.75 L 65.625 68.75 L 65.625 62.503906 L 71.875 62.503906 Z M 71.875 59.375 L 65.625 59.375 L 65.625 53.128906 L 71.875 53.128906 Z M 71.875 50 L 65.625 50 L 65.625 43.75 L 71.875 43.75 Z M 71.875 50 "/>
</g>
</svg>
<!-- iconic normalized -->