<?xml version="1.0" encoding="UTF-8"?>
<svg xmlns="http://www.w3.org/2000/svg" xmlns:xlink="http://www.w3.org/1999/xlink" width="100px" height="100px" viewBox="0 0 100 100" version="1.1">
<g id="surface1">
<path style=" stroke:none;fill-rule:nonzero;fill:rgb(18.039216%,18.039216%,18.039216%);fill-opacity:1;" d="M 74.21875 64.84375 C 73.789062 64.84375 73.4375 64.492188 73.4375 64.0625 L 73.4375 40.625 C 73.4375 40.195312 73.789062 39.84375 74.21875 39.84375 C 74.648438 39.84375 75 40.195312 75 40.625 L 75 64.0625 C 75 64.492188 74.648438 64.84375 74.21875 64.84375 Z M 74.21875 64.84375 "/>
<path style=" stroke:none;fill-rule:nonzero;fill:rgb(100%,84.313725%,63.921569%);fill-opacity:1;" d="M 32.832031 60.683594 C 36.328125 58.433594 35.9375 51.738281 35.9375 50.175781 L 64.0625 50.175781 C 64.0625 51.738281 63.628906 58.433594 67.125 60.683594 L 50 79.863281 Z M 32.832031 60.683594 "/>
<path style=" stroke:none;fill-rule:nonzero;fill:rgb(99.215686%,78.431373%,55.686275%);fill-opacity:1;" d="M 60.9375 67.363281 L 67.125 60.683594 C 63.628906 58.433594 64.0625 51.738281 64.0625 50.175781 L 35.9375 50.175781 C 37.957031 55.976562 51.300781 65.929688 60.9375 67.363281 Z M 60.9375 67.363281 "/>
<path style=" stroke:none;fill-rule:nonzero;fill:rgb(65.490196%,62.745098%,48.627451%);fill-opacity:1;" d="M 85.9375 100 C 88.527344 100 90.625 97.902344 90.625 95.3125 L 90.625 78.855469 C 90.625 71.980469 85.269531 64.640625 78.71875 62.546875 L 68.945312 59.417969 C 63.683594 63.441406 56.167969 68.925781 50 68.925781 C 43.832031 68.925781 36.316406 63.441406 31.054688 59.417969 L 21.28125 62.546875 C 14.730469 64.640625 9.375 71.980469 9.375 78.855469 L 9.375 95.3125 C 9.375 97.902344 11.472656 100 14.0625 100 Z M 85.9375 100 "/>
<path style=" stroke:none;fill-rule:nonzero;fill:rgb(55.686275%,52.941176%,45.098039%);fill-opacity:1;" d="M 50 90.625 C 48.273438 90.625 46.875 89.226562 46.875 87.5 L 46.875 68.75 L 53.125 68.75 L 53.125 87.5 C 53.125 89.226562 51.726562 90.625 50 90.625 Z M 50 90.625 "/>
<path style=" stroke:none;fill-rule:nonzero;fill:rgb(50.196078%,47.45098%,36.862745%);fill-opacity:1;" d="M 51.5625 85.9375 C 51.5625 86.800781 50.863281 87.5 50 87.5 C 49.136719 87.5 48.4375 86.800781 48.4375 85.9375 C 48.4375 85.074219 49.136719 84.375 50 84.375 C 50.863281 84.375 51.5625 85.074219 51.5625 85.9375 Z M 51.5625 85.9375 "/>
<path style=" stroke:none;fill-rule:nonzero;fill:rgb(50.196078%,47.45098%,36.862745%);fill-opacity:1;" d="M 51.5625 79.6875 C 51.5625 80.550781 50.863281 81.25 50 81.25 C 49.136719 81.25 48.4375 80.550781 48.4375 79.6875 C 48.4375 78.824219 49.136719 78.125 50 78.125 C 50.863281 78.125 51.5625 78.824219 51.5625 79.6875 Z M 51.5625 79.6875 "/>
<path style=" stroke:none;fill-rule:nonzero;fill:rgb(50.196078%,47.45098%,36.862745%);fill-opacity:1;" d="M 51.5625 73.4375 C 51.5625 74.300781 50.863281 75 50 75 C 49.136719 75 48.4375 74.300781 48.4375 73.4375 C 48.4375 72.574219 49.136719 71.875 50 71.875 C 50.863281 71.875 51.5625 72.574219 51.5625 73.4375 Z M 51.5625 73.4375 "/>
<path style=" stroke:none;fill-rule:nonzero;fill:rgb(100%,88.235294%,69.803922%);fill-opacity:1;" d="M 28.289062 27.289062 C 28.191406 28.113281 28.125 28.960938 28.125 29.863281 C 28.125 42.375 35.328125 57.988281 50 57.988281 C 64.671875 57.988281 71.875 42.375 71.875 29.863281 C 71.875 28.960938 71.808594 28.113281 71.710938 27.289062 C 65.265625 25.832031 57.867188 25 50 25 C 42.132812 25 34.734375 25.832031 28.289062 27.289062 Z M 28.289062 27.289062 "/>
<path style=" stroke:none;fill-rule:nonzero;fill:rgb(18.039216%,18.039216%,18.039216%);fill-opacity:1;" d="M 39.777344 52.117188 C 28.636719 52.117188 25 44.730469 25 42.1875 C 25 41.757812 25.351562 41.40625 25.78125 41.40625 C 26.210938 41.40625 26.5625 41.757812 26.5625 42.1875 C 26.5625 44.03125 29.726562 50.554688 39.777344 50.554688 C 40.210938 50.554688 40.558594 50.902344 40.558594 51.335938 C 40.558594 51.765625 40.210938 52.117188 39.777344 52.117188 Z M 39.777344 52.117188 "/>
<path style=" stroke:none;fill-rule:nonzero;fill:rgb(50.196078%,47.45098%,36.862745%);fill-opacity:1;" d="M 74.953125 20.3125 C 74.460938 9.027344 63.496094 0 50 0 C 36.503906 0 25.539062 9.027344 25.046875 20.3125 L 25 20.3125 L 25 34.375 L 30.589844 34.375 C 33.144531 37.03125 36.449219 39.144531 40.230469 40.503906 C 40.257812 40.277344 40.285156 40.050781 40.316406 39.816406 C 40.621094 37.691406 40.929688 35.570312 41.390625 33.46875 C 42.335938 29.203125 47.050781 27.113281 51.003906 28.011719 C 52.359375 28.324219 53.46875 29.035156 54.359375 29.953125 C 55.472656 30.363281 56.515625 31.015625 57.28125 31.78125 C 58.863281 33.359375 59.324219 35.164062 59.570312 37.304688 C 59.691406 38.34375 59.828125 39.378906 59.929688 40.421875 C 63.636719 39.058594 66.894531 36.988281 69.410156 34.375 L 75 34.375 L 75 20.3125 Z M 74.953125 20.3125 "/>
<path style=" stroke:none;fill-rule:nonzero;fill:rgb(43.529412%,40.784314%,30.196078%);fill-opacity:1;" d="M 29.6875 39.0625 C 29.6875 40.78125 27.929688 42.1875 25.78125 42.1875 C 23.632812 42.1875 21.875 40.78125 21.875 39.0625 L 21.875 29.6875 C 21.875 27.96875 23.632812 26.5625 25.78125 26.5625 C 27.929688 26.5625 29.6875 27.96875 29.6875 29.6875 Z M 29.6875 39.0625 "/>
<path style=" stroke:none;fill-rule:nonzero;fill:rgb(43.529412%,40.784314%,30.196078%);fill-opacity:1;" d="M 78.125 39.0625 C 78.125 40.78125 76.367188 42.1875 74.21875 42.1875 C 72.070312 42.1875 70.3125 40.78125 70.3125 39.0625 L 70.3125 29.6875 C 70.3125 27.96875 72.070312 26.5625 74.21875 26.5625 C 76.367188 26.5625 78.125 27.96875 78.125 29.6875 Z M 78.125 39.0625 "/>
<path style=" stroke:none;fill-rule:nonzero;fill:rgb(78.823529%,73.333333%,58.823529%);fill-opacity:1;" d="M 56.113281 43.171875 C 52.503906 43.171875 51.191406 38.957031 50.234375 35.878906 C 50.160156 35.644531 50.082031 35.386719 50 35.128906 C 49.917969 35.386719 49.839844 35.644531 49.765625 35.878906 C 48.808594 38.957031 47.5 43.171875 43.886719 43.171875 C 41.785156 43.171875 38.671875 42.613281 35.761719 41.714844 C 33.390625 40.980469 30.328125 39.773438 29.199219 38.179688 C 27.839844 36.261719 27.855469 31.714844 28.773438 29.226562 C 29.253906 27.929688 29.992188 27.109375 30.976562 26.785156 C 35.8125 25.199219 43.984375 24.945312 50 25.007812 C 56.011719 24.945312 64.1875 25.199219 69.023438 26.785156 C 70.007812 27.109375 70.75 27.929688 71.226562 29.226562 C 72.144531 31.714844 72.160156 36.261719 70.800781 38.179688 C 69.671875 39.769531 66.609375 40.980469 64.238281 41.714844 C 61.328125 42.613281 58.214844 43.171875 56.113281 43.171875 Z M 56.113281 43.171875 "/>
<path style=" stroke:none;fill-rule:nonzero;fill:rgb(35.294118%,35.294118%,35.294118%);fill-opacity:1;" d="M 48.230469 26.5625 C 48.820312 26.5625 49.402344 26.566406 50.035156 26.574219 C 50.597656 26.566406 51.175781 26.5625 51.765625 26.5625 C 59.773438 26.5625 65.847656 27.222656 69.289062 28.453125 C 69.292969 28.457031 69.53125 28.644531 69.785156 29.394531 C 70.597656 31.808594 70.410156 36.03125 69.664062 37.1875 C 69.339844 37.683594 67.835938 38.851562 64.253906 40.066406 C 61.480469 41.003906 58.457031 41.609375 56.550781 41.609375 C 55.042969 41.609375 53.882812 37.527344 53.257812 35.332031 L 53.226562 35.222656 L 53 34.433594 C 52.609375 33.101562 51.386719 32.1875 50 32.1875 C 48.613281 32.1875 47.390625 33.101562 47 34.433594 L 46.773438 35.21875 L 46.742188 35.332031 C 46.117188 37.527344 44.960938 41.609375 43.449219 41.609375 C 41.542969 41.609375 38.519531 41.003906 35.746094 40.066406 C 32.164062 38.851562 30.660156 37.683594 30.335938 37.183594 C 29.589844 36.03125 29.402344 31.808594 30.21875 29.394531 C 30.460938 28.675781 30.691406 28.472656 30.675781 28.472656 C 34.15625 27.222656 40.226562 26.5625 48.230469 26.5625 M 48.230469 23.4375 C 42.027344 23.4375 34.339844 23.835938 29.617188 25.53125 C 28.566406 25.910156 27.769531 26.871094 27.257812 28.394531 C 26.273438 31.304688 26.257812 36.636719 27.714844 38.882812 C 28.921875 40.75 32.203125 42.164062 34.746094 43.023438 C 37.863281 44.078125 41.199219 44.734375 43.449219 44.734375 C 47.320312 44.734375 48.722656 39.792969 49.75 36.1875 C 49.828125 35.910156 49.914062 35.613281 50 35.3125 C 50.089844 35.613281 50.171875 35.910156 50.25 36.1875 C 51.277344 39.792969 52.679688 44.734375 56.550781 44.734375 C 58.804688 44.734375 62.140625 44.078125 65.253906 43.023438 C 67.796875 42.164062 71.078125 40.75 72.285156 38.882812 C 73.742188 36.636719 73.726562 31.304688 72.742188 28.394531 C 72.230469 26.871094 71.4375 25.910156 70.382812 25.53125 C 65.660156 23.835938 57.96875 23.4375 51.765625 23.4375 C 51.160156 23.4375 50.570312 23.441406 50 23.449219 C 49.425781 23.441406 48.835938 23.4375 48.230469 23.4375 Z M 48.230469 23.4375 "/>
<path style=" stroke:none;fill-rule:nonzero;fill:rgb(32.941176%,32.941176%,39.607843%);fill-opacity:1;" d="M 43.976562 50 L 41.113281 50 C 40.375 50 39.777344 50.597656 39.777344 51.335938 C 39.777344 52.070312 40.375 52.667969 41.113281 52.667969 L 43.976562 52.667969 C 44.714844 52.667969 45.3125 52.070312 45.3125 51.335938 C 45.3125 50.597656 44.714844 50 43.976562 50 Z M 43.976562 50 "/>
<path style=" stroke:none;fill-rule:nonzero;fill:rgb(50.196078%,47.45098%,36.862745%);fill-opacity:1;" d="M 50 68.925781 L 43.480469 75.445312 C 42.800781 76.125 41.675781 76.035156 41.113281 75.257812 L 29.6875 59.550781 L 33.328125 55.910156 C 33.914062 55.324219 34.859375 55.300781 35.476562 55.855469 Z M 50 68.925781 "/>
<path style=" stroke:none;fill-rule:nonzero;fill:rgb(50.196078%,47.45098%,36.862745%);fill-opacity:1;" d="M 50 68.925781 L 56.519531 75.445312 C 57.199219 76.125 58.324219 76.035156 58.886719 75.257812 L 70.3125 59.550781 L 66.671875 55.910156 C 66.085938 55.324219 65.140625 55.300781 64.523438 55.855469 Z M 50 68.925781 "/>
</g>
</svg>
<!-- iconic normalized -->