<?xml version="1.0" encoding="UTF-8"?>
<svg xmlns="http://www.w3.org/2000/svg" xmlns:xlink="http://www.w3.org/1999/xlink" width="100px" height="100px" viewBox="0 0 100 100" version="1.1">
<g id="surface1">
<path style=" stroke:none;fill-rule:nonzero;fill:rgb(49.411765%,32.941176%,28.627451%);fill-opacity:1;" d="M 37.828125 11.335938 L 44.988281 60.144531 L 31.316406 44.382812 C 25.773438 37.53125 17.222656 11.335938 37.828125 11.335938 Z M 37.828125 11.335938 "/>
<path style=" stroke:none;fill-rule:nonzero;fill:rgb(49.411765%,32.941176%,28.627451%);fill-opacity:1;" d="M 33.890625 12.746094 C 37.113281 6.5625 53.851562 4.296875 63.25 10.296875 C 76.445312 18.722656 75.199219 33.839844 68.984375 45.40625 C 68.960938 45.441406 54.476562 55.609375 54.476562 55.609375 Z M 33.890625 12.746094 "/>
<path style=" stroke:none;fill-rule:nonzero;fill:rgb(100%,84.313725%,63.921569%);fill-opacity:1;" d="M 60.101562 58.953125 L 60.023438 58.953125 L 60.023438 55.609375 L 39.976562 55.609375 L 39.976562 58.949219 C 39.976562 62.222656 39.960938 65.78125 37.113281 67.933594 L 37.113281 100 L 50 100 C 50 100 56.75 100 62.886719 100 L 62.886719 67.882812 C 60.109375 65.726562 60.101562 62.199219 60.101562 58.953125 Z M 60.101562 58.953125 "/>
<path style=" stroke:none;fill-rule:nonzero;fill:rgb(73.72549%,62.745098%,58.823529%);fill-opacity:1;" d="M 71.480469 69.929688 L 71.003906 69.929688 C 65.5625 69.929688 62.839844 68.484375 61.457031 66.410156 L 50 73.238281 L 38.542969 66.410156 C 37.160156 68.484375 34.4375 69.929688 28.996094 69.929688 L 28.519531 69.929688 C 19.820312 69.929688 12.769531 76.980469 12.769531 85.679688 L 12.769531 95.703125 C 12.769531 98.078125 14.691406 100 17.0625 100 L 82.933594 100 C 85.308594 100 87.230469 98.078125 87.230469 95.703125 L 87.230469 85.679688 C 87.230469 76.980469 80.179688 69.929688 71.480469 69.929688 Z M 71.480469 69.929688 "/>
<path style=" stroke:none;fill-rule:nonzero;fill:rgb(99.215686%,78.431373%,55.686275%);fill-opacity:1;" d="M 60.042969 72.886719 C 60.566406 73.03125 59.605469 71.417969 60.042969 71.457031 L 62.886719 67.882812 C 60.109375 65.726562 60.101562 62.199219 60.101562 58.953125 L 60.023438 58.953125 L 60.023438 55.609375 L 44.273438 55.609375 L 39.976562 57.039062 C 42.839844 60.261719 50.199219 70.203125 60.042969 72.886719 Z M 60.042969 72.886719 "/>
<path style=" stroke:none;fill-rule:nonzero;fill:rgb(100%,88.235294%,69.803922%);fill-opacity:1;" d="M 70.046875 36.992188 C 70.046875 48.460938 58.644531 62.769531 50 62.769531 C 41.355469 62.769531 29.953125 48.460938 29.953125 36.992188 C 29.953125 25.527344 38.929688 21.242188 50 21.242188 C 61.070312 21.242188 70.046875 25.527344 70.046875 36.992188 Z M 70.046875 36.992188 "/>
<path style=" stroke:none;fill-rule:nonzero;fill:rgb(49.411765%,32.941176%,28.627451%);fill-opacity:1;" d="M 42.921875 23.769531 C 42.921875 23.769531 32.023438 27.113281 30.054688 38.929688 C 29.597656 41.675781 25.796875 29.570312 25.796875 29.570312 C 25.796875 29.570312 27.941406 20.023438 28.421875 19.785156 C 28.898438 19.546875 38.5625 15.609375 38.5625 15.609375 L 41.457031 18.109375 Z M 42.921875 23.769531 "/>
<path style=" stroke:none;fill-rule:nonzero;fill:rgb(89.411765%,92.156863%,94.117647%);fill-opacity:1;" d="M 50 73.238281 L 38.542969 65.632812 L 35.183594 68.992188 L 42.839844 79.953125 C 43.734375 81.160156 45.09375 80.636719 45.703125 79.953125 Z M 50 73.238281 "/>
<path style=" stroke:none;fill-rule:nonzero;fill:rgb(89.411765%,92.156863%,94.117647%);fill-opacity:1;" d="M 50 73.238281 L 61.457031 65.632812 L 64.816406 68.992188 L 57.160156 79.953125 C 56.265625 81.160156 54.90625 80.636719 54.296875 79.953125 Z M 50 73.238281 "/>
<path style=" stroke:none;fill-rule:nonzero;fill:rgb(100%,88.235294%,69.803922%);fill-opacity:1;" d="M 68.851562 38.703125 C 71 38.167969 72.40625 39.316406 72.40625 41.570312 C 72.40625 44.550781 69.519531 51.859375 66.484375 47.296875 C 63.449219 42.730469 68.851562 38.703125 68.851562 38.703125 Z M 68.851562 38.703125 "/>
<path style=" stroke:none;fill-rule:nonzero;fill:rgb(89.411765%,92.156863%,94.117647%);fill-opacity:1;" d="M 51.433594 88.984375 C 51.433594 89.777344 50.789062 90.417969 50 90.417969 C 49.210938 90.417969 48.566406 89.777344 48.566406 88.984375 C 48.566406 88.195312 49.210938 87.554688 50 87.554688 C 50.789062 87.554688 51.433594 88.195312 51.433594 88.984375 Z M 51.433594 88.984375 "/>
<path style=" stroke:none;fill-rule:nonzero;fill:rgb(89.411765%,92.156863%,94.117647%);fill-opacity:1;" d="M 51.433594 82.105469 C 51.433594 82.898438 50.789062 83.539062 50 83.539062 C 49.210938 83.539062 48.566406 82.898438 48.566406 82.105469 C 48.566406 81.316406 49.210938 80.675781 50 80.675781 C 50.789062 80.675781 51.433594 81.316406 51.433594 82.105469 Z M 51.433594 82.105469 "/>
<path style=" stroke:none;fill-rule:nonzero;fill:rgb(89.411765%,92.156863%,94.117647%);fill-opacity:1;" d="M 51.453125 95.863281 C 51.453125 96.65625 50.808594 97.296875 50.019531 97.296875 C 49.230469 97.296875 48.585938 96.65625 48.585938 95.863281 C 48.585938 95.074219 49.230469 94.433594 50.019531 94.433594 C 50.808594 94.433594 51.453125 95.074219 51.453125 95.863281 Z M 51.453125 95.863281 "/>
<path style=" stroke:none;fill-rule:nonzero;fill:rgb(49.411765%,32.941176%,28.627451%);fill-opacity:1;" d="M 59.546875 8.832031 C 59.546875 3.953125 54.484375 0 48.242188 0 C 42 0 36.941406 3.953125 36.941406 8.832031 C 36.941406 13.707031 42 17.660156 48.242188 17.660156 C 54.484375 17.660156 59.546875 13.707031 59.546875 8.832031 Z M 59.546875 8.832031 "/>
<path style=" stroke:none;fill-rule:nonzero;fill:rgb(32.941176%,32.941176%,39.607843%);fill-opacity:1;" d="M 42.496094 48.089844 C 39.289062 48.089844 36.679688 45.480469 36.679688 42.273438 C 36.679688 39.066406 39.289062 36.457031 42.496094 36.457031 C 45.703125 36.457031 48.3125 39.066406 48.3125 42.273438 C 48.3125 45.480469 45.703125 48.089844 42.496094 48.089844 Z M 42.496094 37.886719 C 40.078125 37.886719 38.109375 39.855469 38.109375 42.273438 C 38.109375 44.691406 40.078125 46.660156 42.496094 46.660156 C 44.914062 46.660156 46.882812 44.691406 46.882812 42.273438 C 46.882812 39.855469 44.914062 37.886719 42.496094 37.886719 Z M 42.496094 37.886719 "/>
<path style=" stroke:none;fill-rule:nonzero;fill:rgb(32.941176%,32.941176%,39.607843%);fill-opacity:1;" d="M 57.503906 48.089844 C 54.296875 48.089844 51.6875 45.480469 51.6875 42.273438 C 51.6875 39.066406 54.296875 36.457031 57.503906 36.457031 C 60.710938 36.457031 63.320312 39.066406 63.320312 42.273438 C 63.320312 45.480469 60.710938 48.089844 57.503906 48.089844 Z M 57.503906 37.886719 C 55.085938 37.886719 53.117188 39.855469 53.117188 42.273438 C 53.117188 44.691406 55.085938 46.660156 57.503906 46.660156 C 59.921875 46.660156 61.890625 44.691406 61.890625 42.273438 C 61.890625 39.855469 59.921875 37.886719 57.503906 37.886719 Z M 57.503906 37.886719 "/>
<path style=" stroke:none;fill-rule:nonzero;fill:rgb(32.941176%,32.941176%,39.607843%);fill-opacity:1;" d="M 53.21875 41.378906 L 51.789062 41.378906 C 51.789062 40.394531 50.984375 39.589844 50 39.589844 C 49.015625 39.589844 48.210938 40.394531 48.210938 41.378906 L 46.78125 41.378906 C 46.78125 39.605469 48.222656 38.160156 50 38.160156 C 51.777344 38.160156 53.21875 39.605469 53.21875 41.378906 Z M 53.21875 41.378906 "/>
<path style=" stroke:none;fill-rule:nonzero;fill:rgb(32.941176%,32.941176%,39.607843%);fill-opacity:1;" d="M 38.324219 40.050781 L 29.59375 40.050781 C 29.199219 40.050781 28.878906 39.730469 28.878906 39.335938 C 28.878906 38.941406 29.199219 38.621094 29.59375 38.621094 L 38.324219 38.621094 C 38.722656 38.621094 39.042969 38.941406 39.042969 39.335938 C 39.042969 39.730469 38.722656 40.050781 38.324219 40.050781 Z M 38.324219 40.050781 "/>
<path style=" stroke:none;fill-rule:nonzero;fill:rgb(32.941176%,32.941176%,39.607843%);fill-opacity:1;" d="M 68.984375 40.050781 L 61.671875 40.050781 C 61.277344 40.050781 60.957031 39.730469 60.957031 39.335938 C 60.957031 38.941406 61.277344 38.621094 61.671875 38.621094 L 68.984375 38.621094 C 69.378906 38.621094 69.699219 38.941406 69.699219 39.335938 C 69.699219 39.730469 69.378906 40.050781 68.984375 40.050781 Z M 68.984375 40.050781 "/>
<path style=" stroke:none;fill-rule:nonzero;fill:rgb(49.411765%,32.941176%,28.627451%);fill-opacity:1;" d="M 47.214844 14.082031 C 48.019531 14.082031 50.632812 14.984375 52.769531 15.777344 L 52.945312 15.511719 C 52.945312 15.511719 53.238281 15.746094 53.75 16.144531 C 54.9375 16.597656 55.808594 16.945312 55.808594 16.945312 L 55.472656 17.503906 C 60.910156 21.785156 71.480469 24.195312 71.480469 32.429688 C 71.480469 42.003906 64.816406 49.117188 64.816406 49.117188 C 69.332031 31.597656 59.398438 28.222656 48.707031 26.230469 C 44.609375 25.464844 41.964844 23.628906 41.488281 21.242188 C 41.011719 18.855469 45.785156 14.082031 47.214844 14.082031 Z M 47.214844 14.082031 "/>
<path style=" stroke:none;fill-rule:nonzero;fill:rgb(100%,88.235294%,69.803922%);fill-opacity:1;" d="M 31.144531 38.703125 C 29.148438 37.757812 27.59375 39.316406 27.59375 41.570312 C 27.59375 44.550781 30.480469 51.859375 33.515625 47.296875 C 36.550781 42.730469 33.160156 39.660156 31.144531 38.703125 Z M 31.144531 38.703125 "/>
</g>
</svg>
<!-- iconic normalized -->