<?xml version="1.0" encoding="UTF-8"?>
<svg xmlns="http://www.w3.org/2000/svg" xmlns:xlink="http://www.w3.org/1999/xlink" width="100px" height="100px" viewBox="0 0 100 100" version="1.1">
<g id="surface1">
<path style=" stroke:none;fill-rule:nonzero;fill:rgb(53.333333%,77.254902%,80%);fill-opacity:1;" d="M 100 50 C 100 77.613281 77.613281 100 50 100 C 22.386719 100 0 77.613281 0 50 C 0 22.386719 22.386719 0 50 0 C 77.613281 0 100 22.386719 100 50 Z M 100 50 "/>
<path style=" stroke:none;fill-rule:nonzero;fill:rgb(88.235294%,41.960784%,35.294118%);fill-opacity:1;" d="M 60.9375 71.875 L 82.8125 71.875 L 82.8125 72.65625 L 60.9375 72.65625 Z M 60.9375 71.875 "/>
<path style=" stroke:none;fill-rule:nonzero;fill:rgb(90.196078%,90.196078%,90.196078%);fill-opacity:1;" d="M 33.59375 67.1875 L 50.78125 67.1875 L 50.78125 74.21875 L 33.59375 74.21875 Z M 33.59375 67.1875 "/>
<path style=" stroke:none;fill-rule:nonzero;fill:rgb(11.764706%,17.254902%,20%);fill-opacity:1;" d="M 8.59375 59.375 L 8.59375 25 C 8.59375 24.023438 9.222656 23.4375 10.15625 23.4375 L 74.21875 23.4375 C 75.152344 23.4375 75.78125 24.023438 75.78125 25 L 75.78125 59.375 Z M 8.59375 59.375 "/>
<path style=" stroke:none;fill-rule:nonzero;fill:rgb(96.078431%,96.078431%,96.078431%);fill-opacity:1;" d="M 8.59375 59.375 L 8.59375 65.625 C 8.59375 66.558594 9.222656 67.1875 10.15625 67.1875 L 74.21875 67.1875 C 75.152344 67.1875 75.78125 66.558594 75.78125 65.625 L 75.78125 59.375 Z M 8.59375 59.375 "/>
<path style=" stroke:none;fill-rule:nonzero;fill:rgb(96.078431%,96.078431%,96.078431%);fill-opacity:1;" d="M 11.71875 27.34375 L 72.65625 27.34375 L 72.65625 56.25 L 11.71875 56.25 Z M 11.71875 27.34375 "/>
<path style=" stroke:none;fill-rule:nonzero;fill:rgb(25.098039%,41.568627%,50.196078%);fill-opacity:1;" d="M 14.0625 28.90625 L 70.3125 28.90625 L 70.3125 35.9375 L 14.0625 35.9375 Z M 14.0625 28.90625 "/>
<path style=" stroke:none;fill-rule:nonzero;fill:rgb(96.078431%,96.078431%,96.078431%);fill-opacity:1;" d="M 56.25 75.78125 C 56.25 74.917969 55.550781 74.21875 54.6875 74.21875 L 29.6875 74.21875 C 28.824219 74.21875 28.125 74.917969 28.125 75.78125 C 28.125 76.644531 28.824219 77.34375 29.6875 77.34375 L 54.6875 77.34375 C 55.550781 77.34375 56.25 76.644531 56.25 75.78125 Z M 56.25 75.78125 "/>
<path style=" stroke:none;fill-rule:nonzero;fill:rgb(11.764706%,17.254902%,20%);fill-opacity:1;" d="M 43.789062 62.5 C 43.789062 63.363281 43.089844 64.0625 42.226562 64.0625 C 41.363281 64.0625 40.664062 63.363281 40.664062 62.5 C 40.664062 61.636719 41.363281 60.9375 42.226562 60.9375 C 43.089844 60.9375 43.789062 61.636719 43.789062 62.5 Z M 43.789062 62.5 "/>
<path style=" stroke:none;fill-rule:nonzero;fill:rgb(25.098039%,41.568627%,50.196078%);fill-opacity:1;" d="M 14.0625 37.5 L 31.25 37.5 L 31.25 40.625 L 14.0625 40.625 Z M 14.0625 37.5 "/>
<path style=" stroke:none;fill-rule:nonzero;fill:rgb(25.098039%,41.568627%,50.196078%);fill-opacity:1;" d="M 14.0625 42.1875 L 31.25 42.1875 L 31.25 45.3125 L 14.0625 45.3125 Z M 14.0625 42.1875 "/>
<path style=" stroke:none;fill-rule:nonzero;fill:rgb(25.098039%,41.568627%,50.196078%);fill-opacity:1;" d="M 14.0625 46.875 L 31.25 46.875 L 31.25 50 L 14.0625 50 Z M 14.0625 46.875 "/>
<path style=" stroke:none;fill-rule:nonzero;fill:rgb(25.098039%,41.568627%,50.196078%);fill-opacity:1;" d="M 14.0625 51.5625 L 31.25 51.5625 L 31.25 54.6875 L 14.0625 54.6875 Z M 14.0625 51.5625 "/>
<path style=" stroke:none;fill-rule:nonzero;fill:rgb(25.098039%,41.568627%,50.196078%);fill-opacity:1;" d="M 53.125 37.5 L 70.3125 37.5 L 70.3125 40.625 L 53.125 40.625 Z M 53.125 37.5 "/>
<path style=" stroke:none;fill-rule:nonzero;fill:rgb(25.098039%,41.568627%,50.196078%);fill-opacity:1;" d="M 53.125 42.1875 L 70.3125 42.1875 L 70.3125 45.3125 L 53.125 45.3125 Z M 53.125 42.1875 "/>
<path style=" stroke:none;fill-rule:nonzero;fill:rgb(25.098039%,41.568627%,50.196078%);fill-opacity:1;" d="M 53.125 46.875 L 70.3125 46.875 L 70.3125 50 L 53.125 50 Z M 53.125 46.875 "/>
<path style=" stroke:none;fill-rule:nonzero;fill:rgb(25.098039%,41.568627%,50.196078%);fill-opacity:1;" d="M 53.125 51.5625 L 70.3125 51.5625 L 70.3125 54.6875 L 53.125 54.6875 Z M 53.125 51.5625 "/>
<path style=" stroke:none;fill-rule:nonzero;fill:rgb(25.098039%,41.568627%,50.196078%);fill-opacity:1;" d="M 33.59375 37.5 L 50.78125 37.5 L 50.78125 40.625 L 33.59375 40.625 Z M 33.59375 37.5 "/>
<path style=" stroke:none;fill-rule:nonzero;fill:rgb(25.098039%,41.568627%,50.196078%);fill-opacity:1;" d="M 33.59375 42.1875 L 50.78125 42.1875 L 50.78125 45.3125 L 33.59375 45.3125 Z M 33.59375 42.1875 "/>
<path style=" stroke:none;fill-rule:nonzero;fill:rgb(25.098039%,41.568627%,50.196078%);fill-opacity:1;" d="M 33.59375 46.875 L 50.78125 46.875 L 50.78125 50 L 33.59375 50 Z M 33.59375 46.875 "/>
<path style=" stroke:none;fill-rule:nonzero;fill:rgb(25.098039%,41.568627%,50.196078%);fill-opacity:1;" d="M 33.59375 51.5625 L 50.78125 51.5625 L 50.78125 54.6875 L 33.59375 54.6875 Z M 33.59375 51.5625 "/>
<path style=" stroke:none;fill-rule:nonzero;fill:rgb(90.196078%,90.196078%,90.196078%);fill-opacity:1;" d="M 85.15625 82.8125 C 85.15625 84.105469 84.105469 85.15625 82.8125 85.15625 L 60.9375 85.15625 C 59.644531 85.15625 58.59375 84.105469 58.59375 82.8125 L 58.59375 38.28125 C 58.59375 36.988281 59.644531 35.9375 60.9375 35.9375 L 82.8125 35.9375 C 84.105469 35.9375 85.15625 36.988281 85.15625 38.28125 Z M 85.15625 82.8125 "/>
<path style=" stroke:none;fill-rule:nonzero;fill:rgb(96.078431%,96.078431%,96.078431%);fill-opacity:1;" d="M 59.375 42.96875 L 84.375 42.96875 L 84.375 75.78125 L 59.375 75.78125 Z M 59.375 42.96875 "/>
<path style=" stroke:none;fill-rule:nonzero;fill:rgb(25.098039%,41.568627%,50.196078%);fill-opacity:1;" d="M 60.9375 43.75 L 82.8125 43.75 L 82.8125 48.4375 L 60.9375 48.4375 Z M 60.9375 43.75 "/>
<path style=" stroke:none;fill-rule:nonzero;fill:rgb(25.098039%,41.568627%,50.196078%);fill-opacity:1;" d="M 60.9375 50 L 82.8125 50 L 82.8125 53.125 L 60.9375 53.125 Z M 60.9375 50 "/>
<path style=" stroke:none;fill-rule:nonzero;fill:rgb(25.098039%,41.568627%,50.196078%);fill-opacity:1;" d="M 60.9375 63.28125 L 82.8125 63.28125 L 82.8125 66.40625 L 60.9375 66.40625 Z M 60.9375 63.28125 "/>
<path style=" stroke:none;fill-rule:nonzero;fill:rgb(25.098039%,41.568627%,50.196078%);fill-opacity:1;" d="M 60.9375 53.90625 L 82.8125 53.90625 L 82.8125 55.46875 L 60.9375 55.46875 Z M 60.9375 53.90625 "/>
<path style=" stroke:none;fill-rule:nonzero;fill:rgb(25.098039%,41.568627%,50.196078%);fill-opacity:1;" d="M 60.9375 57.03125 L 82.8125 57.03125 L 82.8125 58.59375 L 60.9375 58.59375 Z M 60.9375 57.03125 "/>
<path style=" stroke:none;fill-rule:nonzero;fill:rgb(25.098039%,41.568627%,50.196078%);fill-opacity:1;" d="M 60.9375 60.15625 L 82.8125 60.15625 L 82.8125 61.71875 L 60.9375 61.71875 Z M 60.9375 60.15625 "/>
<path style=" stroke:none;fill-rule:nonzero;fill:rgb(25.098039%,41.568627%,50.196078%);fill-opacity:1;" d="M 60.9375 67.1875 L 82.8125 67.1875 L 82.8125 68.75 L 60.9375 68.75 Z M 60.9375 67.1875 "/>
<path style=" stroke:none;fill-rule:nonzero;fill:rgb(25.098039%,41.568627%,50.196078%);fill-opacity:1;" d="M 60.9375 69.53125 L 82.8125 69.53125 L 82.8125 71.09375 L 60.9375 71.09375 Z M 60.9375 69.53125 "/>
<path style=" stroke:none;fill-rule:nonzero;fill:rgb(25.098039%,41.568627%,50.196078%);fill-opacity:1;" d="M 60.9375 71.875 L 82.8125 71.875 L 82.8125 73.4375 L 60.9375 73.4375 Z M 60.9375 71.875 "/>
<path style=" stroke:none;fill-rule:nonzero;fill:rgb(25.098039%,41.568627%,50.196078%);fill-opacity:1;" d="M 73.398438 38.28125 C 73.398438 38.710938 73.046875 39.0625 72.617188 39.0625 C 72.1875 39.0625 71.835938 38.710938 71.835938 38.28125 C 71.835938 37.851562 72.1875 37.5 72.617188 37.5 C 73.046875 37.5 73.398438 37.851562 73.398438 38.28125 Z M 73.398438 38.28125 "/>
<path style=" stroke:none;fill-rule:nonzero;fill:rgb(25.098039%,41.568627%,50.196078%);fill-opacity:1;" d="M 76.527344 41.40625 L 68.714844 41.40625 C 68.28125 41.40625 67.933594 41.058594 67.933594 40.625 C 67.933594 40.191406 68.28125 39.84375 68.714844 39.84375 L 76.527344 39.84375 C 76.957031 39.84375 77.308594 40.191406 77.308594 40.625 C 77.308594 41.058594 76.957031 41.40625 76.527344 41.40625 Z M 76.527344 41.40625 "/>
<path style=" stroke:none;fill-rule:nonzero;fill:rgb(90.196078%,90.196078%,90.196078%);fill-opacity:1;" d="M 79.652344 36.71875 L 78.089844 36.71875 C 77.65625 36.71875 77.308594 36.371094 77.308594 35.9375 C 77.308594 35.503906 77.65625 35.15625 78.089844 35.15625 L 79.652344 35.15625 C 80.082031 35.15625 80.433594 35.503906 80.433594 35.9375 C 80.433594 36.371094 80.082031 36.71875 79.652344 36.71875 Z M 79.652344 36.71875 "/>
<path style=" stroke:none;fill-rule:nonzero;fill:rgb(90.196078%,90.196078%,90.196078%);fill-opacity:1;" d="M 58.59375 46.09375 C 58.160156 46.09375 57.8125 45.746094 57.8125 45.3125 L 57.8125 42.1875 C 57.8125 41.753906 58.160156 41.40625 58.59375 41.40625 C 59.027344 41.40625 59.375 41.753906 59.375 42.1875 L 59.375 45.3125 C 59.375 45.746094 59.027344 46.09375 58.59375 46.09375 Z M 58.59375 46.09375 "/>
<path style=" stroke:none;fill-rule:nonzero;fill:rgb(90.196078%,90.196078%,90.196078%);fill-opacity:1;" d="M 58.59375 50 C 58.160156 50 57.8125 49.652344 57.8125 49.21875 L 57.8125 48.4375 C 57.8125 48.003906 58.160156 47.65625 58.59375 47.65625 C 59.027344 47.65625 59.375 48.003906 59.375 48.4375 L 59.375 49.21875 C 59.375 49.652344 59.027344 50 58.59375 50 Z M 58.59375 50 "/>
<path style=" stroke:none;fill-rule:nonzero;fill:rgb(90.196078%,90.196078%,90.196078%);fill-opacity:1;" d="M 58.59375 53.125 C 58.160156 53.125 57.8125 52.777344 57.8125 52.34375 L 57.8125 51.5625 C 57.8125 51.128906 58.160156 50.78125 58.59375 50.78125 C 59.027344 50.78125 59.375 51.128906 59.375 51.5625 L 59.375 52.34375 C 59.375 52.777344 59.027344 53.125 58.59375 53.125 Z M 58.59375 53.125 "/>
<path style=" stroke:none;fill-rule:nonzero;fill:rgb(25.098039%,41.568627%,50.196078%);fill-opacity:1;" d="M 71.875 77.34375 C 70.582031 77.34375 69.53125 78.394531 69.53125 79.6875 C 69.53125 80.980469 70.582031 82.03125 71.875 82.03125 C 73.167969 82.03125 74.21875 80.980469 74.21875 79.6875 C 74.21875 78.394531 73.167969 77.34375 71.875 77.34375 Z M 71.875 77.34375 "/>
</g>
</svg>
<!-- iconic normalized -->