<?xml version="1.0" encoding="UTF-8"?>
<svg xmlns="http://www.w3.org/2000/svg" xmlns:xlink="http://www.w3.org/1999/xlink" width="100px" height="100px" viewBox="0 0 100 100" version="1.1">
<g id="surface1">
<path style=" stroke:none;fill-rule:nonzero;fill:rgb(53.333333%,77.254902%,80%);fill-opacity:1;" d="M 100 50 C 100 77.613281 77.613281 100 50 100 C 22.386719 100 0 77.613281 0 50 C 0 22.386719 22.386719 0 50 0 C 77.613281 0 100 22.386719 100 50 Z M 100 50 "/>
<path style=" stroke:none;fill-rule:nonzero;fill:rgb(50.196078%,72.54902%,74.901961%);fill-opacity:1;" d="M 93.289062 75.007812 L 77.902344 36.863281 C 77.296875 34.972656 75.523438 33.59375 73.4375 33.59375 L 27.34375 33.59375 C 24.765625 33.59375 22.65625 35.703125 22.65625 38.28125 L 22.65625 62.519531 C 22.65625 63.425781 22.964844 64.269531 23.464844 64.988281 L 36.742188 98.210938 C 40.964844 99.367188 45.40625 100 50 100 C 68.5 100 84.640625 89.945312 93.289062 75.007812 Z M 93.289062 75.007812 "/>
<path style=" stroke:none;fill-rule:nonzero;fill:rgb(80%,80%,80%);fill-opacity:1;" d="M 78.125 61.71875 C 78.125 64.296875 76.015625 66.40625 73.4375 66.40625 L 27.34375 66.40625 C 24.765625 66.40625 22.65625 64.296875 22.65625 61.71875 L 22.65625 38.28125 C 22.65625 35.703125 24.765625 33.59375 27.34375 33.59375 L 73.4375 33.59375 C 76.015625 33.59375 78.125 35.703125 78.125 38.28125 Z M 78.125 61.71875 "/>
<path style=" stroke:none;fill-rule:nonzero;fill:rgb(70.196078%,70.196078%,70.196078%);fill-opacity:1;" d="M 73.4375 33.59375 L 71.875 33.59375 C 74.453125 33.59375 76.5625 35.703125 76.5625 38.28125 L 76.5625 61.71875 C 76.5625 64.296875 74.453125 66.40625 71.875 66.40625 L 73.4375 66.40625 C 76.015625 66.40625 78.125 64.296875 78.125 61.71875 L 78.125 38.28125 C 78.125 35.703125 76.015625 33.59375 73.4375 33.59375 Z M 73.4375 33.59375 "/>
<path style=" stroke:none;fill-rule:nonzero;fill:rgb(29.019608%,72.156863%,63.137255%);fill-opacity:1;" d="M 27.34375 63.28125 C 26.496094 63.28125 25.78125 62.566406 25.78125 61.71875 L 25.78125 38.28125 C 25.78125 37.433594 26.496094 36.71875 27.34375 36.71875 L 73.4375 36.71875 C 74.285156 36.71875 75 37.433594 75 38.28125 L 75 61.71875 C 75 62.566406 74.285156 63.28125 73.4375 63.28125 Z M 27.34375 63.28125 "/>
<path style=" stroke:none;fill-rule:nonzero;fill:rgb(26.27451%,65.098039%,56.862745%);fill-opacity:1;" d="M 27.34375 61.71875 L 27.34375 38.28125 C 27.34375 37.433594 28.058594 36.71875 28.90625 36.71875 L 27.34375 36.71875 C 26.496094 36.71875 25.78125 37.433594 25.78125 38.28125 L 25.78125 61.71875 C 25.78125 62.566406 26.496094 63.28125 27.34375 63.28125 L 28.90625 63.28125 C 28.058594 63.28125 27.34375 62.566406 27.34375 61.71875 Z M 27.34375 61.71875 "/>
<path style=" stroke:none;fill-rule:nonzero;fill:rgb(96.078431%,96.078431%,96.078431%);fill-opacity:1;" d="M 50.78125 63.28125 C 49.933594 63.28125 49.21875 62.566406 49.21875 61.71875 L 49.21875 38.28125 C 49.21875 37.433594 49.933594 36.71875 50.78125 36.71875 L 73.4375 36.71875 C 74.285156 36.71875 75 37.433594 75 38.28125 L 75 61.71875 C 75 62.566406 74.285156 63.28125 73.4375 63.28125 Z M 50.78125 63.28125 "/>
<path style=" stroke:none;fill-rule:nonzero;fill:rgb(90.196078%,90.196078%,90.196078%);fill-opacity:1;" d="M 73.4375 36.71875 L 70.3125 36.71875 C 71.160156 36.71875 71.875 37.433594 71.875 38.28125 L 71.875 61.71875 C 71.875 62.566406 71.160156 63.28125 70.3125 63.28125 L 73.4375 63.28125 C 74.285156 63.28125 75 62.566406 75 61.71875 L 75 38.28125 C 75 37.433594 74.285156 36.71875 73.4375 36.71875 Z M 73.4375 36.71875 "/>
<path style=" stroke:none;fill-rule:nonzero;fill:rgb(29.019608%,72.156863%,63.137255%);fill-opacity:1;" d="M 53.6875 50.003906 C 53.6875 48.910156 53.992188 48.054688 54.601562 47.445312 C 55.210938 46.835938 56.0625 46.53125 57.152344 46.53125 C 58.269531 46.53125 59.128906 46.832031 59.734375 47.429688 C 60.339844 48.027344 60.640625 48.871094 60.640625 49.949219 C 60.640625 50.734375 60.507812 51.378906 60.246094 51.878906 C 59.980469 52.382812 59.601562 52.773438 59.101562 53.050781 C 58.601562 53.332031 57.980469 53.472656 57.234375 53.472656 C 56.476562 53.472656 55.851562 53.351562 55.355469 53.109375 C 54.859375 52.867188 54.457031 52.484375 54.148438 51.964844 C 53.839844 51.441406 53.6875 50.789062 53.6875 50.003906 Z M 55.761719 50.015625 C 55.761719 50.691406 55.886719 51.179688 56.136719 51.472656 C 56.386719 51.769531 56.730469 51.917969 57.164062 51.917969 C 57.609375 51.917969 57.957031 51.773438 58.199219 51.484375 C 58.441406 51.191406 58.566406 50.671875 58.566406 49.921875 C 58.566406 49.289062 58.4375 48.828125 58.183594 48.539062 C 57.929688 48.246094 57.582031 48.101562 57.148438 48.101562 C 56.730469 48.101562 56.394531 48.246094 56.140625 48.542969 C 55.886719 48.839844 55.761719 49.332031 55.761719 50.015625 Z M 55.761719 50.015625 "/>
<path style=" stroke:none;fill-rule:nonzero;fill:rgb(29.019608%,72.156863%,63.137255%);fill-opacity:1;" d="M 61.769531 46.644531 L 63.707031 46.644531 L 66.234375 50.355469 L 66.234375 46.644531 L 68.1875 46.644531 L 68.1875 53.355469 L 66.234375 53.355469 L 63.71875 49.671875 L 63.71875 53.355469 L 61.769531 53.355469 Z M 61.769531 46.644531 "/>
</g>
</svg>
<!-- iconic normalized -->