<?xml version="1.0" encoding="UTF-8"?>
<svg xmlns="http://www.w3.org/2000/svg" xmlns:xlink="http://www.w3.org/1999/xlink" width="100px" height="100px" viewBox="0 0 100 100" version="1.1">
<g id="surface1">
<path style=" stroke:none;fill-rule:nonzero;fill:rgb(40%,14.901961%,12.941176%);fill-opacity:1;" d="M 100 50 C 100 77.613281 77.613281 100 50 100 C 22.386719 100 0 77.613281 0 50 C 0 22.386719 22.386719 0 50 0 C 77.613281 0 100 22.386719 100 50 Z M 100 50 "/>
<path style=" stroke:none;fill-rule:nonzero;fill:rgb(33.72549%,11.372549%,10.196078%);fill-opacity:1;" d="M 70.207031 30.941406 L 30.164062 69.445312 L 59.761719 99.042969 C 79.542969 95.128906 95.128906 79.546875 99.042969 59.765625 Z M 70.207031 30.941406 "/>
<path style=" stroke:none;fill-rule:nonzero;fill:rgb(81.568627%,83.529412%,85.098039%);fill-opacity:1;" d="M 77.777344 50 C 77.777344 65.339844 65.339844 77.777344 50 77.777344 C 34.660156 77.777344 22.222656 65.339844 22.222656 50 C 22.222656 34.660156 34.660156 22.222656 50 22.222656 C 65.339844 22.222656 77.777344 34.660156 77.777344 50 Z M 77.777344 50 "/>
<path style=" stroke:none;fill-rule:nonzero;fill:rgb(71.764706%,74.901961%,76.862745%);fill-opacity:1;" d="M 50 22.222656 C 49.960938 22.222656 49.925781 22.226562 49.886719 22.226562 L 49.886719 77.773438 C 49.925781 77.773438 49.960938 77.777344 50 77.777344 C 65.339844 77.777344 77.777344 65.339844 77.777344 50 C 77.777344 34.660156 65.339844 22.222656 50 22.222656 Z M 50 22.222656 "/>
<path style=" stroke:none;fill-rule:nonzero;fill:rgb(75.294118%,75.294118%,72.156863%);fill-opacity:1;" d="M 58.332031 50 C 58.332031 54.601562 54.601562 58.332031 50 58.332031 C 45.398438 58.332031 41.667969 54.601562 41.667969 50 C 41.667969 45.398438 45.398438 41.667969 50 41.667969 C 54.601562 41.667969 58.332031 45.398438 58.332031 50 Z M 58.332031 50 "/>
<path style=" stroke:none;fill-rule:nonzero;fill:rgb(66.666667%,66.666667%,64.705882%);fill-opacity:1;" d="M 50 41.667969 C 49.960938 41.667969 49.925781 41.667969 49.886719 41.667969 L 49.886719 58.332031 C 49.925781 58.332031 49.960938 58.332031 50 58.332031 C 54.601562 58.332031 58.332031 54.601562 58.332031 50 C 58.332031 45.398438 54.601562 41.667969 50 41.667969 Z M 50 41.667969 "/>
<path style=" stroke:none;fill-rule:nonzero;fill:rgb(19.607843%,21.568627%,23.137255%);fill-opacity:1;" d="M 53.367188 50 C 53.367188 51.859375 51.859375 53.367188 50 53.367188 C 48.140625 53.367188 46.632812 51.859375 46.632812 50 C 46.632812 48.140625 48.140625 46.632812 50 46.632812 C 51.859375 46.632812 53.367188 48.140625 53.367188 50 Z M 53.367188 50 "/>
<path style=" stroke:none;fill-rule:nonzero;fill:rgb(16.862745%,16.862745%,16.862745%);fill-opacity:1;" d="M 50 46.632812 C 49.960938 46.632812 49.925781 46.636719 49.886719 46.640625 L 49.886719 53.359375 C 49.925781 53.363281 49.960938 53.367188 50 53.367188 C 51.859375 53.367188 53.367188 51.859375 53.367188 50 C 53.367188 48.140625 51.859375 46.632812 50 46.632812 Z M 50 46.632812 "/>
<path style=" stroke:none;fill-rule:nonzero;fill:rgb(82.745098%,32.941176%,0%);fill-opacity:1;" d="M 75.453125 75.113281 C 78.347656 72.355469 84.632812 64.878906 77.152344 57.425781 L 73.121094 61.039062 C 73.121094 61.039062 74.058594 56.234375 66.65625 50.839844 C 66.65625 50.839844 61.757812 53.773438 61.132812 61.859375 L 57.277344 57.757812 C 57.277344 57.757812 48.953125 65.808594 59.238281 75.152344 C 59.996094 75.839844 60.9375 76.21875 61.910156 76.21875 L 72.738281 76.21875 C 73.730469 76.21875 74.695312 75.832031 75.453125 75.113281 Z M 75.453125 75.113281 "/>
<path style=" stroke:none;fill-rule:nonzero;fill:rgb(90.196078%,49.411765%,13.333333%);fill-opacity:1;" d="M 70.984375 76.21875 C 70.984375 76.21875 75.464844 69.246094 67.125 60.628906 C 67.125 60.628906 60.976562 69.714844 64.414062 76.21875 Z M 70.984375 76.21875 "/>
</g>
</svg>
<!-- iconic normalized -->