<?xml version="1.0" encoding="UTF-8"?>
<svg xmlns="http://www.w3.org/2000/svg" xmlns:xlink="http://www.w3.org/1999/xlink" width="100px" height="100px" viewBox="0 0 100 100" version="1.1">
<g id="surface1">
<path style=" stroke:none;fill-rule:nonzero;fill:rgb(19.607843%,21.568627%,23.137255%);fill-opacity:1;" d="M 100 50 C 100 77.613281 77.613281 100 50 100 C 22.386719 100 0 77.613281 0 50 C 0 22.386719 22.386719 0 50 0 C 77.613281 0 100 22.386719 100 50 Z M 100 50 "/>
<path style=" stroke:none;fill-rule:nonzero;fill:rgb(14.901961%,14.901961%,14.901961%);fill-opacity:1;" d="M 64.875 20.257812 C 64.285156 21.140625 63.84375 22.121094 63.46875 23.0625 C 58.082031 37.542969 53.03125 53.03125 36.53125 59.425781 C 30.808594 61.785156 28.453125 71.546875 28.113281 78.957031 C 28.113281 79.722656 26.832031 79.691406 26.402344 80.421875 L 46.03125 99.84375 C 47.339844 99.945312 48.664062 100 50 100 C 75.882812 100 97.175781 80.332031 99.742188 55.125 Z M 64.875 20.257812 "/>
<path style=" stroke:none;fill-rule:nonzero;fill:rgb(97.254902%,43.137255%,31.764706%);fill-opacity:1;" d="M 64.875 20.257812 L 35.125 20.257812 C 34.054688 22.332031 33.164062 24.761719 32.488281 27.554688 L 67.511719 27.554688 C 66.835938 24.761719 65.945312 22.332031 64.875 20.257812 Z M 64.875 20.257812 "/>
<path style=" stroke:none;fill-rule:nonzero;fill:rgb(87.843137%,33.72549%,24.705882%);fill-opacity:1;" d="M 64.875 20.257812 L 49.886719 20.257812 L 49.886719 27.554688 L 67.511719 27.554688 C 66.835938 24.761719 65.945312 22.332031 64.875 20.257812 Z M 64.875 20.257812 "/>
<path style=" stroke:none;fill-rule:nonzero;fill:rgb(97.647059%,71.372549%,37.254902%);fill-opacity:1;" d="M 32.488281 27.554688 C 31.554688 31.429688 31.03125 36.007812 31.03125 41.359375 C 31.03125 54.890625 34.335938 70.101562 39.367188 79.628906 L 60.632812 79.628906 C 65.664062 70.101562 68.96875 54.890625 68.96875 41.359375 C 68.96875 36.007812 68.445312 31.429688 67.507812 27.554688 Z M 32.488281 27.554688 "/>
<path style=" stroke:none;fill-rule:nonzero;fill:rgb(87.843137%,60%,26.666667%);fill-opacity:1;" d="M 68.96875 41.359375 C 68.96875 36.007812 68.445312 31.429688 67.511719 27.554688 L 49.886719 27.554688 L 49.886719 79.628906 L 60.632812 79.628906 C 65.664062 70.101562 68.96875 54.890625 68.96875 41.359375 Z M 68.96875 41.359375 "/>
<path style=" stroke:none;fill-rule:nonzero;fill:rgb(100%,100%,100%);fill-opacity:1;" d="M 72.726562 80.808594 C 72.214844 80.808594 71.742188 80.46875 71.59375 79.953125 L 66.328125 61.441406 L 33.671875 61.441406 L 28.40625 79.953125 C 28.226562 80.578125 27.574219 80.941406 26.949219 80.761719 C 26.324219 80.585938 25.960938 79.933594 26.140625 79.308594 L 31.648438 59.941406 C 31.792969 59.433594 32.253906 59.085938 32.78125 59.085938 L 67.21875 59.085938 C 67.742188 59.085938 68.207031 59.433594 68.351562 59.941406 L 73.859375 79.308594 C 74.039062 79.933594 73.675781 80.585938 73.050781 80.761719 C 72.941406 80.792969 72.832031 80.808594 72.726562 80.808594 Z M 72.726562 80.808594 "/>
<path style=" stroke:none;fill-rule:nonzero;fill:rgb(90.980392%,89.803922%,88.627451%);fill-opacity:1;" d="M 73.859375 79.308594 L 68.351562 59.941406 C 68.207031 59.433594 67.746094 59.085938 67.21875 59.085938 L 49.886719 59.085938 L 49.886719 61.441406 L 66.328125 61.441406 L 71.59375 79.953125 C 71.742188 80.46875 72.214844 80.808594 72.726562 80.808594 C 72.832031 80.808594 72.941406 80.792969 73.050781 80.761719 C 73.675781 80.585938 74.039062 79.933594 73.859375 79.308594 Z M 73.859375 79.308594 "/>
<path style=" stroke:none;fill-rule:nonzero;fill:rgb(100%,100%,100%);fill-opacity:1;" d="M 68.144531 26.53125 L 31.855469 26.53125 C 31.203125 26.53125 30.675781 27.058594 30.675781 27.710938 C 30.675781 28.359375 31.203125 28.890625 31.855469 28.890625 L 48.820312 28.890625 L 48.820312 32.964844 C 48.820312 33.613281 49.347656 34.140625 50 34.140625 C 50.652344 34.140625 51.179688 33.613281 51.179688 32.964844 L 51.179688 28.890625 L 68.144531 28.890625 C 68.796875 28.890625 69.324219 28.359375 69.324219 27.710938 C 69.324219 27.058594 68.796875 26.53125 68.144531 26.53125 Z M 68.144531 26.53125 "/>
<path style=" stroke:none;fill-rule:nonzero;fill:rgb(90.980392%,89.803922%,88.627451%);fill-opacity:1;" d="M 68.144531 26.53125 L 49.886719 26.53125 L 49.886719 34.128906 C 49.925781 34.132812 49.960938 34.140625 50 34.140625 C 50.652344 34.140625 51.179688 33.613281 51.179688 32.964844 L 51.179688 28.890625 L 68.144531 28.890625 C 68.796875 28.890625 69.324219 28.359375 69.324219 27.710938 C 69.324219 27.058594 68.796875 26.53125 68.144531 26.53125 Z M 68.144531 26.53125 "/>
</g>
</svg>
<!-- iconic normalized -->