<?xml version="1.0" encoding="UTF-8"?>
<svg xmlns="http://www.w3.org/2000/svg" xmlns:xlink="http://www.w3.org/1999/xlink" width="100px" height="100px" viewBox="0 0 100 100" version="1.1">
<g id="surface1">
<path style=" stroke:none;fill-rule:nonzero;fill:rgb(19.607843%,21.568627%,23.137255%);fill-opacity:1;" d="M 100 50 C 100 77.613281 77.613281 100 50 100 C 22.386719 100 0 77.613281 0 50 C 0 22.386719 22.386719 0 50 0 C 77.613281 0 100 22.386719 100 50 Z M 100 50 "/>
<path style=" stroke:none;fill-rule:nonzero;fill:rgb(14.901961%,14.901961%,14.901961%);fill-opacity:1;" d="M 99.972656 48.382812 L 74.574219 22.984375 L 19.109375 76.984375 L 41.386719 99.257812 C 44.183594 99.746094 47.0625 100 50 100 C 77.613281 100 100 77.613281 100 50 C 100 49.457031 99.988281 48.917969 99.972656 48.382812 Z M 99.972656 48.382812 "/>
<path style=" stroke:none;fill-rule:nonzero;fill:rgb(95.686275%,68.627451%,18.823529%);fill-opacity:1;" d="M 80.542969 31.660156 C 74.914062 33.339844 49.210938 49.433594 21.222656 77.210938 C 20.699219 77.730469 19.804688 77.675781 19.222656 77.09375 L 19.066406 76.9375 C 18.484375 76.355469 18.429688 75.460938 18.949219 74.9375 C 46.726562 46.949219 62.820312 21.246094 64.5 15.617188 C 64.789062 14.652344 66.027344 14.4375 66.804688 15.21875 L 80.945312 29.355469 C 81.722656 30.132812 81.507812 31.371094 80.542969 31.660156 Z M 80.542969 31.660156 "/>
<path style=" stroke:none;fill-rule:nonzero;fill:rgb(86.666667%,58.431373%,13.333333%);fill-opacity:1;" d="M 80.945312 29.355469 L 66.804688 15.214844 C 66.027344 14.4375 64.789062 14.652344 64.5 15.617188 C 63.601562 18.625 58.59375 27.359375 49.886719 39.105469 L 49.886719 51.757812 C 65.195312 39.667969 76.953125 32.730469 80.542969 31.660156 C 81.507812 31.371094 81.722656 30.132812 80.945312 29.355469 Z M 80.945312 29.355469 "/>
<path style=" stroke:none;fill-rule:nonzero;fill:rgb(90.196078%,49.411765%,13.333333%);fill-opacity:1;" d="M 66.617188 58.945312 L 53.332031 72.230469 C 49.492188 76.070312 43.246094 76.070312 39.40625 72.230469 L 39.296875 72.121094 C 35.457031 68.28125 35.457031 62.035156 39.296875 58.195312 L 52.582031 44.910156 C 56.421875 41.070312 62.667969 41.070312 66.507812 44.910156 L 66.617188 45.019531 C 70.457031 48.859375 70.457031 55.105469 66.617188 58.945312 Z M 41.863281 60.761719 C 39.4375 63.1875 39.4375 67.132812 41.863281 69.558594 L 41.972656 69.664062 C 44.394531 72.089844 48.34375 72.089844 50.765625 69.664062 L 64.050781 56.378906 C 66.476562 53.957031 66.476562 50.007812 64.050781 47.585938 L 63.945312 47.476562 C 61.519531 45.050781 57.574219 45.050781 55.148438 47.476562 Z M 41.863281 60.761719 "/>
<path style=" stroke:none;fill-rule:nonzero;fill:rgb(82.745098%,42.352941%,12.54902%);fill-opacity:1;" d="M 66.617188 45.019531 L 66.507812 44.910156 C 62.667969 41.070312 56.421875 41.070312 52.582031 44.910156 L 49.886719 47.605469 L 49.886719 52.738281 L 55.148438 47.476562 C 57.574219 45.054688 61.519531 45.054688 63.941406 47.476562 L 64.050781 47.585938 C 66.476562 50.007812 66.476562 53.957031 64.050781 56.378906 L 50.765625 69.664062 C 50.492188 69.9375 50.195312 70.175781 49.886719 70.390625 L 49.886719 74.460938 C 51.144531 73.984375 52.320312 73.242188 53.332031 72.230469 L 66.617188 58.945312 C 70.457031 55.105469 70.457031 48.859375 66.617188 45.019531 Z M 66.617188 45.019531 "/>
<path style=" stroke:none;fill-rule:nonzero;fill:rgb(100%,81.176471%,42.745098%);fill-opacity:1;" d="M 53.320312 67.03125 L 50.859375 69.492188 L 33.847656 52.476562 C 33.167969 51.796875 33.167969 50.695312 33.847656 50.019531 C 34.523438 49.339844 35.625 49.339844 36.304688 50.019531 Z M 53.320312 67.03125 "/>
<path style=" stroke:none;fill-rule:nonzero;fill:rgb(100%,81.176471%,42.745098%);fill-opacity:1;" d="M 58.597656 61.753906 L 56.140625 64.210938 L 39.125 47.199219 C 38.445312 46.519531 38.445312 45.417969 39.125 44.738281 C 39.804688 44.058594 40.90625 44.058594 41.585938 44.738281 Z M 58.597656 61.753906 "/>
<path style=" stroke:none;fill-rule:nonzero;fill:rgb(100%,81.176471%,42.745098%);fill-opacity:1;" d="M 63.878906 56.472656 L 61.417969 58.933594 L 44.40625 41.917969 C 43.726562 41.238281 43.726562 40.136719 44.40625 39.460938 C 45.082031 38.78125 46.183594 38.78125 46.863281 39.460938 Z M 63.878906 56.472656 "/>
<path style=" stroke:none;fill-rule:nonzero;fill:rgb(90.980392%,69.803922%,32.941176%);fill-opacity:1;" d="M 53.320312 67.03125 L 49.886719 63.601562 L 49.886719 68.519531 L 50.859375 69.492188 Z M 53.320312 67.03125 "/>
<path style=" stroke:none;fill-rule:nonzero;fill:rgb(90.980392%,69.803922%,32.941176%);fill-opacity:1;" d="M 58.597656 61.753906 L 49.886719 53.042969 L 49.886719 57.960938 L 56.140625 64.210938 Z M 58.597656 61.753906 "/>
<path style=" stroke:none;fill-rule:nonzero;fill:rgb(90.980392%,69.803922%,32.941176%);fill-opacity:1;" d="M 63.878906 56.472656 L 49.886719 42.484375 L 49.886719 47.402344 L 61.417969 58.933594 Z M 63.878906 56.472656 "/>
<path style=" stroke:none;fill-rule:nonzero;fill:rgb(90.196078%,49.411765%,13.333333%);fill-opacity:1;" d="M 37.335938 50.492188 C 37.335938 52.15625 35.984375 53.507812 34.320312 53.507812 C 32.65625 53.507812 31.304688 52.15625 31.304688 50.492188 C 31.304688 48.828125 32.65625 47.476562 34.320312 47.476562 C 35.984375 47.476562 37.335938 48.828125 37.335938 50.492188 Z M 37.335938 50.492188 "/>
<path style=" stroke:none;fill-rule:nonzero;fill:rgb(90.196078%,49.411765%,13.333333%);fill-opacity:1;" d="M 42.613281 45.210938 C 42.613281 46.878906 41.265625 48.226562 39.597656 48.226562 C 37.933594 48.226562 36.582031 46.878906 36.582031 45.210938 C 36.582031 43.546875 37.933594 42.195312 39.597656 42.195312 C 41.265625 42.195312 42.613281 43.546875 42.613281 45.210938 Z M 42.613281 45.210938 "/>
<path style=" stroke:none;fill-rule:nonzero;fill:rgb(90.196078%,49.411765%,13.333333%);fill-opacity:1;" d="M 47.894531 39.933594 C 47.894531 41.597656 46.542969 42.949219 44.878906 42.949219 C 43.214844 42.949219 41.863281 41.597656 41.863281 39.933594 C 41.863281 38.269531 43.214844 36.917969 44.878906 36.917969 C 46.542969 36.917969 47.894531 38.269531 47.894531 39.933594 Z M 47.894531 39.933594 "/>
</g>
</svg>
<!-- iconic normalized -->