<?xml version="1.0" encoding="UTF-8"?>
<svg xmlns="http://www.w3.org/2000/svg" xmlns:xlink="http://www.w3.org/1999/xlink" width="100px" height="100px" viewBox="0 0 100 100" version="1.1">
<g id="surface1">
<path style=" stroke:none;fill-rule:nonzero;fill:rgb(44.313725%,88.627451%,93.72549%);fill-opacity:1;" d="M 100 50 C 100 77.613281 77.613281 100 50 100 C 22.386719 100 0 77.613281 0 50 C 0 22.386719 22.386719 0 50 0 C 77.613281 0 100 22.386719 100 50 Z M 100 50 "/>
<path style=" stroke:none;fill-rule:nonzero;fill:rgb(21.960784%,77.647059%,85.098039%);fill-opacity:1;" d="M 99.949219 47.792969 L 70.886719 18.734375 L 29.121094 81.273438 L 47.835938 99.949219 C 48.554688 99.980469 49.273438 100 50 100 C 77.613281 100 100 77.613281 100 50 C 100 49.261719 99.980469 48.527344 99.949219 47.792969 Z M 99.949219 47.792969 "/>
<path style=" stroke:none;fill-rule:nonzero;fill:rgb(100%,100%,100%);fill-opacity:1;" d="M 28.621094 23.035156 L 28.621094 76.964844 C 28.621094 79.511719 30.683594 81.574219 33.226562 81.574219 L 66.773438 81.574219 C 69.316406 81.574219 71.378906 79.511719 71.378906 76.964844 L 71.378906 23.035156 C 71.378906 20.488281 69.316406 18.425781 66.773438 18.425781 L 33.226562 18.425781 C 30.683594 18.425781 28.621094 20.488281 28.621094 23.035156 Z M 28.621094 23.035156 "/>
<path style=" stroke:none;fill-rule:nonzero;fill:rgb(84.705882%,84.705882%,84.705882%);fill-opacity:1;" d="M 66.773438 18.425781 L 49.71875 18.425781 L 49.71875 81.570312 L 66.773438 81.570312 C 69.316406 81.570312 71.378906 79.511719 71.378906 76.964844 L 71.378906 23.035156 C 71.378906 20.488281 69.316406 18.425781 66.773438 18.425781 Z M 66.773438 18.425781 "/>
<path style=" stroke:none;fill-rule:nonzero;fill:rgb(14.901961%,22.745098%,47.843137%);fill-opacity:1;" d="M 66.773438 17.082031 L 33.226562 17.082031 C 29.941406 17.082031 27.273438 19.75 27.273438 23.035156 L 27.273438 76.964844 C 27.273438 80.25 29.941406 82.917969 33.226562 82.917969 L 66.773438 82.917969 C 70.058594 82.917969 72.726562 80.25 72.726562 76.96875 L 72.726562 23.035156 C 72.726562 19.75 70.058594 17.082031 66.773438 17.082031 Z M 33.226562 19.773438 L 66.773438 19.773438 C 68.570312 19.773438 70.035156 21.238281 70.035156 23.035156 L 70.035156 73.691406 L 29.964844 73.691406 L 29.96875 23.03125 C 29.964844 21.234375 31.429688 19.773438 33.226562 19.773438 Z M 33.226562 19.773438 "/>
<path style=" stroke:none;fill-rule:nonzero;fill:rgb(7.058824%,6.666667%,28.627451%);fill-opacity:1;" d="M 66.773438 17.082031 L 49.71875 17.082031 L 49.71875 19.773438 L 66.773438 19.773438 C 68.570312 19.773438 70.035156 21.238281 70.035156 23.035156 L 70.03125 73.691406 L 49.71875 73.691406 L 49.71875 82.917969 L 66.773438 82.917969 C 70.054688 82.917969 72.726562 80.25 72.726562 76.964844 L 72.726562 23.035156 C 72.726562 19.75 70.058594 17.082031 66.773438 17.082031 Z M 66.773438 17.082031 "/>
<path style=" stroke:none;fill-rule:nonzero;fill:rgb(21.176471%,40%,58.431373%);fill-opacity:1;" d="M 55.554688 28.789062 L 44.445312 28.789062 C 43.886719 28.789062 43.433594 28.335938 43.433594 27.777344 C 43.433594 27.21875 43.886719 26.769531 44.445312 26.769531 L 55.554688 26.769531 C 56.113281 26.769531 56.566406 27.21875 56.566406 27.777344 C 56.566406 28.335938 56.113281 28.789062 55.554688 28.789062 Z M 55.554688 28.789062 "/>
<path style=" stroke:none;fill-rule:nonzero;fill:rgb(21.176471%,40%,58.431373%);fill-opacity:1;" d="M 64.816406 34.34375 L 35.183594 34.34375 C 34.628906 34.34375 34.175781 33.890625 34.175781 33.332031 C 34.175781 32.773438 34.628906 32.324219 35.183594 32.324219 L 64.816406 32.324219 C 65.371094 32.324219 65.824219 32.773438 65.824219 33.332031 C 65.824219 33.890625 65.371094 34.34375 64.816406 34.34375 Z M 64.816406 34.34375 "/>
<path style=" stroke:none;fill-rule:nonzero;fill:rgb(21.176471%,40%,58.431373%);fill-opacity:1;" d="M 64.816406 39.898438 L 35.183594 39.898438 C 34.628906 39.898438 34.175781 39.445312 34.175781 38.890625 C 34.175781 38.332031 34.628906 37.878906 35.183594 37.878906 L 64.816406 37.878906 C 65.371094 37.878906 65.824219 38.332031 65.824219 38.890625 C 65.824219 39.445312 65.371094 39.898438 64.816406 39.898438 Z M 64.816406 39.898438 "/>
<path style=" stroke:none;fill-rule:nonzero;fill:rgb(21.176471%,40%,58.431373%);fill-opacity:1;" d="M 64.816406 45.453125 L 35.183594 45.453125 C 34.628906 45.453125 34.175781 45.003906 34.175781 44.445312 C 34.175781 43.886719 34.628906 43.433594 35.183594 43.433594 L 64.816406 43.433594 C 65.371094 43.433594 65.824219 43.886719 65.824219 44.445312 C 65.824219 45.003906 65.371094 45.453125 64.816406 45.453125 Z M 64.816406 45.453125 "/>
<path style=" stroke:none;fill-rule:nonzero;fill:rgb(21.176471%,40%,58.431373%);fill-opacity:1;" d="M 64.816406 51.011719 L 35.183594 51.011719 C 34.628906 51.011719 34.175781 50.558594 34.175781 50 C 34.175781 49.441406 34.628906 48.988281 35.183594 48.988281 L 64.816406 48.988281 C 65.371094 48.988281 65.824219 49.441406 65.824219 50 C 65.824219 50.558594 65.371094 51.011719 64.816406 51.011719 Z M 64.816406 51.011719 "/>
<path style=" stroke:none;fill-rule:nonzero;fill:rgb(21.176471%,40%,58.431373%);fill-opacity:1;" d="M 64.816406 56.566406 L 35.183594 56.566406 C 34.628906 56.566406 34.175781 56.113281 34.175781 55.554688 C 34.175781 54.996094 34.628906 54.546875 35.183594 54.546875 L 64.816406 54.546875 C 65.371094 54.546875 65.824219 54.996094 65.824219 55.554688 C 65.824219 56.113281 65.371094 56.566406 64.816406 56.566406 Z M 64.816406 56.566406 "/>
<path style=" stroke:none;fill-rule:nonzero;fill:rgb(21.176471%,40%,58.431373%);fill-opacity:1;" d="M 64.816406 62.121094 L 35.183594 62.121094 C 34.628906 62.121094 34.175781 61.667969 34.175781 61.109375 C 34.175781 60.554688 34.628906 60.101562 35.183594 60.101562 L 64.816406 60.101562 C 65.371094 60.101562 65.824219 60.554688 65.824219 61.109375 C 65.824219 61.667969 65.371094 62.121094 64.816406 62.121094 Z M 64.816406 62.121094 "/>
<path style=" stroke:none;fill-rule:nonzero;fill:rgb(21.176471%,40%,58.431373%);fill-opacity:1;" d="M 64.816406 67.675781 L 35.183594 67.675781 C 34.628906 67.675781 34.175781 67.226562 34.175781 66.667969 C 34.175781 66.109375 34.628906 65.65625 35.183594 65.65625 L 64.816406 65.65625 C 65.371094 65.65625 65.824219 66.109375 65.824219 66.667969 C 65.824219 67.226562 65.371094 67.675781 64.816406 67.675781 Z M 64.816406 67.675781 "/>
</g>
</svg>
<!-- iconic normalized -->